<?xml version="1.0"?>
<VTKFile type="PolyData" version="0.1" byte_order="LittleEndian">
  <PolyData>
    <Piece NumberOfPoints="     19" NumberOfVerts="  0" NumberOfLines="     18"
           NumberOfStrips="  0" NumberOfPolys="      0">
      <Points>
        <DataArray type="Float32" NumberOfComponents="3" format="ascii">
                      -5.09374                      -1.46231                      89.67928
                      -5.18025                      -2.79388                      89.38379
                      -5.38359                      -5.43527                      88.70297
                      -5.60129                      -8.06641                      87.97958
                      -5.88199                     -11.34928                      87.04991
                      -6.15406                     -15.32222                      86.06828
                      -6.39114                     -19.32461                      85.21073
                      -6.63027                     -23.32747                      84.35590
                      -6.86892                     -27.33130                      83.50533
                      -7.10806                     -31.33563                      82.65723
                      -7.34933                     -35.33962                      81.80817
                      -7.59189                     -39.34362                      80.95955
                      -7.83638                     -43.34760                      80.11140
                      -8.08351                     -47.35153                      79.26376
                      -8.33156                     -51.35543                      78.41631
                      -8.53890                     -54.69204                      77.71022
                      -8.70464                     -57.36297                      77.15310
                      -8.86701                     -60.04588                      76.64960
                      -8.95242                     -61.37815                      76.35740
        </DataArray>
      </Points>
      <PointData>
        <DataArray type="Float32" Name="TranslationalVelocity" NumberOfComponents="3" format="ascii">
                      -0.06673                       0.17157                      -0.76275
                      -0.12750                       0.32964                      -1.45731
                      -0.24804                       0.69405                      -2.83507
                      -0.36811                       1.08131                      -4.20749
                      -0.51792                       1.57904                      -5.91986
                      -0.69922                       2.10348                      -7.99217
                      -0.88187                       2.56160                     -10.07984
                      -1.06454                       3.01840                     -12.16776
                      -1.24725                       3.47295                     -14.25618
                      -1.42999                       3.92624                     -16.34486
                      -1.61271                       4.38012                     -18.43337
                      -1.79543                       4.83384                     -20.52188
                      -1.97815                       5.28739                     -22.61038
                      -2.16087                       5.74081                     -24.69886
                      -2.34359                       6.19416                     -26.78732
                      -2.49585                       6.57192                     -28.52771
                      -2.61774                       6.87008                     -29.92089
                      -2.74017                       7.14012                     -31.32031
                      -2.80097                       7.29643                     -32.01523
        </DataArray>
        <DataArray type="Float32" Name="RotationalVelocity" NumberOfComponents="3" format="ascii">
                       0.52161                      -0.00000                      -0.04563
                       0.52161                      -0.00000                      -0.04563
                       0.52161                      -0.00000                      -0.04563
                       0.52161                      -0.00000                      -0.04563
                       0.52161                      -0.00000                      -0.04563
                       0.52161                      -0.00000                      -0.04563
                       0.52161                      -0.00000                      -0.04563
                       0.52161                      -0.00000                      -0.04563
                       0.52161                      -0.00000                      -0.04563
                       0.52161                      -0.00000                      -0.04563
                       0.52161                      -0.00000                      -0.04563
                       0.52161                      -0.00000                      -0.04563
                       0.52161                      -0.00000                      -0.04563
                       0.52161                      -0.00000                      -0.04563
                       0.52161                      -0.00000                      -0.04563
                       0.52161                      -0.00000                      -0.04563
                       0.52161                      -0.00000                      -0.04563
                       0.52161                      -0.00000                      -0.04563
                       0.52161                      -0.00000                      -0.04563
        </DataArray>
        <DataArray type="Float32" Name="TranslationalAcceleration" NumberOfComponents="3" format="ascii">
                       0.00783                       0.40090                       0.08949
                       0.01504                       0.76596                       0.17194
                       0.03167                       1.49011                       0.36202
                       0.04935                       2.21145                       0.56402
                       0.07206                       3.11147                       0.82364
                       0.09599                       4.20067                       1.09719
                       0.11690                       5.29795                       1.33615
                       0.13774                       6.39536                       1.57441
                       0.15849                       7.49303                       1.81151
                       0.17917                       8.59084                       2.04795
                       0.19989                       9.68856                       2.28470
                       0.22059                      10.78628                       2.52136
                       0.24129                      11.88399                       2.75794
                       0.26198                      12.98169                       2.99444
                       0.28267                      14.07938                       3.23091
                       0.29991                      14.99413                       3.42796
                       0.31351                      15.72639                       3.58348
                       0.32584                      16.46192                       3.72433
                       0.33297                      16.82717                       3.80587
        </DataArray>
        <DataArray type="Float32" Name="OrientationX" NumberOfComponents="3" format="ascii">
                       0.99442                      -0.04256                      -0.09657
                       0.99442                      -0.04256                      -0.09657
                       0.99442                      -0.04256                      -0.09657
                       0.99442                      -0.04256                      -0.09657
                       0.99442                      -0.04256                      -0.09657
                       0.99442                      -0.04256                      -0.09657
                       0.99442                      -0.04256                      -0.09657
                       0.99442                      -0.04256                      -0.09657
                       0.99442                      -0.04256                      -0.09657
                       0.99442                      -0.04256                      -0.09657
                       0.99442                      -0.04256                      -0.09657
                       0.99442                      -0.04256                      -0.09657
                       0.99442                      -0.04256                      -0.09657
                       0.99442                      -0.04256                      -0.09657
                       0.99442                      -0.04256                      -0.09657
                       0.99442                      -0.04256                      -0.09657
                       0.99442                      -0.04256                      -0.09657
                       0.99442                      -0.04256                      -0.09657
                       0.99442                      -0.04256                      -0.09657
        </DataArray>
        <DataArray type="Float32" Name="OrientationY" NumberOfComponents="3" format="ascii">
                       0.08505                      -0.21865                       0.97209
                       0.08505                      -0.21865                       0.97209
                       0.08505                      -0.21865                       0.97209
                       0.08505                      -0.21865                       0.97209
                       0.08505                      -0.21865                       0.97209
                       0.08505                      -0.21865                       0.97209
                       0.08505                      -0.21865                       0.97209
                       0.08505                      -0.21865                       0.97209
                       0.08505                      -0.21865                       0.97209
                       0.08505                      -0.21865                       0.97209
                       0.08505                      -0.21865                       0.97209
                       0.08505                      -0.21865                       0.97209
                       0.08505                      -0.21865                       0.97209
                       0.08505                      -0.21865                       0.97209
                       0.08505                      -0.21865                       0.97209
                       0.08505                      -0.21865                       0.97209
                       0.08505                      -0.21865                       0.97209
                       0.08505                      -0.21865                       0.97209
                       0.08505                      -0.21865                       0.97209
        </DataArray>
        <DataArray type="Float32" Name="OrientationZ" NumberOfComponents="3" format="ascii">
                      -0.06249                      -0.97487                      -0.21381
                      -0.06249                      -0.97487                      -0.21381
                      -0.06249                      -0.97487                      -0.21381
                      -0.06249                      -0.97487                      -0.21381
                      -0.06249                      -0.97487                      -0.21381
                      -0.06249                      -0.97487                      -0.21381
                      -0.06249                      -0.97487                      -0.21381
                      -0.06249                      -0.97487                      -0.21381
                      -0.06249                      -0.97487                      -0.21381
                      -0.06249                      -0.97487                      -0.21381
                      -0.06249                      -0.97487                      -0.21381
                      -0.06249                      -0.97487                      -0.21381
                      -0.06249                      -0.97487                      -0.21381
                      -0.06249                      -0.97487                      -0.21381
                      -0.06249                      -0.97487                      -0.21381
                      -0.06249                      -0.97487                      -0.21381
                      -0.06249                      -0.97487                      -0.21381
                      -0.06249                      -0.97487                      -0.21381
                      -0.06249                      -0.97487                      -0.21381
        </DataArray>
        <DataArray type="Float32" Name="Force" NumberOfComponents="3" format="ascii">
                       0.30039                      -0.77230                       3.43350
                     159.14849                     -13.96923                      17.17709
                     180.91909                     -20.54543                      40.79807
                     147.11344                     -20.20534                      49.12797
                    1246.75489                     -25.49280                    -248.16169
                    1242.27595                     -29.39543                    -229.05873
                    1373.25820                     -32.59744                    -252.74211
                    1251.29096                     -32.46422                    -217.70153
                    1157.99172                     -34.81962                    -179.69315
                    1226.53154                     -36.28094                    -193.06280
                    1201.72946                     -34.53554                    -193.77182
                    1348.56252                     -25.19926                    -279.25593
                    1563.13718                     -13.39718                    -395.78190
                    1811.30648                      -7.50887                    -495.16309
                    1987.91443                      -5.17581                    -557.41868
                    2070.89955                      -5.53775                    -580.02292
                    2033.25275                      -6.56032                    -564.35735
                    1487.73436                      -5.95667                    -407.66828
                     440.72154                     -20.26380                     -36.41977
        </DataArray>
        <DataArray type="Float32" Name="Moment" NumberOfComponents="3" format="ascii">
                       0.00000                       0.00000                       0.00000
                       0.00000                       0.00000                       0.00000
                       0.00000                       0.00000                       0.00000
                       0.00000                       0.00000                       0.00000
                      47.87242                     746.80574                     163.79239
                      52.47237                     818.56468                     179.53085
                      51.96302                     810.61872                     177.78811
                      52.98817                     826.61098                     181.29560
                      51.60028                     804.96014                     176.54705
                      49.26554                     768.53834                     168.55888
                      40.96366                     639.02967                     140.15452
                      37.49531                     584.92368                     128.28778
                      35.18037                     548.81084                     120.36737
                      29.15717                     454.84943                      99.75938
                      26.16390                     408.15465                      89.51810
                      23.01473                     359.02793                      78.74343
                      20.35007                     317.45942                      69.62646
                      10.38783                     162.04922                      35.54128
                       9.00486                     140.47510                      30.80956
        </DataArray>
      </PointData>
      <Lines>
        <DataArray type="Int32" Name="connectivity" format="ascii">
      0      1
      1      2
      2      3
      3      4
      4      5
      5      6
      6      7
      7      8
      8      9
      9     10
     10     11
     11     12
     12     13
     13     14
     14     15
     15     16
     16     17
     17     18
        </DataArray>
        <DataArray type="Int32" Name="offsets" format="ascii">
      2
      4
      6
      8
     10
     12
     14
     16
     18
     20
     22
     24
     26
     28
     30
     32
     34
     36
        </DataArray>
      </Lines>
    </Piece>
  </PolyData>
</VTKFile>
