<?xml version="1.0"?>
<VTKFile type="PolyData" version="0.1" byte_order="LittleEndian">
  <PolyData>
    <Piece NumberOfPoints="     19" NumberOfVerts="  0" NumberOfLines="     18"
           NumberOfStrips="  0" NumberOfPolys="      0">
      <Points>
        <DataArray type="Float32" NumberOfComponents="3" format="ascii">
                      -4.99078                       1.23167                      90.85610
                      -4.98295                       2.35189                      91.63899
                      -4.98283                       4.53752                      93.28363
                      -4.99009                       6.69724                      94.96564
                      -5.00355                       9.38145                      97.09052
                      -4.97719                      12.68588                      99.51991
                      -4.93615                      16.06523                     101.84134
                      -4.89757                      19.44598                     104.16080
                      -4.85918                      22.82922                     106.47666
                      -4.82169                      26.21385                     108.79054
                      -4.78615                      29.59773                     111.10551
                      -4.75194                      32.98174                     113.42032
                      -4.71972                      36.36585                     115.73500
                      -4.69018                      39.75001                     118.04965
                      -4.66159                      43.13420                     120.36426
                      -4.63840                      45.95439                     122.29311
                      -4.62097                      48.21498                     123.82972
                      -4.60879                      50.50687                     125.32136
                      -4.60039                      51.62900                     126.10132
        </DataArray>
      </Points>
      <PointData>
        <DataArray type="Float32" Name="TranslationalVelocity" NumberOfComponents="3" format="ascii">
                       0.05621                      -0.44697                       0.64245
                       0.10733                      -0.85569                       1.22676
                       0.20707                      -1.71355                       2.36680
                       0.30563                      -2.59056                       3.49332
                       0.42812                      -3.69830                       4.89342
                       0.57892                      -4.96668                       6.61703
                       0.73313                      -6.17943                       8.37973
                       0.88741                      -7.39103                      10.14314
                       1.04180                      -8.60075                      11.90787
                       1.19626                      -9.80940                      13.67331
                       1.35068                     -11.01853                      15.43837
                       1.50511                     -12.22750                      17.20349
                       1.65954                     -13.43633                      18.96866
                       1.81398                     -14.64501                      20.73386
                       1.96841                     -15.85363                      22.49907
                       2.09711                     -16.86079                      23.97010
                       2.20027                     -17.66309                      25.14924
                       2.30486                     -18.44169                      26.34470
                       2.35607                     -18.84891                      26.93002
        </DataArray>
        <DataArray type="Float32" Name="RotationalVelocity" NumberOfComponents="3" format="ascii">
                       0.52161                      -0.00000                      -0.04563
                       0.52161                      -0.00000                      -0.04563
                       0.52161                      -0.00000                      -0.04563
                       0.52161                      -0.00000                      -0.04563
                       0.52161                      -0.00000                      -0.04563
                       0.52161                      -0.00000                      -0.04563
                       0.52161                      -0.00000                      -0.04563
                       0.52161                      -0.00000                      -0.04563
                       0.52161                      -0.00000                      -0.04563
                       0.52161                      -0.00000                      -0.04563
                       0.52161                      -0.00000                      -0.04563
                       0.52161                      -0.00000                      -0.04563
                       0.52161                      -0.00000                      -0.04563
                       0.52161                      -0.00000                      -0.04563
                       0.52161                      -0.00000                      -0.04563
                       0.52161                      -0.00000                      -0.04563
                       0.52161                      -0.00000                      -0.04563
                       0.52161                      -0.00000                      -0.04563
                       0.52161                      -0.00000                      -0.04563
        </DataArray>
        <DataArray type="Float32" Name="TranslationalAcceleration" NumberOfComponents="3" format="ascii">
                      -0.02040                      -0.33767                      -0.23314
                      -0.03905                      -0.64478                      -0.44633
                      -0.07820                      -1.24399                      -0.89380
                      -0.11822                      -1.83609                      -1.35125
                      -0.16877                      -2.57198                      -1.92906
                      -0.22665                      -3.47791                      -2.59065
                      -0.28200                      -4.40438                      -3.22323
                      -0.33729                      -5.33123                      -3.85521
                      -0.39249                      -6.25876                      -4.48621
                      -0.44765                      -7.18668                      -5.11664
                      -0.50283                      -8.11439                      -5.74733
                      -0.55800                      -9.04213                      -6.37794
                      -0.61316                      -9.96991                      -7.00847
                      -0.66832                     -10.89769                      -7.63893
                      -0.72347                     -11.82548                      -8.26935
                      -0.76944                     -12.59866                      -8.79470
                      -0.80605                     -13.21841                      -9.21318
                      -0.84158                     -13.84675                      -9.61930
                      -0.86016                     -14.15438                      -9.83171
        </DataArray>
        <DataArray type="Float32" Name="OrientationX" NumberOfComponents="3" format="ascii">
                       0.99741                       0.03585                      -0.06232
                       0.99741                       0.03585                      -0.06232
                       0.99741                       0.03585                      -0.06232
                       0.99741                       0.03585                      -0.06232
                       0.99741                       0.03585                      -0.06232
                       0.99741                       0.03585                      -0.06232
                       0.99741                       0.03585                      -0.06232
                       0.99741                       0.03585                      -0.06232
                       0.99741                       0.03585                      -0.06232
                       0.99741                       0.03585                      -0.06232
                       0.99741                       0.03585                      -0.06232
                       0.99741                       0.03585                      -0.06232
                       0.99741                       0.03585                      -0.06232
                       0.99741                       0.03585                      -0.06232
                       0.99741                       0.03585                      -0.06232
                       0.99741                       0.03585                      -0.06232
                       0.99741                       0.03585                      -0.06232
                       0.99741                       0.03585                      -0.06232
                       0.99741                       0.03585                      -0.06232
        </DataArray>
        <DataArray type="Float32" Name="OrientationY" NumberOfComponents="3" format="ascii">
                      -0.07163                       0.56964                      -0.81877
                      -0.07163                       0.56964                      -0.81877
                      -0.07163                       0.56964                      -0.81877
                      -0.07163                       0.56964                      -0.81877
                      -0.07163                       0.56964                      -0.81877
                      -0.07163                       0.56964                      -0.81877
                      -0.07163                       0.56964                      -0.81877
                      -0.07163                       0.56964                      -0.81877
                      -0.07163                       0.56964                      -0.81877
                      -0.07163                       0.56964                      -0.81877
                      -0.07163                       0.56964                      -0.81877
                      -0.07163                       0.56964                      -0.81877
                      -0.07163                       0.56964                      -0.81877
                      -0.07163                       0.56964                      -0.81877
                      -0.07163                       0.56964                      -0.81877
                      -0.07163                       0.56964                      -0.81877
                      -0.07163                       0.56964                      -0.81877
                      -0.07163                       0.56964                      -0.81877
                      -0.07163                       0.56964                      -0.81877
        </DataArray>
        <DataArray type="Float32" Name="OrientationZ" NumberOfComponents="3" format="ascii">
                       0.00615                       0.82111                       0.57073
                       0.00615                       0.82111                       0.57073
                       0.00615                       0.82111                       0.57073
                       0.00615                       0.82111                       0.57073
                       0.00615                       0.82111                       0.57073
                       0.00615                       0.82111                       0.57073
                       0.00615                       0.82111                       0.57073
                       0.00615                       0.82111                       0.57073
                       0.00615                       0.82111                       0.57073
                       0.00615                       0.82111                       0.57073
                       0.00615                       0.82111                       0.57073
                       0.00615                       0.82111                       0.57073
                       0.00615                       0.82111                       0.57073
                       0.00615                       0.82111                       0.57073
                       0.00615                       0.82111                       0.57073
                       0.00615                       0.82111                       0.57073
                       0.00615                       0.82111                       0.57073
                       0.00615                       0.82111                       0.57073
                       0.00615                       0.82111                       0.57073
        </DataArray>
        <DataArray type="Float32" Name="Force" NumberOfComponents="3" format="ascii">
                       0.00046                      -0.00362                       0.00521
                     155.74159                      10.35297                     -16.57211
                     171.50160                      23.20828                     -35.23681
                     133.03698                      27.24671                     -40.63265
                    1074.85735                     -23.48803                      22.21643
                    1125.40835                     -15.35745                       9.97454
                    1278.39424                     -18.09685                      12.26811
                    1197.52093                     -10.21450                       1.79874
                    1142.06161                       2.47162                     -15.85553
                    1212.65359                       2.33432                     -16.41824
                    1181.09879                      17.06684                     -37.27411
                    1241.26856                       2.14479                     -16.45373
                    1398.69851                     -47.76182                      53.65152
                    1572.63070                     -77.94480                      95.20264
                    1766.89287                    -105.49533                     132.74750
                    1927.78624                    -130.23882                     166.61323
                    1946.93781                    -134.71153                     172.84188
                    1441.63234                    -100.51613                     129.08686
                     392.82279                      17.43709                     -29.31734
        </DataArray>
        <DataArray type="Float32" Name="Moment" NumberOfComponents="3" format="ascii">
                       0.00000                       0.00000                       0.00000
                       0.00000                       0.00000                       0.00000
                       0.00000                       0.00000                       0.00000
                       0.00000                       0.00000                       0.00000
                      -4.69214                    -626.81611                    -435.68176
                      -5.10098                    -681.43189                    -473.64361
                      -5.06979                    -677.26585                    -470.74792
                      -5.19656                    -694.20117                    -482.51917
                      -5.12476                    -684.60875                    -475.85175
                      -4.85601                    -648.70735                    -450.89773
                      -4.33160                    -578.65163                    -402.20402
                      -3.85901                    -515.52018                    -358.32317
                      -3.88498                    -518.98845                    -360.73387
                      -3.30201                    -441.11053                    -306.60318
                      -2.84076                    -379.49337                    -263.77487
                      -2.38605                    -318.74833                    -221.55275
                      -2.09719                    -280.16016                    -194.73123
                      -0.94604                    -126.37969                     -87.84287
                      -0.78888                    -105.38535                     -73.25031
        </DataArray>
      </PointData>
      <Lines>
        <DataArray type="Int32" Name="connectivity" format="ascii">
      0      1
      1      2
      2      3
      3      4
      4      5
      5      6
      6      7
      7      8
      8      9
      9     10
     10     11
     11     12
     12     13
     13     14
     14     15
     15     16
     16     17
     17     18
        </DataArray>
        <DataArray type="Int32" Name="offsets" format="ascii">
      2
      4
      6
      8
     10
     12
     14
     16
     18
     20
     22
     24
     26
     28
     30
     32
     34
     36
        </DataArray>
      </Lines>
    </Piece>
  </PolyData>
</VTKFile>
