<?xml version="1.0"?>
<VTKFile type="PolyData" version="0.1" byte_order="LittleEndian">
  <PolyData>
    <Piece NumberOfPoints="     19" NumberOfVerts="  0" NumberOfLines="     18"
           NumberOfStrips="  0" NumberOfPolys="      0">
      <Points>
        <DataArray type="Float32" NumberOfComponents="3" format="ascii">
                      -5.16876                       0.91290                      88.82181
                      -5.32315                       1.74738                      87.75051
                      -5.64910                       3.49076                      85.66816
                      -5.98320                       5.26942                      83.61431
                      -6.40569                       7.51386                      81.06395
                      -6.86779                      10.09511                      77.91031
                      -7.31291                      12.57388                      74.67483
                      -7.76044                      15.05055                      71.43806
                      -8.20808                      17.52374                      68.19862
                      -8.65656                      19.99495                      64.95777
                      -9.10700                      22.46704                      61.71788
                      -9.55877                      24.93886                      58.47796
                     -10.01251                      27.41038                      55.23810
                     -10.46892                      29.88164                      51.99842
                     -10.92626                      32.35279                      48.75878
                     -11.30801                      34.41203                      46.05910
                     -11.61438                      36.05309                      43.89466
                     -11.92497                      37.65049                      41.69700
                     -12.07872                      38.48220                      40.62358
        </DataArray>
      </Points>
      <PointData>
        <DataArray type="Float32" Name="TranslationalVelocity" NumberOfComponents="3" format="ascii">
                       0.04166                       0.62226                       0.47617
                       0.07974                       1.18810                       0.91144
                       0.15930                       2.28914                       1.82080
                       0.24047                       3.37569                       2.74856
                       0.34289                       4.72525                       3.91928
                       0.46069                       6.39130                       5.26567
                       0.57380                       8.09926                       6.55862
                       0.68683                       9.80800                       7.85046
                       0.79969                      11.51814                       9.14049
                       0.91246                      13.22905                      10.42949
                       1.02528                      14.93956                      11.71895
                       1.13808                      16.65013                      13.00827
                       1.25086                      18.36077                      14.29743
                       1.36364                      20.07144                      15.58645
                       1.47641                      21.78212                      16.87542
                       1.57038                      23.20772                      17.94953
                       1.64527                      24.35068                      18.80552
                       1.71817                      25.51117                      19.63874
                       1.75612                      26.07809                      20.07256
        </DataArray>
        <DataArray type="Float32" Name="RotationalVelocity" NumberOfComponents="3" format="ascii">
                       0.52161                      -0.00000                      -0.04563
                       0.52161                      -0.00000                      -0.04563
                       0.52161                      -0.00000                      -0.04563
                       0.52161                      -0.00000                      -0.04563
                       0.52161                      -0.00000                      -0.04563
                       0.52161                      -0.00000                      -0.04563
                       0.52161                      -0.00000                      -0.04563
                       0.52161                      -0.00000                      -0.04563
                       0.52161                      -0.00000                      -0.04563
                       0.52161                      -0.00000                      -0.04563
                       0.52161                      -0.00000                      -0.04563
                       0.52161                      -0.00000                      -0.04563
                       0.52161                      -0.00000                      -0.04563
                       0.52161                      -0.00000                      -0.04563
                       0.52161                      -0.00000                      -0.04563
                       0.52161                      -0.00000                      -0.04563
                       0.52161                      -0.00000                      -0.04563
                       0.52161                      -0.00000                      -0.04563
                       0.52161                      -0.00000                      -0.04563
        </DataArray>
        <DataArray type="Float32" Name="TranslationalAcceleration" NumberOfComponents="3" format="ascii">
                       0.02840                      -0.25028                       0.32457
                       0.05422                      -0.47905                       0.61972
                       0.10446                      -0.95701                       1.19403
                       0.15405                      -1.44464                       1.76078
                       0.21564                      -2.05997                       2.46472
                       0.29166                      -2.76763                       3.33374
                       0.36961                      -3.44720                       4.22462
                       0.44758                      -4.12619                       5.11591
                       0.52563                      -4.80423                       6.00793
                       0.60370                      -5.48173                       6.90036
                       0.68176                      -6.15947                       7.79257
                       0.75982                      -6.83713                       8.68481
                       0.83789                      -7.51471                       9.57709
                       0.91595                      -8.19222                      10.46939
                       0.99402                      -8.86970                      11.36169
                       1.05908                      -9.43425                      12.10529
                       1.11123                      -9.88416                      12.70147
                       1.16419                     -10.32210                      13.30679
                       1.19006                     -10.55011                      13.60250
        </DataArray>
        <DataArray type="Float32" Name="OrientationX" NumberOfComponents="3" format="ascii">
                       0.99223                       0.02657                      -0.12153
                       0.99223                       0.02657                      -0.12153
                       0.99223                       0.02657                      -0.12153
                       0.99223                       0.02657                      -0.12153
                       0.99223                       0.02657                      -0.12153
                       0.99223                       0.02657                      -0.12153
                       0.99223                       0.02657                      -0.12153
                       0.99223                       0.02657                      -0.12153
                       0.99223                       0.02657                      -0.12153
                       0.99223                       0.02657                      -0.12153
                       0.99223                       0.02657                      -0.12153
                       0.99223                       0.02657                      -0.12153
                       0.99223                       0.02657                      -0.12153
                       0.99223                       0.02657                      -0.12153
                       0.99223                       0.02657                      -0.12153
                       0.99223                       0.02657                      -0.12153
                       0.99223                       0.02657                      -0.12153
                       0.99223                       0.02657                      -0.12153
                       0.99223                       0.02657                      -0.12153
        </DataArray>
        <DataArray type="Float32" Name="OrientationY" NumberOfComponents="3" format="ascii">
                      -0.05309                      -0.79303                      -0.60686
                      -0.05309                      -0.79303                      -0.60686
                      -0.05309                      -0.79303                      -0.60686
                      -0.05309                      -0.79303                      -0.60686
                      -0.05309                      -0.79303                      -0.60686
                      -0.05309                      -0.79303                      -0.60686
                      -0.05309                      -0.79303                      -0.60686
                      -0.05309                      -0.79303                      -0.60686
                      -0.05309                      -0.79303                      -0.60686
                      -0.05309                      -0.79303                      -0.60686
                      -0.05309                      -0.79303                      -0.60686
                      -0.05309                      -0.79303                      -0.60686
                      -0.05309                      -0.79303                      -0.60686
                      -0.05309                      -0.79303                      -0.60686
                      -0.05309                      -0.79303                      -0.60686
                      -0.05309                      -0.79303                      -0.60686
                      -0.05309                      -0.79303                      -0.60686
                      -0.05309                      -0.79303                      -0.60686
                      -0.05309                      -0.79303                      -0.60686
        </DataArray>
        <DataArray type="Float32" Name="OrientationZ" NumberOfComponents="3" format="ascii">
                      -0.11251                       0.60860                      -0.78546
                      -0.11251                       0.60860                      -0.78546
                      -0.11251                       0.60860                      -0.78546
                      -0.11251                       0.60860                      -0.78546
                      -0.11251                       0.60860                      -0.78546
                      -0.11251                       0.60860                      -0.78546
                      -0.11251                       0.60860                      -0.78546
                      -0.11251                       0.60860                      -0.78546
                      -0.11251                       0.60860                      -0.78546
                      -0.11251                       0.60860                      -0.78546
                      -0.11251                       0.60860                      -0.78546
                      -0.11251                       0.60860                      -0.78546
                      -0.11251                       0.60860                      -0.78546
                      -0.11251                       0.60860                      -0.78546
                      -0.11251                       0.60860                      -0.78546
                      -0.11251                       0.60860                      -0.78546
                      -0.11251                       0.60860                      -0.78546
                      -0.11251                       0.60860                      -0.78546
                      -0.11251                       0.60860                      -0.78546
        </DataArray>
        <DataArray type="Float32" Name="Force" NumberOfComponents="3" format="ascii">
                      -0.00010                      -0.00148                      -0.00113
                     124.20614                       0.86649                     -17.11918
                     151.70512                     -13.16916                     -31.93316
                     123.24069                     -23.85069                     -36.13239
                    1003.16239                     107.69943                     -60.23881
                    1054.50823                     101.18610                     -72.63998
                    1189.17524                     114.88634                     -81.31360
                    1228.98911                     105.30013                     -94.44395
                    1151.45570                      82.01956                    -101.37690
                    1190.79233                      90.27128                    -100.61760
                    1151.40729                     105.01805                     -83.55014
                    1289.83665                     173.78699                     -50.09402
                    1549.77736                     260.65210                     -20.02109
                    1808.24784                     315.46034                     -14.57606
                    1941.46975                     337.01589                     -16.95619
                    1942.45971                     333.61027                     -19.73675
                    1921.86528                     324.60625                     -23.76347
                    1409.05965                     233.54274                     -20.87054
                     399.63530                       6.00974                     -52.58492
        </DataArray>
        <DataArray type="Float32" Name="Moment" NumberOfComponents="3" format="ascii">
                       0.00000                       0.00000                       0.00000
                       0.00000                       0.00000                       0.00000
                       0.00000                       0.00000                       0.00000
                       0.00000                       0.00000                       0.00000
                      80.38340                    -434.83433                     561.20286
                      86.43102                    -467.54895                     603.42477
                      84.70900                    -458.23365                     591.40233
                     102.40711                    -553.97169                     714.96309
                     100.63959                    -544.41028                     702.62301
                      92.48246                    -500.28422                     645.67334
                      70.74415                    -382.69075                     493.90567
                      59.62803                    -322.55807                     416.29765
                      51.72362                    -279.79915                     361.11243
                      47.44865                    -256.67368                     331.26639
                      45.28780                    -244.98456                     316.18027
                      39.24691                    -212.30632                     274.00530
                      35.33455                    -191.14242                     246.69089
                      18.31383                     -99.06875                     127.85942
                      14.76278                     -79.85934                     103.06750
        </DataArray>
      </PointData>
      <Lines>
        <DataArray type="Int32" Name="connectivity" format="ascii">
      0      1
      1      2
      2      3
      3      4
      4      5
      5      6
      6      7
      7      8
      8      9
      9     10
     10     11
     11     12
     12     13
     13     14
     14     15
     15     16
     16     17
     17     18
        </DataArray>
        <DataArray type="Int32" Name="offsets" format="ascii">
      2
      4
      6
      8
     10
     12
     14
     16
     18
     20
     22
     24
     26
     28
     30
     32
     34
     36
        </DataArray>
      </Lines>
    </Piece>
  </PolyData>
</VTKFile>
