<?xml version="1.0"?>
<VTKFile type="PolyData" version="0.1" byte_order="LittleEndian">
  <PolyData>
    <Piece NumberOfPoints="    625" NumberOfVerts="  0" NumberOfLines="      0"
           NumberOfStrips="  0" NumberOfPolys="    600">
      <Points>
        <DataArray type="Float32" NumberOfComponents="3" format="ascii">
                      -4.89585                       0.90659                      91.19049
                      -4.89585                       0.90659                      91.19049
                      -4.89585                       0.90659                      91.19049
                      -4.89585                       0.90659                      91.19049
                      -4.89585                       0.90659                      91.19049
                      -4.89585                       0.90659                      91.19049
                      -4.89585                       0.90659                      91.19049
                      -4.89585                       0.90659                      91.19049
                      -4.89585                       0.90659                      91.19049
                      -4.89585                       0.90659                      91.19049
                      -4.89585                       0.90659                      91.19049
                      -4.89585                       0.90659                      91.19049
                      -4.89585                       0.90659                      91.19049
                      -4.89585                       0.90659                      91.19049
                      -4.89585                       0.90659                      91.19049
                      -4.89585                       0.90659                      91.19049
                      -4.89585                       0.90659                      91.19049
                      -4.89585                       0.90659                      91.19049
                      -4.89585                       0.90659                      91.19049
                      -4.89585                       0.90659                      91.19049
                      -4.89585                       0.90659                      91.19049
                      -4.89585                       0.90659                      91.19049
                      -4.89585                       0.90659                      91.19049
                      -4.89585                       0.90659                      91.19049
                      -4.89585                       0.90659                      91.19049
                      -4.30733                       0.83104                      91.03903
                      -4.31824                       0.71226                      91.13044
                      -4.36599                       0.60095                      91.21938
                      -4.44757                       0.50410                      91.30027
                      -4.55787                       0.42779                      91.36804
                      -4.68995                       0.37681                      91.41841
                      -4.83551                       0.35438                      91.44823
                      -4.98541                       0.36190                      91.45562
                      -5.13023                       0.39889                      91.44012
                      -5.26086                       0.46304                      91.40269
                      -5.36911                       0.55031                      91.34571
                      -5.44816                       0.65522                      91.27273
                      -5.49306                       0.77118                      91.18836
                      -5.50097                       0.89090                      91.09788
                      -5.47141                       1.00685                      91.00699
                      -5.40623                       1.11176                      90.92140
                      -5.30953                       1.19903                      90.84648
                      -5.18737                       1.26318                      90.78694
                      -5.04745                       1.30018                      90.74652
                      -4.89854                       1.30769                      90.72777
                      -4.75001                       1.28526                      90.73186
                      -4.61119                       1.23429                      90.75853
                      -4.49080                       1.15798                      90.80611
                      -4.39641                       1.06112                      90.87161
                      -4.33394                       0.94981                      90.95091
                      -4.08720                       0.75549                      90.91981
                      -4.10229                       0.59121                      91.04623
                      -4.16833                       0.43725                      91.16925
                      -4.28118                       0.30329                      91.28114
                      -4.43373                       0.19774                      91.37486
                      -4.61642                       0.12724                      91.44454
                      -4.81775                       0.09621                      91.48578
                      -5.02508                       0.10661                      91.49600
                      -5.22538                       0.15778                      91.47456
                      -5.40607                       0.24650                      91.42280
                      -5.55578                       0.36721                      91.34398
                      -5.66512                       0.51231                      91.24304
                      -5.72722                       0.67270                      91.12634
                      -5.73817                       0.83828                      91.00120
                      -5.69728                       0.99866                      90.87549
                      -5.60713                       1.14377                      90.75710
                      -5.47337                       1.26447                      90.65348
                      -5.30442                       1.35320                      90.57113
                      -5.11089                       1.40437                      90.51523
                      -4.90493                       1.41476                      90.48929
                      -4.69950                       1.38374                      90.49495
                      -4.50749                       1.31323                      90.53184
                      -4.34098                       1.20769                      90.59765
                      -4.21042                       1.07372                      90.68824
                      -4.12402                       0.91977                      90.79793
                      -3.93350                       0.67994                      90.80639
                      -3.95156                       0.48337                      90.95767
                      -4.03058                       0.29914                      91.10488
                      -4.16561                       0.13885                      91.23876
                      -4.34816                       0.01255                      91.35091
                      -4.56675                      -0.07181                      91.43428
                      -4.80766                      -0.10894                      91.48363
                      -5.05575                      -0.09650                      91.49586
                      -5.29543                      -0.03527                      91.47020
                      -5.51163                       0.07090                      91.40827
                      -5.69078                       0.21533                      91.31395
                      -5.82162                       0.38896                      91.19317
                      -5.89592                       0.58087                      91.05353
                      -5.90902                       0.77901                      90.90379
                      -5.86010                       0.97092                      90.75336
                      -5.75222                       1.14455                      90.61170
                      -5.59217                       1.28898                      90.48771
                      -5.39001                       1.39515                      90.38917
                      -5.15843                       1.45638                      90.32228
                      -4.91198                       1.46882                      90.29125
                      -4.66616                       1.43169                      90.29801
                      -4.43641                       1.34733                      90.34216
                      -4.23716                       1.22103                      90.42090
                      -4.08094                       1.06074                      90.52931
                      -3.97755                       0.87651                      90.66055
                      -3.81679                       0.60439                      90.69622
                      -3.83713                       0.38288                      90.86669
                      -3.92618                       0.17528                      91.03257
                      -4.07834                      -0.00535                      91.18344
                      -4.28405                      -0.14767                      91.30981
                      -4.53038                      -0.24274                      91.40376
                      -4.80185                      -0.28458                      91.45937
                      -5.08142                      -0.27056                      91.47315
                      -5.35150                      -0.20156                      91.44424
                      -5.59514                      -0.08192                      91.37445
                      -5.79701                       0.08084                      91.26817
                      -5.94445                       0.27649                      91.13207
                      -6.02818                       0.49275                      90.97470
                      -6.04294                       0.71603                      90.80597
                      -5.98781                       0.93229                      90.63645
                      -5.86625                       1.12795                      90.47682
                      -5.68589                       1.29071                      90.33710
                      -5.45808                       1.41034                      90.22606
                      -5.19712                       1.47934                      90.15068
                      -4.91941                       1.49336                      90.11571
                      -4.64240                       1.45152                      90.12334
                      -4.38350                       1.35645                      90.17308
                      -4.15897                       1.21413                      90.26182
                      -3.98292                       1.03350                      90.38397
                      -3.86642                       0.82590                      90.53187
                      -3.72553                       0.52884                      90.58827
                      -3.74770                       0.28745                      90.77403
                      -3.84474                       0.06123                      90.95479
                      -4.01055                      -0.13561                      91.11920
                      -4.23472                      -0.29070                      91.25692
                      -4.50315                      -0.39430                      91.35929
                      -4.79898                      -0.43989                      91.41989
                      -5.10363                      -0.42461                      91.43491
                      -5.39795                      -0.34942                      91.40341
                      -5.66344                      -0.21905                      91.32735
                      -5.88344                      -0.04169                      91.21153
                      -6.04410                       0.17152                      91.06322
                      -6.13534                       0.40719                      90.89174
                      -6.15143                       0.65050                      90.70786
                      -6.09135                       0.88616                      90.52314
                      -5.95888                       1.09937                      90.34919
                      -5.76234                       1.27674                      90.19692
                      -5.51409                       1.40711                      90.07592
                      -5.22971                       1.48229                      89.99379
                      -4.92709                       1.49757                      89.95568
                      -4.62522                       1.45198                      89.96399
                      -4.34309                       1.34838                      90.01819
                      -4.09842                       1.19329                      90.11489
                      -3.90658                       0.99645                      90.24801
                      -3.77962                       0.77023                      90.40917
                      -3.65383                       0.45329                      90.48203
                      -3.67747                       0.19592                      90.68009
                      -3.78093                      -0.04529                      90.87283
                      -3.95773                      -0.25516                      91.04812
                      -4.19674                      -0.42053                      91.19496
                      -4.48295                      -0.53098                      91.30412
                      -4.79837                      -0.57959                      91.36873
                      -5.12320                      -0.56330                      91.38475
                      -5.43701                      -0.48314                      91.35115
                      -5.72009                      -0.34413                      91.27006
                      -5.95465                      -0.15502                      91.14657
                      -6.12595                       0.07231                      90.98844
                      -6.22324                       0.32358                      90.80560
                      -6.24039                       0.58300                      90.60954
                      -6.17633                       0.83428                      90.41259
                      -6.03509                       1.06161                      90.22711
                      -5.82554                       1.25072                      90.06477
                      -5.56084                       1.38972                      89.93575
                      -5.25763                       1.46989                      89.84818
                      -4.93496                       1.48618                      89.80754
                      -4.61311                       1.43757                      89.81640
                      -4.31229                       1.32711                      89.87420
                      -4.05141                       1.16175                      89.97730
                      -3.84687                       0.95187                      90.11923
                      -3.71150                       0.71067                      90.29107
                      -3.59820                       0.37774                      90.37719
                      -3.62302                       0.10758                      90.58510
                      -3.73162                      -0.14561                      90.78742
                      -3.91720                      -0.36592                      90.97142
                      -4.16809                      -0.53950                      91.12556
                      -4.46852                      -0.65544                      91.24014
                      -4.79962                      -0.70647                      91.30796
                      -5.14059                      -0.68937                      91.32477
                      -5.46999                      -0.60522                      91.28951
                      -5.76714                      -0.45931                      91.20439
                      -6.01335                      -0.26080                      91.07476
                      -6.19317                      -0.02217                      90.90877
                      -6.29529                       0.24159                      90.71685
                      -6.31329                       0.51390                      90.51105
                      -6.24605                       0.77766                      90.30431
                      -6.09779                       1.01629                      90.10961
                      -5.87782                       1.21480                      89.93920
                      -5.59997                       1.36071                      89.80377
                      -5.28170                       1.44486                      89.71185
                      -4.94300                       1.46196                      89.66919
                      -4.60515                       1.41093                      89.67849
                      -4.28938                       1.29498                      89.73916
                      -4.01554                       1.12141                      89.84739
                      -3.80083                       0.90110                      89.99637
                      -3.65874                       0.64791                      90.17675
                      -3.55645                       0.30220                      90.27357
                      -3.58219                       0.02200                      90.48920
                      -3.69483                      -0.24059                      90.69903
                      -3.88729                      -0.46908                      90.88986
                      -4.14749                      -0.64910                      91.04972
                      -4.45908                      -0.76935                      91.16855
                      -4.80247                      -0.82227                      91.23890
                      -5.15610                      -0.80454                      91.25633
                      -5.49773                      -0.71726                      91.21976
                      -5.80591                      -0.56593                      91.13148
                      -6.06126                      -0.36005                      90.99704
                      -6.24776                      -0.11257                      90.82489
                      -6.35367                       0.16098                      90.62584
                      -6.37234                       0.44341                      90.41240
                      -6.30261                       0.71696                      90.19798
                      -6.14884                       0.96445                      89.99606
                      -5.92071                       1.17032                      89.81932
                      -5.63254                       1.32165                      89.67887
                      -5.30245                       1.40893                      89.58353
                      -4.95117                       1.42666                      89.53929
                      -4.60078                       1.37374                      89.54893
                      -4.27329                       1.25349                      89.61185
                      -3.98928                       1.07347                      89.72410
                      -3.76660                       0.84498                      89.87861
                      -3.61924                       0.58239                      90.06569
                      -3.52712                       0.22665                      90.17104
                      -3.55355                      -0.06111                      90.39249
                      -3.66923                      -0.33078                      90.60797
                      -3.86689                      -0.56543                      90.80396
                      -4.13411                      -0.75031                      90.96813
                      -4.45410                      -0.87381                      91.09017
                      -4.80676                      -0.92816                      91.16241
                      -5.16992                      -0.90994                      91.18031
                      -5.52077                      -0.82032                      91.14275
                      -5.83727                      -0.66490                      91.05209
                      -6.09951                      -0.45347                      90.91403
                      -6.29104                      -0.19930                      90.73723
                      -6.39981                       0.08163                      90.53281
                      -6.41898                       0.37167                      90.31361
                      -6.34737                       0.65260                      90.09341
                      -6.18945                       0.90676                      89.88604
                      -5.95516                       1.11820                      89.70453
                      -5.65922                       1.27361                      89.56029
                      -5.32022                       1.36324                      89.46238
                      -4.95947                       1.38145                      89.41694
                      -4.59962                       1.32710                      89.42685
                      -4.26330                       1.20361                      89.49147
                      -3.97163                       1.01873                      89.60674
                      -3.74294                       0.78408                      89.76543
                      -3.59160                       0.51440                      89.95755
                      -3.50925                       0.15110                      90.06951
                      -3.53616                      -0.14194                      90.29502
                      -3.65397                      -0.41656                      90.51446
                      -3.85525                      -0.65552                      90.71404
                      -4.12738                      -0.84379                      90.88122
                      -4.45324                      -0.96955                      91.00550
                      -4.81237                      -1.02489                      91.07907
                      -5.18220                      -1.00635                      91.09730
                      -5.53949                      -0.91508                      91.05905
                      -5.86179                      -0.75681                      90.96673
                      -6.12885                      -0.54150                      90.82613
                      -6.32389                      -0.28267                      90.64609
                      -6.43465                       0.00342                      90.43792
                      -6.45418                       0.29878                      90.21470
                      -6.38125                       0.58487                      89.99045
                      -6.22043                       0.84370                      89.77928
                      -5.98185                       1.05901                      89.59444
                      -5.68048                       1.21727                      89.44755
                      -5.33526                       1.30854                      89.34784
                      -4.96788                       1.32709                      89.30158
                      -4.60143                       1.27174                      89.31166
                      -4.25894                       1.14598                      89.37747
                      -3.96192                       0.95771                      89.49486
                      -3.72903                       0.71876                      89.65645
                      -3.57491                       0.44413                      89.85210
                      -3.50223                       0.07555                      89.96893
                      -3.52943                      -0.22061                      90.19684
                      -3.64848                      -0.49816                      90.41862
                      -3.85192                      -0.73966                      90.62033
                      -4.12694                      -0.92994                      90.78929
                      -4.45628                      -1.05704                      90.91490
                      -4.81924                      -1.11298                      90.98925
                      -5.19301                      -1.09423                      91.00768
                      -5.55410                      -1.00199                      90.96902
                      -5.87984                      -0.84204                      90.87571
                      -6.14974                      -0.62443                      90.73361
                      -6.34686                      -0.36284                      90.55165
                      -6.45881                      -0.07371                      90.34126
                      -6.47854                       0.22480                      90.11566
                      -6.40483                       0.51394                      89.88903
                      -6.24231                       0.77553                      89.67560
                      -6.00118                       0.99313                      89.48880
                      -5.69659                       1.15309                      89.34034
                      -5.34769                       1.24533                      89.23957
                      -4.97640                       1.26407                      89.19281
                      -4.60605                       1.20814                      89.20301
                      -4.25991                       1.08104                      89.26951
                      -3.95972                       0.89076                      89.38815
                      -3.72435                       0.64926                      89.55147
                      -3.56859                       0.37171                      89.74920
                      -3.50571                       0.00000                      89.86927
                      -3.53300                      -0.29719                      90.09798
                      -3.65248                      -0.57571                      90.32053
                      -3.85662                      -0.81806                      90.52294
                      -4.13261                      -1.00900                      90.69250
                      -4.46309                      -1.13654                      90.81854
                      -4.82732                      -1.19267                      90.89315
                      -5.20239                      -1.17386                      90.91164
                      -5.56475                      -1.08130                      90.87285
                      -5.89162                      -0.92079                      90.77921
                      -6.16247                      -0.70242                      90.63662
                      -6.36027                      -0.43992                      90.45402
                      -6.47261                      -0.14978                      90.24290
                      -6.49241                       0.14978                      90.01651
                      -6.41845                       0.43992                      89.78909
                      -6.25535                       0.70242                      89.57492
                      -6.01338                       0.92079                      89.38746
                      -5.70773                       1.08130                      89.23849
                      -5.35762                       1.17386                      89.13736
                      -4.98503                       1.19267                      89.09044
                      -4.61339                       1.13654                      89.10067
                      -4.26603                       1.00900                      89.16741
                      -3.96480                       0.81806                      89.28646
                      -3.72861                       0.57571                      89.45035
                      -3.57230                       0.29719                      89.64878
                      -3.51959                      -0.07555                      89.77052
                      -3.54679                      -0.37171                      89.99843
                      -3.66584                      -0.64926                      90.22021
                      -3.86928                      -0.89076                      90.42192
                      -4.14430                      -1.08104                      90.59088
                      -4.47364                      -1.20814                      90.71648
                      -4.83660                      -1.26407                      90.79083
                      -5.21036                      -1.24533                      90.80926
                      -5.57146                      -1.15309                      90.77061
                      -5.89720                      -0.99313                      90.67730
                      -6.16710                      -0.77553                      90.53520
                      -6.36422                      -0.51394                      90.35324
                      -6.47616                      -0.22481                      90.14285
                      -6.49590                       0.07371                      89.91725
                      -6.42219                       0.36284                      89.69062
                      -6.25966                       0.62443                      89.47719
                      -6.01853                       0.84204                      89.29038
                      -5.71395                       1.00199                      89.14193
                      -5.36505                       1.09423                      89.04115
                      -4.99376                       1.11298                      88.99440
                      -4.62341                       1.05704                      89.00459
                      -4.27727                       0.92994                      89.07110
                      -3.97708                       0.73966                      89.18974
                      -3.74171                       0.49816                      89.35306
                      -3.58595                       0.22061                      89.55079
                      -3.54397                      -0.15110                      89.67268
                      -3.57088                      -0.44413                      89.89819
                      -3.68868                      -0.71876                      90.11763
                      -3.88997                      -0.95771                      90.31721
                      -4.16210                      -1.14598                      90.48440
                      -4.48796                      -1.27174                      90.60868
                      -4.84709                      -1.32709                      90.68224
                      -5.21692                      -1.30854                      90.70047
                      -5.57421                      -1.21727                      90.66223
                      -5.89651                      -1.05901                      90.56990
                      -6.16357                      -0.84370                      90.42930
                      -6.35860                      -0.58487                      90.24926
                      -6.46937                      -0.29878                      90.04109
                      -6.48890                      -0.00342                      89.81787
                      -6.41597                       0.28267                      89.59363
                      -6.25515                       0.54150                      89.38245
                      -6.01656                       0.75681                      89.19761
                      -5.71519                       0.91508                      89.05072
                      -5.36997                       1.00635                      88.95101
                      -5.00260                       1.02489                      88.90475
                      -4.63615                       0.96955                      88.91484
                      -4.29366                       0.84379                      88.98064
                      -3.99664                       0.65552                      89.09803
                      -3.76375                       0.41656                      89.25963
                      -3.60963                       0.14194                      89.45527
                      -3.57920                      -0.22665                      89.57580
                      -3.60563                      -0.51440                      89.79725
                      -3.72131                      -0.78408                      90.01273
                      -3.91897                      -1.01873                      90.20872
                      -4.18619                      -1.20361                      90.37289
                      -4.50618                      -1.32710                      90.49492
                      -4.85884                      -1.38145                      90.56717
                      -5.22200                      -1.36324                      90.58507
                      -5.57285                      -1.27361                      90.54751
                      -5.88934                      -1.11820                      90.45685
                      -6.15159                      -0.90676                      90.31878
                      -6.34312                      -0.65260                      90.14198
                      -6.45188                      -0.37167                      89.93756
                      -6.47106                      -0.08163                      89.71837
                      -6.39944                       0.19930                      89.49817
                      -6.24153                       0.45347                      89.29080
                      -6.00724                       0.66490                      89.10929
                      -5.71130                       0.82032                      88.96505
                      -5.37230                       0.90994                      88.86713
                      -5.01155                       0.92816                      88.82170
                      -4.65170                       0.87381                      88.83161
                      -4.31538                       0.75031                      88.89623
                      -4.02371                       0.56543                      89.01150
                      -3.79502                       0.33078                      89.17018
                      -3.64368                       0.06111                      89.36231
                      -3.62589                      -0.30220                      89.47992
                      -3.65162                      -0.58239                      89.69555
                      -3.76426                      -0.84498                      89.90537
                      -3.95673                      -1.07347                      90.09621
                      -4.21693                      -1.25349                      90.25606
                      -4.52852                      -1.37374                      90.37490
                      -4.87191                      -1.42666                      90.44524
                      -5.22553                      -1.40893                      90.46267
                      -5.56717                      -1.32165                      90.42610
                      -5.87534                      -1.17032                      90.33782
                      -6.13070                      -0.96445                      90.20338
                      -6.31719                      -0.71696                      90.03123
                      -6.42310                      -0.44341                      89.83218
                      -6.44178                      -0.16098                      89.61874
                      -6.37204                       0.11257                      89.40432
                      -6.21827                       0.36005                      89.20240
                      -5.99014                       0.56593                      89.02566
                      -5.70198                       0.71726                      88.88521
                      -5.37188                       0.80454                      88.78987
                      -5.02061                       0.82227                      88.74563
                      -4.67021                       0.76935                      88.75528
                      -4.34273                       0.64910                      88.81820
                      -4.05872                       0.46908                      88.93044
                      -3.83604                       0.24059                      89.08496
                      -3.68867                      -0.02200                      89.27204
                      -3.68500                      -0.37774                      89.38512
                      -3.70981                      -0.64791                      89.59303
                      -3.81842                      -0.90110                      89.79535
                      -4.00400                      -1.12141                      89.97935
                      -4.25488                      -1.29498                      90.13348
                      -4.55532                      -1.41093                      90.24806
                      -4.88642                      -1.46196                      90.31589
                      -5.22738                      -1.44486                      90.33270
                      -5.55678                      -1.36071                      90.29744
                      -5.85393                      -1.21480                      90.21232
                      -6.10015                      -1.01629                      90.08269
                      -6.27996                      -0.77766                      89.91670
                      -6.38208                      -0.51390                      89.72477
                      -6.40009                      -0.24159                      89.51898
                      -6.33285                       0.02217                      89.31224
                      -6.18459                       0.26080                      89.11754
                      -5.96462                       0.45931                      88.94713
                      -5.68677                       0.60522                      88.81170
                      -5.36849                       0.68937                      88.71978
                      -5.02979                       0.70647                      88.67712
                      -4.69194                       0.65544                      88.68642
                      -4.37618                       0.53950                      88.74709
                      -4.10234                       0.36592                      88.85532
                      -3.88763                       0.14561                      89.00430
                      -3.74554                      -0.10758                      89.18468
                      -3.75798                      -0.45329                      89.29154
                      -3.78162                      -0.71067                      89.48961
                      -3.88509                      -0.95187                      89.68234
                      -4.06188                      -1.16175                      89.85764
                      -4.30089                      -1.32711                      90.00448
                      -4.58710                      -1.43757                      90.11363
                      -4.90253                      -1.48618                      90.17825
                      -5.22735                      -1.46989                      90.19426
                      -5.54116                      -1.38972                      90.16067
                      -5.82424                      -1.25072                      90.07958
                      -6.05880                      -1.06161                      89.95609
                      -6.23011                      -0.83428                      89.79795
                      -6.32739                      -0.58300                      89.61511
                      -6.34454                      -0.32358                      89.41906
                      -6.28049                      -0.07231                      89.22210
                      -6.13924                       0.15502                      89.03663
                      -5.92969                       0.34413                      88.87428
                      -5.66499                       0.48314                      88.74527
                      -5.36178                       0.56330                      88.65769
                      -5.03911                       0.57959                      88.61706
                      -4.71726                       0.53098                      88.62592
                      -4.41644                       0.42053                      88.68371
                      -4.15557                       0.25516                      88.78682
                      -3.95102                       0.04529                      88.92875
                      -3.81566                      -0.19592                      89.10059
                      -3.84704                      -0.52884                      89.19937
                      -3.86921                      -0.77023                      89.38513
                      -3.96625                      -0.99645                      89.56590
                      -4.13207                      -1.19329                      89.73030
                      -4.35623                      -1.34838                      89.86802
                      -4.62466                      -1.45198                      89.97039
                      -4.92050                      -1.49757                      90.03100
                      -5.22514                      -1.48229                      90.04601
                      -5.51946                      -1.40711                      90.01451
                      -5.78496                      -1.27674                      89.93845
                      -6.00495                      -1.09937                      89.82263
                      -6.16561                      -0.88616                      89.67432
                      -6.25686                      -0.65050                      89.50284
                      -6.27294                      -0.40719                      89.31896
                      -6.21286                      -0.17152                      89.13424
                      -6.08039                       0.04169                      88.96029
                      -5.88386                       0.21905                      88.80802
                      -5.63560                       0.34942                      88.68702
                      -5.35123                       0.42461                      88.60489
                      -5.04860                       0.43989                      88.56678
                      -4.74674                       0.39430                      88.57509
                      -4.46460                       0.29070                      88.62929
                      -4.21993                       0.13561                      88.72599
                      -4.02809                      -0.06123                      88.85911
                      -3.90114                      -0.28745                      89.02028
                      -3.95566                      -0.60439                      89.10890
                      -3.97600                      -0.82590                      89.27937
                      -4.06505                      -1.03350                      89.44525
                      -4.21721                      -1.21413                      89.59612
                      -4.42292                      -1.35645                      89.72250
                      -4.66925                      -1.45152                      89.81645
                      -4.94072                      -1.49336                      89.87206
                      -5.22029                      -1.47934                      89.88584
                      -5.49037                      -1.41034                      89.85693
                      -5.73401                      -1.29071                      89.78714
                      -5.93589                      -1.12795                      89.68085
                      -6.08332                      -0.93229                      89.54475
                      -6.16705                      -0.71603                      89.38739
                      -6.18182                      -0.49275                      89.21865
                      -6.12668                      -0.27649                      89.04914
                      -6.00512                      -0.08084                      88.88951
                      -5.82476                       0.08192                      88.74978
                      -5.59695                       0.20156                      88.63874
                      -5.33599                       0.27056                      88.56337
                      -5.05828                       0.28458                      88.52840
                      -4.78127                       0.24274                      88.53602
                      -4.52237                       0.14767                      88.58577
                      -4.29784                       0.00535                      88.67451
                      -4.12180                      -0.17528                      88.79666
                      -4.00529                      -0.38288                      88.94456
                      -4.08973                      -0.67994                      89.02067
                      -4.10779                      -0.87651                      89.17194
                      -4.18681                      -1.06074                      89.31915
                      -4.32184                      -1.22103                      89.45303
                      -4.50439                      -1.34733                      89.56518
                      -4.72298                      -1.43169                      89.64855
                      -4.96390                      -1.46882                      89.69790
                      -5.21198                      -1.45638                      89.71013
                      -5.45166                      -1.39515                      89.68447
                      -5.66786                      -1.28898                      89.62254
                      -5.84701                      -1.14455                      89.52822
                      -5.97785                      -0.97092                      89.40745
                      -6.05215                      -0.77901                      89.26780
                      -6.06525                      -0.58087                      89.11806
                      -6.01633                      -0.38896                      88.96763
                      -5.90845                      -0.21533                      88.82597
                      -5.74840                      -0.07090                      88.70198
                      -5.54624                       0.03527                      88.60344
                      -5.31466                       0.09650                      88.53656
                      -5.06822                       0.10894                      88.50552
                      -4.82239                       0.07181                      88.51229
                      -4.59264                      -0.01255                      88.55643
                      -4.39339                      -0.13885                      88.63518
                      -4.23717                      -0.29914                      88.74358
                      -4.13378                      -0.48337                      88.87482
                      -4.26079                      -0.75549                      88.93567
                      -4.27588                      -0.91977                      89.06209
                      -4.34192                      -1.07372                      89.18511
                      -4.45477                      -1.20769                      89.29700
                      -4.60732                      -1.31323                      89.39072
                      -4.79001                      -1.38374                      89.46039
                      -4.99134                      -1.41476                      89.50164
                      -5.19867                      -1.40437                      89.51186
                      -5.39897                      -1.35320                      89.49042
                      -5.57966                      -1.26447                      89.43866
                      -5.72937                      -1.14377                      89.35984
                      -5.83871                      -0.99866                      89.25890
                      -5.90081                      -0.83828                      89.14220
                      -5.91176                      -0.67270                      89.01706
                      -5.87087                      -0.51231                      88.89135
                      -5.78072                      -0.36721                      88.77296
                      -5.64696                      -0.24650                      88.66934
                      -5.47801                      -0.15778                      88.58699
                      -5.28448                      -0.10661                      88.53109
                      -5.07852                      -0.09621                      88.50515
                      -4.87309                      -0.12724                      88.51081
                      -4.68108                      -0.19774                      88.54770
                      -4.51457                      -0.30329                      88.61351
                      -4.38401                      -0.43725                      88.70410
                      -4.29761                      -0.59121                      88.81378
                      -4.49828                      -0.83104                      88.85648
                      -4.50919                      -0.94981                      88.94788
                      -4.55693                      -1.06112                      89.03682
                      -4.63852                      -1.15798                      89.11772
                      -4.74882                      -1.23429                      89.18548
                      -4.88090                      -1.28526                      89.23586
                      -5.02646                      -1.30769                      89.26567
                      -5.17636                      -1.30018                      89.27306
                      -5.32118                      -1.26318                      89.25756
                      -5.45181                      -1.19903                      89.22014
                      -5.56006                      -1.11176                      89.16315
                      -5.63911                      -1.00685                      89.09018
                      -5.68401                      -0.89090                      89.00580
                      -5.69192                      -0.77118                      88.91532
                      -5.66236                      -0.65522                      88.82443
                      -5.59718                      -0.55031                      88.73884
                      -5.50047                      -0.46304                      88.66392
                      -5.37832                      -0.39889                      88.60438
                      -5.23840                      -0.36190                      88.56397
                      -5.08949                      -0.35438                      88.54522
                      -4.94096                      -0.37681                      88.54931
                      -4.80214                      -0.42779                      88.57598
                      -4.68175                      -0.50410                      88.62356
                      -4.58736                      -0.60095                      88.68906
                      -4.52489                      -0.71226                      88.76836
                      -5.10415                      -0.90659                      88.80952
                      -5.10415                      -0.90659                      88.80952
                      -5.10415                      -0.90659                      88.80952
                      -5.10415                      -0.90659                      88.80952
                      -5.10415                      -0.90659                      88.80952
                      -5.10415                      -0.90659                      88.80952
                      -5.10415                      -0.90659                      88.80952
                      -5.10415                      -0.90659                      88.80952
                      -5.10415                      -0.90659                      88.80952
                      -5.10415                      -0.90659                      88.80952
                      -5.10415                      -0.90659                      88.80952
                      -5.10415                      -0.90659                      88.80952
                      -5.10415                      -0.90659                      88.80952
                      -5.10415                      -0.90659                      88.80952
                      -5.10415                      -0.90659                      88.80952
                      -5.10415                      -0.90659                      88.80952
                      -5.10415                      -0.90659                      88.80952
                      -5.10415                      -0.90659                      88.80952
                      -5.10415                      -0.90659                      88.80952
                      -5.10415                      -0.90659                      88.80952
                      -5.10415                      -0.90659                      88.80952
                      -5.10415                      -0.90659                      88.80952
                      -5.10415                      -0.90659                      88.80952
                      -5.10415                      -0.90659                      88.80952
                      -5.10415                      -0.90659                      88.80952
        </DataArray>
      </Points>
      <Polys>
        <DataArray type="Int32" Name="connectivity" format="ascii">
      0      1     26     25
      1      2     27     26
      2      3     28     27
      3      4     29     28
      4      5     30     29
      5      6     31     30
      6      7     32     31
      7      8     33     32
      8      9     34     33
      9     10     35     34
     10     11     36     35
     11     12     37     36
     12     13     38     37
     13     14     39     38
     14     15     40     39
     15     16     41     40
     16     17     42     41
     17     18     43     42
     18     19     44     43
     19     20     45     44
     20     21     46     45
     21     22     47     46
     22     23     48     47
     23     24     49     48
     24      0     25     49
     25     26     51     50
     26     27     52     51
     27     28     53     52
     28     29     54     53
     29     30     55     54
     30     31     56     55
     31     32     57     56
     32     33     58     57
     33     34     59     58
     34     35     60     59
     35     36     61     60
     36     37     62     61
     37     38     63     62
     38     39     64     63
     39     40     65     64
     40     41     66     65
     41     42     67     66
     42     43     68     67
     43     44     69     68
     44     45     70     69
     45     46     71     70
     46     47     72     71
     47     48     73     72
     48     49     74     73
     49     25     50     74
     50     51     76     75
     51     52     77     76
     52     53     78     77
     53     54     79     78
     54     55     80     79
     55     56     81     80
     56     57     82     81
     57     58     83     82
     58     59     84     83
     59     60     85     84
     60     61     86     85
     61     62     87     86
     62     63     88     87
     63     64     89     88
     64     65     90     89
     65     66     91     90
     66     67     92     91
     67     68     93     92
     68     69     94     93
     69     70     95     94
     70     71     96     95
     71     72     97     96
     72     73     98     97
     73     74     99     98
     74     50     75     99
     75     76    101    100
     76     77    102    101
     77     78    103    102
     78     79    104    103
     79     80    105    104
     80     81    106    105
     81     82    107    106
     82     83    108    107
     83     84    109    108
     84     85    110    109
     85     86    111    110
     86     87    112    111
     87     88    113    112
     88     89    114    113
     89     90    115    114
     90     91    116    115
     91     92    117    116
     92     93    118    117
     93     94    119    118
     94     95    120    119
     95     96    121    120
     96     97    122    121
     97     98    123    122
     98     99    124    123
     99     75    100    124
    100    101    126    125
    101    102    127    126
    102    103    128    127
    103    104    129    128
    104    105    130    129
    105    106    131    130
    106    107    132    131
    107    108    133    132
    108    109    134    133
    109    110    135    134
    110    111    136    135
    111    112    137    136
    112    113    138    137
    113    114    139    138
    114    115    140    139
    115    116    141    140
    116    117    142    141
    117    118    143    142
    118    119    144    143
    119    120    145    144
    120    121    146    145
    121    122    147    146
    122    123    148    147
    123    124    149    148
    124    100    125    149
    125    126    151    150
    126    127    152    151
    127    128    153    152
    128    129    154    153
    129    130    155    154
    130    131    156    155
    131    132    157    156
    132    133    158    157
    133    134    159    158
    134    135    160    159
    135    136    161    160
    136    137    162    161
    137    138    163    162
    138    139    164    163
    139    140    165    164
    140    141    166    165
    141    142    167    166
    142    143    168    167
    143    144    169    168
    144    145    170    169
    145    146    171    170
    146    147    172    171
    147    148    173    172
    148    149    174    173
    149    125    150    174
    150    151    176    175
    151    152    177    176
    152    153    178    177
    153    154    179    178
    154    155    180    179
    155    156    181    180
    156    157    182    181
    157    158    183    182
    158    159    184    183
    159    160    185    184
    160    161    186    185
    161    162    187    186
    162    163    188    187
    163    164    189    188
    164    165    190    189
    165    166    191    190
    166    167    192    191
    167    168    193    192
    168    169    194    193
    169    170    195    194
    170    171    196    195
    171    172    197    196
    172    173    198    197
    173    174    199    198
    174    150    175    199
    175    176    201    200
    176    177    202    201
    177    178    203    202
    178    179    204    203
    179    180    205    204
    180    181    206    205
    181    182    207    206
    182    183    208    207
    183    184    209    208
    184    185    210    209
    185    186    211    210
    186    187    212    211
    187    188    213    212
    188    189    214    213
    189    190    215    214
    190    191    216    215
    191    192    217    216
    192    193    218    217
    193    194    219    218
    194    195    220    219
    195    196    221    220
    196    197    222    221
    197    198    223    222
    198    199    224    223
    199    175    200    224
    200    201    226    225
    201    202    227    226
    202    203    228    227
    203    204    229    228
    204    205    230    229
    205    206    231    230
    206    207    232    231
    207    208    233    232
    208    209    234    233
    209    210    235    234
    210    211    236    235
    211    212    237    236
    212    213    238    237
    213    214    239    238
    214    215    240    239
    215    216    241    240
    216    217    242    241
    217    218    243    242
    218    219    244    243
    219    220    245    244
    220    221    246    245
    221    222    247    246
    222    223    248    247
    223    224    249    248
    224    200    225    249
    225    226    251    250
    226    227    252    251
    227    228    253    252
    228    229    254    253
    229    230    255    254
    230    231    256    255
    231    232    257    256
    232    233    258    257
    233    234    259    258
    234    235    260    259
    235    236    261    260
    236    237    262    261
    237    238    263    262
    238    239    264    263
    239    240    265    264
    240    241    266    265
    241    242    267    266
    242    243    268    267
    243    244    269    268
    244    245    270    269
    245    246    271    270
    246    247    272    271
    247    248    273    272
    248    249    274    273
    249    225    250    274
    250    251    276    275
    251    252    277    276
    252    253    278    277
    253    254    279    278
    254    255    280    279
    255    256    281    280
    256    257    282    281
    257    258    283    282
    258    259    284    283
    259    260    285    284
    260    261    286    285
    261    262    287    286
    262    263    288    287
    263    264    289    288
    264    265    290    289
    265    266    291    290
    266    267    292    291
    267    268    293    292
    268    269    294    293
    269    270    295    294
    270    271    296    295
    271    272    297    296
    272    273    298    297
    273    274    299    298
    274    250    275    299
    275    276    301    300
    276    277    302    301
    277    278    303    302
    278    279    304    303
    279    280    305    304
    280    281    306    305
    281    282    307    306
    282    283    308    307
    283    284    309    308
    284    285    310    309
    285    286    311    310
    286    287    312    311
    287    288    313    312
    288    289    314    313
    289    290    315    314
    290    291    316    315
    291    292    317    316
    292    293    318    317
    293    294    319    318
    294    295    320    319
    295    296    321    320
    296    297    322    321
    297    298    323    322
    298    299    324    323
    299    275    300    324
    300    301    326    325
    301    302    327    326
    302    303    328    327
    303    304    329    328
    304    305    330    329
    305    306    331    330
    306    307    332    331
    307    308    333    332
    308    309    334    333
    309    310    335    334
    310    311    336    335
    311    312    337    336
    312    313    338    337
    313    314    339    338
    314    315    340    339
    315    316    341    340
    316    317    342    341
    317    318    343    342
    318    319    344    343
    319    320    345    344
    320    321    346    345
    321    322    347    346
    322    323    348    347
    323    324    349    348
    324    300    325    349
    325    326    351    350
    326    327    352    351
    327    328    353    352
    328    329    354    353
    329    330    355    354
    330    331    356    355
    331    332    357    356
    332    333    358    357
    333    334    359    358
    334    335    360    359
    335    336    361    360
    336    337    362    361
    337    338    363    362
    338    339    364    363
    339    340    365    364
    340    341    366    365
    341    342    367    366
    342    343    368    367
    343    344    369    368
    344    345    370    369
    345    346    371    370
    346    347    372    371
    347    348    373    372
    348    349    374    373
    349    325    350    374
    350    351    376    375
    351    352    377    376
    352    353    378    377
    353    354    379    378
    354    355    380    379
    355    356    381    380
    356    357    382    381
    357    358    383    382
    358    359    384    383
    359    360    385    384
    360    361    386    385
    361    362    387    386
    362    363    388    387
    363    364    389    388
    364    365    390    389
    365    366    391    390
    366    367    392    391
    367    368    393    392
    368    369    394    393
    369    370    395    394
    370    371    396    395
    371    372    397    396
    372    373    398    397
    373    374    399    398
    374    350    375    399
    375    376    401    400
    376    377    402    401
    377    378    403    402
    378    379    404    403
    379    380    405    404
    380    381    406    405
    381    382    407    406
    382    383    408    407
    383    384    409    408
    384    385    410    409
    385    386    411    410
    386    387    412    411
    387    388    413    412
    388    389    414    413
    389    390    415    414
    390    391    416    415
    391    392    417    416
    392    393    418    417
    393    394    419    418
    394    395    420    419
    395    396    421    420
    396    397    422    421
    397    398    423    422
    398    399    424    423
    399    375    400    424
    400    401    426    425
    401    402    427    426
    402    403    428    427
    403    404    429    428
    404    405    430    429
    405    406    431    430
    406    407    432    431
    407    408    433    432
    408    409    434    433
    409    410    435    434
    410    411    436    435
    411    412    437    436
    412    413    438    437
    413    414    439    438
    414    415    440    439
    415    416    441    440
    416    417    442    441
    417    418    443    442
    418    419    444    443
    419    420    445    444
    420    421    446    445
    421    422    447    446
    422    423    448    447
    423    424    449    448
    424    400    425    449
    425    426    451    450
    426    427    452    451
    427    428    453    452
    428    429    454    453
    429    430    455    454
    430    431    456    455
    431    432    457    456
    432    433    458    457
    433    434    459    458
    434    435    460    459
    435    436    461    460
    436    437    462    461
    437    438    463    462
    438    439    464    463
    439    440    465    464
    440    441    466    465
    441    442    467    466
    442    443    468    467
    443    444    469    468
    444    445    470    469
    445    446    471    470
    446    447    472    471
    447    448    473    472
    448    449    474    473
    449    425    450    474
    450    451    476    475
    451    452    477    476
    452    453    478    477
    453    454    479    478
    454    455    480    479
    455    456    481    480
    456    457    482    481
    457    458    483    482
    458    459    484    483
    459    460    485    484
    460    461    486    485
    461    462    487    486
    462    463    488    487
    463    464    489    488
    464    465    490    489
    465    466    491    490
    466    467    492    491
    467    468    493    492
    468    469    494    493
    469    470    495    494
    470    471    496    495
    471    472    497    496
    472    473    498    497
    473    474    499    498
    474    450    475    499
    475    476    501    500
    476    477    502    501
    477    478    503    502
    478    479    504    503
    479    480    505    504
    480    481    506    505
    481    482    507    506
    482    483    508    507
    483    484    509    508
    484    485    510    509
    485    486    511    510
    486    487    512    511
    487    488    513    512
    488    489    514    513
    489    490    515    514
    490    491    516    515
    491    492    517    516
    492    493    518    517
    493    494    519    518
    494    495    520    519
    495    496    521    520
    496    497    522    521
    497    498    523    522
    498    499    524    523
    499    475    500    524
    500    501    526    525
    501    502    527    526
    502    503    528    527
    503    504    529    528
    504    505    530    529
    505    506    531    530
    506    507    532    531
    507    508    533    532
    508    509    534    533
    509    510    535    534
    510    511    536    535
    511    512    537    536
    512    513    538    537
    513    514    539    538
    514    515    540    539
    515    516    541    540
    516    517    542    541
    517    518    543    542
    518    519    544    543
    519    520    545    544
    520    521    546    545
    521    522    547    546
    522    523    548    547
    523    524    549    548
    524    500    525    549
    525    526    551    550
    526    527    552    551
    527    528    553    552
    528    529    554    553
    529    530    555    554
    530    531    556    555
    531    532    557    556
    532    533    558    557
    533    534    559    558
    534    535    560    559
    535    536    561    560
    536    537    562    561
    537    538    563    562
    538    539    564    563
    539    540    565    564
    540    541    566    565
    541    542    567    566
    542    543    568    567
    543    544    569    568
    544    545    570    569
    545    546    571    570
    546    547    572    571
    547    548    573    572
    548    549    574    573
    549    525    550    574
    550    551    576    575
    551    552    577    576
    552    553    578    577
    553    554    579    578
    554    555    580    579
    555    556    581    580
    556    557    582    581
    557    558    583    582
    558    559    584    583
    559    560    585    584
    560    561    586    585
    561    562    587    586
    562    563    588    587
    563    564    589    588
    564    565    590    589
    565    566    591    590
    566    567    592    591
    567    568    593    592
    568    569    594    593
    569    570    595    594
    570    571    596    595
    571    572    597    596
    572    573    598    597
    573    574    599    598
    574    550    575    599
    575    576    601    600
    576    577    602    601
    577    578    603    602
    578    579    604    603
    579    580    605    604
    580    581    606    605
    581    582    607    606
    582    583    608    607
    583    584    609    608
    584    585    610    609
    585    586    611    610
    586    587    612    611
    587    588    613    612
    588    589    614    613
    589    590    615    614
    590    591    616    615
    591    592    617    616
    592    593    618    617
    593    594    619    618
    594    595    620    619
    595    596    621    620
    596    597    622    621
    597    598    623    622
    598    599    624    623
    599    575    600    624
        </DataArray>
        <DataArray type="Int32" Name="offsets" format="ascii">
      4
      8
     12
     16
     20
     24
     28
     32
     36
     40
     44
     48
     52
     56
     60
     64
     68
     72
     76
     80
     84
     88
     92
     96
    100
    104
    108
    112
    116
    120
    124
    128
    132
    136
    140
    144
    148
    152
    156
    160
    164
    168
    172
    176
    180
    184
    188
    192
    196
    200
    204
    208
    212
    216
    220
    224
    228
    232
    236
    240
    244
    248
    252
    256
    260
    264
    268
    272
    276
    280
    284
    288
    292
    296
    300
    304
    308
    312
    316
    320
    324
    328
    332
    336
    340
    344
    348
    352
    356
    360
    364
    368
    372
    376
    380
    384
    388
    392
    396
    400
    404
    408
    412
    416
    420
    424
    428
    432
    436
    440
    444
    448
    452
    456
    460
    464
    468
    472
    476
    480
    484
    488
    492
    496
    500
    504
    508
    512
    516
    520
    524
    528
    532
    536
    540
    544
    548
    552
    556
    560
    564
    568
    572
    576
    580
    584
    588
    592
    596
    600
    604
    608
    612
    616
    620
    624
    628
    632
    636
    640
    644
    648
    652
    656
    660
    664
    668
    672
    676
    680
    684
    688
    692
    696
    700
    704
    708
    712
    716
    720
    724
    728
    732
    736
    740
    744
    748
    752
    756
    760
    764
    768
    772
    776
    780
    784
    788
    792
    796
    800
    804
    808
    812
    816
    820
    824
    828
    832
    836
    840
    844
    848
    852
    856
    860
    864
    868
    872
    876
    880
    884
    888
    892
    896
    900
    904
    908
    912
    916
    920
    924
    928
    932
    936
    940
    944
    948
    952
    956
    960
    964
    968
    972
    976
    980
    984
    988
    992
    996
   1000
   1004
   1008
   1012
   1016
   1020
   1024
   1028
   1032
   1036
   1040
   1044
   1048
   1052
   1056
   1060
   1064
   1068
   1072
   1076
   1080
   1084
   1088
   1092
   1096
   1100
   1104
   1108
   1112
   1116
   1120
   1124
   1128
   1132
   1136
   1140
   1144
   1148
   1152
   1156
   1160
   1164
   1168
   1172
   1176
   1180
   1184
   1188
   1192
   1196
   1200
   1204
   1208
   1212
   1216
   1220
   1224
   1228
   1232
   1236
   1240
   1244
   1248
   1252
   1256
   1260
   1264
   1268
   1272
   1276
   1280
   1284
   1288
   1292
   1296
   1300
   1304
   1308
   1312
   1316
   1320
   1324
   1328
   1332
   1336
   1340
   1344
   1348
   1352
   1356
   1360
   1364
   1368
   1372
   1376
   1380
   1384
   1388
   1392
   1396
   1400
   1404
   1408
   1412
   1416
   1420
   1424
   1428
   1432
   1436
   1440
   1444
   1448
   1452
   1456
   1460
   1464
   1468
   1472
   1476
   1480
   1484
   1488
   1492
   1496
   1500
   1504
   1508
   1512
   1516
   1520
   1524
   1528
   1532
   1536
   1540
   1544
   1548
   1552
   1556
   1560
   1564
   1568
   1572
   1576
   1580
   1584
   1588
   1592
   1596
   1600
   1604
   1608
   1612
   1616
   1620
   1624
   1628
   1632
   1636
   1640
   1644
   1648
   1652
   1656
   1660
   1664
   1668
   1672
   1676
   1680
   1684
   1688
   1692
   1696
   1700
   1704
   1708
   1712
   1716
   1720
   1724
   1728
   1732
   1736
   1740
   1744
   1748
   1752
   1756
   1760
   1764
   1768
   1772
   1776
   1780
   1784
   1788
   1792
   1796
   1800
   1804
   1808
   1812
   1816
   1820
   1824
   1828
   1832
   1836
   1840
   1844
   1848
   1852
   1856
   1860
   1864
   1868
   1872
   1876
   1880
   1884
   1888
   1892
   1896
   1900
   1904
   1908
   1912
   1916
   1920
   1924
   1928
   1932
   1936
   1940
   1944
   1948
   1952
   1956
   1960
   1964
   1968
   1972
   1976
   1980
   1984
   1988
   1992
   1996
   2000
   2004
   2008
   2012
   2016
   2020
   2024
   2028
   2032
   2036
   2040
   2044
   2048
   2052
   2056
   2060
   2064
   2068
   2072
   2076
   2080
   2084
   2088
   2092
   2096
   2100
   2104
   2108
   2112
   2116
   2120
   2124
   2128
   2132
   2136
   2140
   2144
   2148
   2152
   2156
   2160
   2164
   2168
   2172
   2176
   2180
   2184
   2188
   2192
   2196
   2200
   2204
   2208
   2212
   2216
   2220
   2224
   2228
   2232
   2236
   2240
   2244
   2248
   2252
   2256
   2260
   2264
   2268
   2272
   2276
   2280
   2284
   2288
   2292
   2296
   2300
   2304
   2308
   2312
   2316
   2320
   2324
   2328
   2332
   2336
   2340
   2344
   2348
   2352
   2356
   2360
   2364
   2368
   2372
   2376
   2380
   2384
   2388
   2392
   2396
   2400
        </DataArray>
      </Polys>
    </Piece>
  </PolyData>
</VTKFile>
