<?xml version="1.0"?>
<VTKFile type="PolyData" version="0.1" byte_order="LittleEndian">
  <PolyData>
    <Piece NumberOfPoints="     19" NumberOfVerts="  0" NumberOfLines="     18"
           NumberOfStrips="  0" NumberOfPolys="      0">
      <Points>
        <DataArray type="Float32" NumberOfComponents="3" format="ascii">
                      -4.98545                       1.18698                      90.91699
                      -4.97278                       2.26635                      91.75525
                      -4.96322                       4.36645                      93.50777
                      -4.96116                       6.43881                      95.29631
                      -4.96304                       9.01275                      97.55356
                      -4.92240                      12.19061                     100.14612
                      -4.86674                      15.44867                     102.63463
                      -4.81354                      18.70823                     105.12125
                      -4.76052                      21.97047                     107.60439
                      -4.70838                      25.23419                     110.08563
                      -4.65820                      28.49713                     112.56793
                      -4.60936                      31.76020                     115.05006
                      -4.56249                      35.02339                     117.53207
                      -4.51832                      38.28664                     120.01405
                      -4.47509                      41.54992                     122.49600
                      -4.43970                      44.26937                     124.56430
                      -4.41248                      46.44969                     126.21270
                      -4.39038                      48.66355                     127.81776
                      -4.37713                      49.74497                     128.65319
        </DataArray>
      </Points>
      <PointData>
        <DataArray type="Float32" Name="TranslationalVelocity" NumberOfComponents="3" format="ascii">
                       0.05417                      -0.47897                       0.61914
                       0.10342                      -0.91679                       1.18214
                       0.19926                      -1.83135                       2.27757
                       0.29383                      -2.76436                       3.35852
                       0.41129                      -3.94167                       4.70111
                       0.55631                      -5.29582                       6.35870
                       0.70499                      -6.59638                       8.05812
                       0.85374                      -7.89585                       9.75833
                       1.00261                      -9.19349                      11.45994
                       1.15155                     -10.49010                      13.16232
                       1.30046                     -11.78717                      14.86428
                       1.44937                     -13.08409                      16.56632
                       1.59828                     -14.38087                      18.26842
                       1.74720                     -15.67750                      19.97055
                       1.89612                     -16.97407                      21.67270
                       2.02022                     -18.05453                      23.09118
                       2.11971                     -18.91558                      24.22845
                       2.22074                     -19.75380                      25.38321
                       2.27009                     -20.19017                      25.94729
        </DataArray>
        <DataArray type="Float32" Name="RotationalVelocity" NumberOfComponents="3" format="ascii">
                       0.52161                      -0.00000                      -0.04563
                       0.52161                      -0.00000                      -0.04563
                       0.52161                      -0.00000                      -0.04563
                       0.52161                      -0.00000                      -0.04563
                       0.52161                      -0.00000                      -0.04563
                       0.52161                      -0.00000                      -0.04563
                       0.52161                      -0.00000                      -0.04563
                       0.52161                      -0.00000                      -0.04563
                       0.52161                      -0.00000                      -0.04563
                       0.52161                      -0.00000                      -0.04563
                       0.52161                      -0.00000                      -0.04563
                       0.52161                      -0.00000                      -0.04563
                       0.52161                      -0.00000                      -0.04563
                       0.52161                      -0.00000                      -0.04563
                       0.52161                      -0.00000                      -0.04563
                       0.52161                      -0.00000                      -0.04563
                       0.52161                      -0.00000                      -0.04563
                       0.52161                      -0.00000                      -0.04563
                       0.52161                      -0.00000                      -0.04563
        </DataArray>
        <DataArray type="Float32" Name="TranslationalAcceleration" NumberOfComponents="3" format="ascii">
                      -0.02186                      -0.32542                      -0.24983
                      -0.04184                      -0.62133                      -0.47820
                      -0.08357                      -1.19709                      -0.95525
                      -0.12615                      -1.76523                      -1.44191
                      -0.17988                      -2.47090                      -2.05600
                      -0.24167                      -3.34212                      -2.76233
                      -0.30102                      -4.23534                      -3.44072
                      -0.36032                      -5.12897                      -4.11852
                      -0.41954                      -6.02333                      -4.79538
                      -0.47871                      -6.91810                      -5.47170
                      -0.53790                      -7.81265                      -6.14826
                      -0.59709                      -8.70724                      -6.82475
                      -0.65627                      -9.60186                      -7.50115
                      -0.71544                     -10.49650                      -8.17748
                      -0.77461                     -11.39115                      -8.85378
                      -0.82391                     -12.13670                      -9.41736
                      -0.86321                     -12.73445                      -9.86649
                      -0.90146                     -13.34139                     -10.30371
                      -0.92137                     -13.63787                     -10.53132
        </DataArray>
        <DataArray type="Float32" Name="OrientationX" NumberOfComponents="3" format="ascii">
                       0.99757                       0.03455                      -0.06055
                       0.99757                       0.03455                      -0.06055
                       0.99757                       0.03455                      -0.06055
                       0.99757                       0.03455                      -0.06055
                       0.99757                       0.03455                      -0.06055
                       0.99757                       0.03455                      -0.06055
                       0.99757                       0.03455                      -0.06055
                       0.99757                       0.03455                      -0.06055
                       0.99757                       0.03455                      -0.06055
                       0.99757                       0.03455                      -0.06055
                       0.99757                       0.03455                      -0.06055
                       0.99757                       0.03455                      -0.06055
                       0.99757                       0.03455                      -0.06055
                       0.99757                       0.03455                      -0.06055
                       0.99757                       0.03455                      -0.06055
                       0.99757                       0.03455                      -0.06055
                       0.99757                       0.03455                      -0.06055
                       0.99757                       0.03455                      -0.06055
                       0.99757                       0.03455                      -0.06055
        </DataArray>
        <DataArray type="Float32" Name="OrientationY" NumberOfComponents="3" format="ascii">
                      -0.06903                       0.61042                      -0.78906
                      -0.06903                       0.61042                      -0.78906
                      -0.06903                       0.61042                      -0.78906
                      -0.06903                       0.61042                      -0.78906
                      -0.06903                       0.61042                      -0.78906
                      -0.06903                       0.61042                      -0.78906
                      -0.06903                       0.61042                      -0.78906
                      -0.06903                       0.61042                      -0.78906
                      -0.06903                       0.61042                      -0.78906
                      -0.06903                       0.61042                      -0.78906
                      -0.06903                       0.61042                      -0.78906
                      -0.06903                       0.61042                      -0.78906
                      -0.06903                       0.61042                      -0.78906
                      -0.06903                       0.61042                      -0.78906
                      -0.06903                       0.61042                      -0.78906
                      -0.06903                       0.61042                      -0.78906
                      -0.06903                       0.61042                      -0.78906
                      -0.06903                       0.61042                      -0.78906
                      -0.06903                       0.61042                      -0.78906
        </DataArray>
        <DataArray type="Float32" Name="OrientationZ" NumberOfComponents="3" format="ascii">
                       0.00970                       0.79132                       0.61132
                       0.00970                       0.79132                       0.61132
                       0.00970                       0.79132                       0.61132
                       0.00970                       0.79132                       0.61132
                       0.00970                       0.79132                       0.61132
                       0.00970                       0.79132                       0.61132
                       0.00970                       0.79132                       0.61132
                       0.00970                       0.79132                       0.61132
                       0.00970                       0.79132                       0.61132
                       0.00970                       0.79132                       0.61132
                       0.00970                       0.79132                       0.61132
                       0.00970                       0.79132                       0.61132
                       0.00970                       0.79132                       0.61132
                       0.00970                       0.79132                       0.61132
                       0.00970                       0.79132                       0.61132
                       0.00970                       0.79132                       0.61132
                       0.00970                       0.79132                       0.61132
                       0.00970                       0.79132                       0.61132
                       0.00970                       0.79132                       0.61132
        </DataArray>
        <DataArray type="Float32" Name="Force" NumberOfComponents="3" format="ascii">
                       0.00015                      -0.00137                       0.00177
                     155.90885                      10.74373                     -16.38043
                     171.86534                      24.49940                     -34.43952
                     133.44726                      28.92964                     -39.56479
                    1079.77431                     -29.47180                      21.02062
                    1130.38975                     -20.89240                       9.11211
                    1283.84435                     -24.42104                      11.24541
                    1202.56185                     -15.62793                       1.15263
                    1142.85756                      -1.87461                     -15.70316
                    1220.22782                      -1.98292                     -16.79033
                    1185.11621                      13.87199                     -36.75665
                    1241.37885                      -1.75476                     -17.42120
                    1397.88089                     -55.33228                      49.44931
                    1576.28977                     -88.34245                      89.34899
                    1769.25514                    -117.79916                     124.41797
                    1931.92876                    -145.89880                     158.21086
                    1950.07831                    -151.71397                     165.45036
                    1445.36564                    -113.32303                     123.76190
                     393.63061                      17.19270                     -28.49938
        </DataArray>
        <DataArray type="Float32" Name="Moment" NumberOfComponents="3" format="ascii">
                       0.00000                       0.00000                       0.00000
                       0.00000                       0.00000                       0.00000
                       0.00000                       0.00000                       0.00000
                       0.00000                       0.00000                       0.00000
                      -7.42065                    -605.51688                    -467.78088
                      -8.07411                    -658.83818                    -508.97326
                      -8.02893                    -655.15174                    -506.12537
                      -8.23144                    -671.67650                    -518.89126
                      -8.07026                    -658.52384                    -508.73042
                      -7.70654                    -628.84465                    -485.80231
                      -6.90721                    -563.62093                    -435.41493
                      -6.09501                    -497.34560                    -384.21515
                      -6.20977                    -506.71053                    -391.44985
                      -5.35102                    -436.63708                    -337.31591
                      -4.66858                    -380.95054                    -294.29630
                      -3.89120                    -317.51792                    -245.29260
                      -3.38050                    -275.84485                    -213.09884
                      -1.49306                    -121.83235                     -94.11933
                      -1.24697                    -101.75097                     -78.60583
        </DataArray>
      </PointData>
      <Lines>
        <DataArray type="Int32" Name="connectivity" format="ascii">
      0      1
      1      2
      2      3
      3      4
      4      5
      5      6
      6      7
      7      8
      8      9
      9     10
     10     11
     11     12
     12     13
     13     14
     14     15
     15     16
     16     17
     17     18
        </DataArray>
        <DataArray type="Int32" Name="offsets" format="ascii">
      2
      4
      6
      8
     10
     12
     14
     16
     18
     20
     22
     24
     26
     28
     30
     32
     34
     36
        </DataArray>
      </Lines>
    </Piece>
  </PolyData>
</VTKFile>
