<?xml version="1.0"?>
<VTKFile type="PolyData" version="0.1" byte_order="LittleEndian">
  <PolyData>
    <Piece NumberOfPoints="    625" NumberOfVerts="  0" NumberOfLines="      0"
           NumberOfStrips="  0" NumberOfPolys="    600">
      <Points>
        <DataArray type="Float32" NumberOfComponents="3" format="ascii">
                      -4.86927                      -0.00353                      91.49429
                      -4.86927                      -0.00353                      91.49429
                      -4.86927                      -0.00353                      91.49429
                      -4.86927                      -0.00353                      91.49429
                      -4.86927                      -0.00353                      91.49429
                      -4.86927                      -0.00353                      91.49429
                      -4.86927                      -0.00353                      91.49429
                      -4.86927                      -0.00353                      91.49429
                      -4.86927                      -0.00353                      91.49429
                      -4.86927                      -0.00353                      91.49429
                      -4.86927                      -0.00353                      91.49429
                      -4.86927                      -0.00353                      91.49429
                      -4.86927                      -0.00353                      91.49429
                      -4.86927                      -0.00353                      91.49429
                      -4.86927                      -0.00353                      91.49429
                      -4.86927                      -0.00353                      91.49429
                      -4.86927                      -0.00353                      91.49429
                      -4.86927                      -0.00353                      91.49429
                      -4.86927                      -0.00353                      91.49429
                      -4.86927                      -0.00353                      91.49429
                      -4.86927                      -0.00353                      91.49429
                      -4.86927                      -0.00353                      91.49429
                      -4.86927                      -0.00353                      91.49429
                      -4.86927                      -0.00353                      91.49429
                      -4.86927                      -0.00353                      91.49429
                      -4.28296                      -0.00324                      91.31752
                      -4.30176                      -0.15232                      91.31881
                      -4.35689                      -0.29204                      91.32330
                      -4.44491                      -0.41361                      91.33072
                      -4.56027                      -0.50940                      91.34058
                      -4.69573                      -0.57338                      91.35228
                      -4.84279                      -0.60153                      91.36508
                      -4.99219                      -0.59210                      91.37818
                      -5.13455                      -0.54566                      91.39074
                      -5.26093                      -0.46514                      91.40199
                      -5.36338                      -0.35560                      91.41121
                      -5.43547                      -0.22392                      91.41783
                      -5.47267                      -0.07837                      91.42143
                      -5.47264                       0.07189                      91.42178
                      -5.43538                       0.21744                      91.41886
                      -5.36323                       0.34912                      91.41286
                      -5.26074                       0.45867                      91.40416
                      -5.13433                       0.53918                      91.39329
                      -4.99194                       0.58562                      91.38094
                      -4.84254                       0.59505                      91.36789
                      -4.69550                       0.56690                      91.35496
                      -4.56006                       0.50292                      91.34296
                      -4.44474                       0.40713                      91.33264
                      -4.35677                       0.28556                      91.32466
                      -4.30170                       0.14584                      91.31951
                      -4.06506                      -0.00295                      91.17298
                      -4.09105                      -0.20915                      91.17476
                      -4.16731                      -0.40239                      91.18098
                      -4.28904                      -0.57054                      91.19123
                      -4.44861                      -0.70302                      91.20488
                      -4.63597                      -0.79152                      91.22106
                      -4.83936                      -0.83046                      91.23876
                      -5.04600                      -0.81741                      91.25687
                      -5.24290                      -0.75319                      91.27425
                      -5.41770                      -0.64182                      91.28981
                      -5.55941                      -0.49031                      91.30256
                      -5.65912                      -0.30818                      91.31172
                      -5.71057                      -0.10687                      91.31670
                      -5.71052                       0.10098                      91.31718
                      -5.65899                       0.30229                      91.31315
                      -5.55921                       0.48442                      91.30485
                      -5.41744                       0.63593                      91.29281
                      -5.24260                       0.74730                      91.27777
                      -5.04567                       0.81152                      91.26070
                      -4.83902                       0.82457                      91.24265
                      -4.63565                       0.78563                      91.22476
                      -4.44832                       0.69713                      91.20816
                      -4.28881                       0.56465                      91.19390
                      -4.16714                       0.39650                      91.18285
                      -4.09096                       0.20326                      91.17573
                      -3.91357                      -0.00265                      91.03425
                      -3.94467                      -0.24939                      91.03638
                      -4.03592                      -0.48062                      91.04382
                      -4.18159                      -0.68183                      91.05609
                      -4.37252                      -0.84035                      91.07242
                      -4.59672                      -0.94625                      91.09178
                      -4.84009                      -0.99285                      91.11297
                      -5.08736                      -0.97723                      91.13464
                      -5.32297                      -0.90038                      91.15543
                      -5.53213                      -0.76712                      91.17404
                      -5.70169                      -0.58582                      91.18931
                      -5.82100                      -0.36789                      91.20026
                      -5.88256                      -0.12700                      91.20622
                      -5.88251                       0.12170                      91.20680
                      -5.82085                       0.36259                      91.20198
                      -5.70145                       0.58052                      91.19205
                      -5.53181                       0.76182                      91.17763
                      -5.32260                       0.89508                      91.15964
                      -5.08695                       0.97193                      91.13921
                      -4.83969                       0.98755                      91.11761
                      -4.59633                       0.94094                      91.09621
                      -4.37218                       0.83505                      91.07635
                      -4.18131                       0.67653                      91.05928
                      -4.03573                       0.47532                      91.04607
                      -3.94457                       0.24409                      91.03754
                      -3.79907                      -0.00236                      90.89875
                      -3.83411                      -0.28040                      90.90116
                      -3.93694                      -0.54097                      90.90954
                      -4.10109                      -0.76770                      90.92337
                      -4.31625                      -0.94634                      90.94177
                      -4.56889                      -1.06567                      90.96359
                      -4.84314                      -1.11818                      90.98746
                      -5.12177                      -1.10058                      91.01188
                      -5.38728                      -1.01398                      91.03531
                      -5.62297                      -0.86381                      91.05629
                      -5.81405                      -0.65952                      91.07349
                      -5.94850                      -0.41393                      91.08583
                      -6.01787                      -0.14248                      91.09254
                      -6.01781                       0.13777                      91.09320
                      -5.94833                       0.40922                      91.08776
                      -5.81378                       0.65481                      91.07657
                      -5.62262                       0.85910                      91.06033
                      -5.38686                       1.00927                      91.04006
                      -5.12132                       1.09587                      91.01703
                      -4.84268                       1.11347                      90.99270
                      -4.56845                       1.06095                      90.96858
                      -4.31586                       0.94163                      90.94620
                      -4.10078                       0.76299                      90.92696
                      -3.93672                       0.53626                      90.91207
                      -3.83400                       0.27569                      90.90247
                      -3.71003                      -0.00206                      90.76549
                      -3.74822                      -0.30505                      90.76811
                      -3.86028                      -0.58900                      90.77724
                      -4.03915                      -0.83608                      90.79231
                      -4.27361                      -1.03075                      90.81236
                      -4.54892                      -1.16078                      90.83614
                      -4.84778                      -1.21800                      90.86215
                      -5.15141                      -1.19883                      90.88876
                      -5.44074                      -1.10445                      90.91430
                      -5.69758                      -0.94081                      90.93715
                      -5.90580                      -0.71819                      90.95590
                      -6.05231                      -0.45056                      90.96935
                      -6.12791                      -0.15476                      90.97666
                      -6.12785                       0.15064                      90.97738
                      -6.05213                       0.44644                      90.97145
                      -5.90551                       0.71406                      90.95926
                      -5.69720                       0.93669                      90.94156
                      -5.44029                       1.10033                      90.91947
                      -5.15092                       1.19470                      90.89438
                      -4.84728                       1.21388                      90.86786
                      -4.54844                       1.15665                      90.84158
                      -4.27319                       1.02662                      90.81719
                      -4.03881                       0.83195                      90.79622
                      -3.86003                       0.58488                      90.78000
                      -3.74810                       0.30093                      90.76953
                      -3.64054                      -0.00177                      90.63393
                      -3.68126                      -0.32482                      90.63673
                      -3.80074                      -0.62758                      90.64646
                      -3.99146                      -0.89102                      90.66253
                      -4.24145                      -1.09858                      90.68391
                      -4.53499                      -1.23722                      90.70926
                      -4.85364                      -1.29824                      90.73700
                      -5.17739                      -1.27779                      90.76537
                      -5.48587                      -1.17717                      90.79259
                      -5.75973                      -1.00269                      90.81697
                      -5.98174                      -0.76532                      90.83695
                      -6.13795                      -0.47997                      90.85129
                      -6.21856                      -0.16458                      90.85909
                      -6.21849                       0.16104                      90.85986
                      -6.13775                       0.47644                      90.85354
                      -5.98142                       0.76179                      90.84054
                      -5.75932                       0.99916                      90.82166
                      -5.48539                       1.17363                      90.79811
                      -5.17686                       1.27426                      90.77136
                      -4.85311                       1.29470                      90.74308
                      -4.53448                       1.23369                      90.71506
                      -4.24100                       1.09504                      90.68906
                      -3.99110                       0.88748                      90.66670
                      -3.80048                       0.62405                      90.64940
                      -3.68113                       0.32129                      90.63824
                      -3.58713                      -0.00147                      90.50378
                      -3.62987                      -0.34058                      90.50672
                      -3.75529                      -0.65838                      90.51694
                      -3.95549                      -0.93491                      90.53380
                      -4.21790                      -1.15279                      90.55624
                      -4.52603                      -1.29832                      90.58285
                      -4.86051                      -1.36237                      90.61197
                      -5.20034                      -1.34090                      90.64175
                      -5.52416                      -1.23528                      90.67033
                      -5.81162                      -1.05213                      90.69591
                      -6.04466                      -0.80297                      90.71689
                      -6.20864                      -0.50344                      90.73194
                      -6.29325                      -0.17238                      90.74013
                      -6.29318                       0.16943                      90.74093
                      -6.20843                       0.50050                      90.73430
                      -6.04433                       0.80002                      90.72065
                      -5.81119                       1.04919                      90.70084
                      -5.52365                       1.23234                      90.67612
                      -5.19979                       1.33796                      90.64804
                      -4.85995                       1.35942                      90.61836
                      -4.52549                       1.29537                      90.58894
                      -4.21743                       1.14984                      90.56165
                      -3.95511                       0.93197                      90.53818
                      -3.75502                       0.65544                      90.52002
                      -3.62974                       0.33764                      90.50831
                      -3.54759                      -0.00118                      90.37484
                      -3.59192                      -0.35288                      90.37789
                      -3.72199                      -0.68248                      90.38849
                      -3.92963                      -0.96927                      90.40598
                      -4.20178                      -1.19523                      90.42925
                      -4.52135                      -1.34617                      90.45685
                      -4.86825                      -1.41260                      90.48705
                      -5.22070                      -1.39034                      90.51793
                      -5.55654                      -1.28079                      90.54758
                      -5.85467                      -1.09085                      90.57411
                      -6.09636                      -0.83243                      90.59587
                      -6.26643                      -0.52178                      90.61148
                      -6.35418                      -0.17843                      90.61997
                      -6.35411                       0.17607                      90.62080
                      -6.26622                       0.51943                      90.61392
                      -6.09602                       0.83007                      90.59977
                      -5.85422                       1.08849                      90.57922
                      -5.55601                       1.27844                      90.55358
                      -5.22013                       1.38798                      90.52446
                      -4.86767                       1.41024                      90.49367
                      -4.52079                       1.34382                      90.46317
                      -4.20129                       1.19288                      90.43486
                      -3.92923                       0.96692                      90.41052
                      -3.72171                       0.68012                      90.39169
                      -3.59178                       0.35052                      90.37954
                      -3.52048                      -0.00088                      90.24699
                      -3.56600                      -0.36207                      90.25012
                      -3.69958                      -0.70057                      90.26101
                      -3.91282                      -0.99510                      90.27897
                      -4.19231                      -1.22716                      90.30287
                      -4.52050                      -1.38216                      90.33122
                      -4.87677                      -1.45038                      90.36222
                      -5.23872                      -1.42752                      90.39395
                      -5.58362                      -1.31502                      90.42439
                      -5.88980                      -1.11995                      90.45164
                      -6.13801                      -0.85456                      90.47398
                      -6.31267                      -0.53553                      90.49001
                      -6.40279                      -0.18291                      90.49873
                      -6.40271                       0.18115                      90.49959
                      -6.31245                       0.53377                      90.49252
                      -6.13766                       0.85280                      90.47799
                      -5.88934                       1.11818                      90.45689
                      -5.58308                       1.31326                      90.43056
                      -5.23814                       1.42576                      90.40064
                      -4.87617                       1.44862                      90.36903
                      -4.51993                       1.38040                      90.33770
                      -4.19181                       1.22539                      90.30863
                      -3.91241                       0.99333                      90.28363
                      -3.69930                       0.69880                      90.26429
                      -3.56586                       0.36030                      90.25182
                      -3.50482                      -0.00059                      90.12015
                      -3.55118                      -0.36841                      90.12333
                      -3.68722                      -0.71311                      90.13442
                      -3.90436                      -1.01305                      90.15271
                      -4.18899                      -1.24936                      90.17705
                      -4.52320                      -1.40722                      90.20592
                      -4.88600                      -1.47669                      90.23749
                      -5.25460                      -1.45341                      90.26980
                      -5.60583                      -1.33884                      90.30080
                      -5.91762                      -1.14019                      90.32854
                      -6.17039                      -0.86993                      90.35130
                      -6.34825                      -0.54505                      90.36763
                      -6.44002                      -0.18596                      90.37650
                      -6.43995                       0.18478                      90.37738
                      -6.34803                       0.54387                      90.37018
                      -6.17003                       0.86875                      90.35538
                      -5.91715                       1.13901                      90.33389
                      -5.60528                       1.33766                      90.30708
                      -5.25400                       1.45223                      90.27662
                      -4.88539                       1.47551                      90.24442
                      -4.52262                       1.40604                      90.21252
                      -4.18847                       1.24819                      90.18291
                      -3.90395                       1.01187                      90.15746
                      -3.68692                       0.71193                      90.13776
                      -3.55103                       0.36723                      90.12506
                      -3.50001                      -0.00029                      89.99425
                      -3.54687                      -0.37203                      89.99747
                      -3.68435                      -0.72041                      90.00867
                      -3.90381                      -1.02354                      90.02716
                      -4.19147                      -1.26238                      90.05176
                      -4.52924                      -1.42191                      90.08093
                      -4.89591                      -1.49212                      90.11285
                      -5.26844                      -1.46860                      90.14549
                      -5.62341                      -1.35281                      90.17682
                      -5.93853                      -1.15204                      90.20487
                      -6.19399                      -0.87890                      90.22786
                      -6.37374                      -0.55056                      90.24437
                      -6.46650                      -0.18764                      90.25334
                      -6.46642                       0.18705                      90.25422
                      -6.37352                       0.54997                      90.24695
                      -6.19363                       0.87831                      90.23199
                      -5.93805                       1.15145                      90.21027
                      -5.62285                       1.35222                      90.18317
                      -5.26783                       1.46801                      90.15239
                      -4.89530                       1.49153                      90.11985
                      -4.52866                       1.42132                      90.08761
                      -4.19095                       1.26179                      90.05768
                      -3.90339                       1.02295                      90.03196
                      -3.68406                       0.71982                      90.01205
                      -3.54672                       0.37144                      89.99921
                      -3.50571                       0.00000                      89.86927
                      -3.55273                      -0.37303                      89.87250
                      -3.69069                      -0.72263                      89.88374
                      -3.91092                      -1.02682                      89.90229
                      -4.19958                      -1.26649                      89.92698
                      -4.53853                      -1.42658                      89.95626
                      -4.90648                      -1.49704                      89.98828
                      -5.28031                      -1.47343                      90.02104
                      -5.63652                      -1.35724                      90.05248
                      -5.95274                      -1.15577                      90.08062
                      -6.20909                      -0.88168                      90.10370
                      -6.38947                      -0.55219                      90.12026
                      -6.48255                      -0.18800                      90.12926
                      -6.48247                       0.18800                      90.13015
                      -6.38925                       0.55219                      90.12285
                      -6.20873                       0.88168                      90.10784
                      -5.95226                       1.15577                      90.08605
                      -5.63596                       1.35724                      90.05885
                      -5.27970                       1.47343                      90.02796
                      -4.90587                       1.49704                      89.99531
                      -4.53795                       1.42658                      89.96295
                      -4.19906                       1.26649                      89.93293
                      -3.91050                       1.02682                      89.90711
                      -3.69039                       0.72263                      89.88714
                      -3.55258                       0.37303                      89.87425
                      -3.52180                       0.00029                      89.74520
                      -3.56866                      -0.37144                      89.74842
                      -3.70614                      -0.71982                      89.75962
                      -3.92560                      -1.02295                      89.77811
                      -4.21326                      -1.26179                      89.80271
                      -4.55103                      -1.42132                      89.83188
                      -4.91770                      -1.49153                      89.86380
                      -5.29023                      -1.46801                      89.89644
                      -5.64520                      -1.35222                      89.92777
                      -5.96032                      -1.15145                      89.95582
                      -6.21578                      -0.87831                      89.97881
                      -6.39553                      -0.54997                      89.99532
                      -6.48829                      -0.18705                      90.00429
                      -6.48821                       0.18764                      90.00517
                      -6.39531                       0.55056                      89.99790
                      -6.21542                       0.87890                      89.98294
                      -5.95984                       1.15204                      89.96123
                      -5.64464                       1.35281                      89.93412
                      -5.28962                       1.46860                      89.90334
                      -4.91709                       1.49212                      89.87080
                      -4.55045                       1.42191                      89.83856
                      -4.21274                       1.26238                      89.80863
                      -3.92518                       1.02354                      89.78291
                      -3.70584                       0.72041                      89.76301
                      -3.56851                       0.37203                      89.75017
                      -3.54840                       0.00059                      89.62205
                      -3.59476                      -0.36723                      89.62524
                      -3.73079                      -0.71193                      89.63632
                      -3.94794                      -1.01187                      89.65461
                      -4.23256                      -1.24819                      89.67895
                      -4.56678                      -1.40604                      89.70782
                      -4.92958                      -1.47551                      89.73940
                      -5.29817                      -1.45223                      89.77170
                      -5.64940                      -1.33766                      89.80270
                      -5.96120                      -1.13901                      89.83045
                      -6.21397                      -0.86875                      89.85320
                      -6.39183                      -0.54387                      89.86953
                      -6.48360                      -0.18478                      89.87841
                      -6.48353                       0.18596                      89.87928
                      -6.39160                       0.54505                      89.87209
                      -6.21361                       0.86993                      89.85728
                      -5.96073                       1.14019                      89.83580
                      -5.64885                       1.33884                      89.80898
                      -5.29758                       1.45341                      89.77852
                      -4.92897                       1.47669                      89.74633
                      -4.56620                       1.40722                      89.71442
                      -4.23205                       1.24936                      89.68482
                      -3.94753                       1.01305                      89.65936
                      -3.73050                       0.71311                      89.63967
                      -3.59461                       0.36841                      89.62696
                      -3.58584                       0.00088                      89.49985
                      -3.63137                      -0.36030                      89.50298
                      -3.76495                      -0.69880                      89.51386
                      -3.97819                      -0.99333                      89.53182
                      -4.25768                      -1.22539                      89.55573
                      -4.58587                      -1.38040                      89.58407
                      -4.94213                      -1.44862                      89.61508
                      -5.30409                      -1.42576                      89.64680
                      -5.64899                      -1.31326                      89.67724
                      -5.95517                      -1.11818                      89.70449
                      -6.20338                      -0.85279                      89.72683
                      -6.37803                      -0.53377                      89.74287
                      -6.46815                      -0.18115                      89.75159
                      -6.46808                       0.18291                      89.75244
                      -6.37781                       0.53553                      89.74538
                      -6.20303                       0.85456                      89.73084
                      -5.95471                       1.11995                      89.70974
                      -5.64845                       1.31502                      89.68341
                      -5.30350                       1.42752                      89.65350
                      -4.94154                       1.45038                      89.62189
                      -4.58530                       1.38216                      89.59056
                      -4.25718                       1.22716                      89.56148
                      -3.97778                       0.99510                      89.53649
                      -3.76466                       0.70057                      89.51715
                      -3.63122                       0.36207                      89.50467
                      -3.63475                       0.00118                      89.37865
                      -3.67908                      -0.35052                      89.38170
                      -3.80915                      -0.68012                      89.39230
                      -4.01678                      -0.96691                      89.40978
                      -4.28893                      -1.19288                      89.43306
                      -4.60850                      -1.34382                      89.46066
                      -4.95541                      -1.41024                      89.49086
                      -5.30785                      -1.38798                      89.52174
                      -5.64369                      -1.27844                      89.55138
                      -5.94183                      -1.08849                      89.57792
                      -6.18352                      -0.83007                      89.59967
                      -6.35358                      -0.51943                      89.61529
                      -6.44134                      -0.17607                      89.62378
                      -6.44127                       0.17843                      89.62461
                      -6.35337                       0.52178                      89.61773
                      -6.18318                       0.83243                      89.60358
                      -5.94138                       1.09085                      89.58303
                      -5.64317                       1.28079                      89.55739
                      -5.30728                       1.39034                      89.52826
                      -4.95483                       1.41260                      89.49748
                      -4.60795                       1.34617                      89.46698
                      -4.28844                       1.19523                      89.43867
                      -4.01639                       0.96927                      89.41433
                      -3.80887                       0.68248                      89.39550
                      -3.67894                       0.35288                      89.38335
                      -3.69607                       0.00147                      89.25854
                      -3.73882                      -0.33764                      89.26148
                      -3.86423                      -0.65544                      89.27170
                      -4.06443                      -0.93197                      89.28856
                      -4.32684                      -1.14984                      89.31100
                      -4.63497                      -1.29537                      89.33761
                      -4.96946                      -1.35942                      89.36673
                      -5.30929                      -1.33796                      89.39651
                      -5.63311                      -1.23234                      89.42509
                      -5.92057                      -1.04919                      89.45067
                      -6.15361                      -0.80002                      89.47165
                      -6.31758                      -0.50050                      89.48670
                      -6.40220                      -0.16943                      89.49489
                      -6.40213                       0.17238                      89.49569
                      -6.31738                       0.50344                      89.48906
                      -6.15328                       0.80297                      89.47541
                      -5.92013                       1.05213                      89.45560
                      -5.63260                       1.23528                      89.43088
                      -5.30874                       1.34090                      89.40280
                      -4.96890                       1.36237                      89.37312
                      -4.63444                       1.29832                      89.34370
                      -4.32637                       1.15279                      89.31641
                      -4.06405                       0.93491                      89.29294
                      -3.86396                       0.65838                      89.27478
                      -3.73868                       0.34058                      89.26307
                      -3.77127                       0.00177                      89.13964
                      -3.81200                      -0.32129                      89.14244
                      -3.93147                      -0.62405                      89.15218
                      -4.12220                      -0.88748                      89.16824
                      -4.37218                      -1.09504                      89.18962
                      -4.66572                      -1.23369                      89.21497
                      -4.98438                      -1.29470                      89.24271
                      -5.30812                      -1.27426                      89.27108
                      -5.61661                      -1.17363                      89.29831
                      -5.89046                      -0.99916                      89.32268
                      -6.11247                      -0.76179                      89.34266
                      -6.26868                      -0.47644                      89.35700
                      -6.34929                      -0.16105                      89.36480
                      -6.34922                       0.16458                      89.36557
                      -6.26849                       0.47997                      89.35925
                      -6.11216                       0.76532                      89.34625
                      -5.89005                       1.00269                      89.32738
                      -5.61613                       1.17717                      89.30382
                      -5.30759                       1.27779                      89.27707
                      -4.98384                       1.29824                      89.24879
                      -4.66522                       1.23722                      89.22077
                      -4.37173                       1.09858                      89.19477
                      -4.12183                       0.89102                      89.17241
                      -3.93121                       0.62758                      89.15511
                      -3.81186                       0.32482                      89.14396
                      -3.86255                       0.00206                      89.02215
                      -3.90074                      -0.30093                      89.02477
                      -4.01280                      -0.58488                      89.03391
                      -4.19167                      -0.83195                      89.04897
                      -4.42613                      -1.02662                      89.06902
                      -4.70144                      -1.15665                      89.09280
                      -5.00030                      -1.21388                      89.11881
                      -5.30393                      -1.19470                      89.14542
                      -5.59326                      -1.10033                      89.17096
                      -5.85010                      -0.93669                      89.19382
                      -6.05832                      -0.71406                      89.21256
                      -6.20484                      -0.44644                      89.22601
                      -6.28044                      -0.15064                      89.23333
                      -6.28037                       0.15476                      89.23404
                      -6.20465                       0.45056                      89.22812
                      -6.05803                       0.71819                      89.21592
                      -5.84972                       0.94081                      89.19822
                      -5.59281                       1.10445                      89.17613
                      -5.30344                       1.19883                      89.15104
                      -4.99980                       1.21800                      89.12452
                      -4.70097                       1.16078                      89.09824
                      -4.42571                       1.03075                      89.07385
                      -4.19133                       0.83608                      89.05289
                      -4.01256                       0.58900                      89.03666
                      -3.90062                       0.30505                      89.02620
                      -3.97338                       0.00236                      88.90637
                      -4.00843                      -0.27569                      88.90878
                      -4.11125                      -0.53626                      88.91716
                      -4.27540                      -0.76299                      88.93098
                      -4.49056                      -0.94163                      88.94938
                      -4.74320                      -1.06095                      88.97120
                      -5.01745                      -1.11347                      88.99507
                      -5.29608                      -1.09587                      89.01949
                      -5.56159                      -1.00927                      89.04293
                      -5.79728                      -0.85910                      89.06390
                      -5.98836                      -0.65481                      89.08110
                      -6.12281                      -0.40922                      89.09345
                      -6.19218                      -0.13777                      89.10016
                      -6.19212                       0.14248                      89.10082
                      -6.12264                       0.41393                      89.09538
                      -5.98809                       0.65952                      89.08419
                      -5.79693                       0.86381                      89.06795
                      -5.56117                       1.01398                      89.04768
                      -5.29563                       1.10058                      89.02465
                      -5.01699                       1.11818                      89.00031
                      -4.74276                       1.06567                      88.97620
                      -4.49017                       0.94634                      88.95381
                      -4.27509                       0.76770                      88.93458
                      -4.11103                       0.54097                      88.91969
                      -4.00831                       0.28040                      88.91008
                      -4.10967                       0.00265                      88.79282
                      -4.14077                      -0.24409                      88.79495
                      -4.23202                      -0.47532                      88.80239
                      -4.37769                      -0.67653                      88.81466
                      -4.56862                      -0.83505                      88.83099
                      -4.79282                      -0.94094                      88.85035
                      -5.03619                      -0.98755                      88.87153
                      -5.28346                      -0.97193                      88.89320
                      -5.51907                      -0.89508                      88.91400
                      -5.72823                      -0.76182                      88.93261
                      -5.89779                      -0.58052                      88.94788
                      -6.01710                      -0.36259                      88.95883
                      -6.07866                      -0.12170                      88.96479
                      -6.07861                       0.12700                      88.96537
                      -6.01695                       0.36789                      88.96054
                      -5.89755                       0.58582                      88.95061
                      -5.72791                       0.76712                      88.93620
                      -5.51870                       0.90038                      88.91821
                      -5.28305                       0.97723                      88.89778
                      -5.03579                       0.99285                      88.87618
                      -4.79243                       0.94625                      88.85478
                      -4.56828                       0.84035                      88.83492
                      -4.37741                       0.68183                      88.81785
                      -4.23183                       0.48062                      88.80463
                      -4.14067                       0.24939                      88.79611
                      -4.28294                       0.00295                      88.68250
                      -4.30894                      -0.20326                      88.68428
                      -4.38520                      -0.39650                      88.69050
                      -4.50693                      -0.56465                      88.70075
                      -4.66650                      -0.69713                      88.71440
                      -4.85386                      -0.78563                      88.73058
                      -5.05725                      -0.82457                      88.74828
                      -5.26389                      -0.81152                      88.76639
                      -5.46079                      -0.74730                      88.78377
                      -5.63559                      -0.63593                      88.79933
                      -5.77729                      -0.48442                      88.81208
                      -5.87700                      -0.30229                      88.82124
                      -5.92845                      -0.10098                      88.82622
                      -5.92841                       0.10687                      88.82670
                      -5.87688                       0.30818                      88.82267
                      -5.77709                       0.49031                      88.81437
                      -5.63533                       0.64182                      88.80233
                      -5.46049                       0.75319                      88.78729
                      -5.26356                       0.81741                      88.77022
                      -5.05691                       0.83046                      88.75217
                      -4.85353                       0.79152                      88.73428
                      -4.66621                       0.70302                      88.71768
                      -4.50670                       0.57054                      88.70342
                      -4.38503                       0.40239                      88.69237
                      -4.30885                       0.20915                      88.68525
                      -4.52264                       0.00324                      88.57799
                      -4.54143                      -0.14584                      88.57928
                      -4.59657                      -0.28556                      88.58378
                      -4.68459                      -0.40713                      88.59119
                      -4.79995                      -0.50292                      88.60106
                      -4.93541                      -0.56690                      88.61276
                      -5.08246                      -0.59505                      88.62555
                      -5.23186                      -0.58562                      88.63865
                      -5.37423                      -0.53918                      88.65121
                      -5.50060                      -0.45867                      88.66246
                      -5.60306                      -0.34912                      88.67168
                      -5.67515                      -0.21744                      88.67830
                      -5.71234                      -0.07189                      88.68190
                      -5.71231                       0.07837                      88.68225
                      -5.67505                       0.22392                      88.67934
                      -5.60291                       0.35560                      88.67334
                      -5.50041                       0.46515                      88.66463
                      -5.37400                       0.54566                      88.65376
                      -5.23162                       0.59210                      88.64141
                      -5.08222                       0.60153                      88.62836
                      -4.93518                       0.57338                      88.61543
                      -4.79974                       0.50940                      88.60343
                      -4.68442                       0.41361                      88.59312
                      -4.59645                       0.29204                      88.58513
                      -4.54137                       0.15232                      88.57998
                      -5.13073                       0.00353                      88.50572
                      -5.13073                       0.00353                      88.50572
                      -5.13073                       0.00353                      88.50572
                      -5.13073                       0.00353                      88.50572
                      -5.13073                       0.00353                      88.50572
                      -5.13073                       0.00353                      88.50572
                      -5.13073                       0.00353                      88.50572
                      -5.13073                       0.00353                      88.50572
                      -5.13073                       0.00353                      88.50572
                      -5.13073                       0.00353                      88.50572
                      -5.13073                       0.00353                      88.50572
                      -5.13073                       0.00353                      88.50572
                      -5.13073                       0.00353                      88.50572
                      -5.13073                       0.00353                      88.50572
                      -5.13073                       0.00353                      88.50572
                      -5.13073                       0.00353                      88.50572
                      -5.13073                       0.00353                      88.50572
                      -5.13073                       0.00353                      88.50572
                      -5.13073                       0.00353                      88.50572
                      -5.13073                       0.00353                      88.50572
                      -5.13073                       0.00353                      88.50572
                      -5.13073                       0.00353                      88.50572
                      -5.13073                       0.00353                      88.50572
                      -5.13073                       0.00353                      88.50572
                      -5.13073                       0.00353                      88.50572
        </DataArray>
      </Points>
      <Polys>
        <DataArray type="Int32" Name="connectivity" format="ascii">
      0      1     26     25
      1      2     27     26
      2      3     28     27
      3      4     29     28
      4      5     30     29
      5      6     31     30
      6      7     32     31
      7      8     33     32
      8      9     34     33
      9     10     35     34
     10     11     36     35
     11     12     37     36
     12     13     38     37
     13     14     39     38
     14     15     40     39
     15     16     41     40
     16     17     42     41
     17     18     43     42
     18     19     44     43
     19     20     45     44
     20     21     46     45
     21     22     47     46
     22     23     48     47
     23     24     49     48
     24      0     25     49
     25     26     51     50
     26     27     52     51
     27     28     53     52
     28     29     54     53
     29     30     55     54
     30     31     56     55
     31     32     57     56
     32     33     58     57
     33     34     59     58
     34     35     60     59
     35     36     61     60
     36     37     62     61
     37     38     63     62
     38     39     64     63
     39     40     65     64
     40     41     66     65
     41     42     67     66
     42     43     68     67
     43     44     69     68
     44     45     70     69
     45     46     71     70
     46     47     72     71
     47     48     73     72
     48     49     74     73
     49     25     50     74
     50     51     76     75
     51     52     77     76
     52     53     78     77
     53     54     79     78
     54     55     80     79
     55     56     81     80
     56     57     82     81
     57     58     83     82
     58     59     84     83
     59     60     85     84
     60     61     86     85
     61     62     87     86
     62     63     88     87
     63     64     89     88
     64     65     90     89
     65     66     91     90
     66     67     92     91
     67     68     93     92
     68     69     94     93
     69     70     95     94
     70     71     96     95
     71     72     97     96
     72     73     98     97
     73     74     99     98
     74     50     75     99
     75     76    101    100
     76     77    102    101
     77     78    103    102
     78     79    104    103
     79     80    105    104
     80     81    106    105
     81     82    107    106
     82     83    108    107
     83     84    109    108
     84     85    110    109
     85     86    111    110
     86     87    112    111
     87     88    113    112
     88     89    114    113
     89     90    115    114
     90     91    116    115
     91     92    117    116
     92     93    118    117
     93     94    119    118
     94     95    120    119
     95     96    121    120
     96     97    122    121
     97     98    123    122
     98     99    124    123
     99     75    100    124
    100    101    126    125
    101    102    127    126
    102    103    128    127
    103    104    129    128
    104    105    130    129
    105    106    131    130
    106    107    132    131
    107    108    133    132
    108    109    134    133
    109    110    135    134
    110    111    136    135
    111    112    137    136
    112    113    138    137
    113    114    139    138
    114    115    140    139
    115    116    141    140
    116    117    142    141
    117    118    143    142
    118    119    144    143
    119    120    145    144
    120    121    146    145
    121    122    147    146
    122    123    148    147
    123    124    149    148
    124    100    125    149
    125    126    151    150
    126    127    152    151
    127    128    153    152
    128    129    154    153
    129    130    155    154
    130    131    156    155
    131    132    157    156
    132    133    158    157
    133    134    159    158
    134    135    160    159
    135    136    161    160
    136    137    162    161
    137    138    163    162
    138    139    164    163
    139    140    165    164
    140    141    166    165
    141    142    167    166
    142    143    168    167
    143    144    169    168
    144    145    170    169
    145    146    171    170
    146    147    172    171
    147    148    173    172
    148    149    174    173
    149    125    150    174
    150    151    176    175
    151    152    177    176
    152    153    178    177
    153    154    179    178
    154    155    180    179
    155    156    181    180
    156    157    182    181
    157    158    183    182
    158    159    184    183
    159    160    185    184
    160    161    186    185
    161    162    187    186
    162    163    188    187
    163    164    189    188
    164    165    190    189
    165    166    191    190
    166    167    192    191
    167    168    193    192
    168    169    194    193
    169    170    195    194
    170    171    196    195
    171    172    197    196
    172    173    198    197
    173    174    199    198
    174    150    175    199
    175    176    201    200
    176    177    202    201
    177    178    203    202
    178    179    204    203
    179    180    205    204
    180    181    206    205
    181    182    207    206
    182    183    208    207
    183    184    209    208
    184    185    210    209
    185    186    211    210
    186    187    212    211
    187    188    213    212
    188    189    214    213
    189    190    215    214
    190    191    216    215
    191    192    217    216
    192    193    218    217
    193    194    219    218
    194    195    220    219
    195    196    221    220
    196    197    222    221
    197    198    223    222
    198    199    224    223
    199    175    200    224
    200    201    226    225
    201    202    227    226
    202    203    228    227
    203    204    229    228
    204    205    230    229
    205    206    231    230
    206    207    232    231
    207    208    233    232
    208    209    234    233
    209    210    235    234
    210    211    236    235
    211    212    237    236
    212    213    238    237
    213    214    239    238
    214    215    240    239
    215    216    241    240
    216    217    242    241
    217    218    243    242
    218    219    244    243
    219    220    245    244
    220    221    246    245
    221    222    247    246
    222    223    248    247
    223    224    249    248
    224    200    225    249
    225    226    251    250
    226    227    252    251
    227    228    253    252
    228    229    254    253
    229    230    255    254
    230    231    256    255
    231    232    257    256
    232    233    258    257
    233    234    259    258
    234    235    260    259
    235    236    261    260
    236    237    262    261
    237    238    263    262
    238    239    264    263
    239    240    265    264
    240    241    266    265
    241    242    267    266
    242    243    268    267
    243    244    269    268
    244    245    270    269
    245    246    271    270
    246    247    272    271
    247    248    273    272
    248    249    274    273
    249    225    250    274
    250    251    276    275
    251    252    277    276
    252    253    278    277
    253    254    279    278
    254    255    280    279
    255    256    281    280
    256    257    282    281
    257    258    283    282
    258    259    284    283
    259    260    285    284
    260    261    286    285
    261    262    287    286
    262    263    288    287
    263    264    289    288
    264    265    290    289
    265    266    291    290
    266    267    292    291
    267    268    293    292
    268    269    294    293
    269    270    295    294
    270    271    296    295
    271    272    297    296
    272    273    298    297
    273    274    299    298
    274    250    275    299
    275    276    301    300
    276    277    302    301
    277    278    303    302
    278    279    304    303
    279    280    305    304
    280    281    306    305
    281    282    307    306
    282    283    308    307
    283    284    309    308
    284    285    310    309
    285    286    311    310
    286    287    312    311
    287    288    313    312
    288    289    314    313
    289    290    315    314
    290    291    316    315
    291    292    317    316
    292    293    318    317
    293    294    319    318
    294    295    320    319
    295    296    321    320
    296    297    322    321
    297    298    323    322
    298    299    324    323
    299    275    300    324
    300    301    326    325
    301    302    327    326
    302    303    328    327
    303    304    329    328
    304    305    330    329
    305    306    331    330
    306    307    332    331
    307    308    333    332
    308    309    334    333
    309    310    335    334
    310    311    336    335
    311    312    337    336
    312    313    338    337
    313    314    339    338
    314    315    340    339
    315    316    341    340
    316    317    342    341
    317    318    343    342
    318    319    344    343
    319    320    345    344
    320    321    346    345
    321    322    347    346
    322    323    348    347
    323    324    349    348
    324    300    325    349
    325    326    351    350
    326    327    352    351
    327    328    353    352
    328    329    354    353
    329    330    355    354
    330    331    356    355
    331    332    357    356
    332    333    358    357
    333    334    359    358
    334    335    360    359
    335    336    361    360
    336    337    362    361
    337    338    363    362
    338    339    364    363
    339    340    365    364
    340    341    366    365
    341    342    367    366
    342    343    368    367
    343    344    369    368
    344    345    370    369
    345    346    371    370
    346    347    372    371
    347    348    373    372
    348    349    374    373
    349    325    350    374
    350    351    376    375
    351    352    377    376
    352    353    378    377
    353    354    379    378
    354    355    380    379
    355    356    381    380
    356    357    382    381
    357    358    383    382
    358    359    384    383
    359    360    385    384
    360    361    386    385
    361    362    387    386
    362    363    388    387
    363    364    389    388
    364    365    390    389
    365    366    391    390
    366    367    392    391
    367    368    393    392
    368    369    394    393
    369    370    395    394
    370    371    396    395
    371    372    397    396
    372    373    398    397
    373    374    399    398
    374    350    375    399
    375    376    401    400
    376    377    402    401
    377    378    403    402
    378    379    404    403
    379    380    405    404
    380    381    406    405
    381    382    407    406
    382    383    408    407
    383    384    409    408
    384    385    410    409
    385    386    411    410
    386    387    412    411
    387    388    413    412
    388    389    414    413
    389    390    415    414
    390    391    416    415
    391    392    417    416
    392    393    418    417
    393    394    419    418
    394    395    420    419
    395    396    421    420
    396    397    422    421
    397    398    423    422
    398    399    424    423
    399    375    400    424
    400    401    426    425
    401    402    427    426
    402    403    428    427
    403    404    429    428
    404    405    430    429
    405    406    431    430
    406    407    432    431
    407    408    433    432
    408    409    434    433
    409    410    435    434
    410    411    436    435
    411    412    437    436
    412    413    438    437
    413    414    439    438
    414    415    440    439
    415    416    441    440
    416    417    442    441
    417    418    443    442
    418    419    444    443
    419    420    445    444
    420    421    446    445
    421    422    447    446
    422    423    448    447
    423    424    449    448
    424    400    425    449
    425    426    451    450
    426    427    452    451
    427    428    453    452
    428    429    454    453
    429    430    455    454
    430    431    456    455
    431    432    457    456
    432    433    458    457
    433    434    459    458
    434    435    460    459
    435    436    461    460
    436    437    462    461
    437    438    463    462
    438    439    464    463
    439    440    465    464
    440    441    466    465
    441    442    467    466
    442    443    468    467
    443    444    469    468
    444    445    470    469
    445    446    471    470
    446    447    472    471
    447    448    473    472
    448    449    474    473
    449    425    450    474
    450    451    476    475
    451    452    477    476
    452    453    478    477
    453    454    479    478
    454    455    480    479
    455    456    481    480
    456    457    482    481
    457    458    483    482
    458    459    484    483
    459    460    485    484
    460    461    486    485
    461    462    487    486
    462    463    488    487
    463    464    489    488
    464    465    490    489
    465    466    491    490
    466    467    492    491
    467    468    493    492
    468    469    494    493
    469    470    495    494
    470    471    496    495
    471    472    497    496
    472    473    498    497
    473    474    499    498
    474    450    475    499
    475    476    501    500
    476    477    502    501
    477    478    503    502
    478    479    504    503
    479    480    505    504
    480    481    506    505
    481    482    507    506
    482    483    508    507
    483    484    509    508
    484    485    510    509
    485    486    511    510
    486    487    512    511
    487    488    513    512
    488    489    514    513
    489    490    515    514
    490    491    516    515
    491    492    517    516
    492    493    518    517
    493    494    519    518
    494    495    520    519
    495    496    521    520
    496    497    522    521
    497    498    523    522
    498    499    524    523
    499    475    500    524
    500    501    526    525
    501    502    527    526
    502    503    528    527
    503    504    529    528
    504    505    530    529
    505    506    531    530
    506    507    532    531
    507    508    533    532
    508    509    534    533
    509    510    535    534
    510    511    536    535
    511    512    537    536
    512    513    538    537
    513    514    539    538
    514    515    540    539
    515    516    541    540
    516    517    542    541
    517    518    543    542
    518    519    544    543
    519    520    545    544
    520    521    546    545
    521    522    547    546
    522    523    548    547
    523    524    549    548
    524    500    525    549
    525    526    551    550
    526    527    552    551
    527    528    553    552
    528    529    554    553
    529    530    555    554
    530    531    556    555
    531    532    557    556
    532    533    558    557
    533    534    559    558
    534    535    560    559
    535    536    561    560
    536    537    562    561
    537    538    563    562
    538    539    564    563
    539    540    565    564
    540    541    566    565
    541    542    567    566
    542    543    568    567
    543    544    569    568
    544    545    570    569
    545    546    571    570
    546    547    572    571
    547    548    573    572
    548    549    574    573
    549    525    550    574
    550    551    576    575
    551    552    577    576
    552    553    578    577
    553    554    579    578
    554    555    580    579
    555    556    581    580
    556    557    582    581
    557    558    583    582
    558    559    584    583
    559    560    585    584
    560    561    586    585
    561    562    587    586
    562    563    588    587
    563    564    589    588
    564    565    590    589
    565    566    591    590
    566    567    592    591
    567    568    593    592
    568    569    594    593
    569    570    595    594
    570    571    596    595
    571    572    597    596
    572    573    598    597
    573    574    599    598
    574    550    575    599
    575    576    601    600
    576    577    602    601
    577    578    603    602
    578    579    604    603
    579    580    605    604
    580    581    606    605
    581    582    607    606
    582    583    608    607
    583    584    609    608
    584    585    610    609
    585    586    611    610
    586    587    612    611
    587    588    613    612
    588    589    614    613
    589    590    615    614
    590    591    616    615
    591    592    617    616
    592    593    618    617
    593    594    619    618
    594    595    620    619
    595    596    621    620
    596    597    622    621
    597    598    623    622
    598    599    624    623
    599    575    600    624
        </DataArray>
        <DataArray type="Int32" Name="offsets" format="ascii">
      4
      8
     12
     16
     20
     24
     28
     32
     36
     40
     44
     48
     52
     56
     60
     64
     68
     72
     76
     80
     84
     88
     92
     96
    100
    104
    108
    112
    116
    120
    124
    128
    132
    136
    140
    144
    148
    152
    156
    160
    164
    168
    172
    176
    180
    184
    188
    192
    196
    200
    204
    208
    212
    216
    220
    224
    228
    232
    236
    240
    244
    248
    252
    256
    260
    264
    268
    272
    276
    280
    284
    288
    292
    296
    300
    304
    308
    312
    316
    320
    324
    328
    332
    336
    340
    344
    348
    352
    356
    360
    364
    368
    372
    376
    380
    384
    388
    392
    396
    400
    404
    408
    412
    416
    420
    424
    428
    432
    436
    440
    444
    448
    452
    456
    460
    464
    468
    472
    476
    480
    484
    488
    492
    496
    500
    504
    508
    512
    516
    520
    524
    528
    532
    536
    540
    544
    548
    552
    556
    560
    564
    568
    572
    576
    580
    584
    588
    592
    596
    600
    604
    608
    612
    616
    620
    624
    628
    632
    636
    640
    644
    648
    652
    656
    660
    664
    668
    672
    676
    680
    684
    688
    692
    696
    700
    704
    708
    712
    716
    720
    724
    728
    732
    736
    740
    744
    748
    752
    756
    760
    764
    768
    772
    776
    780
    784
    788
    792
    796
    800
    804
    808
    812
    816
    820
    824
    828
    832
    836
    840
    844
    848
    852
    856
    860
    864
    868
    872
    876
    880
    884
    888
    892
    896
    900
    904
    908
    912
    916
    920
    924
    928
    932
    936
    940
    944
    948
    952
    956
    960
    964
    968
    972
    976
    980
    984
    988
    992
    996
   1000
   1004
   1008
   1012
   1016
   1020
   1024
   1028
   1032
   1036
   1040
   1044
   1048
   1052
   1056
   1060
   1064
   1068
   1072
   1076
   1080
   1084
   1088
   1092
   1096
   1100
   1104
   1108
   1112
   1116
   1120
   1124
   1128
   1132
   1136
   1140
   1144
   1148
   1152
   1156
   1160
   1164
   1168
   1172
   1176
   1180
   1184
   1188
   1192
   1196
   1200
   1204
   1208
   1212
   1216
   1220
   1224
   1228
   1232
   1236
   1240
   1244
   1248
   1252
   1256
   1260
   1264
   1268
   1272
   1276
   1280
   1284
   1288
   1292
   1296
   1300
   1304
   1308
   1312
   1316
   1320
   1324
   1328
   1332
   1336
   1340
   1344
   1348
   1352
   1356
   1360
   1364
   1368
   1372
   1376
   1380
   1384
   1388
   1392
   1396
   1400
   1404
   1408
   1412
   1416
   1420
   1424
   1428
   1432
   1436
   1440
   1444
   1448
   1452
   1456
   1460
   1464
   1468
   1472
   1476
   1480
   1484
   1488
   1492
   1496
   1500
   1504
   1508
   1512
   1516
   1520
   1524
   1528
   1532
   1536
   1540
   1544
   1548
   1552
   1556
   1560
   1564
   1568
   1572
   1576
   1580
   1584
   1588
   1592
   1596
   1600
   1604
   1608
   1612
   1616
   1620
   1624
   1628
   1632
   1636
   1640
   1644
   1648
   1652
   1656
   1660
   1664
   1668
   1672
   1676
   1680
   1684
   1688
   1692
   1696
   1700
   1704
   1708
   1712
   1716
   1720
   1724
   1728
   1732
   1736
   1740
   1744
   1748
   1752
   1756
   1760
   1764
   1768
   1772
   1776
   1780
   1784
   1788
   1792
   1796
   1800
   1804
   1808
   1812
   1816
   1820
   1824
   1828
   1832
   1836
   1840
   1844
   1848
   1852
   1856
   1860
   1864
   1868
   1872
   1876
   1880
   1884
   1888
   1892
   1896
   1900
   1904
   1908
   1912
   1916
   1920
   1924
   1928
   1932
   1936
   1940
   1944
   1948
   1952
   1956
   1960
   1964
   1968
   1972
   1976
   1980
   1984
   1988
   1992
   1996
   2000
   2004
   2008
   2012
   2016
   2020
   2024
   2028
   2032
   2036
   2040
   2044
   2048
   2052
   2056
   2060
   2064
   2068
   2072
   2076
   2080
   2084
   2088
   2092
   2096
   2100
   2104
   2108
   2112
   2116
   2120
   2124
   2128
   2132
   2136
   2140
   2144
   2148
   2152
   2156
   2160
   2164
   2168
   2172
   2176
   2180
   2184
   2188
   2192
   2196
   2200
   2204
   2208
   2212
   2216
   2220
   2224
   2228
   2232
   2236
   2240
   2244
   2248
   2252
   2256
   2260
   2264
   2268
   2272
   2276
   2280
   2284
   2288
   2292
   2296
   2300
   2304
   2308
   2312
   2316
   2320
   2324
   2328
   2332
   2336
   2340
   2344
   2348
   2352
   2356
   2360
   2364
   2368
   2372
   2376
   2380
   2384
   2388
   2392
   2396
   2400
        </DataArray>
      </Polys>
    </Piece>
  </PolyData>
</VTKFile>
