<?xml version="1.0"?>
<VTKFile type="PolyData" version="0.1" byte_order="LittleEndian">
  <PolyData>
    <Piece NumberOfPoints="     19" NumberOfVerts="  0" NumberOfLines="     18"
           NumberOfStrips="  0" NumberOfPolys="      0">
      <Points>
        <DataArray type="Float32" NumberOfComponents="3" format="ascii">
                      -5.13269                       1.28284                      89.23403
                      -5.25415                       2.45343                      88.53916
                      -5.51223                       4.84263                      87.23265
                      -5.77749                       7.25460                      85.96554
                      -6.11338                      10.28324                      84.40514
                      -6.47456                      13.84559                      82.40488
                      -6.82155                      17.34163                      80.29110
                      -7.17100                      20.83625                      78.17537
                      -7.52066                      24.32861                      76.05589
                      -7.87121                      27.81967                      73.93438
                      -8.22370                      31.31126                      71.81410
                      -8.57752                      34.80264                      69.69370
                      -8.93332                      38.29379                      67.57326
                      -9.29180                      41.78471                      65.45290
                      -9.65122                      45.27554                      63.33255
                      -9.95137                      48.18454                      61.56559
                     -10.19263                      50.50758                      60.14537
                     -10.43929                      52.80213                      58.67837
                     -10.56019                      53.97088                      57.98052
        </DataArray>
      </Points>
      <PointData>
        <DataArray type="Float32" Name="TranslationalVelocity" NumberOfComponents="3" format="ascii">
                       0.05854                       0.40559                       0.66914
                       0.11196                       0.77358                       1.27972
                       0.22099                       1.46684                       2.52594
                       0.33106                       2.13988                       3.78405
                       0.46927                       2.96912                       5.36380
                       0.63184                       4.02896                       7.22195
                       0.79138                       5.14735                       9.04551
                       0.95085                       6.26687                      10.86832
                       1.11023                       7.38837                      12.68996
                       1.26954                       8.51096                      14.51091
                       1.42888                       9.63300                      16.33215
                       1.58821                      10.75516                      18.15328
                       1.74752                      11.87743                      19.97428
                       1.90683                      12.99978                      21.79517
                       2.06613                      14.12217                      23.61601
                       2.19888                      15.05752                      25.13336
                       2.30490                      15.80933                      26.34507
                       2.40961                      16.58578                      27.54192
                       2.46294                      16.95530                      28.15155
        </DataArray>
        <DataArray type="Float32" Name="RotationalVelocity" NumberOfComponents="3" format="ascii">
                       0.52161                      -0.00000                      -0.04563
                       0.52161                      -0.00000                      -0.04563
                       0.52161                      -0.00000                      -0.04563
                       0.52161                      -0.00000                      -0.04563
                       0.52161                      -0.00000                      -0.04563
                       0.52161                      -0.00000                      -0.04563
                       0.52161                      -0.00000                      -0.04563
                       0.52161                      -0.00000                      -0.04563
                       0.52161                      -0.00000                      -0.04563
                       0.52161                      -0.00000                      -0.04563
                       0.52161                      -0.00000                      -0.04563
                       0.52161                      -0.00000                      -0.04563
                       0.52161                      -0.00000                      -0.04563
                       0.52161                      -0.00000                      -0.04563
                       0.52161                      -0.00000                      -0.04563
                       0.52161                      -0.00000                      -0.04563
                       0.52161                      -0.00000                      -0.04563
                       0.52161                      -0.00000                      -0.04563
                       0.52161                      -0.00000                      -0.04563
        </DataArray>
        <DataArray type="Float32" Name="TranslationalAcceleration" NumberOfComponents="3" format="ascii">
                       0.01851                      -0.35170                       0.21156
                       0.03530                      -0.67262                       0.40351
                       0.06694                      -1.32763                       0.76512
                       0.09765                      -1.98889                       1.11618
                       0.13549                      -2.81921                       1.54871
                       0.18386                      -3.79585                       2.10153
                       0.23490                      -4.75431                       2.68489
                       0.28599                      -5.71238                       3.26884
                       0.33717                      -6.66983                       3.85382
                       0.38839                      -7.62692                       4.43937
                       0.43960                      -8.58416                       5.02463
                       0.49081                      -9.54134                       5.60996
                       0.54202                     -10.49846                       6.19534
                       0.59324                     -11.45552                       6.78077
                       0.64446                     -12.41255                       7.36621
                       0.68714                     -13.21007                       7.85410
                       0.72145                     -13.84694                       8.24625
                       0.75689                     -14.47600                       8.65125
                       0.77375                     -14.79642                       8.84399
        </DataArray>
        <DataArray type="Float32" Name="OrientationX" NumberOfComponents="3" format="ascii">
                       0.99328                       0.03734                      -0.10953
                       0.99328                       0.03734                      -0.10953
                       0.99328                       0.03734                      -0.10953
                       0.99328                       0.03734                      -0.10953
                       0.99328                       0.03734                      -0.10953
                       0.99328                       0.03734                      -0.10953
                       0.99328                       0.03734                      -0.10953
                       0.99328                       0.03734                      -0.10953
                       0.99328                       0.03734                      -0.10953
                       0.99328                       0.03734                      -0.10953
                       0.99328                       0.03734                      -0.10953
                       0.99328                       0.03734                      -0.10953
                       0.99328                       0.03734                      -0.10953
                       0.99328                       0.03734                      -0.10953
                       0.99328                       0.03734                      -0.10953
                       0.99328                       0.03734                      -0.10953
                       0.99328                       0.03734                      -0.10953
                       0.99328                       0.03734                      -0.10953
                       0.99328                       0.03734                      -0.10953
        </DataArray>
        <DataArray type="Float32" Name="OrientationY" NumberOfComponents="3" format="ascii">
                      -0.07461                      -0.51691                      -0.85278
                      -0.07461                      -0.51691                      -0.85278
                      -0.07461                      -0.51691                      -0.85278
                      -0.07461                      -0.51691                      -0.85278
                      -0.07461                      -0.51691                      -0.85278
                      -0.07461                      -0.51691                      -0.85278
                      -0.07461                      -0.51691                      -0.85278
                      -0.07461                      -0.51691                      -0.85278
                      -0.07461                      -0.51691                      -0.85278
                      -0.07461                      -0.51691                      -0.85278
                      -0.07461                      -0.51691                      -0.85278
                      -0.07461                      -0.51691                      -0.85278
                      -0.07461                      -0.51691                      -0.85278
                      -0.07461                      -0.51691                      -0.85278
                      -0.07461                      -0.51691                      -0.85278
                      -0.07461                      -0.51691                      -0.85278
                      -0.07461                      -0.51691                      -0.85278
                      -0.07461                      -0.51691                      -0.85278
                      -0.07461                      -0.51691                      -0.85278
        </DataArray>
        <DataArray type="Float32" Name="OrientationZ" NumberOfComponents="3" format="ascii">
                      -0.08846                       0.85523                      -0.51065
                      -0.08846                       0.85523                      -0.51065
                      -0.08846                       0.85523                      -0.51065
                      -0.08846                       0.85523                      -0.51065
                      -0.08846                       0.85523                      -0.51065
                      -0.08846                       0.85523                      -0.51065
                      -0.08846                       0.85523                      -0.51065
                      -0.08846                       0.85523                      -0.51065
                      -0.08846                       0.85523                      -0.51065
                      -0.08846                       0.85523                      -0.51065
                      -0.08846                       0.85523                      -0.51065
                      -0.08846                       0.85523                      -0.51065
                      -0.08846                       0.85523                      -0.51065
                      -0.08846                       0.85523                      -0.51065
                      -0.08846                       0.85523                      -0.51065
                      -0.08846                       0.85523                      -0.51065
                      -0.08846                       0.85523                      -0.51065
                      -0.08846                       0.85523                      -0.51065
                      -0.08846                       0.85523                      -0.51065
        </DataArray>
        <DataArray type="Float32" Name="Force" NumberOfComponents="3" format="ascii">
                       0.00128                       0.00886                       0.01462
                     141.16681                       2.97362                     -19.47479
                     162.30741                      -5.59337                     -37.48496
                     128.54085                     -13.35602                     -44.63622
                    1025.10650                      91.89658                     -23.67672
                    1067.59820                      87.90354                     -37.72524
                    1200.29419                      99.34725                     -41.54701
                    1144.24997                      88.70629                     -49.65956
                    1073.38072                      73.07864                     -63.55553
                    1126.19451                      78.44914                     -63.71026
                    1118.30899                      78.87587                     -61.62954
                    1308.16078                     124.98552                     -17.29459
                    1547.24656                     184.04379                      40.19751
                    1733.93965                     231.55437                      87.42590
                    1944.13249                     257.75935                      94.90099
                    1967.45063                     263.77600                     100.93809
                    1941.47069                     252.71072                      86.90673
                    1412.72944                     182.94239                      61.65591
                     393.48560                      11.79379                     -48.41324
        </DataArray>
        <DataArray type="Float32" Name="Moment" NumberOfComponents="3" format="ascii">
                       0.00000                       0.00000                       0.00000
                       0.00000                       0.00000                       0.00000
                       0.00000                       0.00000                       0.00000
                       0.00000                       0.00000                       0.00000
                      65.06454                    -629.02702                     375.58627
                      69.34058                    -670.36668                     400.26980
                      67.81682                    -655.63539                     391.47388
                      71.30725                    -689.37989                     411.62241
                      67.88891                    -656.33225                     391.88997
                      63.36368                    -612.58357                     365.76803
                      52.50918                    -507.64508                     303.11022
                      51.58592                    -498.71922                     297.78068
                      52.82148                    -510.66427                     304.91295
                      37.32612                    -360.85916                     215.46570
                      37.29932                    -360.60007                     215.31100
                      30.52765                    -295.13339                     176.22144
                      29.32026                    -283.46066                     169.25176
                      14.19997                    -137.28163                      81.96960
                      11.42079                    -110.41319                      65.92670
        </DataArray>
      </PointData>
      <Lines>
        <DataArray type="Int32" Name="connectivity" format="ascii">
      0      1
      1      2
      2      3
      3      4
      4      5
      5      6
      6      7
      7      8
      8      9
      9     10
     10     11
     11     12
     12     13
     13     14
     14     15
     15     16
     16     17
     17     18
        </DataArray>
        <DataArray type="Int32" Name="offsets" format="ascii">
      2
      4
      6
      8
     10
     12
     14
     16
     18
     20
     22
     24
     26
     28
     30
     32
     34
     36
        </DataArray>
      </Lines>
    </Piece>
  </PolyData>
</VTKFile>
