<?xml version="1.0"?>
<VTKFile type="PolyData" version="0.1" byte_order="LittleEndian">
  <PolyData>
    <Piece NumberOfPoints="     19" NumberOfVerts="  0" NumberOfLines="     18"
           NumberOfStrips="  0" NumberOfPolys="      0">
      <Points>
        <DataArray type="Float32" NumberOfComponents="3" format="ascii">
                      -4.93458                      -0.02079                      91.49843
                      -4.87580                      -0.04318                      92.86369
                      -4.78072                      -0.18261                      95.59377
                      -4.69629                      -0.36687                      98.32369
                      -4.59712                      -0.62397                     101.73608
                      -4.42508                      -0.78945                     105.83057
                      -4.22885                      -0.82494                     109.92581
                      -4.03490                      -0.85784                     114.02119
                      -3.84082                      -0.88637                     118.11662
                      -3.64745                      -0.91241                     122.21211
                      -3.45613                      -0.93964                     126.30768
                      -3.26612                      -0.96656                     130.40331
                      -3.07808                      -0.99318                     134.49904
                      -2.89271                      -1.01955                     138.59488
                      -2.70827                      -1.04581                     142.69076
                      -2.55521                      -1.06763                     146.10406
                      -2.43331                      -1.07717                     148.83477
                      -2.31265                      -1.03170                     151.56630
                      -2.25305                      -1.05064                     152.93147
        </DataArray>
      </Points>
      <PointData>
        <DataArray type="Float32" Name="TranslationalVelocity" NumberOfComponents="3" format="ascii">
                      -0.00095                      -0.78458                      -0.01085
                      -0.00197                      -1.49938                      -0.02252
                      -0.00833                      -2.92775                      -0.09525
                      -0.01674                      -4.35555                      -0.19136
                      -0.02847                      -6.14000                      -0.32546
                      -0.03603                      -8.28356                      -0.41178
                      -0.03765                     -10.42862                      -0.43029
                      -0.03915                     -12.57364                      -0.44746
                      -0.04045                     -14.71870                      -0.46233
                      -0.04164                     -16.86376                      -0.47592
                      -0.04288                     -19.00877                      -0.49012
                      -0.04411                     -21.15375                      -0.50417
                      -0.04532                     -23.29868                      -0.51805
                      -0.04653                     -25.44356                      -0.53180
                      -0.04773                     -27.58841                      -0.54550
                      -0.04872                     -29.37580                      -0.55688
                      -0.04916                     -30.80572                      -0.56186
                      -0.04708                     -32.23601                      -0.53814
                      -0.04795                     -32.95081                      -0.54802
        </DataArray>
        <DataArray type="Float32" Name="RotationalVelocity" NumberOfComponents="3" format="ascii">
                       0.52161                      -0.00000                      -0.04563
                       0.52161                      -0.00000                      -0.04563
                       0.52161                      -0.00000                      -0.04563
                       0.52161                      -0.00000                      -0.04563
                       0.52161                      -0.00000                      -0.04563
                       0.52161                      -0.00000                      -0.04563
                       0.52161                      -0.00000                      -0.04563
                       0.52161                      -0.00000                      -0.04563
                       0.52161                      -0.00000                      -0.04563
                       0.52161                      -0.00000                      -0.04563
                       0.52161                      -0.00000                      -0.04563
                       0.52161                      -0.00000                      -0.04563
                       0.52161                      -0.00000                      -0.04563
                       0.52161                      -0.00000                      -0.04563
                       0.52161                      -0.00000                      -0.04563
                       0.52161                      -0.00000                      -0.04563
                       0.52161                      -0.00000                      -0.04563
                       0.52161                      -0.00000                      -0.04563
                       0.52161                      -0.00000                      -0.04563
        </DataArray>
        <DataArray type="Float32" Name="TranslationalAcceleration" NumberOfComponents="3" format="ascii">
                      -0.03580                       0.00570                      -0.40924
                      -0.06842                       0.01184                      -0.78209
                      -0.13361                       0.05006                      -1.52713
                      -0.19876                       0.10058                      -2.27188
                      -0.28020                       0.17106                      -3.20266
                      -0.37802                       0.21643                      -4.32076
                      -0.47591                       0.22616                      -5.43963
                      -0.57379                       0.23518                      -6.55849
                      -0.67168                       0.24300                      -7.67737
                      -0.76957                       0.25014                      -8.79625
                      -0.86746                       0.25761                      -9.91509
                      -0.96534                       0.26499                     -11.03393
                      -1.06323                       0.27229                     -12.15274
                      -1.16111                       0.27951                     -13.27152
                      -1.25899                       0.28671                     -14.39029
                      -1.34055                       0.29270                     -15.32260
                      -1.40581                       0.29531                     -16.06846
                      -1.47108                       0.28285                     -16.81450
                      -1.50370                       0.28804                     -17.18735
        </DataArray>
        <DataArray type="Float32" Name="OrientationX" NumberOfComponents="3" format="ascii">
                       0.99905                      -0.00061                      -0.04362
                       0.99905                      -0.00061                      -0.04362
                       0.99905                      -0.00061                      -0.04362
                       0.99905                      -0.00061                      -0.04362
                       0.99905                      -0.00061                      -0.04362
                       0.99905                      -0.00061                      -0.04362
                       0.99905                      -0.00061                      -0.04362
                       0.99905                      -0.00061                      -0.04362
                       0.99905                      -0.00061                      -0.04362
                       0.99905                      -0.00061                      -0.04362
                       0.99905                      -0.00061                      -0.04362
                       0.99905                      -0.00061                      -0.04362
                       0.99905                      -0.00061                      -0.04362
                       0.99905                      -0.00061                      -0.04362
                       0.99905                      -0.00061                      -0.04362
                       0.99905                      -0.00061                      -0.04362
                       0.99905                      -0.00061                      -0.04362
                       0.99905                      -0.00061                      -0.04362
                       0.99905                      -0.00061                      -0.04362
        </DataArray>
        <DataArray type="Float32" Name="OrientationY" NumberOfComponents="3" format="ascii">
                       0.00121                       0.99990                       0.01382
                       0.00121                       0.99990                       0.01382
                       0.00121                       0.99990                       0.01382
                       0.00121                       0.99990                       0.01382
                       0.00121                       0.99990                       0.01382
                       0.00121                       0.99990                       0.01382
                       0.00121                       0.99990                       0.01382
                       0.00121                       0.99990                       0.01382
                       0.00121                       0.99990                       0.01382
                       0.00121                       0.99990                       0.01382
                       0.00121                       0.99990                       0.01382
                       0.00121                       0.99990                       0.01382
                       0.00121                       0.99990                       0.01382
                       0.00121                       0.99990                       0.01382
                       0.00121                       0.99990                       0.01382
                       0.00121                       0.99990                       0.01382
                       0.00121                       0.99990                       0.01382
                       0.00121                       0.99990                       0.01382
                       0.00121                       0.99990                       0.01382
        </DataArray>
        <DataArray type="Float32" Name="OrientationZ" NumberOfComponents="3" format="ascii">
                       0.04361                      -0.01386                       0.99895
                       0.04361                      -0.01386                       0.99895
                       0.04361                      -0.01386                       0.99895
                       0.04361                      -0.01386                       0.99895
                       0.04361                      -0.01386                       0.99895
                       0.04361                      -0.01386                       0.99895
                       0.04361                      -0.01386                       0.99895
                       0.04361                      -0.01386                       0.99895
                       0.04361                      -0.01386                       0.99895
                       0.04361                      -0.01386                       0.99895
                       0.04361                      -0.01386                       0.99895
                       0.04361                      -0.01386                       0.99895
                       0.04361                      -0.01386                       0.99895
                       0.04361                      -0.01386                       0.99895
                       0.04361                      -0.01386                       0.99895
                       0.04361                      -0.01386                       0.99895
                       0.04361                      -0.01386                       0.99895
                       0.04361                      -0.01386                       0.99895
                       0.04361                      -0.01386                       0.99895
        </DataArray>
        <DataArray type="Float32" Name="Force" NumberOfComponents="3" format="ascii">
                       0.00084                       0.69279                       0.00958
                     158.98387                      19.87189                      -6.66497
                     178.77001                      43.27375                      -7.20404
                     141.34837                      50.56164                      -5.46920
                    1184.75841                    -121.27285                     -53.40550
                    1221.16903                    -107.60597                     -54.80543
                    1383.62682                    -122.67409                     -62.10689
                    1277.65167                    -100.06417                     -57.16662
                    1191.60815                     -71.04589                     -53.00758
                    1273.03987                     -75.77719                     -56.62827
                    1219.15121                     -46.52530                     -53.86976
                    1300.92893                     -72.01034                     -57.79355
                    1397.66445                    -167.15258                     -63.33692
                    1591.93148                    -233.43691                     -72.73777
                    1774.44995                    -289.26294                     -81.48059
                    1953.49478                    -350.98893                     -90.15362
                    1987.62271                    -368.48800                     -91.88636
                    1496.15687                    -278.95163                     -69.18813
                     417.23838                       5.88818                     -18.13356
        </DataArray>
        <DataArray type="Float32" Name="Moment" NumberOfComponents="3" format="ascii">
                       0.00000                       0.00000                       0.00000
                       0.00000                       0.00000                       0.00000
                       0.00000                       0.00000                       0.00000
                       0.00000                       0.00000                       0.00000
                     -34.30874                      10.90500                    -785.87498
                     -37.88834                      12.04277                    -867.86923
                     -38.01482                      12.08298                    -870.76642
                     -38.80435                      12.33392                    -888.85123
                     -37.92079                      12.05309                    -868.61254
                     -36.63068                      11.64303                    -839.06140
                     -31.16051                       9.90434                    -713.76175
                     -29.20546                       9.28293                    -668.97945
                     -26.99340                       8.57983                    -618.31000
                     -24.62989                       7.82859                    -564.17150
                     -21.97519                       6.98479                    -503.36303
                     -17.89582                       5.68817                    -409.92106
                     -15.26704                       4.85261                    -349.70634
                      -7.14635                       2.27146                    -163.69404
                      -5.92898                       1.88452                    -135.80913
        </DataArray>
      </PointData>
      <Lines>
        <DataArray type="Int32" Name="connectivity" format="ascii">
      0      1
      1      2
      2      3
      3      4
      4      5
      5      6
      6      7
      7      8
      8      9
      9     10
     10     11
     11     12
     12     13
     13     14
     14     15
     15     16
     16     17
     17     18
        </DataArray>
        <DataArray type="Int32" Name="offsets" format="ascii">
      2
      4
      6
      8
     10
     12
     14
     16
     18
     20
     22
     24
     26
     28
     30
     32
     34
     36
        </DataArray>
      </Lines>
    </Piece>
  </PolyData>
</VTKFile>
