<?xml version="1.0"?>
<VTKFile type="PolyData" version="0.1" byte_order="LittleEndian">
  <PolyData>
    <Piece NumberOfPoints="     19" NumberOfVerts="  0" NumberOfLines="     18"
           NumberOfStrips="  0" NumberOfPolys="      0">
      <Points>
        <DataArray type="Float32" NumberOfComponents="3" format="ascii">
                      -4.98085                       1.14435                      90.96959
                      -4.96399                       2.18475                      91.85568
                      -4.94631                       4.20361                      93.70114
                      -4.93622                       6.19317                      95.58133
                      -4.92815                       8.66267                      97.95237
                      -4.87520                      11.72017                     100.68563
                      -4.80691                      14.86244                     103.31855
                      -4.74107                      18.00629                     105.94965
                      -4.67539                      21.15297                     108.57740
                      -4.61060                      24.30123                     111.20331
                      -4.54776                      27.44866                     113.83025
                      -4.48626                      30.59624                     116.45703
                      -4.42674                      33.74395                     119.08369
                      -4.36992                      36.89174                     121.71033
                      -4.31403                      40.03956                     124.33693
                      -4.26809                      42.66279                     126.52578
                      -4.23242                      44.76642                     128.27084
                      -4.20172                      46.90552                     129.97412
                      -4.18428                      47.94810                     130.85747
        </DataArray>
      </Points>
      <PointData>
        <DataArray type="Float32" Name="TranslationalVelocity" NumberOfComponents="3" format="ascii">
                       0.05222                      -0.50662                       0.59690
                       0.09970                      -0.96958                       1.13958
                       0.19183                      -1.93299                       2.19263
                       0.28262                      -2.91417                       3.23039
                       0.39532                      -4.15128                       4.51850
                       0.53485                      -5.57938                       6.11332
                       0.67824                      -6.95585                       7.75234
                       0.82171                      -8.33125                       9.39219
                       0.96531                      -9.70490                      11.03352
                       1.10898                     -11.07755                      12.67568
                       1.25261                     -12.45065                      14.31739
                       1.39625                     -13.82360                      15.95919
                       1.53989                     -15.19640                      17.60106
                       1.68354                     -16.56906                      19.24296
                       1.82719                     -17.94166                      20.88489
                       1.94690                     -19.08548                      22.25318
                       2.04290                     -19.99734                      23.35045
                       2.14052                     -20.88718                      24.46622
                       2.18809                     -21.34874                      25.01003
        </DataArray>
        <DataArray type="Float32" Name="RotationalVelocity" NumberOfComponents="3" format="ascii">
                       0.52161                      -0.00000                      -0.04563
                       0.52161                      -0.00000                      -0.04563
                       0.52161                      -0.00000                      -0.04563
                       0.52161                      -0.00000                      -0.04563
                       0.52161                      -0.00000                      -0.04563
                       0.52161                      -0.00000                      -0.04563
                       0.52161                      -0.00000                      -0.04563
                       0.52161                      -0.00000                      -0.04563
                       0.52161                      -0.00000                      -0.04563
                       0.52161                      -0.00000                      -0.04563
                       0.52161                      -0.00000                      -0.04563
                       0.52161                      -0.00000                      -0.04563
                       0.52161                      -0.00000                      -0.04563
                       0.52161                      -0.00000                      -0.04563
                       0.52161                      -0.00000                      -0.04563
                       0.52161                      -0.00000                      -0.04563
                       0.52161                      -0.00000                      -0.04563
                       0.52161                      -0.00000                      -0.04563
                       0.52161                      -0.00000                      -0.04563
        </DataArray>
        <DataArray type="Float32" Name="TranslationalAcceleration" NumberOfComponents="3" format="ascii">
                      -0.02312                      -0.31373                      -0.26425
                      -0.04425                      -0.59896                      -0.50574
                      -0.08821                      -1.15244                      -1.00826
                      -0.13299                      -1.69789                      -1.52005
                      -0.18944                      -2.37492                      -2.16534
                      -0.25461                      -3.21315                      -2.91024
                      -0.31743                      -4.07462                      -3.62822
                      -0.38019                      -4.93653                      -4.34563
                      -0.44288                      -5.79921                      -5.06214
                      -0.50552                      -6.66232                      -5.77812
                      -0.56818                      -7.52521                      -6.49434
                      -0.63083                      -8.38813                      -7.21047
                      -0.69348                      -9.25110                      -7.92654
                      -0.75612                     -10.11408                      -8.64253
                      -0.81876                     -10.97707                      -9.35849
                      -0.87096                     -11.69625                      -9.95511
                      -0.91257                     -12.27297                     -10.43074
                      -0.95318                     -12.85942                     -10.89488
                      -0.97424                     -13.14524                     -11.13564
        </DataArray>
        <DataArray type="Float32" Name="OrientationX" NumberOfComponents="3" format="ascii">
                       0.99770                       0.03331                      -0.05902
                       0.99770                       0.03331                      -0.05902
                       0.99770                       0.03331                      -0.05902
                       0.99770                       0.03331                      -0.05902
                       0.99770                       0.03331                      -0.05902
                       0.99770                       0.03331                      -0.05902
                       0.99770                       0.03331                      -0.05902
                       0.99770                       0.03331                      -0.05902
                       0.99770                       0.03331                      -0.05902
                       0.99770                       0.03331                      -0.05902
                       0.99770                       0.03331                      -0.05902
                       0.99770                       0.03331                      -0.05902
                       0.99770                       0.03331                      -0.05902
                       0.99770                       0.03331                      -0.05902
                       0.99770                       0.03331                      -0.05902
                       0.99770                       0.03331                      -0.05902
                       0.99770                       0.03331                      -0.05902
                       0.99770                       0.03331                      -0.05902
                       0.99770                       0.03331                      -0.05902
        </DataArray>
        <DataArray type="Float32" Name="OrientationY" NumberOfComponents="3" format="ascii">
                      -0.06655                       0.64566                      -0.76072
                      -0.06655                       0.64566                      -0.76072
                      -0.06655                       0.64566                      -0.76072
                      -0.06655                       0.64566                      -0.76072
                      -0.06655                       0.64566                      -0.76072
                      -0.06655                       0.64566                      -0.76072
                      -0.06655                       0.64566                      -0.76072
                      -0.06655                       0.64566                      -0.76072
                      -0.06655                       0.64566                      -0.76072
                      -0.06655                       0.64566                      -0.76072
                      -0.06655                       0.64566                      -0.76072
                      -0.06655                       0.64566                      -0.76072
                      -0.06655                       0.64566                      -0.76072
                      -0.06655                       0.64566                      -0.76072
                      -0.06655                       0.64566                      -0.76072
                      -0.06655                       0.64566                      -0.76072
                      -0.06655                       0.64566                      -0.76072
                      -0.06655                       0.64566                      -0.76072
                      -0.06655                       0.64566                      -0.76072
        </DataArray>
        <DataArray type="Float32" Name="OrientationZ" NumberOfComponents="3" format="ascii">
                       0.01277                       0.76290                       0.64639
                       0.01277                       0.76290                       0.64639
                       0.01277                       0.76290                       0.64639
                       0.01277                       0.76290                       0.64639
                       0.01277                       0.76290                       0.64639
                       0.01277                       0.76290                       0.64639
                       0.01277                       0.76290                       0.64639
                       0.01277                       0.76290                       0.64639
                       0.01277                       0.76290                       0.64639
                       0.01277                       0.76290                       0.64639
                       0.01277                       0.76290                       0.64639
                       0.01277                       0.76290                       0.64639
                       0.01277                       0.76290                       0.64639
                       0.01277                       0.76290                       0.64639
                       0.01277                       0.76290                       0.64639
                       0.01277                       0.76290                       0.64639
                       0.01277                       0.76290                       0.64639
                       0.01277                       0.76290                       0.64639
                       0.01277                       0.76290                       0.64639
        </DataArray>
        <DataArray type="Float32" Name="Force" NumberOfComponents="3" format="ascii">
                       0.00002                      -0.00017                       0.00020
                     156.05769                      11.11392                     -16.19921
                     172.19359                      25.65360                     -33.67831
                     133.81929                      30.41714                     -38.54260
                    1084.32684                     -34.82609                      19.68861
                    1134.96270                     -25.85388                       8.09915
                    1288.79684                     -30.08457                      10.05428
                    1206.93964                     -20.49043                       0.34746
                    1144.19382                      -5.76061                     -15.79818
                    1226.03795                      -5.91001                     -17.23823
                    1188.22658                      10.94322                     -36.38244
                    1242.55749                      -5.22662                     -18.37105
                    1383.80800                     -62.41227                      46.33255
                    1577.91492                     -97.52071                      83.93569
                    1768.93489                    -128.61296                     116.85971
                    1933.41902                    -159.66963                     150.26580
                    1938.71818                    -167.16101                     159.00283
                    1450.11753                    -124.57270                     118.38765
                     394.41150                      16.93785                     -27.78023
        </DataArray>
        <DataArray type="Float32" Name="Moment" NumberOfComponents="3" format="ascii">
                       0.00000                       0.00000                       0.00000
                       0.00000                       0.00000                       0.00000
                       0.00000                       0.00000                       0.00000
                       0.00000                       0.00000                       0.00000
                      -9.78872                    -584.98584                    -495.64688
                     -10.65898                    -636.99337                    -539.71183
                     -10.60430                    -633.72582                    -536.94330
                     -10.86934                    -649.56517                    -550.36366
                     -10.62279                    -634.83098                    -537.87968
                     -10.21106                    -610.22518                    -517.03167
                      -9.14469                    -546.49765                    -463.03661
                      -8.04778                    -480.94518                    -407.49530
                      -7.99171                    -477.59407                    -404.65597
                      -7.20832                    -430.77787                    -364.98953
                      -6.36463                    -380.35830                    -322.27003
                      -5.26491                    -314.63719                    -266.58584
                      -4.32351                    -258.37816                    -218.91868
                      -2.00585                    -119.87192                    -101.56509
                      -1.64445                     -98.27407                     -83.26567
        </DataArray>
      </PointData>
      <Lines>
        <DataArray type="Int32" Name="connectivity" format="ascii">
      0      1
      1      2
      2      3
      3      4
      4      5
      5      6
      6      7
      7      8
      8      9
      9     10
     10     11
     11     12
     12     13
     13     14
     14     15
     15     16
     16     17
     17     18
        </DataArray>
        <DataArray type="Int32" Name="offsets" format="ascii">
      2
      4
      6
      8
     10
     12
     14
     16
     18
     20
     22
     24
     26
     28
     30
     32
     34
     36
        </DataArray>
      </Lines>
    </Piece>
  </PolyData>
</VTKFile>
