<?xml version="1.0"?>
<VTKFile type="PolyData" version="0.1" byte_order="LittleEndian">
  <PolyData>
    <Piece NumberOfPoints="     19" NumberOfVerts="  0" NumberOfLines="     18"
           NumberOfStrips="  0" NumberOfPolys="      0">
      <Points>
        <DataArray type="Float32" NumberOfComponents="3" format="ascii">
                      -5.18134                      -0.68523                      88.67804
                      -5.34750                      -1.30648                      87.47209
                      -5.70581                      -2.46429                      85.01997
                      -6.07642                      -3.58202                      82.54876
                      -6.54705                      -4.95527                      79.44827
                      -7.05362                      -6.73145                      75.78625
                      -7.53114                      -8.62375                      72.18043
                      -8.01083                     -10.51829                      68.57607
                      -8.49022                     -12.41674                      64.97369
                      -8.97022                     -14.31737                      61.37253
                      -9.45230                     -16.21691                      57.77109
                      -9.93568                     -18.11670                      54.16995
                     -10.42099                     -20.01672                      50.56920
                     -10.90894                     -21.91690                      46.96890
                     -11.39782                     -23.81716                      43.36877
                     -11.80586                     -25.40077                      40.36873
                     -12.13251                     -26.67465                      37.97243
                     -12.45827                     -27.99745                      35.60136
                     -12.62348                     -28.62173                      34.39697
        </DataArray>
      </Points>
      <PointData>
        <DataArray type="Float32" Name="TranslationalVelocity" NumberOfComponents="3" format="ascii">
                      -0.03127                       0.69782                      -0.35742
                      -0.05962                       1.33443                      -0.68147
                      -0.11246                       2.62983                      -1.28539
                      -0.16346                       3.93574                      -1.86840
                      -0.22613                       5.57445                      -2.58470
                      -0.30719                       7.50770                      -3.51117
                      -0.39354                       9.41031                      -4.49820
                      -0.48000                      11.31226                      -5.48641
                      -0.56663                      13.21316                      -6.47665
                      -0.65337                      15.11345                      -7.46803
                      -0.74005                      17.01398                      -8.45884
                      -0.82675                      18.91442                      -9.44979
                      -0.91346                      20.81474                     -10.44085
                      -1.00017                      22.71495                     -11.43199
                      -1.08689                      24.61511                     -12.42318
                      -1.15915                      26.19857                     -13.24920
                      -1.21729                      27.46340                     -13.91367
                      -1.27765                      28.71503                     -14.60364
                      -1.30614                      29.35079                     -14.92928
        </DataArray>
        <DataArray type="Float32" Name="RotationalVelocity" NumberOfComponents="3" format="ascii">
                       0.52161                      -0.00000                      -0.04563
                       0.52161                      -0.00000                      -0.04563
                       0.52161                      -0.00000                      -0.04563
                       0.52161                      -0.00000                      -0.04563
                       0.52161                      -0.00000                      -0.04563
                       0.52161                      -0.00000                      -0.04563
                       0.52161                      -0.00000                      -0.04563
                       0.52161                      -0.00000                      -0.04563
                       0.52161                      -0.00000                      -0.04563
                       0.52161                      -0.00000                      -0.04563
                       0.52161                      -0.00000                      -0.04563
                       0.52161                      -0.00000                      -0.04563
                       0.52161                      -0.00000                      -0.04563
                       0.52161                      -0.00000                      -0.04563
                       0.52161                      -0.00000                      -0.04563
                       0.52161                      -0.00000                      -0.04563
                       0.52161                      -0.00000                      -0.04563
                       0.52161                      -0.00000                      -0.04563
                       0.52161                      -0.00000                      -0.04563
        </DataArray>
        <DataArray type="Float32" Name="TranslationalAcceleration" NumberOfComponents="3" format="ascii">
                       0.03184                       0.18786                       0.36399
                       0.06090                       0.35818                       0.69605
                       0.12001                       0.67560                       1.37173
                       0.17961                       0.98203                       2.05291
                       0.25439                       1.35852                       2.90767
                       0.34261                       1.84547                       3.91606
                       0.42944                       2.36425                       4.90848
                       0.51623                       2.88365                       5.90055
                       0.60298                       3.40412                       6.89207
                       0.68970                       3.92519                       7.88327
                       0.77643                       4.44596                       8.87460
                       0.86315                       4.96680                       9.86588
                       0.94987                       5.48770                      10.85710
                       1.03659                       6.00864                      11.84826
                       1.12330                       6.52961                      12.83940
                       1.19556                       6.96377                      13.66534
                       1.25328                       7.31301                      14.32508
                       1.31040                       7.67566                      14.97794
                       1.33941                       7.84681                      15.30956
        </DataArray>
        <DataArray type="Float32" Name="OrientationX" NumberOfComponents="3" format="ascii">
                       0.99187                      -0.01995                      -0.12572
                       0.99187                      -0.01995                      -0.12572
                       0.99187                      -0.01995                      -0.12572
                       0.99187                      -0.01995                      -0.12572
                       0.99187                      -0.01995                      -0.12572
                       0.99187                      -0.01995                      -0.12572
                       0.99187                      -0.01995                      -0.12572
                       0.99187                      -0.01995                      -0.12572
                       0.99187                      -0.01995                      -0.12572
                       0.99187                      -0.01995                      -0.12572
                       0.99187                      -0.01995                      -0.12572
                       0.99187                      -0.01995                      -0.12572
                       0.99187                      -0.01995                      -0.12572
                       0.99187                      -0.01995                      -0.12572
                       0.99187                      -0.01995                      -0.12572
                       0.99187                      -0.01995                      -0.12572
                       0.99187                      -0.01995                      -0.12572
                       0.99187                      -0.01995                      -0.12572
                       0.99187                      -0.01995                      -0.12572
        </DataArray>
        <DataArray type="Float32" Name="OrientationY" NumberOfComponents="3" format="ascii">
                       0.03985                      -0.88934                       0.45551
                       0.03985                      -0.88934                       0.45551
                       0.03985                      -0.88934                       0.45551
                       0.03985                      -0.88934                       0.45551
                       0.03985                      -0.88934                       0.45551
                       0.03985                      -0.88934                       0.45551
                       0.03985                      -0.88934                       0.45551
                       0.03985                      -0.88934                       0.45551
                       0.03985                      -0.88934                       0.45551
                       0.03985                      -0.88934                       0.45551
                       0.03985                      -0.88934                       0.45551
                       0.03985                      -0.88934                       0.45551
                       0.03985                      -0.88934                       0.45551
                       0.03985                      -0.88934                       0.45551
                       0.03985                      -0.88934                       0.45551
                       0.03985                      -0.88934                       0.45551
                       0.03985                      -0.88934                       0.45551
                       0.03985                      -0.88934                       0.45551
                       0.03985                      -0.88934                       0.45551
        </DataArray>
        <DataArray type="Float32" Name="OrientationZ" NumberOfComponents="3" format="ascii">
                      -0.12089                      -0.45682                      -0.88131
                      -0.12089                      -0.45682                      -0.88131
                      -0.12089                      -0.45682                      -0.88131
                      -0.12089                      -0.45682                      -0.88131
                      -0.12089                      -0.45682                      -0.88131
                      -0.12089                      -0.45682                      -0.88131
                      -0.12089                      -0.45682                      -0.88131
                      -0.12089                      -0.45682                      -0.88131
                      -0.12089                      -0.45682                      -0.88131
                      -0.12089                      -0.45682                      -0.88131
                      -0.12089                      -0.45682                      -0.88131
                      -0.12089                      -0.45682                      -0.88131
                      -0.12089                      -0.45682                      -0.88131
                      -0.12089                      -0.45682                      -0.88131
                      -0.12089                      -0.45682                      -0.88131
                      -0.12089                      -0.45682                      -0.88131
                      -0.12089                      -0.45682                      -0.88131
                      -0.12089                      -0.45682                      -0.88131
                      -0.12089                      -0.45682                      -0.88131
        </DataArray>
        <DataArray type="Float32" Name="Force" NumberOfComponents="3" format="ascii">
                       0.08364                      -1.86645                       0.95599
                     124.34477                     -28.93030                      -2.06081
                     153.58418                     -53.80864                       6.82383
                     127.98324                     -57.65179                      12.32762
                    1163.87375                      84.10475                    -203.24546
                    1170.51331                      68.97515                    -196.31393
                    1298.00370                      76.15555                    -217.52389
                    1181.44646                      58.45967                    -192.36304
                    1085.45556                      36.35919                    -167.74022
                    1149.67422                      46.88635                    -182.00586
                    1153.51498                      69.60655                    -194.30952
                    1323.25527                     141.40609                    -254.80973
                    1614.64569                     223.04871                    -337.09898
                    1816.28051                     264.12708                    -386.05017
                    1933.41503                     278.35267                    -409.49142
                    1952.93600                     271.73305                    -408.73792
                    1919.83991                     262.51165                    -399.41825
                    1412.13651                     189.55264                    -291.95806
                     425.19708                     -14.14840                     -50.99130
        </DataArray>
        <DataArray type="Float32" Name="Moment" NumberOfComponents="3" format="ascii">
                       0.00000                       0.00000                       0.00000
                       0.00000                       0.00000                       0.00000
                       0.00000                       0.00000                       0.00000
                       0.00000                       0.00000                       0.00000
                      84.32790                     318.65633                     614.76176
                      94.53995                     357.24541                     689.20902
                      93.98266                     355.13952                     685.14627
                      95.62325                     361.33893                     697.10637
                      92.27755                     348.69628                     672.71577
                      87.03353                     328.88029                     634.48615
                      70.97769                     268.20886                     517.43692
                      63.68054                     240.63458                     464.23977
                      55.30646                     208.99079                     403.19157
                      49.86773                     188.43904                     363.54248
                      45.14111                     170.57818                     329.08477
                      42.45615                     160.43232                     309.51105
                      38.16600                     144.22080                     278.23527
                      19.00277                      71.80724                     138.53278
                      16.86071                      63.71286                     122.91685
        </DataArray>
      </PointData>
      <Lines>
        <DataArray type="Int32" Name="connectivity" format="ascii">
      0      1
      1      2
      2      3
      3      4
      4      5
      5      6
      6      7
      7      8
      8      9
      9     10
     10     11
     11     12
     12     13
     13     14
     14     15
     15     16
     16     17
     17     18
        </DataArray>
        <DataArray type="Int32" Name="offsets" format="ascii">
      2
      4
      6
      8
     10
     12
     14
     16
     18
     20
     22
     24
     26
     28
     30
     32
     34
     36
        </DataArray>
      </Lines>
    </Piece>
  </PolyData>
</VTKFile>
