<?xml version="1.0"?>
<VTKFile type="PolyData" version="0.1" byte_order="LittleEndian">
  <PolyData>
    <Piece NumberOfPoints="    625" NumberOfVerts="  0" NumberOfLines="      0"
           NumberOfStrips="  0" NumberOfPolys="    600">
      <Points>
        <DataArray type="Float32" NumberOfComponents="3" format="ascii">
                      -5.00284                       1.49965                      89.96754
                      -5.00284                       1.49965                      89.96754
                      -5.00284                       1.49965                      89.96754
                      -5.00284                       1.49965                      89.96754
                      -5.00284                       1.49965                      89.96754
                      -5.00284                       1.49965                      89.96754
                      -5.00284                       1.49965                      89.96754
                      -5.00284                       1.49965                      89.96754
                      -5.00284                       1.49965                      89.96754
                      -5.00284                       1.49965                      89.96754
                      -5.00284                       1.49965                      89.96754
                      -5.00284                       1.49965                      89.96754
                      -5.00284                       1.49965                      89.96754
                      -5.00284                       1.49965                      89.96754
                      -5.00284                       1.49965                      89.96754
                      -5.00284                       1.49965                      89.96754
                      -5.00284                       1.49965                      89.96754
                      -5.00284                       1.49965                      89.96754
                      -5.00284                       1.49965                      89.96754
                      -5.00284                       1.49965                      89.96754
                      -5.00284                       1.49965                      89.96754
                      -5.00284                       1.49965                      89.96754
                      -5.00284                       1.49965                      89.96754
                      -5.00284                       1.49965                      89.96754
                      -5.00284                       1.49965                      89.96754
                      -4.40541                       1.37468                      89.91799
                      -4.41118                       1.37791                      90.06812
                      -4.45411                       1.38095                      90.21209
                      -4.53151                       1.38359                      90.34087
                      -4.63851                       1.38567                      90.44636
                      -4.76838                       1.38706                      90.52193
                      -4.91297                       1.38767                      90.56284
                      -5.06320                       1.38747                      90.56651
                      -5.20961                       1.38646                      90.53272
                      -5.34302                       1.38471                      90.46359
                      -5.45504                       1.38233                      90.36345
                      -5.53864                       1.37947                      90.23861
                      -5.58855                       1.37631                      90.09691
                      -5.60164                       1.37304                      89.94725
                      -5.57709                       1.36988                      89.79903
                      -5.51645                       1.36702                      89.66157
                      -5.42352                       1.36464                      89.54351
                      -5.30414                       1.36289                      89.45225
                      -5.16582                       1.36188                      89.39355
                      -5.01724                       1.36168                      89.37108
                      -4.86774                       1.36229                      89.38626
                      -4.72671                       1.36368                      89.43813
                      -4.60302                       1.36576                      89.52344
                      -4.50444                       1.36840                      89.63682
                      -4.43716                       1.37144                      89.77115
                      -4.17637                       1.24970                      89.90068
                      -4.18435                       1.25419                      90.10832
                      -4.24373                       1.25838                      90.30746
                      -4.35078                       1.26204                      90.48557
                      -4.49877                       1.26492                      90.63148
                      -4.67841                       1.26684                      90.73600
                      -4.87840                       1.26768                      90.79259
                      -5.08618                       1.26740                      90.79767
                      -5.28869                       1.26601                      90.75093
                      -5.47321                       1.26359                      90.65531
                      -5.62815                       1.26029                      90.51681
                      -5.74377                       1.25634                      90.34414
                      -5.81280                       1.25196                      90.14814
                      -5.83091                       1.24745                      89.94114
                      -5.79696                       1.24307                      89.73614
                      -5.71308                       1.23912                      89.54601
                      -5.58455                       1.23582                      89.38272
                      -5.41943                       1.23340                      89.25650
                      -5.22811                       1.23201                      89.17531
                      -5.02261                       1.23172                      89.14423
                      -4.81583                       1.23257                      89.16523
                      -4.62078                       1.23449                      89.23697
                      -4.44970                       1.23737                      89.35496
                      -4.31334                       1.24103                      89.51179
                      -4.22028                       1.24522                      89.69758
                      -4.01375                       1.12473                      89.88918
                      -4.02330                       1.13010                      90.13764
                      -4.09436                       1.13512                      90.37592
                      -4.22245                       1.13949                      90.58905
                      -4.39954                       1.14294                      90.76364
                      -4.61448                       1.14524                      90.88872
                      -4.85379                       1.14625                      90.95642
                      -5.10241                       1.14591                      90.96250
                      -5.34474                       1.14424                      90.90657
                      -5.56554                       1.14134                      90.79215
                      -5.75093                       1.13741                      90.62643
                      -5.88928                       1.13267                      90.41981
                      -5.97188                       1.12744                      90.18529
                      -5.99355                       1.12203                      89.93760
                      -5.95293                       1.11680                      89.69229
                      -5.85256                       1.11206                      89.46479
                      -5.69876                       1.10812                      89.26939
                      -5.50119                       1.10523                      89.11837
                      -5.27226                       1.10356                      89.02121
                      -5.02635                       1.10322                      88.98403
                      -4.77892                       1.10423                      89.00915
                      -4.54552                       1.10653                      89.09500
                      -4.34081                       1.10998                      89.23618
                      -4.17765                       1.11435                      89.42383
                      -4.06630                       1.11937                      89.64615
                      -3.88811                       0.99976                      89.88092
                      -3.89888                       1.00581                      90.16090
                      -3.97895                       1.01147                      90.42941
                      -4.12330                       1.01639                      90.66958
                      -4.32285                       1.02027                      90.86632
                      -4.56507                       1.02287                      91.00726
                      -4.83473                       1.02401                      91.08356
                      -5.11490                       1.02363                      91.09041
                      -5.38797                       1.02174                      91.02739
                      -5.63678                       1.01848                      90.89845
                      -5.84570                       1.01404                      90.71170
                      -6.00160                       1.00871                      90.47887
                      -6.09468                       1.00281                      90.21459
                      -6.11910                       0.99672                      89.93547
                      -6.07332                       0.99082                      89.65905
                      -5.96022                       0.98549                      89.40268
                      -5.78691                       0.98105                      89.18249
                      -5.56427                       0.97778                      89.01231
                      -5.30629                       0.97590                      88.90282
                      -5.02919                       0.97552                      88.86092
                      -4.75037                       0.97666                      88.88923
                      -4.48736                       0.97925                      88.98597
                      -4.25667                       0.98313                      89.14507
                      -4.07281                       0.98806                      89.35653
                      -3.94733                       0.99372                      89.60706
                      -3.78794                       0.87479                      89.87488
                      -3.79967                       0.88138                      90.17998
                      -3.88693                       0.88755                      90.47259
                      -4.04423                       0.89291                      90.73431
                      -4.26168                       0.89714                      90.94870
                      -4.52563                       0.89997                      91.10229
                      -4.81950                       0.90121                      91.18543
                      -5.12480                       0.90080                      91.19289
                      -5.42237                       0.89875                      91.12422
                      -5.69351                       0.89519                      90.98371
                      -5.92117                       0.89035                      90.78020
                      -6.09106                       0.88454                      90.52649
                      -6.19249                       0.87811                      90.23850
                      -6.21911                       0.87148                      89.93433
                      -6.16922                       0.86505                      89.63310
                      -6.04597                       0.85923                      89.35374
                      -5.85711                       0.85440                      89.11379
                      -5.61449                       0.85084                      88.92833
                      -5.33337                       0.84879                      88.80903
                      -5.03140                       0.84837                      88.76336
                      -4.72756                       0.84962                      88.79421
                      -4.44095                       0.85244                      88.89964
                      -4.18957                       0.85667                      89.07301
                      -3.98922                       0.86204                      89.30344
                      -3.85248                       0.86821                      89.57645
                      -3.70733                       0.74982                      89.87055
                      -3.71983                       0.75684                      90.19586
                      -3.81287                       0.76342                      90.50784
                      -3.98058                       0.76914                      90.78690
                      -4.21244                       0.77365                      91.01549
                      -4.49387                       0.77667                      91.17925
                      -4.80720                       0.77799                      91.26790
                      -5.13272                       0.77755                      91.27586
                      -5.45000                       0.77536                      91.20263
                      -5.73909                       0.77157                      91.05282
                      -5.98183                       0.76641                      90.83584
                      -6.16297                       0.76021                      90.56531
                      -6.27112                       0.75336                      90.25825
                      -6.29950                       0.74629                      89.93394
                      -6.24631                       0.73943                      89.61276
                      -6.11490                       0.73323                      89.31490
                      -5.91352                       0.72808                      89.05906
                      -5.65484                       0.72428                      88.86132
                      -5.35510                       0.72210                      88.73411
                      -5.03313                       0.72165                      88.68542
                      -4.70918                       0.72298                      88.71832
                      -4.40358                       0.72599                      88.83072
                      -4.13555                       0.73050                      89.01558
                      -3.92193                       0.73623                      89.26127
                      -3.77613                       0.74280                      89.55236
                      -3.64278                       0.62485                      89.86763
                      -3.65591                       0.63222                      90.20911
                      -3.75357                       0.63913                      90.53659
                      -3.92962                       0.64513                      90.82951
                      -4.17300                       0.64987                      91.06946
                      -4.46841                       0.65303                      91.24136
                      -4.79731                       0.65442                      91.33441
                      -5.13901                       0.65396                      91.34277
                      -5.47205                       0.65166                      91.26590
                      -5.77551                       0.64768                      91.10865
                      -6.03031                       0.64227                      90.88088
                      -6.22045                       0.63576                      90.59692
                      -6.33398                       0.62857                      90.27460
                      -6.36376                       0.62114                      89.93417
                      -6.30793                       0.61395                      89.59703
                      -6.16999                       0.60744                      89.28436
                      -5.95861                       0.60202                      89.01581
                      -5.68707                       0.59804                      88.80825
                      -5.37244                       0.59575                      88.67472
                      -5.03447                       0.59528                      88.62361
                      -4.69442                       0.59667                      88.65814
                      -4.37364                       0.59984                      88.77613
                      -4.09229                       0.60457                      88.97017
                      -3.86805                       0.61058                      89.22807
                      -3.71501                       0.61748                      89.53362
                      -3.59212                       0.49988                      89.86592
                      -3.60573                       0.50752                      90.22008
                      -3.70701                       0.51469                      90.55972
                      -3.88960                       0.52092                      90.86351
                      -4.14201                       0.52583                      91.11237
                      -4.44840                       0.52911                      91.29066
                      -4.78950                       0.53055                      91.38716
                      -5.14389                       0.53007                      91.39583
                      -5.48930                       0.52769                      91.31611
                      -5.80402                       0.52356                      91.15302
                      -6.06829                       0.51794                      90.91679
                      -6.26548                       0.51119                      90.62229
                      -6.38323                       0.50373                      90.28800
                      -6.41412                       0.49603                      89.93493
                      -6.35621                       0.48857                      89.58528
                      -6.21315                       0.48182                      89.26100
                      -5.99392                       0.47621                      88.98248
                      -5.71230                       0.47208                      88.76721
                      -5.38598                       0.46970                      88.62873
                      -5.03547                       0.46922                      88.57572
                      -4.68279                       0.47066                      88.61153
                      -4.35010                       0.47394                      88.73390
                      -4.05831                       0.47885                      88.93515
                      -3.82574                       0.48508                      89.20262
                      -3.66702                       0.49224                      89.51952
                      -3.55387                       0.37491                      89.86530
                      -3.56785                       0.38276                      90.22901
                      -3.67187                       0.39011                      90.57782
                      -3.85938                       0.39651                      90.88981
                      -4.11860                       0.40156                      91.14538
                      -4.43325                       0.40492                      91.32847
                      -4.78356                       0.40641                      91.42758
                      -5.14751                       0.40591                      91.43648
                      -5.50224                       0.40346                      91.35462
                      -5.82545                       0.39923                      91.18712
                      -6.09685                       0.39346                      90.94453
                      -6.29936                       0.38653                      90.64207
                      -6.42028                       0.37887                      90.29877
                      -6.45201                       0.37096                      89.93618
                      -6.39254                       0.36329                      89.57709
                      -6.24562                       0.35636                      89.24406
                      -6.02047                       0.35060                      88.95803
                      -5.73125                       0.34636                      88.73695
                      -5.39613                       0.34391                      88.59473
                      -5.03617                       0.34342                      88.54029
                      -4.67397                       0.34490                      88.57707
                      -4.33231                       0.34827                      88.70274
                      -4.03264                       0.35331                      88.90941
                      -3.79380                       0.35971                      89.18410
                      -3.63080                       0.36706                      89.50955
                      -3.52708                       0.24994                      89.86569
                      -3.54132                       0.25793                      90.23607
                      -3.64725                       0.26542                      90.59128
                      -3.83820                       0.27194                      90.90899
                      -4.10218                       0.27707                      91.16925
                      -4.42260                       0.28050                      91.35571
                      -4.77934                       0.28201                      91.45664
                      -5.14997                       0.28151                      91.46570
                      -5.51120                       0.27902                      91.38233
                      -5.84035                       0.27470                      91.21176
                      -6.11672                       0.26883                      90.96471
                      -6.32296                       0.26177                      90.65671
                      -6.44610                       0.25397                      90.30710
                      -6.47840                       0.24591                      89.93786
                      -6.41784                       0.23811                      89.57218
                      -6.26822                       0.23105                      89.23304
                      -6.03895                       0.22518                      88.94176
                      -5.74442                       0.22086                      88.71663
                      -5.40315                       0.21837                      88.57179
                      -5.03658                       0.21787                      88.51636
                      -4.66774                       0.21938                      88.55381
                      -4.31980                       0.22281                      88.68179
                      -4.01464                       0.22794                      88.89226
                      -3.77142                       0.23446                      89.17199
                      -3.60542                       0.24195                      89.50341
                      -3.51114                       0.12497                      89.86702
                      -3.52553                       0.13305                      90.24135
                      -3.63259                       0.14062                      90.60034
                      -3.82557                       0.14720                      90.92144
                      -4.09237                       0.15239                      91.18448
                      -4.41621                       0.15586                      91.37292
                      -4.77675                       0.15738                      91.47492
                      -5.15132                       0.15687                      91.48408
                      -5.51641                       0.15436                      91.39982
                      -5.84906                       0.15000                      91.22744
                      -6.12838                       0.14406                      90.97776
                      -6.33682                       0.13693                      90.66647
                      -6.46127                       0.12904                      90.31314
                      -6.49391                       0.12090                      89.93996
                      -6.43271                       0.11301                      89.57039
                      -6.28150                       0.10588                      89.22763
                      -6.04978                       0.09995                      88.93324
                      -5.75212                       0.09558                      88.70571
                      -5.40721                       0.09307                      88.55934
                      -5.03673                       0.09256                      88.50331
                      -4.66396                       0.09408                      88.54116
                      -4.31231                       0.09755                      88.67050
                      -4.00390                       0.10274                      88.88321
                      -3.75808                       0.10932                      89.16593
                      -3.59032                       0.11689                      89.50088
                      -3.50571                       0.00000                      89.86927
                      -3.52015                       0.00811                      90.24490
                      -3.62758                       0.01570                      90.60515
                      -3.82124                       0.02231                      90.92737
                      -4.08896                       0.02752                      91.19133
                      -4.41393                       0.03100                      91.38043
                      -4.77573                       0.03253                      91.48279
                      -5.15162                       0.03201                      91.49198
                      -5.51798                       0.02949                      91.40742
                      -5.85179                       0.02511                      91.23444
                      -6.13208                       0.01916                      90.98388
                      -6.34124                       0.01200                      90.67151
                      -6.46613                       0.00408                      90.31695
                      -6.49889                      -0.00408                      89.94247
                      -6.43747                      -0.01200                      89.57160
                      -6.28573                      -0.01916                      89.22765
                      -6.05321                      -0.02511                      88.93224
                      -5.75450                      -0.02949                      88.70391
                      -5.40839                      -0.03201                      88.55702
                      -5.03662                      -0.03253                      88.50080
                      -4.66254                      -0.03100                      88.53878
                      -4.30968                      -0.02752                      88.66858
                      -4.00018                      -0.02231                      88.88203
                      -3.75351                      -0.01570                      89.16573
                      -3.58516                      -0.00811                      89.50185
                      -3.51067                      -0.12497                      89.87243
                      -3.52506                      -0.11689                      90.24676
                      -3.63211                      -0.10932                      90.60575
                      -3.82510                      -0.10274                      90.92685
                      -4.09190                      -0.09755                      91.18989
                      -4.41574                      -0.09408                      91.37833
                      -4.77627                      -0.09256                      91.48033
                      -5.15085                      -0.09307                      91.48949
                      -5.51594                      -0.09558                      91.40523
                      -5.84859                      -0.09995                      91.23285
                      -6.12791                      -0.10588                      90.98317
                      -6.33634                      -0.11301                      90.67188
                      -6.46079                      -0.12090                      90.31855
                      -6.49344                      -0.12904                      89.94537
                      -6.43224                      -0.13693                      89.57580
                      -6.28102                      -0.14406                      89.23305
                      -6.04931                      -0.15000                      88.93866
                      -5.75164                      -0.15436                      88.71112
                      -5.40673                      -0.15687                      88.56475
                      -5.03625                      -0.15738                      88.50872
                      -4.66348                      -0.15586                      88.54657
                      -4.31184                      -0.15239                      88.67591
                      -4.00342                      -0.14720                      88.88863
                      -3.75761                      -0.14062                      89.17134
                      -3.58984                      -0.13305                      89.50629
                      -3.52614                      -0.24994                      89.87651
                      -3.54038                      -0.24195                      90.24689
                      -3.64630                      -0.23446                      90.60210
                      -3.83725                      -0.22794                      90.91981
                      -4.10123                      -0.22281                      91.18008
                      -4.42166                      -0.21938                      91.36653
                      -4.77839                      -0.21787                      91.46746
                      -5.14902                      -0.21837                      91.47652
                      -5.51026                      -0.22086                      91.39315
                      -5.83940                      -0.22518                      91.22258
                      -6.11578                      -0.23105                      90.97553
                      -6.32201                      -0.23811                      90.66753
                      -6.44515                      -0.24591                      90.31792
                      -6.47745                      -0.25397                      89.94868
                      -6.41689                      -0.26177                      89.58300
                      -6.26728                      -0.26883                      89.24387
                      -6.03800                      -0.27470                      88.95258
                      -5.74348                      -0.27902                      88.72745
                      -5.40221                      -0.28151                      88.58262
                      -5.03563                      -0.28201                      88.52718
                      -4.66679                      -0.28050                      88.56463
                      -4.31886                      -0.27707                      88.69261
                      -4.01369                      -0.27194                      88.90308
                      -3.77047                      -0.26542                      89.18281
                      -3.60447                      -0.25793                      89.51423
                      -3.55245                      -0.37491                      89.88154
                      -3.56643                      -0.36706                      90.24524
                      -3.67045                      -0.35971                      90.59405
                      -3.85796                      -0.35331                      90.90604
                      -4.11718                      -0.34827                      91.16161
                      -4.43183                      -0.34490                      91.34471
                      -4.78214                      -0.34342                      91.44382
                      -5.14609                      -0.34391                      91.45272
                      -5.50082                      -0.34636                      91.37085
                      -5.82403                      -0.35060                      91.20335
                      -6.09542                      -0.35636                      90.96076
                      -6.29794                      -0.36329                      90.65831
                      -6.41886                      -0.37096                      90.31500
                      -6.45059                      -0.37887                      89.95241
                      -6.39112                      -0.38653                      89.59332
                      -6.24420                      -0.39346                      89.26030
                      -6.01905                      -0.39923                      88.97426
                      -5.72983                      -0.40346                      88.75318
                      -5.39471                      -0.40591                      88.61096
                      -5.03475                      -0.40641                      88.55653
                      -4.67255                      -0.40492                      88.59330
                      -4.33089                      -0.40156                      88.71897
                      -4.03122                      -0.39651                      88.92565
                      -3.79238                      -0.39011                      89.20034
                      -3.62938                      -0.38276                      89.52578
                      -3.59022                      -0.49988                      89.88757
                      -3.60384                      -0.49224                      90.24172
                      -3.70512                      -0.48508                      90.58136
                      -3.88770                      -0.47885                      90.88516
                      -4.14012                      -0.47394                      91.13402
                      -4.44650                      -0.47066                      91.31230
                      -4.78761                      -0.46922                      91.40881
                      -5.14200                      -0.46970                      91.41747
                      -5.48741                      -0.47208                      91.33775
                      -5.80213                      -0.47621                      91.17466
                      -6.06639                      -0.48182                      90.93844
                      -6.26359                      -0.48857                      90.64393
                      -6.38133                      -0.49603                      90.30964
                      -6.41222                      -0.50373                      89.95658
                      -6.35432                      -0.51119                      89.60692
                      -6.21125                      -0.51794                      89.28265
                      -5.99203                      -0.52356                      89.00413
                      -5.71041                      -0.52769                      88.78886
                      -5.38409                      -0.53007                      88.65037
                      -5.03358                      -0.53055                      88.59737
                      -4.68090                      -0.52911                      88.63318
                      -4.34821                      -0.52583                      88.75555
                      -4.05641                      -0.52092                      88.95679
                      -3.82385                      -0.51469                      89.22427
                      -3.66513                      -0.50752                      89.54116
                      -3.64042                      -0.62485                      89.89469
                      -3.65355                      -0.61748                      90.23616
                      -3.75120                      -0.61058                      90.56365
                      -3.92725                      -0.60457                      90.85657
                      -4.17063                      -0.59984                      91.09652
                      -4.46605                      -0.59667                      91.26842
                      -4.79494                      -0.59528                      91.36147
                      -5.13664                      -0.59575                      91.36982
                      -5.46969                      -0.59804                      91.29296
                      -5.77314                      -0.60202                      91.13570
                      -6.02795                      -0.60744                      90.90794
                      -6.21809                      -0.61395                      90.62397
                      -6.33161                      -0.62114                      90.30165
                      -6.36140                      -0.62857                      89.96123
                      -6.30557                      -0.63576                      89.62409
                      -6.16762                      -0.64227                      89.31142
                      -5.95624                      -0.64768                      89.04287
                      -5.68470                      -0.65166                      88.83531
                      -5.37007                      -0.65396                      88.70178
                      -5.03210                      -0.65442                      88.65067
                      -4.69205                      -0.65303                      88.68520
                      -4.37127                      -0.64987                      88.80319
                      -4.08992                      -0.64513                      88.99723
                      -3.86568                      -0.63913                      89.25513
                      -3.71264                      -0.63222                      89.56068
                      -3.70449                      -0.74982                      89.90302
                      -3.71699                      -0.74280                      90.22833
                      -3.81003                      -0.73623                      90.54031
                      -3.97774                      -0.73050                      90.81936
                      -4.20960                      -0.72599                      91.04795
                      -4.49103                      -0.72298                      91.21172
                      -4.80436                      -0.72165                      91.30036
                      -5.12988                      -0.72210                      91.30832
                      -5.44716                      -0.72428                      91.23510
                      -5.73625                      -0.72808                      91.08529
                      -5.97899                      -0.73323                      90.86830
                      -6.16013                      -0.73943                      90.59778
                      -6.26828                      -0.74629                      90.29072
                      -6.29666                      -0.75336                      89.96641
                      -6.24347                      -0.76021                      89.64523
                      -6.11206                      -0.76641                      89.34736
                      -5.91068                      -0.77157                      89.09152
                      -5.65200                      -0.77536                      88.89379
                      -5.35226                      -0.77755                      88.76658
                      -5.03029                      -0.77799                      88.71789
                      -4.70633                      -0.77667                      88.75078
                      -4.40074                      -0.77365                      88.86319
                      -4.13271                      -0.76914                      89.04804
                      -3.91909                      -0.76342                      89.29374
                      -3.77329                      -0.75684                      89.58482
                      -3.78463                      -0.87479                      89.91276
                      -3.79636                      -0.86821                      90.21786
                      -3.88362                      -0.86204                      90.51046
                      -4.04091                      -0.85667                      90.77218
                      -4.25837                      -0.85244                      90.98658
                      -4.52232                      -0.84962                      91.14017
                      -4.81618                      -0.84837                      91.22331
                      -5.12149                      -0.84879                      91.23077
                      -5.41906                      -0.85084                      91.16210
                      -5.69020                      -0.85440                      91.02159
                      -5.91786                      -0.85923                      90.81808
                      -6.08775                      -0.86505                      90.56436
                      -6.18918                      -0.87148                      90.27637
                      -6.21579                      -0.87811                      89.97221
                      -6.16591                      -0.88454                      89.67098
                      -6.04266                      -0.89035                      89.39161
                      -5.85379                      -0.89519                      89.15167
                      -5.61118                      -0.89875                      88.96621
                      -5.33005                      -0.90080                      88.84691
                      -5.02809                      -0.90121                      88.80124
                      -4.72425                      -0.89997                      88.83209
                      -4.43764                      -0.89714                      88.93752
                      -4.18626                      -0.89291                      89.11089
                      -3.98590                      -0.88755                      89.34132
                      -3.84916                      -0.88138                      89.61433
                      -3.88433                      -0.99976                      89.92421
                      -3.89509                      -0.99372                      90.20419
                      -3.97516                      -0.98806                      90.47270
                      -4.11951                      -0.98313                      90.71287
                      -4.31906                      -0.97925                      90.90961
                      -4.56128                      -0.97666                      91.05055
                      -4.83094                      -0.97552                      91.12685
                      -5.11111                      -0.97590                      91.13370
                      -5.38418                      -0.97778                      91.07068
                      -5.63299                      -0.98105                      90.94174
                      -5.84191                      -0.98549                      90.75499
                      -5.99781                      -0.99082                      90.52216
                      -6.09089                      -0.99672                      90.25788
                      -6.11531                      -1.00281                      89.97876
                      -6.06954                      -1.00871                      89.70234
                      -5.95644                      -1.01404                      89.44597
                      -5.78312                      -1.01848                      89.22578
                      -5.56048                      -1.02174                      89.05560
                      -5.30250                      -1.02363                      88.94611
                      -5.02540                      -1.02401                      88.90421
                      -4.74658                      -1.02287                      88.93252
                      -4.48357                      -1.02027                      89.02926
                      -4.25289                      -1.01639                      89.18836
                      -4.06903                      -1.01147                      89.39982
                      -3.94355                      -1.00581                      89.65035
                      -4.00949                      -1.12473                      89.93788
                      -4.01904                      -1.11937                      90.18634
                      -4.09010                      -1.11435                      90.42462
                      -4.21819                      -1.10998                      90.63775
                      -4.39528                      -1.10653                      90.81234
                      -4.61022                      -1.10423                      90.93742
                      -4.84953                      -1.10322                      91.00512
                      -5.09815                      -1.10356                      91.01120
                      -5.34048                      -1.10523                      90.95528
                      -5.56128                      -1.10812                      90.84085
                      -5.74667                      -1.11206                      90.67513
                      -5.88502                      -1.11680                      90.46852
                      -5.96762                      -1.12203                      90.23399
                      -5.98929                      -1.12744                      89.98630
                      -5.94867                      -1.13267                      89.74099
                      -5.84830                      -1.13741                      89.51349
                      -5.69450                      -1.14134                      89.31809
                      -5.49693                      -1.14424                      89.16707
                      -5.26800                      -1.14591                      89.06991
                      -5.02209                      -1.14625                      89.03273
                      -4.77466                      -1.14524                      89.05785
                      -4.54126                      -1.14294                      89.14370
                      -4.33655                      -1.13949                      89.28488
                      -4.17339                      -1.13512                      89.47253
                      -4.06204                      -1.13010                      89.69486
                      -4.17163                      -1.24970                      89.95479
                      -4.17962                      -1.24522                      90.16243
                      -4.23900                      -1.24103                      90.36157
                      -4.34605                      -1.23737                      90.53968
                      -4.49404                      -1.23449                      90.68559
                      -4.67367                      -1.23257                      90.79012
                      -4.87366                      -1.23172                      90.84670
                      -5.08144                      -1.23201                      90.85178
                      -5.28396                      -1.23340                      90.80504
                      -5.46848                      -1.23582                      90.70942
                      -5.62342                      -1.23912                      90.57092
                      -5.73903                      -1.24307                      90.39825
                      -5.80807                      -1.24745                      90.20226
                      -5.82618                      -1.25196                      89.99525
                      -5.79223                      -1.25634                      89.79025
                      -5.70835                      -1.26029                      89.60013
                      -5.57981                      -1.26359                      89.43683
                      -5.41470                      -1.26601                      89.31062
                      -5.22338                      -1.26740                      89.22942
                      -5.01787                      -1.26768                      89.19835
                      -4.81110                      -1.26684                      89.21934
                      -4.61604                      -1.26492                      89.29109
                      -4.44496                      -1.26204                      89.40908
                      -4.30861                      -1.25838                      89.56590
                      -4.21555                      -1.25419                      89.75169
                      -4.40020                      -1.37468                      89.97752
                      -4.40597                      -1.37144                      90.12764
                      -4.44890                      -1.36840                      90.27161
                      -4.52630                      -1.36576                      90.40039
                      -4.63330                      -1.36368                      90.50588
                      -4.76317                      -1.36229                      90.58145
                      -4.90777                      -1.36168                      90.62236
                      -5.05799                      -1.36188                      90.62604
                      -5.20441                      -1.36289                      90.59224
                      -5.33782                      -1.36464                      90.52311
                      -5.44984                      -1.36702                      90.42298
                      -5.53343                      -1.36988                      90.29814
                      -5.58334                      -1.37304                      90.15643
                      -5.59643                      -1.37631                      90.00677
                      -5.57189                      -1.37947                      89.85855
                      -5.51124                      -1.38233                      89.72109
                      -5.41831                      -1.38471                      89.60303
                      -5.29894                      -1.38646                      89.51178
                      -5.16061                      -1.38747                      89.45307
                      -5.01203                      -1.38767                      89.43061
                      -4.86253                      -1.38706                      89.44578
                      -4.72151                      -1.38567                      89.49766
                      -4.59782                      -1.38359                      89.58296
                      -4.49923                      -1.38095                      89.69635
                      -4.43195                      -1.37791                      89.83068
                      -4.99716                      -1.49965                      90.03247
                      -4.99716                      -1.49965                      90.03247
                      -4.99716                      -1.49965                      90.03247
                      -4.99716                      -1.49965                      90.03247
                      -4.99716                      -1.49965                      90.03247
                      -4.99716                      -1.49965                      90.03247
                      -4.99716                      -1.49965                      90.03247
                      -4.99716                      -1.49965                      90.03247
                      -4.99716                      -1.49965                      90.03247
                      -4.99716                      -1.49965                      90.03247
                      -4.99716                      -1.49965                      90.03247
                      -4.99716                      -1.49965                      90.03247
                      -4.99716                      -1.49965                      90.03247
                      -4.99716                      -1.49965                      90.03247
                      -4.99716                      -1.49965                      90.03247
                      -4.99716                      -1.49965                      90.03247
                      -4.99716                      -1.49965                      90.03247
                      -4.99716                      -1.49965                      90.03247
                      -4.99716                      -1.49965                      90.03247
                      -4.99716                      -1.49965                      90.03247
                      -4.99716                      -1.49965                      90.03247
                      -4.99716                      -1.49965                      90.03247
                      -4.99716                      -1.49965                      90.03247
                      -4.99716                      -1.49965                      90.03247
                      -4.99716                      -1.49965                      90.03247
        </DataArray>
      </Points>
      <Polys>
        <DataArray type="Int32" Name="connectivity" format="ascii">
      0      1     26     25
      1      2     27     26
      2      3     28     27
      3      4     29     28
      4      5     30     29
      5      6     31     30
      6      7     32     31
      7      8     33     32
      8      9     34     33
      9     10     35     34
     10     11     36     35
     11     12     37     36
     12     13     38     37
     13     14     39     38
     14     15     40     39
     15     16     41     40
     16     17     42     41
     17     18     43     42
     18     19     44     43
     19     20     45     44
     20     21     46     45
     21     22     47     46
     22     23     48     47
     23     24     49     48
     24      0     25     49
     25     26     51     50
     26     27     52     51
     27     28     53     52
     28     29     54     53
     29     30     55     54
     30     31     56     55
     31     32     57     56
     32     33     58     57
     33     34     59     58
     34     35     60     59
     35     36     61     60
     36     37     62     61
     37     38     63     62
     38     39     64     63
     39     40     65     64
     40     41     66     65
     41     42     67     66
     42     43     68     67
     43     44     69     68
     44     45     70     69
     45     46     71     70
     46     47     72     71
     47     48     73     72
     48     49     74     73
     49     25     50     74
     50     51     76     75
     51     52     77     76
     52     53     78     77
     53     54     79     78
     54     55     80     79
     55     56     81     80
     56     57     82     81
     57     58     83     82
     58     59     84     83
     59     60     85     84
     60     61     86     85
     61     62     87     86
     62     63     88     87
     63     64     89     88
     64     65     90     89
     65     66     91     90
     66     67     92     91
     67     68     93     92
     68     69     94     93
     69     70     95     94
     70     71     96     95
     71     72     97     96
     72     73     98     97
     73     74     99     98
     74     50     75     99
     75     76    101    100
     76     77    102    101
     77     78    103    102
     78     79    104    103
     79     80    105    104
     80     81    106    105
     81     82    107    106
     82     83    108    107
     83     84    109    108
     84     85    110    109
     85     86    111    110
     86     87    112    111
     87     88    113    112
     88     89    114    113
     89     90    115    114
     90     91    116    115
     91     92    117    116
     92     93    118    117
     93     94    119    118
     94     95    120    119
     95     96    121    120
     96     97    122    121
     97     98    123    122
     98     99    124    123
     99     75    100    124
    100    101    126    125
    101    102    127    126
    102    103    128    127
    103    104    129    128
    104    105    130    129
    105    106    131    130
    106    107    132    131
    107    108    133    132
    108    109    134    133
    109    110    135    134
    110    111    136    135
    111    112    137    136
    112    113    138    137
    113    114    139    138
    114    115    140    139
    115    116    141    140
    116    117    142    141
    117    118    143    142
    118    119    144    143
    119    120    145    144
    120    121    146    145
    121    122    147    146
    122    123    148    147
    123    124    149    148
    124    100    125    149
    125    126    151    150
    126    127    152    151
    127    128    153    152
    128    129    154    153
    129    130    155    154
    130    131    156    155
    131    132    157    156
    132    133    158    157
    133    134    159    158
    134    135    160    159
    135    136    161    160
    136    137    162    161
    137    138    163    162
    138    139    164    163
    139    140    165    164
    140    141    166    165
    141    142    167    166
    142    143    168    167
    143    144    169    168
    144    145    170    169
    145    146    171    170
    146    147    172    171
    147    148    173    172
    148    149    174    173
    149    125    150    174
    150    151    176    175
    151    152    177    176
    152    153    178    177
    153    154    179    178
    154    155    180    179
    155    156    181    180
    156    157    182    181
    157    158    183    182
    158    159    184    183
    159    160    185    184
    160    161    186    185
    161    162    187    186
    162    163    188    187
    163    164    189    188
    164    165    190    189
    165    166    191    190
    166    167    192    191
    167    168    193    192
    168    169    194    193
    169    170    195    194
    170    171    196    195
    171    172    197    196
    172    173    198    197
    173    174    199    198
    174    150    175    199
    175    176    201    200
    176    177    202    201
    177    178    203    202
    178    179    204    203
    179    180    205    204
    180    181    206    205
    181    182    207    206
    182    183    208    207
    183    184    209    208
    184    185    210    209
    185    186    211    210
    186    187    212    211
    187    188    213    212
    188    189    214    213
    189    190    215    214
    190    191    216    215
    191    192    217    216
    192    193    218    217
    193    194    219    218
    194    195    220    219
    195    196    221    220
    196    197    222    221
    197    198    223    222
    198    199    224    223
    199    175    200    224
    200    201    226    225
    201    202    227    226
    202    203    228    227
    203    204    229    228
    204    205    230    229
    205    206    231    230
    206    207    232    231
    207    208    233    232
    208    209    234    233
    209    210    235    234
    210    211    236    235
    211    212    237    236
    212    213    238    237
    213    214    239    238
    214    215    240    239
    215    216    241    240
    216    217    242    241
    217    218    243    242
    218    219    244    243
    219    220    245    244
    220    221    246    245
    221    222    247    246
    222    223    248    247
    223    224    249    248
    224    200    225    249
    225    226    251    250
    226    227    252    251
    227    228    253    252
    228    229    254    253
    229    230    255    254
    230    231    256    255
    231    232    257    256
    232    233    258    257
    233    234    259    258
    234    235    260    259
    235    236    261    260
    236    237    262    261
    237    238    263    262
    238    239    264    263
    239    240    265    264
    240    241    266    265
    241    242    267    266
    242    243    268    267
    243    244    269    268
    244    245    270    269
    245    246    271    270
    246    247    272    271
    247    248    273    272
    248    249    274    273
    249    225    250    274
    250    251    276    275
    251    252    277    276
    252    253    278    277
    253    254    279    278
    254    255    280    279
    255    256    281    280
    256    257    282    281
    257    258    283    282
    258    259    284    283
    259    260    285    284
    260    261    286    285
    261    262    287    286
    262    263    288    287
    263    264    289    288
    264    265    290    289
    265    266    291    290
    266    267    292    291
    267    268    293    292
    268    269    294    293
    269    270    295    294
    270    271    296    295
    271    272    297    296
    272    273    298    297
    273    274    299    298
    274    250    275    299
    275    276    301    300
    276    277    302    301
    277    278    303    302
    278    279    304    303
    279    280    305    304
    280    281    306    305
    281    282    307    306
    282    283    308    307
    283    284    309    308
    284    285    310    309
    285    286    311    310
    286    287    312    311
    287    288    313    312
    288    289    314    313
    289    290    315    314
    290    291    316    315
    291    292    317    316
    292    293    318    317
    293    294    319    318
    294    295    320    319
    295    296    321    320
    296    297    322    321
    297    298    323    322
    298    299    324    323
    299    275    300    324
    300    301    326    325
    301    302    327    326
    302    303    328    327
    303    304    329    328
    304    305    330    329
    305    306    331    330
    306    307    332    331
    307    308    333    332
    308    309    334    333
    309    310    335    334
    310    311    336    335
    311    312    337    336
    312    313    338    337
    313    314    339    338
    314    315    340    339
    315    316    341    340
    316    317    342    341
    317    318    343    342
    318    319    344    343
    319    320    345    344
    320    321    346    345
    321    322    347    346
    322    323    348    347
    323    324    349    348
    324    300    325    349
    325    326    351    350
    326    327    352    351
    327    328    353    352
    328    329    354    353
    329    330    355    354
    330    331    356    355
    331    332    357    356
    332    333    358    357
    333    334    359    358
    334    335    360    359
    335    336    361    360
    336    337    362    361
    337    338    363    362
    338    339    364    363
    339    340    365    364
    340    341    366    365
    341    342    367    366
    342    343    368    367
    343    344    369    368
    344    345    370    369
    345    346    371    370
    346    347    372    371
    347    348    373    372
    348    349    374    373
    349    325    350    374
    350    351    376    375
    351    352    377    376
    352    353    378    377
    353    354    379    378
    354    355    380    379
    355    356    381    380
    356    357    382    381
    357    358    383    382
    358    359    384    383
    359    360    385    384
    360    361    386    385
    361    362    387    386
    362    363    388    387
    363    364    389    388
    364    365    390    389
    365    366    391    390
    366    367    392    391
    367    368    393    392
    368    369    394    393
    369    370    395    394
    370    371    396    395
    371    372    397    396
    372    373    398    397
    373    374    399    398
    374    350    375    399
    375    376    401    400
    376    377    402    401
    377    378    403    402
    378    379    404    403
    379    380    405    404
    380    381    406    405
    381    382    407    406
    382    383    408    407
    383    384    409    408
    384    385    410    409
    385    386    411    410
    386    387    412    411
    387    388    413    412
    388    389    414    413
    389    390    415    414
    390    391    416    415
    391    392    417    416
    392    393    418    417
    393    394    419    418
    394    395    420    419
    395    396    421    420
    396    397    422    421
    397    398    423    422
    398    399    424    423
    399    375    400    424
    400    401    426    425
    401    402    427    426
    402    403    428    427
    403    404    429    428
    404    405    430    429
    405    406    431    430
    406    407    432    431
    407    408    433    432
    408    409    434    433
    409    410    435    434
    410    411    436    435
    411    412    437    436
    412    413    438    437
    413    414    439    438
    414    415    440    439
    415    416    441    440
    416    417    442    441
    417    418    443    442
    418    419    444    443
    419    420    445    444
    420    421    446    445
    421    422    447    446
    422    423    448    447
    423    424    449    448
    424    400    425    449
    425    426    451    450
    426    427    452    451
    427    428    453    452
    428    429    454    453
    429    430    455    454
    430    431    456    455
    431    432    457    456
    432    433    458    457
    433    434    459    458
    434    435    460    459
    435    436    461    460
    436    437    462    461
    437    438    463    462
    438    439    464    463
    439    440    465    464
    440    441    466    465
    441    442    467    466
    442    443    468    467
    443    444    469    468
    444    445    470    469
    445    446    471    470
    446    447    472    471
    447    448    473    472
    448    449    474    473
    449    425    450    474
    450    451    476    475
    451    452    477    476
    452    453    478    477
    453    454    479    478
    454    455    480    479
    455    456    481    480
    456    457    482    481
    457    458    483    482
    458    459    484    483
    459    460    485    484
    460    461    486    485
    461    462    487    486
    462    463    488    487
    463    464    489    488
    464    465    490    489
    465    466    491    490
    466    467    492    491
    467    468    493    492
    468    469    494    493
    469    470    495    494
    470    471    496    495
    471    472    497    496
    472    473    498    497
    473    474    499    498
    474    450    475    499
    475    476    501    500
    476    477    502    501
    477    478    503    502
    478    479    504    503
    479    480    505    504
    480    481    506    505
    481    482    507    506
    482    483    508    507
    483    484    509    508
    484    485    510    509
    485    486    511    510
    486    487    512    511
    487    488    513    512
    488    489    514    513
    489    490    515    514
    490    491    516    515
    491    492    517    516
    492    493    518    517
    493    494    519    518
    494    495    520    519
    495    496    521    520
    496    497    522    521
    497    498    523    522
    498    499    524    523
    499    475    500    524
    500    501    526    525
    501    502    527    526
    502    503    528    527
    503    504    529    528
    504    505    530    529
    505    506    531    530
    506    507    532    531
    507    508    533    532
    508    509    534    533
    509    510    535    534
    510    511    536    535
    511    512    537    536
    512    513    538    537
    513    514    539    538
    514    515    540    539
    515    516    541    540
    516    517    542    541
    517    518    543    542
    518    519    544    543
    519    520    545    544
    520    521    546    545
    521    522    547    546
    522    523    548    547
    523    524    549    548
    524    500    525    549
    525    526    551    550
    526    527    552    551
    527    528    553    552
    528    529    554    553
    529    530    555    554
    530    531    556    555
    531    532    557    556
    532    533    558    557
    533    534    559    558
    534    535    560    559
    535    536    561    560
    536    537    562    561
    537    538    563    562
    538    539    564    563
    539    540    565    564
    540    541    566    565
    541    542    567    566
    542    543    568    567
    543    544    569    568
    544    545    570    569
    545    546    571    570
    546    547    572    571
    547    548    573    572
    548    549    574    573
    549    525    550    574
    550    551    576    575
    551    552    577    576
    552    553    578    577
    553    554    579    578
    554    555    580    579
    555    556    581    580
    556    557    582    581
    557    558    583    582
    558    559    584    583
    559    560    585    584
    560    561    586    585
    561    562    587    586
    562    563    588    587
    563    564    589    588
    564    565    590    589
    565    566    591    590
    566    567    592    591
    567    568    593    592
    568    569    594    593
    569    570    595    594
    570    571    596    595
    571    572    597    596
    572    573    598    597
    573    574    599    598
    574    550    575    599
    575    576    601    600
    576    577    602    601
    577    578    603    602
    578    579    604    603
    579    580    605    604
    580    581    606    605
    581    582    607    606
    582    583    608    607
    583    584    609    608
    584    585    610    609
    585    586    611    610
    586    587    612    611
    587    588    613    612
    588    589    614    613
    589    590    615    614
    590    591    616    615
    591    592    617    616
    592    593    618    617
    593    594    619    618
    594    595    620    619
    595    596    621    620
    596    597    622    621
    597    598    623    622
    598    599    624    623
    599    575    600    624
        </DataArray>
        <DataArray type="Int32" Name="offsets" format="ascii">
      4
      8
     12
     16
     20
     24
     28
     32
     36
     40
     44
     48
     52
     56
     60
     64
     68
     72
     76
     80
     84
     88
     92
     96
    100
    104
    108
    112
    116
    120
    124
    128
    132
    136
    140
    144
    148
    152
    156
    160
    164
    168
    172
    176
    180
    184
    188
    192
    196
    200
    204
    208
    212
    216
    220
    224
    228
    232
    236
    240
    244
    248
    252
    256
    260
    264
    268
    272
    276
    280
    284
    288
    292
    296
    300
    304
    308
    312
    316
    320
    324
    328
    332
    336
    340
    344
    348
    352
    356
    360
    364
    368
    372
    376
    380
    384
    388
    392
    396
    400
    404
    408
    412
    416
    420
    424
    428
    432
    436
    440
    444
    448
    452
    456
    460
    464
    468
    472
    476
    480
    484
    488
    492
    496
    500
    504
    508
    512
    516
    520
    524
    528
    532
    536
    540
    544
    548
    552
    556
    560
    564
    568
    572
    576
    580
    584
    588
    592
    596
    600
    604
    608
    612
    616
    620
    624
    628
    632
    636
    640
    644
    648
    652
    656
    660
    664
    668
    672
    676
    680
    684
    688
    692
    696
    700
    704
    708
    712
    716
    720
    724
    728
    732
    736
    740
    744
    748
    752
    756
    760
    764
    768
    772
    776
    780
    784
    788
    792
    796
    800
    804
    808
    812
    816
    820
    824
    828
    832
    836
    840
    844
    848
    852
    856
    860
    864
    868
    872
    876
    880
    884
    888
    892
    896
    900
    904
    908
    912
    916
    920
    924
    928
    932
    936
    940
    944
    948
    952
    956
    960
    964
    968
    972
    976
    980
    984
    988
    992
    996
   1000
   1004
   1008
   1012
   1016
   1020
   1024
   1028
   1032
   1036
   1040
   1044
   1048
   1052
   1056
   1060
   1064
   1068
   1072
   1076
   1080
   1084
   1088
   1092
   1096
   1100
   1104
   1108
   1112
   1116
   1120
   1124
   1128
   1132
   1136
   1140
   1144
   1148
   1152
   1156
   1160
   1164
   1168
   1172
   1176
   1180
   1184
   1188
   1192
   1196
   1200
   1204
   1208
   1212
   1216
   1220
   1224
   1228
   1232
   1236
   1240
   1244
   1248
   1252
   1256
   1260
   1264
   1268
   1272
   1276
   1280
   1284
   1288
   1292
   1296
   1300
   1304
   1308
   1312
   1316
   1320
   1324
   1328
   1332
   1336
   1340
   1344
   1348
   1352
   1356
   1360
   1364
   1368
   1372
   1376
   1380
   1384
   1388
   1392
   1396
   1400
   1404
   1408
   1412
   1416
   1420
   1424
   1428
   1432
   1436
   1440
   1444
   1448
   1452
   1456
   1460
   1464
   1468
   1472
   1476
   1480
   1484
   1488
   1492
   1496
   1500
   1504
   1508
   1512
   1516
   1520
   1524
   1528
   1532
   1536
   1540
   1544
   1548
   1552
   1556
   1560
   1564
   1568
   1572
   1576
   1580
   1584
   1588
   1592
   1596
   1600
   1604
   1608
   1612
   1616
   1620
   1624
   1628
   1632
   1636
   1640
   1644
   1648
   1652
   1656
   1660
   1664
   1668
   1672
   1676
   1680
   1684
   1688
   1692
   1696
   1700
   1704
   1708
   1712
   1716
   1720
   1724
   1728
   1732
   1736
   1740
   1744
   1748
   1752
   1756
   1760
   1764
   1768
   1772
   1776
   1780
   1784
   1788
   1792
   1796
   1800
   1804
   1808
   1812
   1816
   1820
   1824
   1828
   1832
   1836
   1840
   1844
   1848
   1852
   1856
   1860
   1864
   1868
   1872
   1876
   1880
   1884
   1888
   1892
   1896
   1900
   1904
   1908
   1912
   1916
   1920
   1924
   1928
   1932
   1936
   1940
   1944
   1948
   1952
   1956
   1960
   1964
   1968
   1972
   1976
   1980
   1984
   1988
   1992
   1996
   2000
   2004
   2008
   2012
   2016
   2020
   2024
   2028
   2032
   2036
   2040
   2044
   2048
   2052
   2056
   2060
   2064
   2068
   2072
   2076
   2080
   2084
   2088
   2092
   2096
   2100
   2104
   2108
   2112
   2116
   2120
   2124
   2128
   2132
   2136
   2140
   2144
   2148
   2152
   2156
   2160
   2164
   2168
   2172
   2176
   2180
   2184
   2188
   2192
   2196
   2200
   2204
   2208
   2212
   2216
   2220
   2224
   2228
   2232
   2236
   2240
   2244
   2248
   2252
   2256
   2260
   2264
   2268
   2272
   2276
   2280
   2284
   2288
   2292
   2296
   2300
   2304
   2308
   2312
   2316
   2320
   2324
   2328
   2332
   2336
   2340
   2344
   2348
   2352
   2356
   2360
   2364
   2368
   2372
   2376
   2380
   2384
   2388
   2392
   2396
   2400
        </DataArray>
      </Polys>
    </Piece>
  </PolyData>
</VTKFile>
