<?xml version="1.0"?>
<VTKFile type="PolyData" version="0.1" byte_order="LittleEndian">
  <PolyData>
    <Piece NumberOfPoints="    625" NumberOfVerts="  0" NumberOfLines="      0"
           NumberOfStrips="  0" NumberOfPolys="    600">
      <Points>
        <DataArray type="Float32" NumberOfComponents="3" format="ascii">
                      -5.09593                      -1.01907                      88.90351
                      -5.09593                      -1.01907                      88.90351
                      -5.09593                      -1.01907                      88.90351
                      -5.09593                      -1.01907                      88.90351
                      -5.09593                      -1.01907                      88.90351
                      -5.09593                      -1.01907                      88.90351
                      -5.09593                      -1.01907                      88.90351
                      -5.09593                      -1.01907                      88.90351
                      -5.09593                      -1.01907                      88.90351
                      -5.09593                      -1.01907                      88.90351
                      -5.09593                      -1.01907                      88.90351
                      -5.09593                      -1.01907                      88.90351
                      -5.09593                      -1.01907                      88.90351
                      -5.09593                      -1.01907                      88.90351
                      -5.09593                      -1.01907                      88.90351
                      -5.09593                      -1.01907                      88.90351
                      -5.09593                      -1.01907                      88.90351
                      -5.09593                      -1.01907                      88.90351
                      -5.09593                      -1.01907                      88.90351
                      -5.09593                      -1.01907                      88.90351
                      -5.09593                      -1.01907                      88.90351
                      -5.09593                      -1.01907                      88.90351
                      -5.09593                      -1.01907                      88.90351
                      -5.09593                      -1.01907                      88.90351
                      -5.09593                      -1.01907                      88.90351
                      -4.49074                      -0.93414                      88.94263
                      -4.51833                      -0.82475                      88.84338
                      -4.58171                      -0.72222                      88.75364
                      -4.67690                      -0.63302                      88.67906
                      -4.79791                      -0.56273                      88.62432
                      -4.93715                      -0.51578                      88.59287
                      -5.08587                      -0.49512                      88.58668
                      -5.23471                      -0.50204                      88.60614
                      -5.37433                      -0.53612                      88.65002
                      -5.49596                      -0.59520                      88.71557
                      -5.59194                      -0.67558                      88.79867
                      -5.65626                      -0.77221                      88.89411
                      -5.68487                      -0.87901                      88.99587
                      -5.67598                      -0.98928                      89.09757
                      -5.63013                      -1.09608                      89.19282
                      -5.55022                      -1.19271                      89.27563
                      -5.44126                      -1.27309                      89.34080
                      -5.31009                      -1.33217                      89.38424
                      -5.16497                      -1.36624                      89.40321
                      -5.01501                      -1.37317                      89.39652
                      -4.86963                      -1.35251                      89.36460
                      -4.73797                      -1.30556                      89.30945
                      -4.62830                      -1.23527                      89.23453
                      -4.54751                      -1.14606                      89.14456
                      -4.50067                      -1.04354                      89.04518
                      -4.25394                      -0.84922                      89.01399
                      -4.29210                      -0.69791                      88.87671
                      -4.37977                      -0.55611                      88.75259
                      -4.51142                      -0.43273                      88.64943
                      -4.67880                      -0.33551                      88.57373
                      -4.87139                      -0.27057                      88.53023
                      -5.07708                      -0.24200                      88.52166
                      -5.28295                      -0.25157                      88.54857
                      -5.47606                      -0.29870                      88.60927
                      -5.64428                      -0.38042                      88.69994
                      -5.77705                      -0.49160                      88.81488
                      -5.86601                      -0.62525                      88.94687
                      -5.90558                      -0.77297                      89.08762
                      -5.89328                      -0.92548                      89.22829
                      -5.82987                      -1.07320                      89.36003
                      -5.71933                      -1.20685                      89.47457
                      -5.56863                      -1.31802                      89.56471
                      -5.38721                      -1.39974                      89.62478
                      -5.18649                      -1.44687                      89.65103
                      -4.97908                      -1.45645                      89.64178
                      -4.77800                      -1.42787                      89.59763
                      -4.59590                      -1.36293                      89.52134
                      -4.44421                      -1.26572                      89.41772
                      -4.33246                      -1.14233                      89.29327
                      -4.26768                      -1.00053                      89.15582
                      -4.08357                      -0.76430                      89.09116
                      -4.12923                      -0.58324                      88.92689
                      -4.23413                      -0.41357                      88.77837
                      -4.39167                      -0.26593                      88.65493
                      -4.59195                      -0.14960                      88.56435
                      -4.82239                      -0.07190                      88.51229
                      -5.06852                      -0.03770                      88.50204
                      -5.31486                      -0.04916                      88.53425
                      -5.54594                      -0.10555                      88.60687
                      -5.74723                      -0.20334                      88.71536
                      -5.90610                      -0.33637                      88.85290
                      -6.01255                      -0.49629                      89.01084
                      -6.05990                      -0.67305                      89.17926
                      -6.04517                      -0.85555                      89.34758
                      -5.96930                      -1.03231                      89.50522
                      -5.83704                      -1.19223                      89.64228
                      -5.65670                      -1.32526                      89.75014
                      -5.43963                      -1.42304                      89.82203
                      -5.19945                      -1.47944                      89.85343
                      -4.95126                      -1.49090                      89.84236
                      -4.71065                      -1.45670                      89.78953
                      -4.49275                      -1.37900                      89.69825
                      -4.31123                      -1.26267                      89.57426
                      -4.17752                      -1.11503                      89.42535
                      -4.10001                      -0.94535                      89.26087
                      -3.95018                      -0.67938                      89.17156
                      -4.00163                      -0.47535                      88.98645
                      -4.11983                      -0.28415                      88.81908
                      -4.29736                      -0.11777                      88.67999
                      -4.52306                       0.01331                      88.57791
                      -4.78274                       0.10087                      88.51925
                      -5.06009                       0.13941                      88.50770
                      -5.33768                       0.12649                      88.54399
                      -5.59808                       0.06294                      88.62583
                      -5.82491                      -0.04725                      88.74809
                      -6.00393                      -0.19716                      88.90308
                      -6.12389                      -0.37737                      89.08106
                      -6.17725                      -0.57655                      89.27084
                      -6.16065                      -0.78220                      89.46052
                      -6.07515                      -0.98139                      89.63816
                      -5.92611                      -1.16160                      89.79260
                      -5.72290                      -1.31151                      89.91415
                      -5.47828                      -1.42170                      89.99516
                      -5.20763                      -1.48525                      90.03054
                      -4.92795                      -1.49816                      90.01807
                      -4.65682                      -1.45963                      89.95854
                      -4.41127                      -1.37207                      89.85568
                      -4.20673                      -1.24098                      89.71595
                      -4.05605                      -1.07461                      89.54815
                      -3.96870                      -0.88340                      89.36280
                      -3.84225                      -0.59446                      89.25419
                      -3.89832                      -0.37212                      89.05247
                      -4.02713                      -0.16376                      88.87009
                      -4.22059                       0.01754                      88.71852
                      -4.46653                       0.16038                      88.60728
                      -4.74951                       0.25580                      88.54336
                      -5.05175                       0.29779                      88.53077
                      -5.35425                       0.28372                      88.57031
                      -5.63801                       0.21447                      88.65950
                      -5.88520                       0.09439                      88.79273
                      -6.08028                      -0.06897                      88.96162
                      -6.21100                      -0.26535                      89.15557
                      -6.26914                      -0.48241                      89.36238
                      -6.25106                      -0.70650                      89.56908
                      -6.15789                      -0.92356                      89.76265
                      -5.99547                      -1.11994                      89.93096
                      -5.77402                      -1.28330                      90.06341
                      -5.50746                      -1.40338                      90.15169
                      -5.21253                      -1.47263                      90.19024
                      -4.90775                      -1.48670                      90.17666
                      -4.61229                      -1.44471                      90.11178
                      -4.34471                      -1.34929                      89.99969
                      -4.12182                      -1.20645                      89.84743
                      -3.95762                      -1.02515                      89.66457
                      -3.86244                      -0.81679                      89.46259
                      -3.75387                      -0.50953                      89.33854
                      -3.81366                      -0.27248                      89.12345
                      -3.95100                      -0.05032                      88.92899
                      -4.15727                       0.14299                      88.76738
                      -4.41950                       0.29530                      88.64878
                      -4.72122                       0.39703                      88.58062
                      -5.04348                       0.44181                      88.56720
                      -5.36601                       0.42680                      88.60936
                      -5.66856                       0.35297                      88.70446
                      -5.93212                       0.22494                      88.84651
                      -6.14012                       0.05076                      89.02658
                      -6.27950                      -0.15863                      89.23338
                      -6.34150                      -0.39006                      89.45389
                      -6.32222                      -0.62900                      89.67427
                      -6.22287                      -0.86044                      89.88067
                      -6.04970                      -1.06982                      90.06012
                      -5.81359                      -1.24400                      90.20134
                      -5.52937                      -1.37203                      90.29547
                      -5.21490                      -1.44587                      90.33658
                      -4.88994                      -1.46087                      90.32209
                      -4.57492                      -1.41610                      90.25292
                      -4.28961                      -1.31436                      90.13341
                      -4.05196                      -1.16206                      89.97106
                      -3.87689                      -0.96875                      89.77609
                      -3.77540                      -0.74659                      89.56074
                      -3.68157                      -0.42461                      89.42429
                      -3.74433                      -0.17577                      89.19851
                      -3.88849                       0.05743                      88.99439
                      -4.10501                       0.26034                      88.82475
                      -4.38028                       0.42021                      88.70025
                      -4.69699                       0.52700                      88.62871
                      -5.03526                       0.57400                      88.61462
                      -5.37382                       0.55825                      88.65888
                      -5.69141                       0.48075                      88.75870
                      -5.96806                       0.34635                      88.90780
                      -6.18640                       0.16352                      89.09683
                      -6.33270                      -0.05627                      89.31390
                      -6.39778                      -0.29920                      89.54537
                      -6.37754                      -0.55002                      89.77670
                      -6.27326                      -0.79295                      89.99336
                      -6.09148                      -1.01274                      90.18172
                      -5.84364                      -1.19558                      90.32997
                      -5.54529                      -1.32997                      90.42877
                      -5.21520                      -1.40747                      90.47192
                      -4.87410                      -1.42322                      90.45671
                      -4.54341                      -1.37623                      90.38410
                      -4.24393                      -1.26943                      90.25865
                      -3.99447                      -1.10956                      90.08824
                      -3.81070                      -0.90665                      89.88358
                      -3.70417                      -0.67345                      89.65753
                      -3.62315                      -0.33969                      89.51125
                      -3.68823                      -0.08161                      89.27709
                      -3.83775                       0.16024                      89.06539
                      -4.06231                       0.37069                      88.88946
                      -4.34779                       0.53650                      88.76033
                      -4.67626                       0.64726                      88.68613
                      -5.02709                       0.69600                      88.67153
                      -5.37822                       0.67966                      88.71743
                      -5.70760                       0.59928                      88.82095
                      -5.99452                       0.45990                      88.97559
                      -6.22097                       0.27028                      89.17164
                      -6.37270                       0.04233                      89.39676
                      -6.44020                      -0.20963                      89.63683
                      -6.41921                      -0.46975                      89.87675
                      -6.31105                      -0.72170                      90.10145
                      -6.12253                      -0.94965                      90.29681
                      -5.86548                      -1.13928                      90.45055
                      -5.55606                      -1.27866                      90.55302
                      -5.21371                      -1.35904                      90.59778
                      -4.85994                      -1.37538                      90.58201
                      -4.51699                      -1.32663                      90.50670
                      -4.20639                      -1.21588                      90.37659
                      -3.94766                      -1.05007                      90.19985
                      -3.75707                      -0.83962                      89.98759
                      -3.64658                      -0.59776                      89.75315
                      -3.57714                      -0.25477                      89.59930
                      -3.64398                       0.01027                      89.35882
                      -3.79754                       0.25865                      89.14141
                      -4.02815                       0.47478                      88.96073
                      -4.32134                       0.64506                      88.82812
                      -4.65867                       0.75881                      88.75192
                      -5.01896                       0.80886                      88.73692
                      -5.37957                       0.79209                      88.78406
                      -5.71783                       0.70954                      88.89037
                      -6.01250                       0.56639                      89.04919
                      -6.24505                       0.37166                      89.25052
                      -6.40088                       0.13756                      89.48172
                      -6.47020                      -0.12119                      89.72827
                      -6.44864                      -0.38834                      89.97466
                      -6.33757                      -0.64709                      90.20542
                      -6.14396                      -0.88119                      90.40605
                      -5.87997                      -1.07593                      90.56394
                      -5.56221                      -1.21907                      90.66918
                      -5.21062                      -1.30162                      90.71514
                      -4.84731                      -1.31840                      90.69894
                      -4.49510                      -1.26834                      90.62161
                      -4.17612                      -1.15459                      90.48799
                      -3.91041                      -0.98431                      90.30648
                      -3.71468                      -0.76819                      90.08850
                      -3.60121                      -0.51980                      89.84772
                      -3.54260                      -0.16984                      89.68835
                      -3.61067                       0.10006                      89.44346
                      -3.76704                       0.35300                      89.22206
                      -4.00188                       0.57309                      89.03806
                      -4.30045                       0.74650                      88.90302
                      -4.64398                       0.86233                      88.82542
                      -5.01088                       0.91330                      88.81015
                      -5.37810                       0.89622                      88.85815
                      -5.72257                       0.81215                      88.96642
                      -6.02264                       0.66639                      89.12815
                      -6.25946                       0.46807                      89.33317
                      -6.41815                       0.22968                      89.56862
                      -6.48874                      -0.03382                      89.81969
                      -6.46679                      -0.30587                      90.07060
                      -6.35368                      -0.56937                      90.30560
                      -6.15651                      -0.80776                      90.50991
                      -5.88769                      -1.00607                      90.67070
                      -5.56409                      -1.15184                      90.77786
                      -5.20605                      -1.23591                      90.82467
                      -4.83607                      -1.25299                      90.80817
                      -4.47740                      -1.20202                      90.72942
                      -4.15256                      -1.08618                      90.59335
                      -3.88198                      -0.91278                      90.40851
                      -3.68266                      -0.69269                      90.18652
                      -3.56711                      -0.43974                      89.94133
                      -3.51890                      -0.08492                      89.77835
                      -3.58769                       0.18785                      89.53085
                      -3.74573                       0.44349                      89.30710
                      -3.98308                       0.66593                      89.12113
                      -4.28483                       0.84118                      88.98465
                      -4.63202                       0.95825                      88.90623
                      -5.00283                       1.00977                      88.89079
                      -5.37396                       0.99250                      88.93930
                      -5.72211                       0.90754                      89.04872
                      -6.02538                       0.76022                      89.21218
                      -6.26472                       0.55979                      89.41939
                      -6.42510                       0.31886                      89.65734
                      -6.49644                       0.05255                      89.91109
                      -6.47425                      -0.22239                      90.16467
                      -6.35994                      -0.48870                      90.40217
                      -6.16067                      -0.72964                      90.60866
                      -5.88898                      -0.93006                      90.77117
                      -5.56194                      -1.07739                      90.87947
                      -5.20008                      -1.16235                      90.92678
                      -4.82616                      -1.17961                      90.91011
                      -4.46366                      -1.12809                      90.83051
                      -4.13537                      -1.01103                      90.69299
                      -3.86190                      -0.83577                      90.50619
                      -3.66045                      -0.61334                      90.28183
                      -3.54367                      -0.35770                      90.03403
                      -3.50571                       0.00000                      89.86927
                      -3.57474                       0.27373                      89.62091
                      -3.73333                       0.53026                      89.39637
                      -3.97151                       0.75347                      89.20976
                      -4.27431                       0.92934                      89.07280
                      -4.62271                       1.04681                      88.99410
                      -4.99482                       1.09851                      88.97861
                      -5.36725                       1.08119                      89.02729
                      -5.71660                       0.99593                      89.13710
                      -6.02093                       0.84809                      89.30112
                      -6.26111                       0.64697                      89.50906
                      -6.42205                       0.40519                      89.74784
                      -6.49364                       0.13795                      90.00247
                      -6.47138                      -0.13795                      90.25694
                      -6.35666                      -0.40519                      90.49527
                      -6.15670                      -0.64697                      90.70248
                      -5.88406                      -0.84809                      90.86555
                      -5.55588                      -0.99593                      90.97424
                      -5.19276                      -1.08119                      91.02171
                      -4.81753                      -1.09851                      91.00498
                      -4.45377                      -1.04681                      90.92511
                      -4.12433                      -0.92934                      90.78710
                      -3.84991                      -0.75347                      90.59965
                      -3.64775                      -0.53026                      90.37451
                      -3.53057                      -0.27373                      90.12584
                      -3.50291                       0.08492                      89.96110
                      -3.57171                       0.35770                      89.71360
                      -3.72974                       0.61334                      89.48984
                      -3.96709                       0.83577                      89.30388
                      -4.26884                       1.01103                      89.16740
                      -4.61603                       1.12809                      89.08898
                      -4.98684                       1.17961                      89.07354
                      -5.35798                       1.16235                      89.12205
                      -5.70612                       1.07739                      89.23147
                      -6.00939                       0.93006                      89.39493
                      -6.24873                       0.72964                      89.60214
                      -6.40911                       0.48870                      89.84009
                      -6.48045                       0.22239                      90.09384
                      -6.45827                      -0.05255                      90.34742
                      -6.34395                      -0.31886                      90.58492
                      -6.14469                      -0.55979                      90.79141
                      -5.87299                      -0.76022                      90.95392
                      -5.54595                      -0.90754                      91.06222
                      -5.18409                      -0.99250                      91.10953
                      -4.81017                      -1.00977                      91.09286
                      -4.44767                      -0.95825                      91.01326
                      -4.11938                      -0.84118                      90.87574
                      -3.84592                      -0.66593                      90.68894
                      -3.64446                      -0.44349                      90.46458
                      -3.52768                      -0.18785                      90.21678
                      -3.51062                       0.16984                      90.05385
                      -3.57869                       0.43974                      89.80896
                      -3.73506                       0.69269                      89.58756
                      -3.96991                       0.91278                      89.40356
                      -4.26847                       1.08618                      89.26852
                      -4.61200                       1.20202                      89.19092
                      -4.97890                       1.25299                      89.17564
                      -5.34612                       1.23591                      89.22365
                      -5.69059                       1.15184                      89.33192
                      -5.99067                       1.00607                      89.49364
                      -6.22749                       0.80776                      89.69867
                      -6.38618                       0.56937                      89.93412
                      -6.45676                       0.30587                      90.18518
                      -6.43481                       0.03382                      90.43610
                      -6.32170                      -0.22968                      90.67109
                      -6.12454                      -0.46807                      90.87541
                      -5.85571                      -0.66639                      91.03620
                      -5.53211                      -0.81215                      91.14336
                      -5.17407                      -0.89622                      91.19017
                      -4.80409                      -0.91330                      91.17367
                      -4.44542                      -0.86233                      91.09492
                      -4.12059                      -0.74650                      90.95884
                      -3.85001                      -0.57309                      90.77401
                      -3.65068                      -0.35300                      90.55202
                      -3.53513                      -0.10006                      90.30683
                      -3.52918                       0.25477                      90.14754
                      -3.59602                       0.51980                      89.90707
                      -3.74957                       0.76819                      89.68966
                      -3.98018                       0.98431                      89.50898
                      -4.27337                       1.15459                      89.37637
                      -4.61071                       1.26834                      89.30017
                      -4.97100                       1.31840                      89.28517
                      -5.33160                       1.30162                      89.33231
                      -5.66987                       1.21907                      89.43862
                      -5.96453                       1.07593                      89.59744
                      -6.19709                       0.88119                      89.79877
                      -6.35292                       0.64709                      90.02997
                      -6.42223                       0.38834                      90.27651
                      -6.40067                       0.12119                      90.52291
                      -6.28960                      -0.13756                      90.75367
                      -6.09599                      -0.37166                      90.95430
                      -5.83201                      -0.56639                      91.11219
                      -5.51424                      -0.70954                      91.21742
                      -5.16266                      -0.79209                      91.26339
                      -4.79934                      -0.80886                      91.24719
                      -4.44713                      -0.75881                      91.16985
                      -4.12815                      -0.64506                      91.03623
                      -3.86245                      -0.47478                      90.85473
                      -3.66671                      -0.25865                      90.63674
                      -3.55324                      -0.01027                      90.39597
                      -3.55919                       0.33969                      90.24225
                      -3.62428                       0.59776                      90.00809
                      -3.77380                       0.83962                      89.79639
                      -3.99835                       1.05007                      89.62045
                      -4.28384                       1.21588                      89.49133
                      -4.61231                       1.32663                      89.41713
                      -4.96314                       1.37538                      89.40252
                      -5.31427                       1.35904                      89.44842
                      -5.64364                       1.27866                      89.55195
                      -5.93057                       1.13928                      89.70659
                      -6.15701                       0.94965                      89.90263
                      -6.30875                       0.72170                      90.12776
                      -6.37624                       0.46975                      90.36783
                      -6.35525                       0.20963                      90.60775
                      -6.24710                      -0.04233                      90.83245
                      -6.05857                      -0.27028                      91.02780
                      -5.80153                      -0.45990                      91.18155
                      -5.49211                      -0.59928                      91.28402
                      -5.14976                      -0.67966                      91.32877
                      -4.79599                      -0.69600                      91.31300
                      -4.45303                      -0.64726                      91.23770
                      -4.14243                      -0.53650                      91.10759
                      -3.88371                      -0.37069                      90.93085
                      -3.69311                      -0.16024                      90.71859
                      -3.58263                       0.08161                      90.48415
                      -3.60163                       0.42461                      90.33803
                      -3.66439                       0.67345                      90.11226
                      -3.80855                       0.90665                      89.90814
                      -4.02507                       1.10956                      89.73850
                      -4.30033                       1.26943                      89.61399
                      -4.61705                       1.37623                      89.54245
                      -4.95532                       1.42322                      89.52837
                      -5.29388                       1.40747                      89.57263
                      -5.61146                       1.32997                      89.67244
                      -5.88812                       1.19558                      89.82155
                      -6.10646                       1.01274                      90.01058
                      -6.25276                       0.79295                      90.22765
                      -6.31784                       0.55002                      90.45912
                      -6.29760                       0.29920                      90.69045
                      -6.19332                       0.05627                      90.90711
                      -6.01154                      -0.16352                      91.09547
                      -5.76369                      -0.34635                      91.24371
                      -5.46535                      -0.48075                      91.34251
                      -5.13526                      -0.55825                      91.38567
                      -4.79415                      -0.57400                      91.37046
                      -4.46347                      -0.52700                      91.29785
                      -4.16399                      -0.42021                      91.17240
                      -3.91453                      -0.26034                      91.00199
                      -3.73076                      -0.05743                      90.79733
                      -3.62423                       0.17577                      90.57127
                      -3.65794                       0.50953                      90.43503
                      -3.71773                       0.74659                      90.21995
                      -3.85507                       0.96875                      90.02549
                      -4.06133                       1.16206                      89.86388
                      -4.32357                       1.31436                      89.74527
                      -4.62529                       1.41610                      89.67712
                      -4.94754                       1.46087                      89.66370
                      -5.27008                       1.44587                      89.70586
                      -5.57263                       1.37203                      89.80095
                      -5.83619                       1.24400                      89.94300
                      -6.04419                       1.06982                      90.12308
                      -6.18357                       0.86044                      90.32987
                      -6.24557                       0.62900                      90.55039
                      -6.22629                       0.39006                      90.77077
                      -6.12694                       0.15863                      90.97717
                      -5.95377                      -0.05076                      91.15662
                      -5.71766                      -0.22494                      91.29784
                      -5.43344                      -0.35297                      91.39196
                      -5.11897                      -0.42680                      91.43307
                      -4.79401                      -0.44181                      91.41859
                      -4.47898                      -0.39703                      91.34941
                      -4.19368                      -0.29530                      91.22990
                      -3.95603                      -0.14299                      91.06756
                      -3.78096                       0.05032                      90.87258
                      -3.67947                       0.27248                      90.65723
                      -3.73033                       0.59446                      90.53344
                      -3.78640                       0.81679                      90.33171
                      -3.91521                       1.02515                      90.14933
                      -4.10867                       1.20645                      89.99776
                      -4.35461                       1.34929                      89.88652
                      -4.63759                       1.44471                      89.82260
                      -4.93983                       1.48670                      89.81002
                      -5.24233                       1.47263                      89.84956
                      -5.52609                       1.40338                      89.93875
                      -5.77328                       1.28330                      90.07197
                      -5.96836                       1.11994                      90.24086
                      -6.09908                       0.92356                      90.43481
                      -6.15723                       0.70650                      90.64163
                      -6.13914                       0.48241                      90.84832
                      -6.04597                       0.26535                      91.04190
                      -5.88355                       0.06897                      91.21020
                      -5.66211                      -0.09439                      91.34265
                      -5.39554                      -0.21447                      91.43093
                      -5.10061                      -0.28372                      91.46949
                      -4.79583                      -0.29779                      91.45590
                      -4.50037                      -0.25580                      91.39102
                      -4.23279                      -0.16038                      91.27894
                      -4.00990                      -0.01754                      91.12668
                      -3.84570                       0.16376                      90.94381
                      -3.75052                       0.37212                      90.74184
                      -3.82227                       0.67938                      90.63356
                      -3.87372                       0.88340                      90.44844
                      -3.99193                       1.07461                      90.28108
                      -4.16945                       1.24098                      90.14199
                      -4.39515                       1.37206                      90.03990
                      -4.65483                       1.45963                      89.98125
                      -4.93218                       1.49816                      89.96970
                      -5.20978                       1.48525                      90.00599
                      -5.47017                       1.42170                      90.08783
                      -5.69701                       1.31151                      90.21008
                      -5.87603                       1.16160                      90.36507
                      -5.99598                       0.98139                      90.54305
                      -6.04934                       0.78220                      90.73284
                      -6.03275                       0.57655                      90.92251
                      -5.94724                       0.37737                      91.10015
                      -5.79820                       0.19716                      91.25460
                      -5.59499                       0.04725                      91.37614
                      -5.35037                      -0.06294                      91.45715
                      -5.07972                      -0.12649                      91.49253
                      -4.80004                      -0.13941                      91.48007
                      -4.52891                      -0.10087                      91.42053
                      -4.28336                      -0.01331                      91.31767
                      -4.07882                       0.11777                      91.17795
                      -3.92814                       0.28415                      91.01014
                      -3.84080                       0.47535                      90.82480
                      -3.93967                       0.76430                      90.73590
                      -3.98533                       0.94535                      90.57163
                      -4.09023                       1.11503                      90.42311
                      -4.24777                       1.26267                      90.29968
                      -4.44805                       1.37900                      90.20909
                      -4.67850                       1.45670                      90.15703
                      -4.92462                       1.49090                      90.14679
                      -5.17096                       1.47944                      90.17899
                      -5.40204                       1.42304                      90.25162
                      -5.60334                       1.32526                      90.36011
                      -5.76220                       1.19223                      90.49764
                      -5.86865                       1.03231                      90.65558
                      -5.91600                       0.85555                      90.82401
                      -5.90128                       0.67305                      90.99232
                      -5.82540                       0.49629                      91.14996
                      -5.69314                       0.33637                      91.28702
                      -5.51280                       0.20334                      91.39488
                      -5.29573                       0.10555                      91.46677
                      -5.05555                       0.04916                      91.49817
                      -4.80736                       0.03770                      91.48710
                      -4.56675                       0.07190                      91.43427
                      -4.34885                       0.14960                      91.34299
                      -4.16734                       0.26593                      91.21900
                      -4.03363                       0.41357                      91.07009
                      -3.95611                       0.58324                      90.90561
                      -4.09406                       0.84922                      90.84148
                      -4.13222                       1.00053                      90.70420
                      -4.21988                       1.14233                      90.58008
                      -4.35154                       1.26572                      90.47693
                      -4.51892                       1.36293                      90.40122
                      -4.71150                       1.42787                      90.35772
                      -4.91719                       1.45645                      90.34915
                      -5.12306                       1.44687                      90.37606
                      -5.31618                       1.39974                      90.43676
                      -5.48440                       1.31802                      90.52743
                      -5.61716                       1.20685                      90.64237
                      -5.70613                       1.07320                      90.77436
                      -5.74570                       0.92548                      90.91511
                      -5.73339                       0.77297                      91.05578
                      -5.66998                       0.62525                      91.18752
                      -5.55945                       0.49160                      91.30206
                      -5.40874                       0.38042                      91.39220
                      -5.22733                       0.29870                      91.45228
                      -5.02661                       0.25157                      91.47852
                      -4.81919                       0.24200                      91.46927
                      -4.61812                       0.27057                      91.42512
                      -4.43601                       0.33551                      91.34884
                      -4.28432                       0.43273                      91.24521
                      -4.17258                       0.55611                      91.12077
                      -4.10780                       0.69791                      90.98331
                      -4.31487                       0.93414                      90.95288
                      -4.34246                       1.04354                      90.85362
                      -4.40584                       1.14606                      90.76388
                      -4.50102                       1.23527                      90.68930
                      -4.62204                       1.30556                      90.63457
                      -4.76128                       1.35251                      90.60311
                      -4.90999                       1.37317                      90.59692
                      -5.05884                       1.36624                      90.61638
                      -5.19846                       1.33217                      90.66026
                      -5.32008                       1.27309                      90.72581
                      -5.41607                       1.19271                      90.80892
                      -5.48039                       1.09608                      90.90435
                      -5.50900                       0.98928                      91.00611
                      -5.50010                       0.87901                      91.10781
                      -5.45426                       0.77221                      91.20306
                      -5.37434                       0.67558                      91.28587
                      -5.26538                       0.59520                      91.35104
                      -5.13422                       0.53612                      91.39448
                      -4.98910                       0.50204                      91.41345
                      -4.83914                       0.49512                      91.40677
                      -4.69376                       0.51578                      91.37484
                      -4.56210                       0.56273                      91.31969
                      -4.45243                       0.63302                      91.24477
                      -4.37164                       0.72222                      91.15480
                      -4.32480                       0.82475                      91.05542
                      -4.90407                       1.01907                      91.09650
                      -4.90407                       1.01907                      91.09650
                      -4.90407                       1.01907                      91.09650
                      -4.90407                       1.01907                      91.09650
                      -4.90407                       1.01907                      91.09650
                      -4.90407                       1.01907                      91.09650
                      -4.90407                       1.01907                      91.09650
                      -4.90407                       1.01907                      91.09650
                      -4.90407                       1.01907                      91.09650
                      -4.90407                       1.01907                      91.09650
                      -4.90407                       1.01907                      91.09650
                      -4.90407                       1.01907                      91.09650
                      -4.90407                       1.01907                      91.09650
                      -4.90407                       1.01907                      91.09650
                      -4.90407                       1.01907                      91.09650
                      -4.90407                       1.01907                      91.09650
                      -4.90407                       1.01907                      91.09650
                      -4.90407                       1.01907                      91.09650
                      -4.90407                       1.01907                      91.09650
                      -4.90407                       1.01907                      91.09650
                      -4.90407                       1.01907                      91.09650
                      -4.90407                       1.01907                      91.09650
                      -4.90407                       1.01907                      91.09650
                      -4.90407                       1.01907                      91.09650
                      -4.90407                       1.01907                      91.09650
        </DataArray>
      </Points>
      <Polys>
        <DataArray type="Int32" Name="connectivity" format="ascii">
      0      1     26     25
      1      2     27     26
      2      3     28     27
      3      4     29     28
      4      5     30     29
      5      6     31     30
      6      7     32     31
      7      8     33     32
      8      9     34     33
      9     10     35     34
     10     11     36     35
     11     12     37     36
     12     13     38     37
     13     14     39     38
     14     15     40     39
     15     16     41     40
     16     17     42     41
     17     18     43     42
     18     19     44     43
     19     20     45     44
     20     21     46     45
     21     22     47     46
     22     23     48     47
     23     24     49     48
     24      0     25     49
     25     26     51     50
     26     27     52     51
     27     28     53     52
     28     29     54     53
     29     30     55     54
     30     31     56     55
     31     32     57     56
     32     33     58     57
     33     34     59     58
     34     35     60     59
     35     36     61     60
     36     37     62     61
     37     38     63     62
     38     39     64     63
     39     40     65     64
     40     41     66     65
     41     42     67     66
     42     43     68     67
     43     44     69     68
     44     45     70     69
     45     46     71     70
     46     47     72     71
     47     48     73     72
     48     49     74     73
     49     25     50     74
     50     51     76     75
     51     52     77     76
     52     53     78     77
     53     54     79     78
     54     55     80     79
     55     56     81     80
     56     57     82     81
     57     58     83     82
     58     59     84     83
     59     60     85     84
     60     61     86     85
     61     62     87     86
     62     63     88     87
     63     64     89     88
     64     65     90     89
     65     66     91     90
     66     67     92     91
     67     68     93     92
     68     69     94     93
     69     70     95     94
     70     71     96     95
     71     72     97     96
     72     73     98     97
     73     74     99     98
     74     50     75     99
     75     76    101    100
     76     77    102    101
     77     78    103    102
     78     79    104    103
     79     80    105    104
     80     81    106    105
     81     82    107    106
     82     83    108    107
     83     84    109    108
     84     85    110    109
     85     86    111    110
     86     87    112    111
     87     88    113    112
     88     89    114    113
     89     90    115    114
     90     91    116    115
     91     92    117    116
     92     93    118    117
     93     94    119    118
     94     95    120    119
     95     96    121    120
     96     97    122    121
     97     98    123    122
     98     99    124    123
     99     75    100    124
    100    101    126    125
    101    102    127    126
    102    103    128    127
    103    104    129    128
    104    105    130    129
    105    106    131    130
    106    107    132    131
    107    108    133    132
    108    109    134    133
    109    110    135    134
    110    111    136    135
    111    112    137    136
    112    113    138    137
    113    114    139    138
    114    115    140    139
    115    116    141    140
    116    117    142    141
    117    118    143    142
    118    119    144    143
    119    120    145    144
    120    121    146    145
    121    122    147    146
    122    123    148    147
    123    124    149    148
    124    100    125    149
    125    126    151    150
    126    127    152    151
    127    128    153    152
    128    129    154    153
    129    130    155    154
    130    131    156    155
    131    132    157    156
    132    133    158    157
    133    134    159    158
    134    135    160    159
    135    136    161    160
    136    137    162    161
    137    138    163    162
    138    139    164    163
    139    140    165    164
    140    141    166    165
    141    142    167    166
    142    143    168    167
    143    144    169    168
    144    145    170    169
    145    146    171    170
    146    147    172    171
    147    148    173    172
    148    149    174    173
    149    125    150    174
    150    151    176    175
    151    152    177    176
    152    153    178    177
    153    154    179    178
    154    155    180    179
    155    156    181    180
    156    157    182    181
    157    158    183    182
    158    159    184    183
    159    160    185    184
    160    161    186    185
    161    162    187    186
    162    163    188    187
    163    164    189    188
    164    165    190    189
    165    166    191    190
    166    167    192    191
    167    168    193    192
    168    169    194    193
    169    170    195    194
    170    171    196    195
    171    172    197    196
    172    173    198    197
    173    174    199    198
    174    150    175    199
    175    176    201    200
    176    177    202    201
    177    178    203    202
    178    179    204    203
    179    180    205    204
    180    181    206    205
    181    182    207    206
    182    183    208    207
    183    184    209    208
    184    185    210    209
    185    186    211    210
    186    187    212    211
    187    188    213    212
    188    189    214    213
    189    190    215    214
    190    191    216    215
    191    192    217    216
    192    193    218    217
    193    194    219    218
    194    195    220    219
    195    196    221    220
    196    197    222    221
    197    198    223    222
    198    199    224    223
    199    175    200    224
    200    201    226    225
    201    202    227    226
    202    203    228    227
    203    204    229    228
    204    205    230    229
    205    206    231    230
    206    207    232    231
    207    208    233    232
    208    209    234    233
    209    210    235    234
    210    211    236    235
    211    212    237    236
    212    213    238    237
    213    214    239    238
    214    215    240    239
    215    216    241    240
    216    217    242    241
    217    218    243    242
    218    219    244    243
    219    220    245    244
    220    221    246    245
    221    222    247    246
    222    223    248    247
    223    224    249    248
    224    200    225    249
    225    226    251    250
    226    227    252    251
    227    228    253    252
    228    229    254    253
    229    230    255    254
    230    231    256    255
    231    232    257    256
    232    233    258    257
    233    234    259    258
    234    235    260    259
    235    236    261    260
    236    237    262    261
    237    238    263    262
    238    239    264    263
    239    240    265    264
    240    241    266    265
    241    242    267    266
    242    243    268    267
    243    244    269    268
    244    245    270    269
    245    246    271    270
    246    247    272    271
    247    248    273    272
    248    249    274    273
    249    225    250    274
    250    251    276    275
    251    252    277    276
    252    253    278    277
    253    254    279    278
    254    255    280    279
    255    256    281    280
    256    257    282    281
    257    258    283    282
    258    259    284    283
    259    260    285    284
    260    261    286    285
    261    262    287    286
    262    263    288    287
    263    264    289    288
    264    265    290    289
    265    266    291    290
    266    267    292    291
    267    268    293    292
    268    269    294    293
    269    270    295    294
    270    271    296    295
    271    272    297    296
    272    273    298    297
    273    274    299    298
    274    250    275    299
    275    276    301    300
    276    277    302    301
    277    278    303    302
    278    279    304    303
    279    280    305    304
    280    281    306    305
    281    282    307    306
    282    283    308    307
    283    284    309    308
    284    285    310    309
    285    286    311    310
    286    287    312    311
    287    288    313    312
    288    289    314    313
    289    290    315    314
    290    291    316    315
    291    292    317    316
    292    293    318    317
    293    294    319    318
    294    295    320    319
    295    296    321    320
    296    297    322    321
    297    298    323    322
    298    299    324    323
    299    275    300    324
    300    301    326    325
    301    302    327    326
    302    303    328    327
    303    304    329    328
    304    305    330    329
    305    306    331    330
    306    307    332    331
    307    308    333    332
    308    309    334    333
    309    310    335    334
    310    311    336    335
    311    312    337    336
    312    313    338    337
    313    314    339    338
    314    315    340    339
    315    316    341    340
    316    317    342    341
    317    318    343    342
    318    319    344    343
    319    320    345    344
    320    321    346    345
    321    322    347    346
    322    323    348    347
    323    324    349    348
    324    300    325    349
    325    326    351    350
    326    327    352    351
    327    328    353    352
    328    329    354    353
    329    330    355    354
    330    331    356    355
    331    332    357    356
    332    333    358    357
    333    334    359    358
    334    335    360    359
    335    336    361    360
    336    337    362    361
    337    338    363    362
    338    339    364    363
    339    340    365    364
    340    341    366    365
    341    342    367    366
    342    343    368    367
    343    344    369    368
    344    345    370    369
    345    346    371    370
    346    347    372    371
    347    348    373    372
    348    349    374    373
    349    325    350    374
    350    351    376    375
    351    352    377    376
    352    353    378    377
    353    354    379    378
    354    355    380    379
    355    356    381    380
    356    357    382    381
    357    358    383    382
    358    359    384    383
    359    360    385    384
    360    361    386    385
    361    362    387    386
    362    363    388    387
    363    364    389    388
    364    365    390    389
    365    366    391    390
    366    367    392    391
    367    368    393    392
    368    369    394    393
    369    370    395    394
    370    371    396    395
    371    372    397    396
    372    373    398    397
    373    374    399    398
    374    350    375    399
    375    376    401    400
    376    377    402    401
    377    378    403    402
    378    379    404    403
    379    380    405    404
    380    381    406    405
    381    382    407    406
    382    383    408    407
    383    384    409    408
    384    385    410    409
    385    386    411    410
    386    387    412    411
    387    388    413    412
    388    389    414    413
    389    390    415    414
    390    391    416    415
    391    392    417    416
    392    393    418    417
    393    394    419    418
    394    395    420    419
    395    396    421    420
    396    397    422    421
    397    398    423    422
    398    399    424    423
    399    375    400    424
    400    401    426    425
    401    402    427    426
    402    403    428    427
    403    404    429    428
    404    405    430    429
    405    406    431    430
    406    407    432    431
    407    408    433    432
    408    409    434    433
    409    410    435    434
    410    411    436    435
    411    412    437    436
    412    413    438    437
    413    414    439    438
    414    415    440    439
    415    416    441    440
    416    417    442    441
    417    418    443    442
    418    419    444    443
    419    420    445    444
    420    421    446    445
    421    422    447    446
    422    423    448    447
    423    424    449    448
    424    400    425    449
    425    426    451    450
    426    427    452    451
    427    428    453    452
    428    429    454    453
    429    430    455    454
    430    431    456    455
    431    432    457    456
    432    433    458    457
    433    434    459    458
    434    435    460    459
    435    436    461    460
    436    437    462    461
    437    438    463    462
    438    439    464    463
    439    440    465    464
    440    441    466    465
    441    442    467    466
    442    443    468    467
    443    444    469    468
    444    445    470    469
    445    446    471    470
    446    447    472    471
    447    448    473    472
    448    449    474    473
    449    425    450    474
    450    451    476    475
    451    452    477    476
    452    453    478    477
    453    454    479    478
    454    455    480    479
    455    456    481    480
    456    457    482    481
    457    458    483    482
    458    459    484    483
    459    460    485    484
    460    461    486    485
    461    462    487    486
    462    463    488    487
    463    464    489    488
    464    465    490    489
    465    466    491    490
    466    467    492    491
    467    468    493    492
    468    469    494    493
    469    470    495    494
    470    471    496    495
    471    472    497    496
    472    473    498    497
    473    474    499    498
    474    450    475    499
    475    476    501    500
    476    477    502    501
    477    478    503    502
    478    479    504    503
    479    480    505    504
    480    481    506    505
    481    482    507    506
    482    483    508    507
    483    484    509    508
    484    485    510    509
    485    486    511    510
    486    487    512    511
    487    488    513    512
    488    489    514    513
    489    490    515    514
    490    491    516    515
    491    492    517    516
    492    493    518    517
    493    494    519    518
    494    495    520    519
    495    496    521    520
    496    497    522    521
    497    498    523    522
    498    499    524    523
    499    475    500    524
    500    501    526    525
    501    502    527    526
    502    503    528    527
    503    504    529    528
    504    505    530    529
    505    506    531    530
    506    507    532    531
    507    508    533    532
    508    509    534    533
    509    510    535    534
    510    511    536    535
    511    512    537    536
    512    513    538    537
    513    514    539    538
    514    515    540    539
    515    516    541    540
    516    517    542    541
    517    518    543    542
    518    519    544    543
    519    520    545    544
    520    521    546    545
    521    522    547    546
    522    523    548    547
    523    524    549    548
    524    500    525    549
    525    526    551    550
    526    527    552    551
    527    528    553    552
    528    529    554    553
    529    530    555    554
    530    531    556    555
    531    532    557    556
    532    533    558    557
    533    534    559    558
    534    535    560    559
    535    536    561    560
    536    537    562    561
    537    538    563    562
    538    539    564    563
    539    540    565    564
    540    541    566    565
    541    542    567    566
    542    543    568    567
    543    544    569    568
    544    545    570    569
    545    546    571    570
    546    547    572    571
    547    548    573    572
    548    549    574    573
    549    525    550    574
    550    551    576    575
    551    552    577    576
    552    553    578    577
    553    554    579    578
    554    555    580    579
    555    556    581    580
    556    557    582    581
    557    558    583    582
    558    559    584    583
    559    560    585    584
    560    561    586    585
    561    562    587    586
    562    563    588    587
    563    564    589    588
    564    565    590    589
    565    566    591    590
    566    567    592    591
    567    568    593    592
    568    569    594    593
    569    570    595    594
    570    571    596    595
    571    572    597    596
    572    573    598    597
    573    574    599    598
    574    550    575    599
    575    576    601    600
    576    577    602    601
    577    578    603    602
    578    579    604    603
    579    580    605    604
    580    581    606    605
    581    582    607    606
    582    583    608    607
    583    584    609    608
    584    585    610    609
    585    586    611    610
    586    587    612    611
    587    588    613    612
    588    589    614    613
    589    590    615    614
    590    591    616    615
    591    592    617    616
    592    593    618    617
    593    594    619    618
    594    595    620    619
    595    596    621    620
    596    597    622    621
    597    598    623    622
    598    599    624    623
    599    575    600    624
        </DataArray>
        <DataArray type="Int32" Name="offsets" format="ascii">
      4
      8
     12
     16
     20
     24
     28
     32
     36
     40
     44
     48
     52
     56
     60
     64
     68
     72
     76
     80
     84
     88
     92
     96
    100
    104
    108
    112
    116
    120
    124
    128
    132
    136
    140
    144
    148
    152
    156
    160
    164
    168
    172
    176
    180
    184
    188
    192
    196
    200
    204
    208
    212
    216
    220
    224
    228
    232
    236
    240
    244
    248
    252
    256
    260
    264
    268
    272
    276
    280
    284
    288
    292
    296
    300
    304
    308
    312
    316
    320
    324
    328
    332
    336
    340
    344
    348
    352
    356
    360
    364
    368
    372
    376
    380
    384
    388
    392
    396
    400
    404
    408
    412
    416
    420
    424
    428
    432
    436
    440
    444
    448
    452
    456
    460
    464
    468
    472
    476
    480
    484
    488
    492
    496
    500
    504
    508
    512
    516
    520
    524
    528
    532
    536
    540
    544
    548
    552
    556
    560
    564
    568
    572
    576
    580
    584
    588
    592
    596
    600
    604
    608
    612
    616
    620
    624
    628
    632
    636
    640
    644
    648
    652
    656
    660
    664
    668
    672
    676
    680
    684
    688
    692
    696
    700
    704
    708
    712
    716
    720
    724
    728
    732
    736
    740
    744
    748
    752
    756
    760
    764
    768
    772
    776
    780
    784
    788
    792
    796
    800
    804
    808
    812
    816
    820
    824
    828
    832
    836
    840
    844
    848
    852
    856
    860
    864
    868
    872
    876
    880
    884
    888
    892
    896
    900
    904
    908
    912
    916
    920
    924
    928
    932
    936
    940
    944
    948
    952
    956
    960
    964
    968
    972
    976
    980
    984
    988
    992
    996
   1000
   1004
   1008
   1012
   1016
   1020
   1024
   1028
   1032
   1036
   1040
   1044
   1048
   1052
   1056
   1060
   1064
   1068
   1072
   1076
   1080
   1084
   1088
   1092
   1096
   1100
   1104
   1108
   1112
   1116
   1120
   1124
   1128
   1132
   1136
   1140
   1144
   1148
   1152
   1156
   1160
   1164
   1168
   1172
   1176
   1180
   1184
   1188
   1192
   1196
   1200
   1204
   1208
   1212
   1216
   1220
   1224
   1228
   1232
   1236
   1240
   1244
   1248
   1252
   1256
   1260
   1264
   1268
   1272
   1276
   1280
   1284
   1288
   1292
   1296
   1300
   1304
   1308
   1312
   1316
   1320
   1324
   1328
   1332
   1336
   1340
   1344
   1348
   1352
   1356
   1360
   1364
   1368
   1372
   1376
   1380
   1384
   1388
   1392
   1396
   1400
   1404
   1408
   1412
   1416
   1420
   1424
   1428
   1432
   1436
   1440
   1444
   1448
   1452
   1456
   1460
   1464
   1468
   1472
   1476
   1480
   1484
   1488
   1492
   1496
   1500
   1504
   1508
   1512
   1516
   1520
   1524
   1528
   1532
   1536
   1540
   1544
   1548
   1552
   1556
   1560
   1564
   1568
   1572
   1576
   1580
   1584
   1588
   1592
   1596
   1600
   1604
   1608
   1612
   1616
   1620
   1624
   1628
   1632
   1636
   1640
   1644
   1648
   1652
   1656
   1660
   1664
   1668
   1672
   1676
   1680
   1684
   1688
   1692
   1696
   1700
   1704
   1708
   1712
   1716
   1720
   1724
   1728
   1732
   1736
   1740
   1744
   1748
   1752
   1756
   1760
   1764
   1768
   1772
   1776
   1780
   1784
   1788
   1792
   1796
   1800
   1804
   1808
   1812
   1816
   1820
   1824
   1828
   1832
   1836
   1840
   1844
   1848
   1852
   1856
   1860
   1864
   1868
   1872
   1876
   1880
   1884
   1888
   1892
   1896
   1900
   1904
   1908
   1912
   1916
   1920
   1924
   1928
   1932
   1936
   1940
   1944
   1948
   1952
   1956
   1960
   1964
   1968
   1972
   1976
   1980
   1984
   1988
   1992
   1996
   2000
   2004
   2008
   2012
   2016
   2020
   2024
   2028
   2032
   2036
   2040
   2044
   2048
   2052
   2056
   2060
   2064
   2068
   2072
   2076
   2080
   2084
   2088
   2092
   2096
   2100
   2104
   2108
   2112
   2116
   2120
   2124
   2128
   2132
   2136
   2140
   2144
   2148
   2152
   2156
   2160
   2164
   2168
   2172
   2176
   2180
   2184
   2188
   2192
   2196
   2200
   2204
   2208
   2212
   2216
   2220
   2224
   2228
   2232
   2236
   2240
   2244
   2248
   2252
   2256
   2260
   2264
   2268
   2272
   2276
   2280
   2284
   2288
   2292
   2296
   2300
   2304
   2308
   2312
   2316
   2320
   2324
   2328
   2332
   2336
   2340
   2344
   2348
   2352
   2356
   2360
   2364
   2368
   2372
   2376
   2380
   2384
   2388
   2392
   2396
   2400
        </DataArray>
      </Polys>
    </Piece>
  </PolyData>
</VTKFile>
