<?xml version="1.0"?>
<VTKFile type="PolyData" version="0.1" byte_order="LittleEndian">
  <PolyData>
    <Piece NumberOfPoints="     19" NumberOfVerts="  0" NumberOfLines="     18"
           NumberOfStrips="  0" NumberOfPolys="      0">
      <Points>
        <DataArray type="Float32" NumberOfComponents="3" format="ascii">
                      -5.18967                      -0.45337                      88.58280
                      -5.36338                      -0.86316                      87.29060
                      -5.73550                      -1.59217                      84.68063
                      -6.11931                      -2.27831                      82.05852
                      -6.60608                      -3.11039                      78.77356
                      -7.13396                      -4.24595                      74.86796
                      -7.63455                      -5.50575                      70.99845
                      -8.13734                      -6.76799                      67.13002
                      -8.63990                      -8.03440                      63.26290
                      -9.14310                      -9.30317                      59.39661
                      -9.64835                     -10.57078                      55.53022
                     -10.15491                     -11.83866                      51.66410
                     -10.66341                     -13.10681                      47.79833
                     -11.17455                     -14.37516                      43.93297
                     -11.68662                     -15.64359                      40.06776
                     -12.11398                     -16.70069                      36.84683
                     -12.45620                     -17.55388                      34.27259
                     -12.79827                     -18.45949                      31.71511
                     -12.97107                     -18.87255                      30.42394
        </DataArray>
      </Points>
      <PointData>
        <DataArray type="Float32" Name="TranslationalVelocity" NumberOfComponents="3" format="ascii">
                      -0.02069                       0.74788                      -0.23648
                      -0.03939                       1.42983                      -0.45023
                      -0.07266                       2.80818                      -0.83049
                      -0.10397                       4.19341                      -1.18838
                      -0.14194                       5.92908                      -1.62240
                      -0.19376                       7.99035                      -2.21471
                      -0.25125                      10.03155                      -2.87184
                      -0.30885                      12.07230                      -3.53022
                      -0.36665                      14.11235                      -4.19079
                      -0.42455                      16.15199                      -4.85259
                      -0.48239                      18.19178                      -5.51378
                      -0.54025                      20.23149                      -6.17512
                      -0.59812                      22.27111                      -6.83659
                      -0.65601                      24.31063                      -7.49817
                      -0.71389                      26.35011                      -8.15980
                      -0.76213                      28.04968                      -8.71118
                      -0.80106                      29.40803                      -9.15621
                      -0.84239                      30.75764                      -9.62859
                      -0.86124                      31.43901                      -9.84404
        </DataArray>
        <DataArray type="Float32" Name="RotationalVelocity" NumberOfComponents="3" format="ascii">
                       0.52161                      -0.00000                      -0.04563
                       0.52161                      -0.00000                      -0.04563
                       0.52161                      -0.00000                      -0.04563
                       0.52161                      -0.00000                      -0.04563
                       0.52161                      -0.00000                      -0.04563
                       0.52161                      -0.00000                      -0.04563
                       0.52161                      -0.00000                      -0.04563
                       0.52161                      -0.00000                      -0.04563
                       0.52161                      -0.00000                      -0.04563
                       0.52161                      -0.00000                      -0.04563
                       0.52161                      -0.00000                      -0.04563
                       0.52161                      -0.00000                      -0.04563
                       0.52161                      -0.00000                      -0.04563
                       0.52161                      -0.00000                      -0.04563
                       0.52161                      -0.00000                      -0.04563
                       0.52161                      -0.00000                      -0.04563
                       0.52161                      -0.00000                      -0.04563
                       0.52161                      -0.00000                      -0.04563
                       0.52161                      -0.00000                      -0.04563
        </DataArray>
        <DataArray type="Float32" Name="TranslationalAcceleration" NumberOfComponents="3" format="ascii">
                       0.03413                       0.12429                       0.39010
                       0.06525                       0.23664                       0.74581
                       0.12815                       0.43650                       1.46476
                       0.19136                       0.62461                       2.18731
                       0.27057                       0.85273                       3.09264
                       0.36464                       1.16405                       4.16782
                       0.45779                       1.50943                       5.23252
                       0.55091                       1.85548                       6.29699
                       0.64401                       2.20268                       7.36109
                       0.73709                       2.55052                       8.42498
                       0.83018                       2.89804                       9.48895
                       0.92326                       3.24564                      10.55287
                       1.01633                       3.59331                      11.61675
                       1.10941                       3.94103                      12.68058
                       1.20248                       4.28878                      13.74439
                       1.28004                       4.57859                      14.63089
                       1.34202                       4.81250                      15.33942
                       1.40361                       5.06077                      16.04338
                       1.43471                       5.17402                      16.39879
        </DataArray>
        <DataArray type="Float32" Name="OrientationX" NumberOfComponents="3" format="ascii">
                       0.99162                      -0.01320                      -0.12849
                       0.99162                      -0.01320                      -0.12849
                       0.99162                      -0.01320                      -0.12849
                       0.99162                      -0.01320                      -0.12849
                       0.99162                      -0.01320                      -0.12849
                       0.99162                      -0.01320                      -0.12849
                       0.99162                      -0.01320                      -0.12849
                       0.99162                      -0.01320                      -0.12849
                       0.99162                      -0.01320                      -0.12849
                       0.99162                      -0.01320                      -0.12849
                       0.99162                      -0.01320                      -0.12849
                       0.99162                      -0.01320                      -0.12849
                       0.99162                      -0.01320                      -0.12849
                       0.99162                      -0.01320                      -0.12849
                       0.99162                      -0.01320                      -0.12849
                       0.99162                      -0.01320                      -0.12849
                       0.99162                      -0.01320                      -0.12849
                       0.99162                      -0.01320                      -0.12849
                       0.99162                      -0.01320                      -0.12849
        </DataArray>
        <DataArray type="Float32" Name="OrientationY" NumberOfComponents="3" format="ascii">
                       0.02637                      -0.95314                       0.30139
                       0.02637                      -0.95314                       0.30139
                       0.02637                      -0.95314                       0.30139
                       0.02637                      -0.95314                       0.30139
                       0.02637                      -0.95314                       0.30139
                       0.02637                      -0.95314                       0.30139
                       0.02637                      -0.95314                       0.30139
                       0.02637                      -0.95314                       0.30139
                       0.02637                      -0.95314                       0.30139
                       0.02637                      -0.95314                       0.30139
                       0.02637                      -0.95314                       0.30139
                       0.02637                      -0.95314                       0.30139
                       0.02637                      -0.95314                       0.30139
                       0.02637                      -0.95314                       0.30139
                       0.02637                      -0.95314                       0.30139
                       0.02637                      -0.95314                       0.30139
                       0.02637                      -0.95314                       0.30139
                       0.02637                      -0.95314                       0.30139
                       0.02637                      -0.95314                       0.30139
        </DataArray>
        <DataArray type="Float32" Name="OrientationZ" NumberOfComponents="3" format="ascii">
                      -0.12645                      -0.30225                      -0.94481
                      -0.12645                      -0.30225                      -0.94481
                      -0.12645                      -0.30225                      -0.94481
                      -0.12645                      -0.30225                      -0.94481
                      -0.12645                      -0.30225                      -0.94481
                      -0.12645                      -0.30225                      -0.94481
                      -0.12645                      -0.30225                      -0.94481
                      -0.12645                      -0.30225                      -0.94481
                      -0.12645                      -0.30225                      -0.94481
                      -0.12645                      -0.30225                      -0.94481
                      -0.12645                      -0.30225                      -0.94481
                      -0.12645                      -0.30225                      -0.94481
                      -0.12645                      -0.30225                      -0.94481
                      -0.12645                      -0.30225                      -0.94481
                      -0.12645                      -0.30225                      -0.94481
                      -0.12645                      -0.30225                      -0.94481
                      -0.12645                      -0.30225                      -0.94481
                      -0.12645                      -0.30225                      -0.94481
                      -0.12645                      -0.30225                      -0.94481
        </DataArray>
        <DataArray type="Float32" Name="Force" NumberOfComponents="3" format="ascii">
                       0.04201                      -1.51852                       0.48016
                     119.85296                     -26.11323                      -7.68647
                     143.53751                     -50.87694                      -2.93419
                     118.39566                     -56.43082                       2.20732
                    1099.10162                      94.15129                    -177.21513
                    1124.16666                      80.37307                    -176.16192
                    1252.60962                      88.23227                    -195.86598
                    1151.94509                      70.09059                    -176.59016
                    1065.58560                      46.80816                    -157.58427
                    1135.19436                      59.99981                    -171.12027
                    1145.92545                      86.87361                    -181.15351
                    1322.23125                     166.82453                    -230.32570
                    1623.79075                     256.03779                    -299.22399
                    1817.17499                     297.72189                    -338.44007
                    1924.91430                     310.92499                    -357.08284
                    1946.96875                     304.81097                    -358.07854
                    1910.28166                     293.93152                    -349.68822
                    1407.91120                     213.03523                    -256.57552
                     423.18027                     -11.60887                     -52.92158
        </DataArray>
        <DataArray type="Float32" Name="Moment" NumberOfComponents="3" format="ascii">
                       0.00000                       0.00000                       0.00000
                       0.00000                       0.00000                       0.00000
                       0.00000                       0.00000                       0.00000
                       0.00000                       0.00000                       0.00000
                      82.34071                     196.82223                     615.25151
                      93.75251                     224.10030                     700.52072
                      93.63590                     223.82156                     699.64938
                      96.61246                     230.93656                     721.89033
                      94.19852                     225.16642                     703.85333
                      89.22405                     213.27576                     666.68401
                      72.79528                     174.00541                     543.92785
                      65.26034                     155.99434                     487.62660
                      56.69610                     135.52292                     423.63448
                      50.86763                     121.59090                     380.08401
                      46.81607                     111.90628                     349.81063
                      44.54348                     106.47403                     332.82984
                      39.53580                      94.50397                     295.41233
                      19.88739                      47.53761                     148.59900
                      17.55958                      41.97336                     131.20558
        </DataArray>
      </PointData>
      <Lines>
        <DataArray type="Int32" Name="connectivity" format="ascii">
      0      1
      1      2
      2      3
      3      4
      4      5
      5      6
      6      7
      7      8
      8      9
      9     10
     10     11
     11     12
     12     13
     13     14
     14     15
     15     16
     16     17
     17     18
        </DataArray>
        <DataArray type="Int32" Name="offsets" format="ascii">
      2
      4
      6
      8
     10
     12
     14
     16
     18
     20
     22
     24
     26
     28
     30
     32
     34
     36
        </DataArray>
      </Lines>
    </Piece>
  </PolyData>
</VTKFile>
