<?xml version="1.0"?>
<VTKFile type="PolyData" version="0.1" byte_order="LittleEndian">
  <PolyData>
    <Piece NumberOfPoints="     19" NumberOfVerts="  0" NumberOfLines="     18"
           NumberOfStrips="  0" NumberOfPolys="      0">
      <Points>
        <DataArray type="Float32" NumberOfComponents="3" format="ascii">
                      -4.95019                      -0.71057                      91.32008
                      -4.90576                      -1.36101                      92.52126
                      -4.84318                      -2.74474                      94.87991
                      -4.79304                      -4.16772                      97.21789
                      -4.73780                      -5.96994                     100.12809
                      -4.61277                      -8.00770                     103.68530
                      -4.45834                      -9.93148                     107.30276
                      -4.30608                     -11.85295                     110.92154
                      -4.15352                     -13.77055                     114.54239
                      -4.00158                     -15.68596                     118.16445
                      -3.85172                     -17.60237                     121.78604
                      -3.70317                     -19.51849                     125.40784
                      -3.55657                     -21.43429                     129.02988
                      -3.41263                     -23.34983                     132.65218
                      -3.26962                     -25.26525                     136.27456
                      -3.15108                     -26.86137                     139.29331
                      -3.05647                     -28.13127                     141.71201
                      -2.96090                     -29.35270                     144.15678
                      -2.91552                     -30.00008                     145.35946
        </DataArray>
      </Points>
      <PointData>
        <DataArray type="Float32" Name="TranslationalVelocity" NumberOfComponents="3" format="ascii">
                      -0.03243                      -0.69083                      -0.37064
                      -0.06211                      -1.31940                      -0.70991
                      -0.12526                      -2.55254                      -1.43167
                      -0.19019                      -3.77434                      -2.17391
                      -0.27244                      -5.29484                      -3.11396
                      -0.36543                      -7.15601                      -4.17687
                      -0.45322                      -9.04994                      -5.18032
                      -0.54090                     -10.94447                      -6.18257
                      -0.62841                     -12.84009                      -7.18281
                      -0.71582                     -14.73631                      -8.18190
                      -0.80328                     -16.63220                      -9.18151
                      -0.89072                     -18.52813                     -10.18097
                      -0.97815                     -20.42410                     -11.18026
                      -1.06556                     -22.32008                     -12.17942
                      -1.15297                     -24.21607                     -13.17851
                      -1.22581                     -25.79607                     -14.01106
                      -1.28376                     -27.06200                     -14.67345
                      -1.33950                     -28.34157                     -15.31055
                      -1.36904                     -28.97097                     -15.64823
        </DataArray>
        <DataArray type="Float32" Name="RotationalVelocity" NumberOfComponents="3" format="ascii">
                       0.52161                      -0.00000                      -0.04563
                       0.52161                      -0.00000                      -0.04563
                       0.52161                      -0.00000                      -0.04563
                       0.52161                      -0.00000                      -0.04563
                       0.52161                      -0.00000                      -0.04563
                       0.52161                      -0.00000                      -0.04563
                       0.52161                      -0.00000                      -0.04563
                       0.52161                      -0.00000                      -0.04563
                       0.52161                      -0.00000                      -0.04563
                       0.52161                      -0.00000                      -0.04563
                       0.52161                      -0.00000                      -0.04563
                       0.52161                      -0.00000                      -0.04563
                       0.52161                      -0.00000                      -0.04563
                       0.52161                      -0.00000                      -0.04563
                       0.52161                      -0.00000                      -0.04563
                       0.52161                      -0.00000                      -0.04563
                       0.52161                      -0.00000                      -0.04563
                       0.52161                      -0.00000                      -0.04563
                       0.52161                      -0.00000                      -0.04563
        </DataArray>
        <DataArray type="Float32" Name="TranslationalAcceleration" NumberOfComponents="3" format="ascii">
                      -0.03153                       0.19481                      -0.36034
                      -0.06021                       0.37313                      -0.68821
                      -0.11648                       0.75249                      -1.33142
                      -0.17224                       1.14261                      -1.96872
                      -0.24163                       1.63669                      -2.76182
                      -0.32656                       2.19536                      -3.73262
                      -0.41299                       2.72277                      -4.72051
                      -0.49945                       3.24955                      -5.70871
                      -0.58595                       3.77527                      -6.69747
                      -0.67249                       4.30040                      -7.68655
                      -0.75900                       4.82579                      -8.67546
                      -0.84552                       5.35110                      -9.66439
                      -0.93205                       5.87633                     -10.65334
                      -1.01857                       6.40149                     -11.64230
                      -1.10509                       6.92661                     -12.63125
                      -1.17719                       7.36420                     -13.45540
                      -1.23496                       7.71235                     -14.11571
                      -1.29336                       8.04721                     -14.78314
                      -1.32208                       8.22469                     -15.11144
        </DataArray>
        <DataArray type="Float32" Name="OrientationX" NumberOfComponents="3" format="ascii">
                       0.99859                      -0.02068                      -0.04881
                       0.99859                      -0.02068                      -0.04881
                       0.99859                      -0.02068                      -0.04881
                       0.99859                      -0.02068                      -0.04881
                       0.99859                      -0.02068                      -0.04881
                       0.99859                      -0.02068                      -0.04881
                       0.99859                      -0.02068                      -0.04881
                       0.99859                      -0.02068                      -0.04881
                       0.99859                      -0.02068                      -0.04881
                       0.99859                      -0.02068                      -0.04881
                       0.99859                      -0.02068                      -0.04881
                       0.99859                      -0.02068                      -0.04881
                       0.99859                      -0.02068                      -0.04881
                       0.99859                      -0.02068                      -0.04881
                       0.99859                      -0.02068                      -0.04881
                       0.99859                      -0.02068                      -0.04881
                       0.99859                      -0.02068                      -0.04881
                       0.99859                      -0.02068                      -0.04881
                       0.99859                      -0.02068                      -0.04881
        </DataArray>
        <DataArray type="Float32" Name="OrientationY" NumberOfComponents="3" format="ascii">
                       0.04133                       0.88044                       0.47236
                       0.04133                       0.88044                       0.47236
                       0.04133                       0.88044                       0.47236
                       0.04133                       0.88044                       0.47236
                       0.04133                       0.88044                       0.47236
                       0.04133                       0.88044                       0.47236
                       0.04133                       0.88044                       0.47236
                       0.04133                       0.88044                       0.47236
                       0.04133                       0.88044                       0.47236
                       0.04133                       0.88044                       0.47236
                       0.04133                       0.88044                       0.47236
                       0.04133                       0.88044                       0.47236
                       0.04133                       0.88044                       0.47236
                       0.04133                       0.88044                       0.47236
                       0.04133                       0.88044                       0.47236
                       0.04133                       0.88044                       0.47236
                       0.04133                       0.88044                       0.47236
                       0.04133                       0.88044                       0.47236
                       0.04133                       0.88044                       0.47236
        </DataArray>
        <DataArray type="Float32" Name="OrientationZ" NumberOfComponents="3" format="ascii">
                       0.03321                      -0.47371                       0.88005
                       0.03321                      -0.47371                       0.88005
                       0.03321                      -0.47371                       0.88005
                       0.03321                      -0.47371                       0.88005
                       0.03321                      -0.47371                       0.88005
                       0.03321                      -0.47371                       0.88005
                       0.03321                      -0.47371                       0.88005
                       0.03321                      -0.47371                       0.88005
                       0.03321                      -0.47371                       0.88005
                       0.03321                      -0.47371                       0.88005
                       0.03321                      -0.47371                       0.88005
                       0.03321                      -0.47371                       0.88005
                       0.03321                      -0.47371                       0.88005
                       0.03321                      -0.47371                       0.88005
                       0.03321                      -0.47371                       0.88005
                       0.03321                      -0.47371                       0.88005
                       0.03321                      -0.47371                       0.88005
                       0.03321                      -0.47371                       0.88005
                       0.03321                      -0.47371                       0.88005
        </DataArray>
        <DataArray type="Float32" Name="Force" NumberOfComponents="3" format="ascii">
                       0.07368                       1.56966                       0.84214
                     160.51669                      20.00731                       4.71245
                     181.83207                      41.14877                      15.28812
                     144.73653                      47.17624                      19.93237
                    1225.57528                    -136.63760                    -119.79599
                    1255.02439                    -123.58932                    -113.88363
                    1419.22615                    -140.43517                    -129.14752
                    1285.04698                    -114.36731                    -110.05251
                    1205.16567                     -87.00892                     -92.31176
                    1289.51134                     -94.28414                     -99.41063
                    1233.33414                     -67.15794                     -82.68933
                    1328.03234                    -100.51836                    -104.21996
                    1451.28524                    -193.53622                    -158.94044
                    1650.82172                    -255.50890                    -199.82850
                    1851.81868                    -315.20247                    -239.54487
                    2020.88232                    -367.79859                    -274.23584
                    2037.27669                    -376.75739                    -279.67681
                    1527.18173                    -282.57998                    -209.73476
                     430.80979                      -3.33512                     -18.05175
        </DataArray>
        <DataArray type="Float32" Name="Moment" NumberOfComponents="3" format="ascii">
                       0.00000                       0.00000                       0.00000
                       0.00000                       0.00000                       0.00000
                       0.00000                       0.00000                       0.00000
                       0.00000                       0.00000                       0.00000
                     -26.09336                     372.21623                    -691.49322
                     -28.98244                     413.42829                    -768.05587
                     -29.15156                     415.84080                    -772.53776
                     -29.53175                     421.26407                    -782.61297
                     -29.11166                     415.27163                    -771.48038
                     -28.14318                     401.45643                    -745.81487
                     -23.90448                     340.99221                    -633.48608
                     -22.33019                     318.53541                    -591.76644
                     -20.65665                     294.66268                    -547.41634
                     -18.83989                     268.74695                    -499.27079
                     -16.17368                     230.71410                    -428.61440
                     -13.66014                     194.85890                    -362.00357
                     -11.64809                     166.15753                    -308.68295
                      -5.46485                      77.95495                    -144.82259
                      -4.66099                      66.48796                    -123.51952
        </DataArray>
      </PointData>
      <Lines>
        <DataArray type="Int32" Name="connectivity" format="ascii">
      0      1
      1      2
      2      3
      3      4
      4      5
      5      6
      6      7
      7      8
      8      9
      9     10
     10     11
     11     12
     12     13
     13     14
     14     15
     15     16
     16     17
     17     18
        </DataArray>
        <DataArray type="Int32" Name="offsets" format="ascii">
      2
      4
      6
      8
     10
     12
     14
     16
     18
     20
     22
     24
     26
     28
     30
     32
     34
     36
        </DataArray>
      </Lines>
    </Piece>
  </PolyData>
</VTKFile>
