<?xml version="1.0"?>
<VTKFile type="PolyData" version="0.1" byte_order="LittleEndian">
  <PolyData>
    <Piece NumberOfPoints="     19" NumberOfVerts="  0" NumberOfLines="     18"
           NumberOfStrips="  0" NumberOfPolys="      0">
      <Points>
        <DataArray type="Float32" NumberOfComponents="3" format="ascii">
                      -4.94024                      -0.43651                      91.43384
                      -4.88668                      -0.83752                      92.73929
                      -4.80436                      -1.72980                      95.32365
                      -4.73376                      -2.66483                      97.89547
                      -4.65252                      -3.85918                     101.10285
                      -4.49855                      -5.15618                     104.99077
                      -4.31725                      -6.32911                     108.91532
                      -4.13817                      -7.49954                     112.84073
                      -3.95886                      -8.66578                     116.76740
                      -3.78020                      -9.82964                     120.69483
                      -3.60361                     -10.99461                     124.62200
                      -3.42832                     -12.15926                     128.54933
                      -3.25500                     -13.32361                     132.47683
                      -3.08434                     -14.48768                     136.40452
                      -2.91461                     -15.65163                     140.33229
                      -2.77381                     -16.62154                     143.60551
                      -2.66152                     -17.38987                     146.22635
                      -2.54914                     -18.10555                     148.86321
                      -2.49469                     -18.50324                     150.16953
        </DataArray>
      </Points>
      <PointData>
        <DataArray type="Float32" Name="TranslationalVelocity" NumberOfComponents="3" format="ascii">
                      -0.01992                      -0.75062                      -0.22769
                      -0.03822                      -1.43400                      -0.43686
                      -0.07894                      -2.78577                      -0.90227
                      -0.12161                      -4.13048                      -1.38999
                      -0.17611                      -5.80717                      -2.01297
                      -0.23530                      -7.84216                      -2.68950
                      -0.28883                      -9.89751                      -3.30130
                      -0.34224                     -11.95320                      -3.91181
                      -0.39546                     -14.00956                      -4.52012
                      -0.44857                     -16.06628                      -5.12720
                      -0.50173                     -18.12278                      -5.73486
                      -0.55488                     -20.17929                      -6.34235
                      -0.60802                     -22.23581                      -6.94968
                      -0.66114                     -24.29231                      -7.55686
                      -0.71426                     -26.34881                      -8.16399
                      -0.75852                     -28.06256                      -8.66990
                      -0.79358                     -29.43473                      -9.07067
                      -0.82624                     -30.81527                      -9.44397
                      -0.84439                     -31.49914                      -9.65141
        </DataArray>
        <DataArray type="Float32" Name="RotationalVelocity" NumberOfComponents="3" format="ascii">
                       0.52161                      -0.00000                      -0.04563
                       0.52161                      -0.00000                      -0.04563
                       0.52161                      -0.00000                      -0.04563
                       0.52161                      -0.00000                      -0.04563
                       0.52161                      -0.00000                      -0.04563
                       0.52161                      -0.00000                      -0.04563
                       0.52161                      -0.00000                      -0.04563
                       0.52161                      -0.00000                      -0.04563
                       0.52161                      -0.00000                      -0.04563
                       0.52161                      -0.00000                      -0.04563
                       0.52161                      -0.00000                      -0.04563
                       0.52161                      -0.00000                      -0.04563
                       0.52161                      -0.00000                      -0.04563
                       0.52161                      -0.00000                      -0.04563
                       0.52161                      -0.00000                      -0.04563
                       0.52161                      -0.00000                      -0.04563
                       0.52161                      -0.00000                      -0.04563
                       0.52161                      -0.00000                      -0.04563
                       0.52161                      -0.00000                      -0.04563
        </DataArray>
        <DataArray type="Float32" Name="TranslationalAcceleration" NumberOfComponents="3" format="ascii">
                      -0.03425                       0.11967                      -0.39153
                      -0.06544                       0.22961                      -0.74798
                      -0.12713                       0.47423                      -1.45308
                      -0.18849                       0.73058                      -2.15448
                      -0.26501                       1.05802                      -3.02906
                      -0.35787                       1.41360                      -4.09052
                      -0.45167                       1.73516                      -5.16260
                      -0.54548                       2.05604                      -6.23486
                      -0.63932                       2.37577                      -7.30747
                      -0.73318                       2.69485                      -8.38027
                      -0.82703                       3.01423                      -9.45296
                      -0.92087                       3.33353                     -10.52565
                      -1.01472                       3.65274                     -11.59834
                      -1.10857                       3.97188                     -12.67102
                      -1.20242                       4.29098                     -13.74370
                      -1.28062                       4.55689                     -14.63761
                      -1.34324                       4.76753                     -15.35334
                      -1.40624                       4.96374                     -16.07344
                      -1.43745                       5.07277                     -16.43015
        </DataArray>
        <DataArray type="Float32" Name="OrientationX" NumberOfComponents="3" format="ascii">
                       0.99888                      -0.01271                      -0.04550
                       0.99888                      -0.01271                      -0.04550
                       0.99888                      -0.01271                      -0.04550
                       0.99888                      -0.01271                      -0.04550
                       0.99888                      -0.01271                      -0.04550
                       0.99888                      -0.01271                      -0.04550
                       0.99888                      -0.01271                      -0.04550
                       0.99888                      -0.01271                      -0.04550
                       0.99888                      -0.01271                      -0.04550
                       0.99888                      -0.01271                      -0.04550
                       0.99888                      -0.01271                      -0.04550
                       0.99888                      -0.01271                      -0.04550
                       0.99888                      -0.01271                      -0.04550
                       0.99888                      -0.01271                      -0.04550
                       0.99888                      -0.01271                      -0.04550
                       0.99888                      -0.01271                      -0.04550
                       0.99888                      -0.01271                      -0.04550
                       0.99888                      -0.01271                      -0.04550
                       0.99888                      -0.01271                      -0.04550
        </DataArray>
        <DataArray type="Float32" Name="OrientationY" NumberOfComponents="3" format="ascii">
                       0.02539                       0.95664                       0.29018
                       0.02539                       0.95664                       0.29018
                       0.02539                       0.95664                       0.29018
                       0.02539                       0.95664                       0.29018
                       0.02539                       0.95664                       0.29018
                       0.02539                       0.95664                       0.29018
                       0.02539                       0.95664                       0.29018
                       0.02539                       0.95664                       0.29018
                       0.02539                       0.95664                       0.29018
                       0.02539                       0.95664                       0.29018
                       0.02539                       0.95664                       0.29018
                       0.02539                       0.95664                       0.29018
                       0.02539                       0.95664                       0.29018
                       0.02539                       0.95664                       0.29018
                       0.02539                       0.95664                       0.29018
                       0.02539                       0.95664                       0.29018
                       0.02539                       0.95664                       0.29018
                       0.02539                       0.95664                       0.29018
                       0.02539                       0.95664                       0.29018
        </DataArray>
        <DataArray type="Float32" Name="OrientationZ" NumberOfComponents="3" format="ascii">
                       0.03984                      -0.29101                       0.95589
                       0.03984                      -0.29101                       0.95589
                       0.03984                      -0.29101                       0.95589
                       0.03984                      -0.29101                       0.95589
                       0.03984                      -0.29101                       0.95589
                       0.03984                      -0.29101                       0.95589
                       0.03984                      -0.29101                       0.95589
                       0.03984                      -0.29101                       0.95589
                       0.03984                      -0.29101                       0.95589
                       0.03984                      -0.29101                       0.95589
                       0.03984                      -0.29101                       0.95589
                       0.03984                      -0.29101                       0.95589
                       0.03984                      -0.29101                       0.95589
                       0.03984                      -0.29101                       0.95589
                       0.03984                      -0.29101                       0.95589
                       0.03984                      -0.29101                       0.95589
                       0.03984                      -0.29101                       0.95589
                       0.03984                      -0.29101                       0.95589
                       0.03984                      -0.29101                       0.95589
        </DataArray>
        <DataArray type="Float32" Name="Force" NumberOfComponents="3" format="ascii">
                       0.03273                       1.23348                       0.37416
                     159.92363                      20.82512                      -0.32600
                     180.68804                      43.59356                       5.74008
                     143.48582                      50.27913                       9.32609
                    1210.27315                    -134.24409                     -91.31579
                    1242.95771                    -120.41413                     -88.46779
                    1406.93808                    -136.98536                    -100.34775
                    1284.46210                    -111.72314                     -87.55191
                    1201.42564                     -82.71013                     -75.25810
                    1284.72385                     -89.06330                     -80.66430
                    1229.80553                     -60.22868                     -69.59683
                    1316.97223                     -89.78903                     -82.22942
                    1427.69179                    -186.82305                    -116.38530
                    1625.28527                    -252.67875                    -144.67040
                    1814.84325                    -310.83256                    -170.27582
                    1991.58069                    -370.56596                    -195.82774
                    2018.96501                    -384.72528                    -201.27981
                    1515.21550                    -289.33085                    -151.24076
                     425.49249                       0.58007                     -17.55884
        </DataArray>
        <DataArray type="Float32" Name="Moment" NumberOfComponents="3" format="ascii">
                       0.00000                       0.00000                       0.00000
                       0.00000                       0.00000                       0.00000
                       0.00000                       0.00000                       0.00000
                       0.00000                       0.00000                       0.00000
                     -31.36356                     229.07325                    -752.44606
                     -34.76621                     253.92551                    -834.07929
                     -34.94287                     255.21580                    -838.31756
                     -35.50443                     259.31735                    -851.79009
                     -34.87934                     254.75180                    -836.79344
                     -33.71288                     246.23217                    -808.80867
                     -28.66478                     209.36191                    -687.69945
                     -26.82786                     195.94540                    -643.62970
                     -24.79630                     181.10725                    -594.89023
                     -22.62245                     165.22991                    -542.73731
                     -19.89816                     145.33219                    -477.37846
                     -16.41520                     119.89334                    -393.81846
                     -14.06749                     102.74614                    -337.49437
                      -6.55439                      47.87199                    -157.24703
                      -5.52290                      40.33815                    -132.50032
        </DataArray>
      </PointData>
      <Lines>
        <DataArray type="Int32" Name="connectivity" format="ascii">
      0      1
      1      2
      2      3
      3      4
      4      5
      5      6
      6      7
      7      8
      8      9
      9     10
     10     11
     11     12
     12     13
     13     14
     14     15
     15     16
     16     17
     17     18
        </DataArray>
        <DataArray type="Int32" Name="offsets" format="ascii">
      2
      4
      6
      8
     10
     12
     14
     16
     18
     20
     22
     24
     26
     28
     30
     32
     34
     36
        </DataArray>
      </Lines>
    </Piece>
  </PolyData>
</VTKFile>
