<?xml version="1.0"?>
<VTKFile type="PolyData" version="0.1" byte_order="LittleEndian">
  <PolyData>
    <Piece NumberOfPoints="    625" NumberOfVerts="  0" NumberOfLines="      0"
           NumberOfStrips="  0" NumberOfPolys="    600">
      <Points>
        <DataArray type="Float32" NumberOfComponents="3" format="ascii">
                      -4.98440                       1.48928                      90.17836
                      -4.98440                       1.48928                      90.17836
                      -4.98440                       1.48928                      90.17836
                      -4.98440                       1.48928                      90.17836
                      -4.98440                       1.48928                      90.17836
                      -4.98440                       1.48928                      90.17836
                      -4.98440                       1.48928                      90.17836
                      -4.98440                       1.48928                      90.17836
                      -4.98440                       1.48928                      90.17836
                      -4.98440                       1.48928                      90.17836
                      -4.98440                       1.48928                      90.17836
                      -4.98440                       1.48928                      90.17836
                      -4.98440                       1.48928                      90.17836
                      -4.98440                       1.48928                      90.17836
                      -4.98440                       1.48928                      90.17836
                      -4.98440                       1.48928                      90.17836
                      -4.98440                       1.48928                      90.17836
                      -4.98440                       1.48928                      90.17836
                      -4.98440                       1.48928                      90.17836
                      -4.98440                       1.48928                      90.17836
                      -4.98440                       1.48928                      90.17836
                      -4.98440                       1.48928                      90.17836
                      -4.98440                       1.48928                      90.17836
                      -4.98440                       1.48928                      90.17836
                      -4.98440                       1.48928                      90.17836
                      -4.38850                       1.36517                      90.11125
                      -4.39436                       1.34738                      90.26034
                      -4.43738                       1.33070                      90.40336
                      -4.51485                       1.31619                      90.53130
                      -4.62190                       1.30476                      90.63613
                      -4.75182                       1.29712                      90.71126
                      -4.89643                       1.29376                      90.75197
                      -5.04665                       1.29489                      90.75571
                      -5.19303                       1.30043                      90.72224
                      -5.32640                       1.31004                      90.65366
                      -5.43835                       1.32311                      90.55428
                      -5.52186                       1.33883                      90.43035
                      -5.57168                       1.35620                      90.28964
                      -5.58469                       1.37414                      90.14102
                      -5.56005                       1.39151                      89.99380
                      -5.49933                       1.40723                      89.85725
                      -5.40634                       1.42030                      89.73994
                      -5.28691                       1.42991                      89.64924
                      -5.14856                       1.43546                      89.59086
                      -4.99997                       1.43658                      89.56846
                      -4.85049                       1.43322                      89.58344
                      -4.70950                       1.42558                      89.63487
                      -4.58587                       1.41415                      89.71952
                      -4.48736                       1.39964                      89.83206
                      -4.42016                       1.38296                      89.96543
                      -4.16100                       1.24106                      90.07637
                      -4.16910                       1.21645                      90.28259
                      -4.22860                       1.19339                      90.48039
                      -4.33575                       1.17332                      90.65735
                      -4.48382                       1.15750                      90.80234
                      -4.66351                       1.14694                      90.90626
                      -4.86352                       1.14229                      90.96257
                      -5.07130                       1.14385                      90.96774
                      -5.27377                       1.15152                      90.92145
                      -5.45823                       1.16481                      90.82659
                      -5.61307                       1.18289                      90.68914
                      -5.72858                       1.20463                      90.51772
                      -5.79749                       1.22866                      90.32311
                      -5.81548                       1.25347                      90.11754
                      -5.78141                       1.27750                      89.91393
                      -5.69742                       1.29923                      89.72506
                      -5.56879                       1.31732                      89.56280
                      -5.40361                       1.33061                      89.43736
                      -5.21225                       1.33828                      89.35660
                      -5.00674                       1.33983                      89.32562
                      -4.79999                       1.33519                      89.34634
                      -4.60498                       1.32462                      89.41748
                      -4.43398                       1.30881                      89.53456
                      -4.29773                       1.28874                      89.69022
                      -4.20479                       1.26568                      89.87469
                      -3.99992                       1.11696                      90.04730
                      -4.00962                       1.08751                      90.29406
                      -4.08081                       1.05991                      90.53075
                      -4.20903                       1.03589                      90.74249
                      -4.38621                       1.01697                      90.91599
                      -4.60122                       1.00433                      91.04033
                      -4.84055                       0.99877                      91.10772
                      -5.08917                       1.00063                      91.11391
                      -5.33145                       1.00981                      91.05851
                      -5.55216                       1.02571                      90.94501
                      -5.73745                       1.04735                      90.78053
                      -5.87567                       1.07336                      90.57542
                      -5.95813                       1.10212                      90.34255
                      -5.97965                       1.13180                      90.09657
                      -5.93888                       1.16055                      89.85292
                      -5.83838                       1.18656                      89.62692
                      -5.68447                       1.20820                      89.43277
                      -5.48681                       1.22411                      89.28267
                      -5.25784                       1.23328                      89.18604
                      -5.01192                       1.23515                      89.14896
                      -4.76452                       1.22958                      89.17376
                      -4.53119                       1.21694                      89.25888
                      -4.32657                       1.19802                      89.39898
                      -4.16353                       1.17401                      89.58524
                      -4.05232                       1.14641                      89.80597
                      -3.87582                       0.99285                      90.02146
                      -3.88675                       0.95966                      90.29953
                      -3.96698                       0.92856                      90.56625
                      -4.11146                       0.90150                      90.80486
                      -4.31112                       0.88018                      91.00037
                      -4.55341                       0.86594                      91.14049
                      -4.82311                       0.85967                      91.21642
                      -5.10327                       0.86177                      91.22340
                      -5.37628                       0.87211                      91.16097
                      -5.62500                       0.89003                      91.03307
                      -5.83380                       0.91441                      90.84772
                      -5.98955                       0.94373                      90.61659
                      -6.08247                       0.97613                      90.35418
                      -6.10672                       1.00958                      90.07699
                      -6.06078                       1.04198                      89.80243
                      -5.94753                       1.07129                      89.54776
                      -5.77409                       1.09567                      89.32897
                      -5.55136                       1.11360                      89.15982
                      -5.29333                       1.12393                      89.05093
                      -5.01622                       1.12603                      89.00915
                      -4.73743                       1.11977                      89.03710
                      -4.47449                       1.10552                      89.13302
                      -4.24392                       1.08420                      89.29089
                      -4.06019                       1.05714                      89.50078
                      -3.93487                       1.02604                      89.74952
                      -3.77719                       0.86875                      89.99786
                      -3.78910                       0.83258                      90.30087
                      -3.87652                       0.79869                      90.59152
                      -4.03397                       0.76920                      90.85154
                      -4.25154                       0.74596                      91.06459
                      -4.51557                       0.73044                      91.21729
                      -4.80947                       0.72361                      91.30003
                      -5.11477                       0.72590                      91.30763
                      -5.41228                       0.73717                      91.23961
                      -5.68332                       0.75670                      91.10023
                      -5.91084                       0.78327                      90.89825
                      -6.08057                       0.81521                      90.64638
                      -6.18183                       0.85052                      90.36042
                      -6.20825                       0.88697                      90.05836
                      -6.15819                       0.92228                      89.75917
                      -6.03478                       0.95422                      89.48165
                      -5.84578                       0.98079                      89.24323
                      -5.60307                       1.00032                      89.05891
                      -5.32189                       1.01159                      88.94025
                      -5.01991                       1.01388                      88.89472
                      -4.71611                       1.00705                      88.92517
                      -4.42957                       0.99153                      89.02970
                      -4.17831                       0.96829                      89.20173
                      -3.97810                       0.93880                      89.43046
                      -3.84154                       0.90491                      89.70151
                      -3.69810                       0.74464                      89.97596
                      -3.71081                       0.70608                      90.29905
                      -3.80402                       0.66994                      90.60894
                      -3.97189                       0.63850                      90.88618
                      -4.20388                       0.61373                      91.11334
                      -4.48539                       0.59718                      91.27615
                      -4.79875                       0.58990                      91.36438
                      -5.12427                       0.59234                      91.37248
                      -5.44149                       0.60435                      91.29995
                      -5.73047                       0.62517                      91.15134
                      -5.97307                       0.65350                      90.93599
                      -6.15404                       0.68756                      90.66743
                      -6.26200                       0.72521                      90.36254
                      -6.29018                       0.76407                      90.04047
                      -6.23680                       0.80172                      89.72147
                      -6.10522                       0.83577                      89.42556
                      -5.90370                       0.86411                      89.17136
                      -5.64491                       0.88493                      88.97483
                      -5.34511                       0.89694                      88.84831
                      -5.02313                       0.89938                      88.79976
                      -4.69921                       0.89210                      88.83223
                      -4.39370                       0.87555                      88.94369
                      -4.12579                       0.85078                      89.12711
                      -3.91233                       0.81933                      89.37099
                      -3.76672                       0.78320                      89.65999
                      -3.63510                       0.62053                      89.95547
                      -3.64843                       0.58006                      90.29461
                      -3.74628                       0.54212                      90.61991
                      -3.92249                       0.50912                      90.91093
                      -4.16601                       0.48311                      91.14937
                      -4.46151                       0.46574                      91.32027
                      -4.79044                       0.45810                      91.41288
                      -5.13213                       0.46066                      91.42139
                      -5.46511                       0.47327                      91.34525
                      -5.76846                       0.49513                      91.18926
                      -6.02311                       0.52487                      90.96320
                      -6.21307                       0.56062                      90.68130
                      -6.32640                       0.60013                      90.36126
                      -6.35598                       0.64093                      90.02319
                      -6.29994                       0.68045                      89.68833
                      -6.16182                       0.71620                      89.37773
                      -5.95029                       0.74594                      89.11089
                      -5.67864                       0.76780                      88.90459
                      -5.36394                       0.78040                      88.77179
                      -5.02597                       0.78296                      88.72083
                      -4.68595                       0.77532                      88.75491
                      -4.36526                       0.75795                      88.87190
                      -4.08404                       0.73194                      89.06444
                      -3.85997                       0.69894                      89.32044
                      -3.70712                       0.66101                      89.62380
                      -3.58597                       0.49643                      89.93620
                      -3.59979                       0.45445                      90.28793
                      -3.70128                       0.41511                      90.62530
                      -3.88403                       0.38088                      90.92712
                      -4.13658                       0.35391                      91.17442
                      -4.44306                       0.33589                      91.35167
                      -4.78420                       0.32796                      91.44772
                      -5.13858                       0.33062                      91.45654
                      -5.48392                       0.34369                      91.37757
                      -5.79853                       0.36637                      91.21579
                      -6.06264                       0.39721                      90.98134
                      -6.25965                       0.43429                      90.68897
                      -6.37718                       0.47527                      90.35705
                      -6.40786                       0.51758                      90.00643
                      -6.34975                       0.55856                      89.65914
                      -6.20650                       0.59564                      89.33700
                      -5.98711                       0.62649                      89.06026
                      -5.70538                       0.64916                      88.84630
                      -5.37900                       0.66223                      88.70857
                      -5.02847                       0.66489                      88.65571
                      -4.67583                       0.65696                      88.69107
                      -4.34324                       0.63895                      88.81240
                      -4.05158                       0.61197                      89.01209
                      -3.81919                       0.57774                      89.27759
                      -3.66066                       0.53840                      89.59221
                      -3.54926                       0.37232                      89.91801
                      -3.56346                       0.32921                      90.27923
                      -3.66768                       0.28881                      90.62571
                      -3.85537                       0.25365                      90.93567
                      -4.11473                       0.22595                      91.18964
                      -4.42947                       0.20745                      91.37167
                      -4.77982                       0.19931                      91.47031
                      -5.14376                       0.20204                      91.47937
                      -5.49842                       0.21547                      91.39827
                      -5.82152                       0.23875                      91.23212
                      -6.09275                       0.27043                      90.99135
                      -6.29507                       0.30850                      90.69110
                      -6.41578                       0.35059                      90.35022
                      -6.44728                       0.39405                      89.99014
                      -6.38760                       0.43613                      89.63347
                      -6.24049                       0.47421                      89.30265
                      -6.01519                       0.50589                      89.01844
                      -5.72585                       0.52917                      88.79870
                      -5.39066                       0.54260                      88.65726
                      -5.03068                       0.54533                      88.60298
                      -4.66853                       0.53719                      88.63928
                      -4.32696                       0.51868                      88.76389
                      -4.02743                       0.49099                      88.96897
                      -3.78877                       0.45583                      89.24163
                      -3.62597                       0.41543                      89.56474
                      -3.52401                       0.24821                      89.90082
                      -3.53847                       0.20431                      90.26867
                      -3.64460                       0.16317                      90.62151
                      -3.83573                       0.12737                      90.93716
                      -4.09986                       0.09916                      91.19579
                      -4.42038                       0.08032                      91.38116
                      -4.77715                       0.07203                      91.48161
                      -5.14777                       0.07481                      91.49083
                      -5.50894                       0.08848                      91.40825
                      -5.83796                       0.11219                      91.23905
                      -6.11417                       0.14445                      90.99386
                      -6.32021                       0.18323                      90.68810
                      -6.44313                       0.22609                      90.34096
                      -6.47521                       0.27034                      89.97427
                      -6.41444                       0.31320                      89.61107
                      -6.26463                       0.35198                      89.27417
                      -6.03519                       0.38423                      88.98474
                      -5.74054                       0.40794                      88.76098
                      -5.39920                       0.42162                      88.61694
                      -5.03262                       0.42440                      88.56166
                      -4.66382                       0.41610                      88.59863
                      -4.31598                       0.39726                      88.72553
                      -4.01095                       0.36906                      88.93437
                      -3.76791                       0.33326                      89.21203
                      -3.60213                       0.29211                      89.54108
                      -3.50961                       0.12411                      89.88459
                      -3.52422                       0.07974                      90.25636
                      -3.63148                       0.03816                      90.61295
                      -3.82465                       0.00197                      90.93197
                      -4.09159                      -0.02653                      91.19336
                      -4.41553                      -0.04557                      91.38070
                      -4.77611                      -0.05395                      91.48222
                      -5.15067                      -0.05115                      91.49154
                      -5.51569                      -0.03733                      91.40808
                      -5.84822                      -0.01336                      91.23707
                      -6.12737                       0.01924                      90.98927
                      -6.33561                       0.05843                      90.68025
                      -6.45984                       0.10175                      90.32942
                      -6.49226                       0.14647                      89.95882
                      -6.43084                       0.18978                      89.59174
                      -6.27943                       0.22897                      89.25125
                      -6.04755                       0.26158                      88.95874
                      -5.74976                       0.28554                      88.73260
                      -5.40479                       0.29936                      88.58702
                      -5.03429                       0.30217                      88.53115
                      -4.66156                       0.29379                      88.56852
                      -4.31002                       0.27475                      88.69676
                      -4.00174                       0.24624                      88.90783
                      -3.75611                       0.21006                      89.18845
                      -3.58856                       0.16848                      89.52100
                      -3.50571                       0.00000                      89.86927
                      -3.52037                      -0.04452                      90.24234
                      -3.62801                      -0.08625                      90.60018
                      -3.82186                      -0.12256                      90.92030
                      -4.08973                      -0.15116                      91.18261
                      -4.41479                      -0.17027                      91.37060
                      -4.77663                      -0.17868                      91.47248
                      -5.15250                      -0.17586                      91.48183
                      -5.51879                      -0.16200                      91.39808
                      -5.85249                      -0.13795                      91.22648
                      -6.13261                      -0.10523                      90.97781
                      -6.34158                      -0.06591                      90.66771
                      -6.46624                      -0.02244                      90.31565
                      -6.49878                       0.02244                      89.94376
                      -6.43714                       0.06591                      89.57540
                      -6.28520                       0.10523                      89.23372
                      -6.05251                       0.13795                      88.94019
                      -5.75369                       0.16200                      88.71326
                      -5.40750                       0.17586                      88.56717
                      -5.03572                       0.17868                      88.51111
                      -4.66169                       0.17027                      88.54861
                      -4.30891                       0.15116                      88.67730
                      -3.99956                       0.12256                      88.88910
                      -3.75307                       0.08625                      89.17071
                      -3.58493                       0.04452                      89.50442
                      -3.51221                      -0.12411                      89.85486
                      -3.52682                      -0.16848                      90.22663
                      -3.63408                      -0.21006                      90.58322
                      -3.82725                      -0.24624                      90.90224
                      -4.09419                      -0.27475                      91.16363
                      -4.41813                      -0.29379                      91.35097
                      -4.77871                      -0.30217                      91.45249
                      -5.15327                      -0.29936                      91.46181
                      -5.51829                      -0.28554                      91.37835
                      -5.85082                      -0.26158                      91.20735
                      -6.12998                      -0.22897                      90.95955
                      -6.33821                      -0.18978                      90.65052
                      -6.46244                      -0.14647                      90.29969
                      -6.49487                      -0.10175                      89.92909
                      -6.43344                      -0.05843                      89.56202
                      -6.28203                      -0.01924                      89.22153
                      -6.05015                       0.01336                      88.92902
                      -5.75236                       0.03733                      88.70287
                      -5.40739                       0.05115                      88.55729
                      -5.03689                       0.05395                      88.50143
                      -4.66416                       0.04557                      88.53879
                      -4.31262                       0.02653                      88.66704
                      -4.00434                      -0.00197                      88.87810
                      -3.75871                      -0.03816                      89.15873
                      -3.59116                      -0.07974                      89.49128
                      -3.52921                      -0.24821                      89.84137
                      -3.54367                      -0.29211                      90.20922
                      -3.64980                      -0.33326                      90.56206
                      -3.84093                      -0.36906                      90.87771
                      -4.10506                      -0.39726                      91.13634
                      -4.42558                      -0.41610                      91.32171
                      -4.78236                      -0.42440                      91.42216
                      -5.15297                      -0.42162                      91.43138
                      -5.51414                      -0.40794                      91.34880
                      -5.84316                      -0.38423                      91.17960
                      -6.11937                      -0.35198                      90.93441
                      -6.32541                      -0.31320                      90.62865
                      -6.44833                      -0.27034                      90.28151
                      -6.48042                      -0.22609                      89.91482
                      -6.41964                      -0.18323                      89.55162
                      -6.26983                      -0.14445                      89.21472
                      -6.04039                      -0.11219                      88.92529
                      -5.74574                      -0.08848                      88.70153
                      -5.40440                      -0.07481                      88.55748
                      -5.03782                      -0.07203                      88.50221
                      -4.66902                      -0.08032                      88.53918
                      -4.32118                      -0.09916                      88.66607
                      -4.01616                      -0.12737                      88.87491
                      -3.77312                      -0.16317                      89.15258
                      -3.60733                      -0.20431                      89.48162
                      -3.55706                      -0.37232                      89.82883
                      -3.57126                      -0.41543                      90.19005
                      -3.67548                      -0.45583                      90.53653
                      -3.86317                      -0.49099                      90.84649
                      -4.12253                      -0.51868                      91.10046
                      -4.43728                      -0.53719                      91.28249
                      -4.78762                      -0.54533                      91.38113
                      -5.15156                      -0.54260                      91.39019
                      -5.50622                      -0.52917                      91.30909
                      -5.82932                      -0.50589                      91.14294
                      -6.10055                      -0.47421                      90.90217
                      -6.30288                      -0.43613                      90.60192
                      -6.42358                      -0.39405                      90.26104
                      -6.45509                      -0.35059                      89.90096
                      -6.39541                      -0.30850                      89.54430
                      -6.24829                      -0.27043                      89.21347
                      -6.02299                      -0.23875                      88.92926
                      -5.73365                      -0.21547                      88.70953
                      -5.39846                      -0.20204                      88.56808
                      -5.03848                      -0.19931                      88.51380
                      -4.67633                      -0.20745                      88.55011
                      -4.33476                      -0.22595                      88.67471
                      -4.03523                      -0.25365                      88.87979
                      -3.79657                      -0.28881                      89.15245
                      -3.63377                      -0.32921                      89.47557
                      -3.59637                      -0.49643                      89.81730
                      -3.61020                      -0.53840                      90.16903
                      -3.71168                      -0.57774                      90.50640
                      -3.89444                      -0.61197                      90.80822
                      -4.14699                      -0.63895                      91.05552
                      -4.45346                      -0.65696                      91.23276
                      -4.79461                      -0.66489                      91.32881
                      -5.14898                      -0.66223                      91.33763
                      -5.49432                      -0.64916                      91.25867
                      -5.80893                      -0.62649                      91.09688
                      -6.07304                      -0.59564                      90.86244
                      -6.27005                      -0.55856                      90.57007
                      -6.38759                      -0.51758                      90.23815
                      -6.41826                      -0.47527                      89.88753
                      -6.36015                      -0.43429                      89.54024
                      -6.21690                      -0.39721                      89.21810
                      -5.99752                      -0.36637                      88.94135
                      -5.71578                      -0.34369                      88.72740
                      -5.38940                      -0.33062                      88.58966
                      -5.03888                      -0.32796                      88.53681
                      -4.68624                      -0.33589                      88.57216
                      -4.35364                      -0.35391                      88.69349
                      -4.06198                      -0.38088                      88.89318
                      -3.82959                      -0.41511                      89.15868
                      -3.67106                      -0.45445                      89.47331
                      -3.64810                      -0.62053                      89.80684
                      -3.66143                      -0.66101                      90.14598
                      -3.75928                      -0.69894                      90.47128
                      -3.93550                      -0.73194                      90.76230
                      -4.17901                      -0.75795                      91.00075
                      -4.47451                      -0.77532                      91.17164
                      -4.80345                      -0.78296                      91.26426
                      -5.14514                      -0.78040                      91.27276
                      -5.47812                      -0.76780                      91.19662
                      -5.78146                      -0.74594                      91.04063
                      -6.03612                      -0.71620                      90.81458
                      -6.22607                      -0.68045                      90.53267
                      -6.33940                      -0.64093                      90.21263
                      -6.36898                      -0.60013                      89.87456
                      -6.31295                      -0.56062                      89.53970
                      -6.17483                      -0.52487                      89.22910
                      -5.96330                      -0.49513                      88.96226
                      -5.69165                      -0.47327                      88.75596
                      -5.37695                      -0.46066                      88.62316
                      -5.03897                      -0.45810                      88.57220
                      -4.69895                      -0.46574                      88.60628
                      -4.37826                      -0.48311                      88.72327
                      -4.09704                      -0.50912                      88.91581
                      -3.87297                      -0.54212                      89.17181
                      -3.72012                      -0.58006                      89.47517
                      -3.71371                      -0.74464                      89.79761
                      -3.72641                      -0.78320                      90.12069
                      -3.81963                      -0.81933                      90.43059
                      -3.98750                      -0.85078                      90.70783
                      -4.21948                      -0.87555                      90.93499
                      -4.50100                      -0.89210                      91.09780
                      -4.81436                      -0.89938                      91.18603
                      -5.13987                      -0.89694                      91.19413
                      -5.45709                      -0.88493                      91.12159
                      -5.74608                      -0.86411                      90.97298
                      -5.98868                      -0.83577                      90.75763
                      -6.16964                      -0.80172                      90.48908
                      -6.27760                      -0.76407                      90.18419
                      -6.30578                      -0.72521                      89.86212
                      -6.25240                      -0.68756                      89.54311
                      -6.12082                      -0.65350                      89.24721
                      -5.91930                      -0.62517                      88.99301
                      -5.66051                      -0.60435                      88.79647
                      -5.36071                      -0.59234                      88.66996
                      -5.03873                      -0.58990                      88.62141
                      -4.71481                      -0.59718                      88.65388
                      -4.40930                      -0.61373                      88.76533
                      -4.14140                      -0.63850                      88.94876
                      -3.92793                      -0.66994                      89.19263
                      -3.78232                      -0.70608                      89.48164
                      -3.79539                      -0.86875                      89.78978
                      -3.80730                      -0.90491                      90.09279
                      -3.89473                      -0.93880                      90.38344
                      -4.05217                      -0.96829                      90.64346
                      -4.26975                      -0.99153                      90.85651
                      -4.53378                      -1.00705                      91.00921
                      -4.82767                      -1.01388                      91.09195
                      -5.13297                      -1.01159                      91.09955
                      -5.43048                      -1.00032                      91.03152
                      -5.70152                      -0.98079                      90.89215
                      -5.92905                      -0.95422                      90.69017
                      -6.09877                      -0.92228                      90.43830
                      -6.20003                      -0.88697                      90.15234
                      -6.22646                      -0.85052                      89.85028
                      -6.17640                      -0.81521                      89.55109
                      -6.05299                      -0.78327                      89.27357
                      -5.86399                      -0.75670                      89.03515
                      -5.62127                      -0.73717                      88.85083
                      -5.34009                      -0.72590                      88.73217
                      -5.03811                      -0.72361                      88.68664
                      -4.73431                      -0.73044                      88.71709
                      -4.44778                      -0.74596                      88.82162
                      -4.19651                      -0.76920                      88.99365
                      -3.99631                      -0.79869                      89.22238
                      -3.85974                      -0.83258                      89.49343
                      -3.89662                      -0.99285                      89.78366
                      -3.90756                      -1.02604                      90.06172
                      -3.98778                      -1.05714                      90.32844
                      -4.13227                      -1.08420                      90.56705
                      -4.33192                      -1.10552                      90.76256
                      -4.57422                      -1.11977                      90.90268
                      -4.84391                      -1.12603                      90.97862
                      -5.12407                      -1.12393                      90.98559
                      -5.39709                      -1.11360                      90.92316
                      -5.64581                      -1.09567                      90.79526
                      -5.85460                      -1.07129                      90.60992
                      -6.01035                      -1.04198                      90.37878
                      -6.10328                      -1.00958                      90.11637
                      -6.12753                      -0.97613                      89.83918
                      -6.08158                      -0.94373                      89.56462
                      -5.96834                      -0.91441                      89.30995
                      -5.79490                      -0.89003                      89.09117
                      -5.57217                      -0.87211                      88.92202
                      -5.31414                      -0.86177                      88.81313
                      -5.03702                      -0.85967                      88.77135
                      -4.75824                      -0.86594                      88.79929
                      -4.49530                      -0.88018                      88.89522
                      -4.26472                      -0.90150                      89.05308
                      -4.08100                      -0.92856                      89.26298
                      -3.95568                      -0.95966                      89.51171
                      -4.02332                      -1.11696                      89.77977
                      -4.03302                      -1.14641                      90.02653
                      -4.10422                      -1.17401                      90.26321
                      -4.23243                      -1.19802                      90.47496
                      -4.40961                      -1.21694                      90.64846
                      -4.62463                      -1.22958                      90.77280
                      -4.86396                      -1.23515                      90.84019
                      -5.11257                      -1.23328                      90.84637
                      -5.35485                      -1.22411                      90.79098
                      -5.57557                      -1.20820                      90.67747
                      -5.76086                      -1.18656                      90.51300
                      -5.89907                      -1.16055                      90.30788
                      -5.98153                      -1.13180                      90.07502
                      -6.00305                      -1.10212                      89.82904
                      -5.96228                      -1.07336                      89.58539
                      -5.86178                      -1.04735                      89.35939
                      -5.70787                      -1.02571                      89.16524
                      -5.51022                      -1.00981                      89.01513
                      -5.28124                      -1.00063                      88.91851
                      -5.03533                      -0.99877                      88.88143
                      -4.78793                      -1.00433                      88.90623
                      -4.55459                      -1.01697                      88.99135
                      -4.34998                      -1.03589                      89.13145
                      -4.18694                      -1.05991                      89.31771
                      -4.07573                      -1.08751                      89.53844
                      -4.18700                      -1.24106                      89.77911
                      -4.19511                      -1.26568                      89.98533
                      -4.25461                      -1.28874                      90.18313
                      -4.36176                      -1.30881                      90.36009
                      -4.50983                      -1.32462                      90.50508
                      -4.68952                      -1.33519                      90.60900
                      -4.88953                      -1.33983                      90.66532
                      -5.09730                      -1.33828                      90.67049
                      -5.29978                      -1.33061                      90.62419
                      -5.48423                      -1.31732                      90.52933
                      -5.63908                      -1.29923                      90.39188
                      -5.75459                      -1.27750                      90.22046
                      -5.82350                      -1.25347                      90.02586
                      -5.84148                      -1.22866                      89.82029
                      -5.80741                      -1.20463                      89.61667
                      -5.72343                      -1.18289                      89.42780
                      -5.59480                      -1.16481                      89.26554
                      -5.42962                      -1.15152                      89.14010
                      -5.23826                      -1.14385                      89.05935
                      -5.03275                      -1.14229                      89.02836
                      -4.82599                      -1.14694                      89.04909
                      -4.63099                      -1.15750                      89.12022
                      -4.45999                      -1.17332                      89.23730
                      -4.32374                      -1.19339                      89.39296
                      -4.23080                      -1.21645                      89.57743
                      -4.41711                      -1.36517                      89.78426
                      -4.42297                      -1.38296                      89.93336
                      -4.46599                      -1.39964                      90.07637
                      -4.54346                      -1.41415                      90.20431
                      -4.65051                      -1.42558                      90.30914
                      -4.78042                      -1.43322                      90.38428
                      -4.92503                      -1.43658                      90.42499
                      -5.07525                      -1.43546                      90.42873
                      -5.22164                      -1.42991                      90.39526
                      -5.35500                      -1.42030                      90.32668
                      -5.46696                      -1.40723                      90.22730
                      -5.55047                      -1.39151                      90.10336
                      -5.60029                      -1.37414                      89.96266
                      -5.61329                      -1.35620                      89.81403
                      -5.58866                      -1.33883                      89.66682
                      -5.52794                      -1.32311                      89.53027
                      -5.43494                      -1.31004                      89.41296
                      -5.31552                      -1.30043                      89.32226
                      -5.17716                      -1.29489                      89.26388
                      -5.02858                      -1.29376                      89.24147
                      -4.87910                      -1.29712                      89.25646
                      -4.73811                      -1.30476                      89.30789
                      -4.61448                      -1.31619                      89.39254
                      -4.51597                      -1.33070                      89.50508
                      -4.44877                      -1.34738                      89.63845
                      -5.01560                      -1.48928                      89.82165
                      -5.01560                      -1.48928                      89.82165
                      -5.01560                      -1.48928                      89.82165
                      -5.01560                      -1.48928                      89.82165
                      -5.01560                      -1.48928                      89.82165
                      -5.01560                      -1.48928                      89.82165
                      -5.01560                      -1.48928                      89.82165
                      -5.01560                      -1.48928                      89.82165
                      -5.01560                      -1.48928                      89.82165
                      -5.01560                      -1.48928                      89.82165
                      -5.01560                      -1.48928                      89.82165
                      -5.01560                      -1.48928                      89.82165
                      -5.01560                      -1.48928                      89.82165
                      -5.01560                      -1.48928                      89.82165
                      -5.01560                      -1.48928                      89.82165
                      -5.01560                      -1.48928                      89.82165
                      -5.01560                      -1.48928                      89.82165
                      -5.01560                      -1.48928                      89.82165
                      -5.01560                      -1.48928                      89.82165
                      -5.01560                      -1.48928                      89.82165
                      -5.01560                      -1.48928                      89.82165
                      -5.01560                      -1.48928                      89.82165
                      -5.01560                      -1.48928                      89.82165
                      -5.01560                      -1.48928                      89.82165
                      -5.01560                      -1.48928                      89.82165
        </DataArray>
      </Points>
      <Polys>
        <DataArray type="Int32" Name="connectivity" format="ascii">
      0      1     26     25
      1      2     27     26
      2      3     28     27
      3      4     29     28
      4      5     30     29
      5      6     31     30
      6      7     32     31
      7      8     33     32
      8      9     34     33
      9     10     35     34
     10     11     36     35
     11     12     37     36
     12     13     38     37
     13     14     39     38
     14     15     40     39
     15     16     41     40
     16     17     42     41
     17     18     43     42
     18     19     44     43
     19     20     45     44
     20     21     46     45
     21     22     47     46
     22     23     48     47
     23     24     49     48
     24      0     25     49
     25     26     51     50
     26     27     52     51
     27     28     53     52
     28     29     54     53
     29     30     55     54
     30     31     56     55
     31     32     57     56
     32     33     58     57
     33     34     59     58
     34     35     60     59
     35     36     61     60
     36     37     62     61
     37     38     63     62
     38     39     64     63
     39     40     65     64
     40     41     66     65
     41     42     67     66
     42     43     68     67
     43     44     69     68
     44     45     70     69
     45     46     71     70
     46     47     72     71
     47     48     73     72
     48     49     74     73
     49     25     50     74
     50     51     76     75
     51     52     77     76
     52     53     78     77
     53     54     79     78
     54     55     80     79
     55     56     81     80
     56     57     82     81
     57     58     83     82
     58     59     84     83
     59     60     85     84
     60     61     86     85
     61     62     87     86
     62     63     88     87
     63     64     89     88
     64     65     90     89
     65     66     91     90
     66     67     92     91
     67     68     93     92
     68     69     94     93
     69     70     95     94
     70     71     96     95
     71     72     97     96
     72     73     98     97
     73     74     99     98
     74     50     75     99
     75     76    101    100
     76     77    102    101
     77     78    103    102
     78     79    104    103
     79     80    105    104
     80     81    106    105
     81     82    107    106
     82     83    108    107
     83     84    109    108
     84     85    110    109
     85     86    111    110
     86     87    112    111
     87     88    113    112
     88     89    114    113
     89     90    115    114
     90     91    116    115
     91     92    117    116
     92     93    118    117
     93     94    119    118
     94     95    120    119
     95     96    121    120
     96     97    122    121
     97     98    123    122
     98     99    124    123
     99     75    100    124
    100    101    126    125
    101    102    127    126
    102    103    128    127
    103    104    129    128
    104    105    130    129
    105    106    131    130
    106    107    132    131
    107    108    133    132
    108    109    134    133
    109    110    135    134
    110    111    136    135
    111    112    137    136
    112    113    138    137
    113    114    139    138
    114    115    140    139
    115    116    141    140
    116    117    142    141
    117    118    143    142
    118    119    144    143
    119    120    145    144
    120    121    146    145
    121    122    147    146
    122    123    148    147
    123    124    149    148
    124    100    125    149
    125    126    151    150
    126    127    152    151
    127    128    153    152
    128    129    154    153
    129    130    155    154
    130    131    156    155
    131    132    157    156
    132    133    158    157
    133    134    159    158
    134    135    160    159
    135    136    161    160
    136    137    162    161
    137    138    163    162
    138    139    164    163
    139    140    165    164
    140    141    166    165
    141    142    167    166
    142    143    168    167
    143    144    169    168
    144    145    170    169
    145    146    171    170
    146    147    172    171
    147    148    173    172
    148    149    174    173
    149    125    150    174
    150    151    176    175
    151    152    177    176
    152    153    178    177
    153    154    179    178
    154    155    180    179
    155    156    181    180
    156    157    182    181
    157    158    183    182
    158    159    184    183
    159    160    185    184
    160    161    186    185
    161    162    187    186
    162    163    188    187
    163    164    189    188
    164    165    190    189
    165    166    191    190
    166    167    192    191
    167    168    193    192
    168    169    194    193
    169    170    195    194
    170    171    196    195
    171    172    197    196
    172    173    198    197
    173    174    199    198
    174    150    175    199
    175    176    201    200
    176    177    202    201
    177    178    203    202
    178    179    204    203
    179    180    205    204
    180    181    206    205
    181    182    207    206
    182    183    208    207
    183    184    209    208
    184    185    210    209
    185    186    211    210
    186    187    212    211
    187    188    213    212
    188    189    214    213
    189    190    215    214
    190    191    216    215
    191    192    217    216
    192    193    218    217
    193    194    219    218
    194    195    220    219
    195    196    221    220
    196    197    222    221
    197    198    223    222
    198    199    224    223
    199    175    200    224
    200    201    226    225
    201    202    227    226
    202    203    228    227
    203    204    229    228
    204    205    230    229
    205    206    231    230
    206    207    232    231
    207    208    233    232
    208    209    234    233
    209    210    235    234
    210    211    236    235
    211    212    237    236
    212    213    238    237
    213    214    239    238
    214    215    240    239
    215    216    241    240
    216    217    242    241
    217    218    243    242
    218    219    244    243
    219    220    245    244
    220    221    246    245
    221    222    247    246
    222    223    248    247
    223    224    249    248
    224    200    225    249
    225    226    251    250
    226    227    252    251
    227    228    253    252
    228    229    254    253
    229    230    255    254
    230    231    256    255
    231    232    257    256
    232    233    258    257
    233    234    259    258
    234    235    260    259
    235    236    261    260
    236    237    262    261
    237    238    263    262
    238    239    264    263
    239    240    265    264
    240    241    266    265
    241    242    267    266
    242    243    268    267
    243    244    269    268
    244    245    270    269
    245    246    271    270
    246    247    272    271
    247    248    273    272
    248    249    274    273
    249    225    250    274
    250    251    276    275
    251    252    277    276
    252    253    278    277
    253    254    279    278
    254    255    280    279
    255    256    281    280
    256    257    282    281
    257    258    283    282
    258    259    284    283
    259    260    285    284
    260    261    286    285
    261    262    287    286
    262    263    288    287
    263    264    289    288
    264    265    290    289
    265    266    291    290
    266    267    292    291
    267    268    293    292
    268    269    294    293
    269    270    295    294
    270    271    296    295
    271    272    297    296
    272    273    298    297
    273    274    299    298
    274    250    275    299
    275    276    301    300
    276    277    302    301
    277    278    303    302
    278    279    304    303
    279    280    305    304
    280    281    306    305
    281    282    307    306
    282    283    308    307
    283    284    309    308
    284    285    310    309
    285    286    311    310
    286    287    312    311
    287    288    313    312
    288    289    314    313
    289    290    315    314
    290    291    316    315
    291    292    317    316
    292    293    318    317
    293    294    319    318
    294    295    320    319
    295    296    321    320
    296    297    322    321
    297    298    323    322
    298    299    324    323
    299    275    300    324
    300    301    326    325
    301    302    327    326
    302    303    328    327
    303    304    329    328
    304    305    330    329
    305    306    331    330
    306    307    332    331
    307    308    333    332
    308    309    334    333
    309    310    335    334
    310    311    336    335
    311    312    337    336
    312    313    338    337
    313    314    339    338
    314    315    340    339
    315    316    341    340
    316    317    342    341
    317    318    343    342
    318    319    344    343
    319    320    345    344
    320    321    346    345
    321    322    347    346
    322    323    348    347
    323    324    349    348
    324    300    325    349
    325    326    351    350
    326    327    352    351
    327    328    353    352
    328    329    354    353
    329    330    355    354
    330    331    356    355
    331    332    357    356
    332    333    358    357
    333    334    359    358
    334    335    360    359
    335    336    361    360
    336    337    362    361
    337    338    363    362
    338    339    364    363
    339    340    365    364
    340    341    366    365
    341    342    367    366
    342    343    368    367
    343    344    369    368
    344    345    370    369
    345    346    371    370
    346    347    372    371
    347    348    373    372
    348    349    374    373
    349    325    350    374
    350    351    376    375
    351    352    377    376
    352    353    378    377
    353    354    379    378
    354    355    380    379
    355    356    381    380
    356    357    382    381
    357    358    383    382
    358    359    384    383
    359    360    385    384
    360    361    386    385
    361    362    387    386
    362    363    388    387
    363    364    389    388
    364    365    390    389
    365    366    391    390
    366    367    392    391
    367    368    393    392
    368    369    394    393
    369    370    395    394
    370    371    396    395
    371    372    397    396
    372    373    398    397
    373    374    399    398
    374    350    375    399
    375    376    401    400
    376    377    402    401
    377    378    403    402
    378    379    404    403
    379    380    405    404
    380    381    406    405
    381    382    407    406
    382    383    408    407
    383    384    409    408
    384    385    410    409
    385    386    411    410
    386    387    412    411
    387    388    413    412
    388    389    414    413
    389    390    415    414
    390    391    416    415
    391    392    417    416
    392    393    418    417
    393    394    419    418
    394    395    420    419
    395    396    421    420
    396    397    422    421
    397    398    423    422
    398    399    424    423
    399    375    400    424
    400    401    426    425
    401    402    427    426
    402    403    428    427
    403    404    429    428
    404    405    430    429
    405    406    431    430
    406    407    432    431
    407    408    433    432
    408    409    434    433
    409    410    435    434
    410    411    436    435
    411    412    437    436
    412    413    438    437
    413    414    439    438
    414    415    440    439
    415    416    441    440
    416    417    442    441
    417    418    443    442
    418    419    444    443
    419    420    445    444
    420    421    446    445
    421    422    447    446
    422    423    448    447
    423    424    449    448
    424    400    425    449
    425    426    451    450
    426    427    452    451
    427    428    453    452
    428    429    454    453
    429    430    455    454
    430    431    456    455
    431    432    457    456
    432    433    458    457
    433    434    459    458
    434    435    460    459
    435    436    461    460
    436    437    462    461
    437    438    463    462
    438    439    464    463
    439    440    465    464
    440    441    466    465
    441    442    467    466
    442    443    468    467
    443    444    469    468
    444    445    470    469
    445    446    471    470
    446    447    472    471
    447    448    473    472
    448    449    474    473
    449    425    450    474
    450    451    476    475
    451    452    477    476
    452    453    478    477
    453    454    479    478
    454    455    480    479
    455    456    481    480
    456    457    482    481
    457    458    483    482
    458    459    484    483
    459    460    485    484
    460    461    486    485
    461    462    487    486
    462    463    488    487
    463    464    489    488
    464    465    490    489
    465    466    491    490
    466    467    492    491
    467    468    493    492
    468    469    494    493
    469    470    495    494
    470    471    496    495
    471    472    497    496
    472    473    498    497
    473    474    499    498
    474    450    475    499
    475    476    501    500
    476    477    502    501
    477    478    503    502
    478    479    504    503
    479    480    505    504
    480    481    506    505
    481    482    507    506
    482    483    508    507
    483    484    509    508
    484    485    510    509
    485    486    511    510
    486    487    512    511
    487    488    513    512
    488    489    514    513
    489    490    515    514
    490    491    516    515
    491    492    517    516
    492    493    518    517
    493    494    519    518
    494    495    520    519
    495    496    521    520
    496    497    522    521
    497    498    523    522
    498    499    524    523
    499    475    500    524
    500    501    526    525
    501    502    527    526
    502    503    528    527
    503    504    529    528
    504    505    530    529
    505    506    531    530
    506    507    532    531
    507    508    533    532
    508    509    534    533
    509    510    535    534
    510    511    536    535
    511    512    537    536
    512    513    538    537
    513    514    539    538
    514    515    540    539
    515    516    541    540
    516    517    542    541
    517    518    543    542
    518    519    544    543
    519    520    545    544
    520    521    546    545
    521    522    547    546
    522    523    548    547
    523    524    549    548
    524    500    525    549
    525    526    551    550
    526    527    552    551
    527    528    553    552
    528    529    554    553
    529    530    555    554
    530    531    556    555
    531    532    557    556
    532    533    558    557
    533    534    559    558
    534    535    560    559
    535    536    561    560
    536    537    562    561
    537    538    563    562
    538    539    564    563
    539    540    565    564
    540    541    566    565
    541    542    567    566
    542    543    568    567
    543    544    569    568
    544    545    570    569
    545    546    571    570
    546    547    572    571
    547    548    573    572
    548    549    574    573
    549    525    550    574
    550    551    576    575
    551    552    577    576
    552    553    578    577
    553    554    579    578
    554    555    580    579
    555    556    581    580
    556    557    582    581
    557    558    583    582
    558    559    584    583
    559    560    585    584
    560    561    586    585
    561    562    587    586
    562    563    588    587
    563    564    589    588
    564    565    590    589
    565    566    591    590
    566    567    592    591
    567    568    593    592
    568    569    594    593
    569    570    595    594
    570    571    596    595
    571    572    597    596
    572    573    598    597
    573    574    599    598
    574    550    575    599
    575    576    601    600
    576    577    602    601
    577    578    603    602
    578    579    604    603
    579    580    605    604
    580    581    606    605
    581    582    607    606
    582    583    608    607
    583    584    609    608
    584    585    610    609
    585    586    611    610
    586    587    612    611
    587    588    613    612
    588    589    614    613
    589    590    615    614
    590    591    616    615
    591    592    617    616
    592    593    618    617
    593    594    619    618
    594    595    620    619
    595    596    621    620
    596    597    622    621
    597    598    623    622
    598    599    624    623
    599    575    600    624
        </DataArray>
        <DataArray type="Int32" Name="offsets" format="ascii">
      4
      8
     12
     16
     20
     24
     28
     32
     36
     40
     44
     48
     52
     56
     60
     64
     68
     72
     76
     80
     84
     88
     92
     96
    100
    104
    108
    112
    116
    120
    124
    128
    132
    136
    140
    144
    148
    152
    156
    160
    164
    168
    172
    176
    180
    184
    188
    192
    196
    200
    204
    208
    212
    216
    220
    224
    228
    232
    236
    240
    244
    248
    252
    256
    260
    264
    268
    272
    276
    280
    284
    288
    292
    296
    300
    304
    308
    312
    316
    320
    324
    328
    332
    336
    340
    344
    348
    352
    356
    360
    364
    368
    372
    376
    380
    384
    388
    392
    396
    400
    404
    408
    412
    416
    420
    424
    428
    432
    436
    440
    444
    448
    452
    456
    460
    464
    468
    472
    476
    480
    484
    488
    492
    496
    500
    504
    508
    512
    516
    520
    524
    528
    532
    536
    540
    544
    548
    552
    556
    560
    564
    568
    572
    576
    580
    584
    588
    592
    596
    600
    604
    608
    612
    616
    620
    624
    628
    632
    636
    640
    644
    648
    652
    656
    660
    664
    668
    672
    676
    680
    684
    688
    692
    696
    700
    704
    708
    712
    716
    720
    724
    728
    732
    736
    740
    744
    748
    752
    756
    760
    764
    768
    772
    776
    780
    784
    788
    792
    796
    800
    804
    808
    812
    816
    820
    824
    828
    832
    836
    840
    844
    848
    852
    856
    860
    864
    868
    872
    876
    880
    884
    888
    892
    896
    900
    904
    908
    912
    916
    920
    924
    928
    932
    936
    940
    944
    948
    952
    956
    960
    964
    968
    972
    976
    980
    984
    988
    992
    996
   1000
   1004
   1008
   1012
   1016
   1020
   1024
   1028
   1032
   1036
   1040
   1044
   1048
   1052
   1056
   1060
   1064
   1068
   1072
   1076
   1080
   1084
   1088
   1092
   1096
   1100
   1104
   1108
   1112
   1116
   1120
   1124
   1128
   1132
   1136
   1140
   1144
   1148
   1152
   1156
   1160
   1164
   1168
   1172
   1176
   1180
   1184
   1188
   1192
   1196
   1200
   1204
   1208
   1212
   1216
   1220
   1224
   1228
   1232
   1236
   1240
   1244
   1248
   1252
   1256
   1260
   1264
   1268
   1272
   1276
   1280
   1284
   1288
   1292
   1296
   1300
   1304
   1308
   1312
   1316
   1320
   1324
   1328
   1332
   1336
   1340
   1344
   1348
   1352
   1356
   1360
   1364
   1368
   1372
   1376
   1380
   1384
   1388
   1392
   1396
   1400
   1404
   1408
   1412
   1416
   1420
   1424
   1428
   1432
   1436
   1440
   1444
   1448
   1452
   1456
   1460
   1464
   1468
   1472
   1476
   1480
   1484
   1488
   1492
   1496
   1500
   1504
   1508
   1512
   1516
   1520
   1524
   1528
   1532
   1536
   1540
   1544
   1548
   1552
   1556
   1560
   1564
   1568
   1572
   1576
   1580
   1584
   1588
   1592
   1596
   1600
   1604
   1608
   1612
   1616
   1620
   1624
   1628
   1632
   1636
   1640
   1644
   1648
   1652
   1656
   1660
   1664
   1668
   1672
   1676
   1680
   1684
   1688
   1692
   1696
   1700
   1704
   1708
   1712
   1716
   1720
   1724
   1728
   1732
   1736
   1740
   1744
   1748
   1752
   1756
   1760
   1764
   1768
   1772
   1776
   1780
   1784
   1788
   1792
   1796
   1800
   1804
   1808
   1812
   1816
   1820
   1824
   1828
   1832
   1836
   1840
   1844
   1848
   1852
   1856
   1860
   1864
   1868
   1872
   1876
   1880
   1884
   1888
   1892
   1896
   1900
   1904
   1908
   1912
   1916
   1920
   1924
   1928
   1932
   1936
   1940
   1944
   1948
   1952
   1956
   1960
   1964
   1968
   1972
   1976
   1980
   1984
   1988
   1992
   1996
   2000
   2004
   2008
   2012
   2016
   2020
   2024
   2028
   2032
   2036
   2040
   2044
   2048
   2052
   2056
   2060
   2064
   2068
   2072
   2076
   2080
   2084
   2088
   2092
   2096
   2100
   2104
   2108
   2112
   2116
   2120
   2124
   2128
   2132
   2136
   2140
   2144
   2148
   2152
   2156
   2160
   2164
   2168
   2172
   2176
   2180
   2184
   2188
   2192
   2196
   2200
   2204
   2208
   2212
   2216
   2220
   2224
   2228
   2232
   2236
   2240
   2244
   2248
   2252
   2256
   2260
   2264
   2268
   2272
   2276
   2280
   2284
   2288
   2292
   2296
   2300
   2304
   2308
   2312
   2316
   2320
   2324
   2328
   2332
   2336
   2340
   2344
   2348
   2352
   2356
   2360
   2364
   2368
   2372
   2376
   2380
   2384
   2388
   2392
   2396
   2400
        </DataArray>
      </Polys>
    </Piece>
  </PolyData>
</VTKFile>
