<?xml version="1.0"?>
<VTKFile type="PolyData" version="0.1" byte_order="LittleEndian">
  <PolyData>
    <Piece NumberOfPoints="     19" NumberOfVerts="  0" NumberOfLines="     18"
           NumberOfStrips="  0" NumberOfPolys="      0">
      <Points>
        <DataArray type="Float32" NumberOfComponents="3" format="ascii">
                      -4.98296                       1.16436                      90.94550
                      -4.96801                       2.22305                      91.80970
                      -4.95405                       4.28000                      93.61264
                      -4.94763                       6.30837                      95.45091
                      -4.94411                       8.82680                      97.76991
                      -4.89680                      11.94076                     100.43878
                      -4.83429                      15.13739                     103.00558
                      -4.77424                      18.33556                     105.57051
                      -4.71436                      21.53650                     108.13204
                      -4.65536                      24.73897                     110.69170
                      -4.59832                      27.94063                     113.25240
                      -4.54261                      31.14244                     115.81294
                      -4.48889                      34.34436                     118.37336
                      -4.43786                      37.54636                     120.93375
                      -4.38776                      40.74839                     123.49411
                      -4.34666                      43.41679                     125.62776
                      -4.31486                      45.55643                     127.32855
                      -4.28810                      47.73066                     128.98682
                      -4.27258                      48.79147                     129.84824
        </DataArray>
      </Points>
      <PointData>
        <DataArray type="Float32" Name="TranslationalVelocity" NumberOfComponents="3" format="ascii">
                       0.05314                      -0.49396                       0.60734
                       0.10145                      -0.94541                       1.15956
                       0.19532                      -1.88647                       2.23248
                       0.28788                      -2.84562                       3.29048
                       0.40281                      -4.05538                       4.60412
                       0.54491                      -5.44964                       6.22838
                       0.69079                      -6.79135                       7.89576
                       0.83674                      -8.13198                       9.56395
                       0.98281                      -9.47082                      11.23358
                       1.12895                     -10.80865                      12.90401
                       1.27506                     -12.14693                      14.57401
                       1.42117                     -13.48506                      16.24409
                       1.56729                     -14.82305                      17.91424
                       1.71341                     -16.16089                      19.58442
                       1.85954                     -17.49868                      21.25462
                       1.98131                     -18.61348                      22.64647
                       2.07895                     -19.50207                      23.76252
                       2.17817                     -20.36826                      24.89662
                       2.22658                     -20.81829                      25.44994
        </DataArray>
        <DataArray type="Float32" Name="RotationalVelocity" NumberOfComponents="3" format="ascii">
                       0.52161                      -0.00000                      -0.04563
                       0.52161                      -0.00000                      -0.04563
                       0.52161                      -0.00000                      -0.04563
                       0.52161                      -0.00000                      -0.04563
                       0.52161                      -0.00000                      -0.04563
                       0.52161                      -0.00000                      -0.04563
                       0.52161                      -0.00000                      -0.04563
                       0.52161                      -0.00000                      -0.04563
                       0.52161                      -0.00000                      -0.04563
                       0.52161                      -0.00000                      -0.04563
                       0.52161                      -0.00000                      -0.04563
                       0.52161                      -0.00000                      -0.04563
                       0.52161                      -0.00000                      -0.04563
                       0.52161                      -0.00000                      -0.04563
                       0.52161                      -0.00000                      -0.04563
                       0.52161                      -0.00000                      -0.04563
                       0.52161                      -0.00000                      -0.04563
                       0.52161                      -0.00000                      -0.04563
                       0.52161                      -0.00000                      -0.04563
        </DataArray>
        <DataArray type="Float32" Name="TranslationalAcceleration" NumberOfComponents="3" format="ascii">
                      -0.02254                      -0.31922                      -0.25765
                      -0.04314                      -0.60946                      -0.49313
                      -0.08609                      -1.17339                      -0.98399
                      -0.12986                      -1.72947                      -1.48429
                      -0.18507                      -2.41992                      -2.11531
                      -0.24869                      -3.27363                      -2.84257
                      -0.30992                      -4.15000                      -3.54241
                      -0.37110                      -5.02680                      -4.24169
                      -0.43220                      -5.90435                      -4.94004
                      -0.49325                      -6.78233                      -5.63786
                      -0.55432                      -7.66008                      -6.33591
                      -0.61539                      -8.53788                      -7.03389
                      -0.67644                      -9.41570                      -7.73180
                      -0.73750                     -10.29355                      -8.42962
                      -0.79855                     -11.17140                      -9.12742
                      -0.84942                     -11.90296                      -9.70891
                      -0.88997                     -12.48955                     -10.17240
                      -0.92950                     -13.08563                     -10.62421
                      -0.95004                     -13.37646                     -10.85895
        </DataArray>
        <DataArray type="Float32" Name="OrientationX" NumberOfComponents="3" format="ascii">
                       0.99764                       0.03389                      -0.05972
                       0.99764                       0.03389                      -0.05972
                       0.99764                       0.03389                      -0.05972
                       0.99764                       0.03389                      -0.05972
                       0.99764                       0.03389                      -0.05972
                       0.99764                       0.03389                      -0.05972
                       0.99764                       0.03389                      -0.05972
                       0.99764                       0.03389                      -0.05972
                       0.99764                       0.03389                      -0.05972
                       0.99764                       0.03389                      -0.05972
                       0.99764                       0.03389                      -0.05972
                       0.99764                       0.03389                      -0.05972
                       0.99764                       0.03389                      -0.05972
                       0.99764                       0.03389                      -0.05972
                       0.99764                       0.03389                      -0.05972
                       0.99764                       0.03389                      -0.05972
                       0.99764                       0.03389                      -0.05972
                       0.99764                       0.03389                      -0.05972
                       0.99764                       0.03389                      -0.05972
        </DataArray>
        <DataArray type="Float32" Name="OrientationY" NumberOfComponents="3" format="ascii">
                      -0.06772                       0.62952                      -0.77402
                      -0.06772                       0.62952                      -0.77402
                      -0.06772                       0.62952                      -0.77402
                      -0.06772                       0.62952                      -0.77402
                      -0.06772                       0.62952                      -0.77402
                      -0.06772                       0.62952                      -0.77402
                      -0.06772                       0.62952                      -0.77402
                      -0.06772                       0.62952                      -0.77402
                      -0.06772                       0.62952                      -0.77402
                      -0.06772                       0.62952                      -0.77402
                      -0.06772                       0.62952                      -0.77402
                      -0.06772                       0.62952                      -0.77402
                      -0.06772                       0.62952                      -0.77402
                      -0.06772                       0.62952                      -0.77402
                      -0.06772                       0.62952                      -0.77402
                      -0.06772                       0.62952                      -0.77402
                      -0.06772                       0.62952                      -0.77402
                      -0.06772                       0.62952                      -0.77402
                      -0.06772                       0.62952                      -0.77402
        </DataArray>
        <DataArray type="Float32" Name="OrientationZ" NumberOfComponents="3" format="ascii">
                       0.01136                       0.77624                       0.63033
                       0.01136                       0.77624                       0.63033
                       0.01136                       0.77624                       0.63033
                       0.01136                       0.77624                       0.63033
                       0.01136                       0.77624                       0.63033
                       0.01136                       0.77624                       0.63033
                       0.01136                       0.77624                       0.63033
                       0.01136                       0.77624                       0.63033
                       0.01136                       0.77624                       0.63033
                       0.01136                       0.77624                       0.63033
                       0.01136                       0.77624                       0.63033
                       0.01136                       0.77624                       0.63033
                       0.01136                       0.77624                       0.63033
                       0.01136                       0.77624                       0.63033
                       0.01136                       0.77624                       0.63033
                       0.01136                       0.77624                       0.63033
                       0.01136                       0.77624                       0.63033
                       0.01136                       0.77624                       0.63033
                       0.01136                       0.77624                       0.63033
        </DataArray>
        <DataArray type="Float32" Name="Force" NumberOfComponents="3" format="ascii">
                       0.00006                      -0.00060                       0.00074
                     155.98898                      10.94037                     -16.28434
                     172.04155                      25.12031                     -34.03597
                     133.64677                      29.73190                     -39.02302
                    1082.20519                     -32.35193                      20.33527
                    1132.83615                     -23.56018                       8.59586
                    1286.49985                     -27.46699                      10.63740
                    1204.90498                     -18.24238                       0.74815
                    1143.51329                      -3.96491                     -15.72774
                    1223.45759                      -4.08829                     -17.01670
                    1186.84119                      12.30454                     -36.54416
                    1241.91161                      -3.62313                     -17.92215
                    1393.02100                     -59.06797                      47.63342
                    1577.32259                     -93.29490                      86.46133
                    1769.29882                    -123.63947                     120.36987
                    1932.93123                    -153.33554                     153.99067
                    1943.37602                    -160.07691                     162.10427
                    1448.19744                    -119.38475                     120.91774
                     394.04382                      17.05989                     -28.11105
        </DataArray>
        <DataArray type="Float32" Name="Moment" NumberOfComponents="3" format="ascii">
                       0.00000                       0.00000                       0.00000
                       0.00000                       0.00000                       0.00000
                       0.00000                       0.00000                       0.00000
                       0.00000                       0.00000                       0.00000
                      -8.70319                    -594.64668                    -482.87215
                      -9.47352                    -647.27998                    -525.61207
                      -9.42289                    -643.82032                    -522.80272
                      -9.65931                    -659.97388                    -535.91993
                      -9.45255                    -645.84672                    -524.44822
                      -9.05875                    -618.94086                    -502.59980
                      -8.12062                    -554.84292                    -450.55022
                      -7.15089                    -488.58589                    -396.74739
                      -7.23087                    -494.05064                    -401.18494
                      -6.35046                    -433.89591                    -352.33737
                      -5.57856                    -381.15610                    -309.51096
                      -4.63206                    -316.48652                    -256.99719
                      -3.89662                    -266.23748                    -216.19336
                      -1.76590                    -120.65572                     -97.97631
                      -1.46223                     -99.90733                     -81.12795
        </DataArray>
      </PointData>
      <Lines>
        <DataArray type="Int32" Name="connectivity" format="ascii">
      0      1
      1      2
      2      3
      3      4
      4      5
      5      6
      6      7
      7      8
      8      9
      9     10
     10     11
     11     12
     12     13
     13     14
     14     15
     15     16
     16     17
     17     18
        </DataArray>
        <DataArray type="Int32" Name="offsets" format="ascii">
      2
      4
      6
      8
     10
     12
     14
     16
     18
     20
     22
     24
     26
     28
     30
     32
     34
     36
        </DataArray>
      </Lines>
    </Piece>
  </PolyData>
</VTKFile>
