<?xml version="1.0"?>
<VTKFile type="PolyData" version="0.1" byte_order="LittleEndian">
  <PolyData>
    <Piece NumberOfPoints="     19" NumberOfVerts="  0" NumberOfLines="     18"
           NumberOfStrips="  0" NumberOfPolys="      0">
      <Points>
        <DataArray type="Float32" NumberOfComponents="3" format="ascii">
                      -4.93530                      -0.15820                      91.49023
                      -4.87720                      -0.30577                      92.84770
                      -4.78424                      -0.69494                      95.55357
                      -4.70229                      -1.12865                      98.25519
                      -4.60642                      -1.69739                     101.62975
                      -4.43721                      -2.23784                     105.69191
                      -4.24277                      -2.64910                     109.76669
                      -4.05059                      -3.05779                     113.84184
                      -3.85825                      -3.46212                     117.91744
                      -3.66659                      -3.86399                     121.99334
                      -3.47699                      -4.26702                     126.06920
                      -3.28871                      -4.66974                     130.14515
                      -3.10238                      -5.07216                     134.22122
                      -2.91873                      -5.47431                     138.29744
                      -2.73601                      -5.87635                     142.37370
                      -2.58438                      -6.21132                     145.77066
                      -2.46356                      -6.47143                     148.48902
                      -2.34354                      -6.67681                     151.21323
                      -2.28460                      -6.82094                     152.57092
        </DataArray>
      </Points>
      <PointData>
        <DataArray type="Float32" Name="TranslationalVelocity" NumberOfComponents="3" format="ascii">
                      -0.00722                      -0.78027                      -0.08252
                      -0.01395                      -1.49098                      -0.15949
                      -0.03171                      -2.90662                      -0.36249
                      -0.05151                      -4.31955                      -0.58871
                      -0.07746                      -6.08411                      -0.88537
                      -0.10212                      -8.21068                      -1.16727
                      -0.12089                     -10.34498                      -1.38179
                      -0.13954                     -12.47938                      -1.59496
                      -0.15799                     -14.61402                      -1.80587
                      -0.17633                     -16.74878                      -2.01548
                      -0.19472                     -18.88342                      -2.22571
                      -0.21310                     -21.01806                      -2.43577
                      -0.23147                     -23.15267                      -2.64567
                      -0.24982                     -25.28722                      -2.85543
                      -0.26817                     -27.42177                      -3.06514
                      -0.28345                     -29.20056                      -3.23987
                      -0.29532                     -30.62399                      -3.37554
                      -0.30469                     -32.05043                      -3.48267
                      -0.31127                     -32.76130                      -3.55785
        </DataArray>
        <DataArray type="Float32" Name="RotationalVelocity" NumberOfComponents="3" format="ascii">
                       0.52161                      -0.00000                      -0.04563
                       0.52161                      -0.00000                      -0.04563
                       0.52161                      -0.00000                      -0.04563
                       0.52161                      -0.00000                      -0.04563
                       0.52161                      -0.00000                      -0.04563
                       0.52161                      -0.00000                      -0.04563
                       0.52161                      -0.00000                      -0.04563
                       0.52161                      -0.00000                      -0.04563
                       0.52161                      -0.00000                      -0.04563
                       0.52161                      -0.00000                      -0.04563
                       0.52161                      -0.00000                      -0.04563
                       0.52161                      -0.00000                      -0.04563
                       0.52161                      -0.00000                      -0.04563
                       0.52161                      -0.00000                      -0.04563
                       0.52161                      -0.00000                      -0.04563
                       0.52161                      -0.00000                      -0.04563
                       0.52161                      -0.00000                      -0.04563
                       0.52161                      -0.00000                      -0.04563
                       0.52161                      -0.00000                      -0.04563
        </DataArray>
        <DataArray type="Float32" Name="TranslationalAcceleration" NumberOfComponents="3" format="ascii">
                      -0.03561                       0.04337                      -0.40699
                      -0.06804                       0.08383                      -0.77771
                      -0.13264                       0.19052                      -1.51611
                      -0.19712                       0.30942                      -2.25310
                      -0.27765                       0.46535                      -3.17351
                      -0.37469                       0.61352                      -4.28274
                      -0.47209                       0.72627                      -5.39601
                      -0.56949                       0.83831                      -6.50932
                      -0.66691                       0.94916                      -7.62276
                      -0.76432                       1.05933                      -8.73627
                      -0.86174                       1.16983                      -9.84971
                      -0.95915                       1.28024                     -10.96315
                      -1.05656                       1.39056                     -12.07658
                      -1.15397                       1.50081                     -13.18998
                      -1.25138                       1.61104                     -14.30337
                      -1.33256                       1.70287                     -15.23120
                      -1.39751                       1.77418                     -15.97367
                      -1.46261                       1.83048                     -16.71771
                      -1.49505                       1.87000                     -17.08850
        </DataArray>
        <DataArray type="Float32" Name="OrientationX" NumberOfComponents="3" format="ascii">
                       0.99903                      -0.00460                      -0.04386
                       0.99903                      -0.00460                      -0.04386
                       0.99903                      -0.00460                      -0.04386
                       0.99903                      -0.00460                      -0.04386
                       0.99903                      -0.00460                      -0.04386
                       0.99903                      -0.00460                      -0.04386
                       0.99903                      -0.00460                      -0.04386
                       0.99903                      -0.00460                      -0.04386
                       0.99903                      -0.00460                      -0.04386
                       0.99903                      -0.00460                      -0.04386
                       0.99903                      -0.00460                      -0.04386
                       0.99903                      -0.00460                      -0.04386
                       0.99903                      -0.00460                      -0.04386
                       0.99903                      -0.00460                      -0.04386
                       0.99903                      -0.00460                      -0.04386
                       0.99903                      -0.00460                      -0.04386
                       0.99903                      -0.00460                      -0.04386
                       0.99903                      -0.00460                      -0.04386
                       0.99903                      -0.00460                      -0.04386
        </DataArray>
        <DataArray type="Float32" Name="OrientationY" NumberOfComponents="3" format="ascii">
                       0.00920                       0.99441                       0.10517
                       0.00920                       0.99441                       0.10517
                       0.00920                       0.99441                       0.10517
                       0.00920                       0.99441                       0.10517
                       0.00920                       0.99441                       0.10517
                       0.00920                       0.99441                       0.10517
                       0.00920                       0.99441                       0.10517
                       0.00920                       0.99441                       0.10517
                       0.00920                       0.99441                       0.10517
                       0.00920                       0.99441                       0.10517
                       0.00920                       0.99441                       0.10517
                       0.00920                       0.99441                       0.10517
                       0.00920                       0.99441                       0.10517
                       0.00920                       0.99441                       0.10517
                       0.00920                       0.99441                       0.10517
                       0.00920                       0.99441                       0.10517
                       0.00920                       0.99441                       0.10517
                       0.00920                       0.99441                       0.10517
                       0.00920                       0.99441                       0.10517
        </DataArray>
        <DataArray type="Float32" Name="OrientationZ" NumberOfComponents="3" format="ascii">
                       0.04313                      -0.10547                       0.99349
                       0.04313                      -0.10547                       0.99349
                       0.04313                      -0.10547                       0.99349
                       0.04313                      -0.10547                       0.99349
                       0.04313                      -0.10547                       0.99349
                       0.04313                      -0.10547                       0.99349
                       0.04313                      -0.10547                       0.99349
                       0.04313                      -0.10547                       0.99349
                       0.04313                      -0.10547                       0.99349
                       0.04313                      -0.10547                       0.99349
                       0.04313                      -0.10547                       0.99349
                       0.04313                      -0.10547                       0.99349
                       0.04313                      -0.10547                       0.99349
                       0.04313                      -0.10547                       0.99349
                       0.04313                      -0.10547                       0.99349
                       0.04313                      -0.10547                       0.99349
                       0.04313                      -0.10547                       0.99349
                       0.04313                      -0.10547                       0.99349
                       0.04313                      -0.10547                       0.99349
        </DataArray>
        <DataArray type="Float32" Name="Force" NumberOfComponents="3" format="ascii">
                       0.00800                       0.86487                       0.09147
                     159.29662                      20.41115                      -4.74909
                     179.42287                      43.81969                      -3.13782
                     142.08115                      50.96528                      -0.75802
                    1193.45011                    -126.65224                     -65.25986
                    1228.77550                    -112.77547                     -65.32036
                    1391.87941                    -128.46882                     -74.06763
                    1280.82999                    -104.86170                     -66.74020
                    1195.33024                     -75.52327                     -59.91359
                    1277.42693                     -80.80244                     -64.03831
                    1223.26317                     -51.42143                     -58.56764
                    1306.64412                     -78.28736                     -65.03978
                    1406.65848                    -174.55963                     -79.60231
                    1602.21039                    -241.43120                     -95.19146
                    1785.15115                    -297.53890                    -109.09038
                    1965.17816                    -360.13920                    -123.55206
                    1997.62383                    -376.92332                    -126.74253
                    1502.53393                    -284.83330                     -95.47155
                     419.98055                       4.21117                     -17.78664
        </DataArray>
        <DataArray type="Float32" Name="Moment" NumberOfComponents="3" format="ascii">
                       0.00000                       0.00000                       0.00000
                       0.00000                       0.00000                       0.00000
                       0.00000                       0.00000                       0.00000
                       0.00000                       0.00000                       0.00000
                     -33.95284                      83.02230                    -782.04253
                     -37.54512                      91.80623                    -864.78429
                     -37.69480                      92.17223                    -868.23189
                     -38.42350                      93.95405                    -885.01599
                     -37.60911                      91.96270                    -866.25812
                     -36.33885                      88.85662                    -836.99989
                     -30.91023                      75.58243                    -711.96147
                     -28.96238                      70.81951                    -667.09633
                     -26.76494                      65.44627                    -616.48220
                     -24.42174                      59.71661                    -562.51069
                     -21.78053                      53.25827                    -501.67524
                     -17.73850                      43.37459                    -408.57429
                     -15.15342                      37.05351                    -349.03183
                      -7.08296                      17.31942                    -163.14324
                      -5.90194                      14.43157                    -135.94059
        </DataArray>
      </PointData>
      <Lines>
        <DataArray type="Int32" Name="connectivity" format="ascii">
      0      1
      1      2
      2      3
      3      4
      4      5
      5      6
      6      7
      7      8
      8      9
      9     10
     10     11
     11     12
     12     13
     13     14
     14     15
     15     16
     16     17
     17     18
        </DataArray>
        <DataArray type="Int32" Name="offsets" format="ascii">
      2
      4
      6
      8
     10
     12
     14
     16
     18
     20
     22
     24
     26
     28
     30
     32
     34
     36
        </DataArray>
      </Lines>
    </Piece>
  </PolyData>
</VTKFile>
