<?xml version="1.0"?>
<VTKFile type="PolyData" version="0.1" byte_order="LittleEndian">
  <PolyData>
    <Piece NumberOfPoints="     19" NumberOfVerts="  0" NumberOfLines="     18"
           NumberOfStrips="  0" NumberOfPolys="      0">
      <Points>
        <DataArray type="Float32" NumberOfComponents="3" format="ascii">
                      -5.07604                       1.49338                      89.88156
                      -5.14584                       2.85430                      89.77715
                      -5.29948                       5.58295                      89.66434
                      -5.45978                       8.31486                      89.59700
                      -5.66414                      11.73177                      89.53998
                      -5.86915                      15.82243                      89.32473
                      -6.06152                      19.90332                      88.97821
                      -6.25640                      23.98390                      88.62934
                      -6.45153                      28.06412                      88.27611
                      -6.64758                      32.14410                      87.92048
                      -6.84557                      36.22409                      87.56622
                      -7.04489                      40.30400                      87.21177
                      -7.24620                      44.38380                      86.85720
                      -7.45019                      48.46346                      86.50262
                      -7.65512                      52.54307                      86.14803
                      -7.82654                      55.94275                      85.85252
                      -7.96491                      58.66175                      85.60832
                      -8.10936                      61.37611                      85.30961
                      -8.17864                      62.73668                      85.20170
        </DataArray>
      </Points>
      <PointData>
        <DataArray type="Float32" Name="TranslationalVelocity" NumberOfComponents="3" format="ascii">
                       0.06815                       0.06525                       0.77896
                       0.13026                       0.12290                       1.48882
                       0.25478                       0.18875                       2.91210
                       0.37945                       0.23119                       4.33708
                       0.53538                       0.27026                       6.11937
                       0.72205                       0.39189                       8.25308
                       0.90828                       0.58141                      10.38170
                       1.09450                       0.77228                      12.51015
                       1.28070                       0.96543                      14.63842
                       1.46688                       1.15988                      16.76657
                       1.65307                       1.35370                      18.89471
                       1.83926                       1.54768                      21.02282
                       2.02544                       1.74181                      23.15087
                       2.21161                       1.93607                      25.27885
                       2.39778                       2.13038                      27.40680
                       2.55293                       2.29234                      29.18009
                       2.67701                       2.42603                      30.59834
                       2.80088                       2.58843                      32.01417
                       2.86297                       2.64788                      32.72385
        </DataArray>
        <DataArray type="Float32" Name="RotationalVelocity" NumberOfComponents="3" format="ascii">
                       0.52161                      -0.00000                      -0.04563
                       0.52161                      -0.00000                      -0.04563
                       0.52161                      -0.00000                      -0.04563
                       0.52161                      -0.00000                      -0.04563
                       0.52161                      -0.00000                      -0.04563
                       0.52161                      -0.00000                      -0.04563
                       0.52161                      -0.00000                      -0.04563
                       0.52161                      -0.00000                      -0.04563
                       0.52161                      -0.00000                      -0.04563
                       0.52161                      -0.00000                      -0.04563
                       0.52161                      -0.00000                      -0.04563
                       0.52161                      -0.00000                      -0.04563
                       0.52161                      -0.00000                      -0.04563
                       0.52161                      -0.00000                      -0.04563
                       0.52161                      -0.00000                      -0.04563
                       0.52161                      -0.00000                      -0.04563
                       0.52161                      -0.00000                      -0.04563
                       0.52161                      -0.00000                      -0.04563
                       0.52161                      -0.00000                      -0.04563
        </DataArray>
        <DataArray type="Float32" Name="TranslationalAcceleration" NumberOfComponents="3" format="ascii">
                       0.00298                      -0.40942                       0.03403
                       0.00561                      -0.78252                       0.06410
                       0.00861                      -1.53060                       0.09845
                       0.01055                      -2.27956                       0.12059
                       0.01233                      -3.21633                       0.14097
                       0.01788                      -4.33781                       0.20441
                       0.02653                      -5.45661                       0.30327
                       0.03524                      -6.57532                       0.40283
                       0.04406                      -7.69394                       0.50358
                       0.05293                      -8.81249                       0.60500
                       0.06178                      -9.93104                       0.70610
                       0.07063                     -11.04957                       0.80728
                       0.07949                     -12.16807                       0.90854
                       0.08835                     -13.28653                       1.00987
                       0.09722                     -14.40498                       1.11122
                       0.10461                     -15.33702                       1.19570
                       0.11071                     -16.08245                       1.26543
                       0.11812                     -16.82661                       1.35014
                       0.12084                     -17.19962                       1.38115
        </DataArray>
        <DataArray type="Float32" Name="OrientationX" NumberOfComponents="3" format="ascii">
                       0.99493                       0.04347                      -0.09069
                       0.99493                       0.04347                      -0.09069
                       0.99493                       0.04347                      -0.09069
                       0.99493                       0.04347                      -0.09069
                       0.99493                       0.04347                      -0.09069
                       0.99493                       0.04347                      -0.09069
                       0.99493                       0.04347                      -0.09069
                       0.99493                       0.04347                      -0.09069
                       0.99493                       0.04347                      -0.09069
                       0.99493                       0.04347                      -0.09069
                       0.99493                       0.04347                      -0.09069
                       0.99493                       0.04347                      -0.09069
                       0.99493                       0.04347                      -0.09069
                       0.99493                       0.04347                      -0.09069
                       0.99493                       0.04347                      -0.09069
                       0.99493                       0.04347                      -0.09069
                       0.99493                       0.04347                      -0.09069
                       0.99493                       0.04347                      -0.09069
                       0.99493                       0.04347                      -0.09069
        </DataArray>
        <DataArray type="Float32" Name="OrientationY" NumberOfComponents="3" format="ascii">
                      -0.08685                      -0.08316                      -0.99274
                      -0.08685                      -0.08316                      -0.99274
                      -0.08685                      -0.08316                      -0.99274
                      -0.08685                      -0.08316                      -0.99274
                      -0.08685                      -0.08316                      -0.99274
                      -0.08685                      -0.08316                      -0.99274
                      -0.08685                      -0.08316                      -0.99274
                      -0.08685                      -0.08316                      -0.99274
                      -0.08685                      -0.08316                      -0.99274
                      -0.08685                      -0.08316                      -0.99274
                      -0.08685                      -0.08316                      -0.99274
                      -0.08685                      -0.08316                      -0.99274
                      -0.08685                      -0.08316                      -0.99274
                      -0.08685                      -0.08316                      -0.99274
                      -0.08685                      -0.08316                      -0.99274
                      -0.08685                      -0.08316                      -0.99274
                      -0.08685                      -0.08316                      -0.99274
                      -0.08685                      -0.08316                      -0.99274
                      -0.08685                      -0.08316                      -0.99274
        </DataArray>
        <DataArray type="Float32" Name="OrientationZ" NumberOfComponents="3" format="ascii">
                      -0.05069                       0.99559                      -0.07896
                      -0.05069                       0.99559                      -0.07896
                      -0.05069                       0.99559                      -0.07896
                      -0.05069                       0.99559                      -0.07896
                      -0.05069                       0.99559                      -0.07896
                      -0.05069                       0.99559                      -0.07896
                      -0.05069                       0.99559                      -0.07896
                      -0.05069                       0.99559                      -0.07896
                      -0.05069                       0.99559                      -0.07896
                      -0.05069                       0.99559                      -0.07896
                      -0.05069                       0.99559                      -0.07896
                      -0.05069                       0.99559                      -0.07896
                      -0.05069                       0.99559                      -0.07896
                      -0.05069                       0.99559                      -0.07896
                      -0.05069                       0.99559                      -0.07896
                      -0.05069                       0.99559                      -0.07896
                      -0.05069                       0.99559                      -0.07896
                      -0.05069                       0.99559                      -0.07896
                      -0.05069                       0.99559                      -0.07896
        </DataArray>
        <DataArray type="Float32" Name="Force" NumberOfComponents="3" format="ascii">
                       0.00624                       0.00597                       0.07130
                     153.28609                       6.22637                     -19.90635
                     166.94794                       5.15819                     -42.14625
                     128.19309                       2.68846                     -48.40513
                    1027.55714                      53.12621                      10.14199
                    1073.47132                      54.29152                      -4.64290
                    1217.14198                      61.64173                      -4.20554
                    1140.24292                      56.86624                     -15.04783
                    1120.00538                      54.06379                     -37.39063
                    1207.35173                      58.37039                     -39.16792
                    1150.98437                      54.59855                     -50.53724
                    1234.08517                      62.70941                      -1.62125
                    1480.74539                      81.57860                      77.93557
                    1631.33192                      93.34145                     129.57135
                    1912.92858                     110.87954                     169.91429
                    1984.35060                     115.80649                     186.18277
                    1951.89263                     114.00979                     184.36732
                    1426.33232                      82.86370                     129.07405
                     389.00583                      16.53868                     -41.21827
        </DataArray>
        <DataArray type="Float32" Name="Moment" NumberOfComponents="3" format="ascii">
                       0.00000                       0.00000                       0.00000
                       0.00000                       0.00000                       0.00000
                       0.00000                       0.00000                       0.00000
                       0.00000                       0.00000                       0.00000
                      37.27929                    -732.13385                      58.06482
                      40.15810                    -788.67118                      62.54874
                      39.70198                    -779.71348                      61.83831
                      40.47610                    -794.91652                      63.04405
                      40.21884                    -789.86415                      62.64335
                      41.03825                    -805.95656                      63.91962
                      34.58981                    -679.31463                      53.87578
                      29.19796                    -573.42330                      45.47764
                      30.29818                    -595.03077                      47.19131
                      24.38841                    -478.96786                      37.98647
                      23.87816                    -468.94691                      37.19172
                      18.64317                    -366.13617                      29.03790
                      15.38817                    -302.21065                      23.96803
                       7.69281                    -151.08027                      11.98203
                       6.46068                    -126.88239                      10.06292
        </DataArray>
      </PointData>
      <Lines>
        <DataArray type="Int32" Name="connectivity" format="ascii">
      0      1
      1      2
      2      3
      3      4
      4      5
      5      6
      6      7
      7      8
      8      9
      9     10
     10     11
     11     12
     12     13
     13     14
     14     15
     15     16
     16     17
     17     18
        </DataArray>
        <DataArray type="Int32" Name="offsets" format="ascii">
      2
      4
      6
      8
     10
     12
     14
     16
     18
     20
     22
     24
     26
     28
     30
     32
     34
     36
        </DataArray>
      </Lines>
    </Piece>
  </PolyData>
</VTKFile>
