<?xml version="1.0"?>
<VTKFile type="PolyData" version="0.1" byte_order="LittleEndian">
  <PolyData>
    <Piece NumberOfPoints="     19" NumberOfVerts="  0" NumberOfLines="     18"
           NumberOfStrips="  0" NumberOfPolys="      0">
      <Points>
        <DataArray type="Float32" NumberOfComponents="3" format="ascii">
                      -4.98657                       1.19673                      90.90424
                      -4.97490                       2.28502                      91.73091
                      -4.96733                       4.40374                      93.46088
                      -4.96721                       6.49510                      95.22716
                      -4.97151                       9.09303                      97.45675
                      -4.93386                      12.29847                     100.01519
                      -4.88126                      15.58300                     102.46872
                      -4.83112                      18.86901                     104.92034
                      -4.78116                      22.15767                     107.36846
                      -4.73209                      25.44778                     109.81466
                      -4.68497                      28.73712                     112.26192
                      -4.63919                      32.02659                     114.70902
                      -4.59540                      35.31617                     117.15600
                      -4.55429                      38.60582                     119.60294
                      -4.51412                      41.89549                     122.04986
                      -4.48129                      44.63693                     124.08897
                      -4.45612                      46.83477                     125.71395
                      -4.43609                      49.06569                     127.29525
                      -4.42386                      50.15599                     128.11907
        </DataArray>
      </Points>
      <PointData>
        <DataArray type="Float32" Name="TranslationalVelocity" NumberOfComponents="3" format="ascii">
                       0.05461                      -0.47227                       0.62422
                       0.10428                      -0.90400                       1.19188
                       0.20096                      -1.80671                       2.29702
                       0.29640                      -2.72802                       3.38789
                       0.41496                      -3.89079                       4.74298
                       0.56124                      -5.22700                       6.41496
                       0.71112                      -6.50918                       8.12819
                       0.86108                      -7.79025                       9.84220
                       1.01116                      -9.06948                      11.55758
                       1.16130                     -10.34768                      13.27372
                       1.31141                     -11.62633                      14.98946
                       1.46152                     -12.90485                      16.70527
                       1.61164                     -14.18320                      18.42114
                       1.76176                     -15.46142                      20.13704
                       1.91189                     -16.73958                      21.85295
                       2.03699                     -17.80469                      23.28290
                       2.13729                     -18.65344                      24.42931
                       2.23910                     -19.47917                      25.59297
                       2.28885                     -19.90944                      26.16168
        </DataArray>
        <DataArray type="Float32" Name="RotationalVelocity" NumberOfComponents="3" format="ascii">
                       0.52161                      -0.00000                      -0.04563
                       0.52161                      -0.00000                      -0.04563
                       0.52161                      -0.00000                      -0.04563
                       0.52161                      -0.00000                      -0.04563
                       0.52161                      -0.00000                      -0.04563
                       0.52161                      -0.00000                      -0.04563
                       0.52161                      -0.00000                      -0.04563
                       0.52161                      -0.00000                      -0.04563
                       0.52161                      -0.00000                      -0.04563
                       0.52161                      -0.00000                      -0.04563
                       0.52161                      -0.00000                      -0.04563
                       0.52161                      -0.00000                      -0.04563
                       0.52161                      -0.00000                      -0.04563
                       0.52161                      -0.00000                      -0.04563
                       0.52161                      -0.00000                      -0.04563
                       0.52161                      -0.00000                      -0.04563
                       0.52161                      -0.00000                      -0.04563
                       0.52161                      -0.00000                      -0.04563
                       0.52161                      -0.00000                      -0.04563
        </DataArray>
        <DataArray type="Float32" Name="TranslationalAcceleration" NumberOfComponents="3" format="ascii">
                      -0.02155                      -0.32809                      -0.24634
                      -0.04125                      -0.62645                      -0.47153
                      -0.08245                      -1.20731                      -0.94239
                      -0.12449                      -1.78067                      -1.42295
                      -0.17755                      -2.49291                      -2.02946
                      -0.23853                      -3.37169                      -2.72644
                      -0.29704                      -4.27217                      -3.39523
                      -0.35551                      -5.17305                      -4.06344
                      -0.41388                      -6.07465                      -4.73070
                      -0.47221                      -6.97665                      -5.39741
                      -0.53056                      -7.87844                      -6.06437
                      -0.58891                      -8.78027                      -6.73125
                      -0.64725                      -9.68213                      -7.39805
                      -0.70558                     -10.58400                      -8.06478
                      -0.76390                     -11.48589                      -8.73147
                      -0.81251                     -12.23747                      -9.28704
                      -0.85124                     -12.84002                      -9.72975
                      -0.88892                     -13.45164                     -10.16046
                      -0.90856                     -13.75055                     -10.38489
        </DataArray>
        <DataArray type="Float32" Name="OrientationX" NumberOfComponents="3" format="ascii">
                       0.99753                       0.03483                      -0.06092
                       0.99753                       0.03483                      -0.06092
                       0.99753                       0.03483                      -0.06092
                       0.99753                       0.03483                      -0.06092
                       0.99753                       0.03483                      -0.06092
                       0.99753                       0.03483                      -0.06092
                       0.99753                       0.03483                      -0.06092
                       0.99753                       0.03483                      -0.06092
                       0.99753                       0.03483                      -0.06092
                       0.99753                       0.03483                      -0.06092
                       0.99753                       0.03483                      -0.06092
                       0.99753                       0.03483                      -0.06092
                       0.99753                       0.03483                      -0.06092
                       0.99753                       0.03483                      -0.06092
                       0.99753                       0.03483                      -0.06092
                       0.99753                       0.03483                      -0.06092
                       0.99753                       0.03483                      -0.06092
                       0.99753                       0.03483                      -0.06092
                       0.99753                       0.03483                      -0.06092
        </DataArray>
        <DataArray type="Float32" Name="OrientationY" NumberOfComponents="3" format="ascii">
                      -0.06960                       0.60188                      -0.79554
                      -0.06960                       0.60188                      -0.79554
                      -0.06960                       0.60188                      -0.79554
                      -0.06960                       0.60188                      -0.79554
                      -0.06960                       0.60188                      -0.79554
                      -0.06960                       0.60188                      -0.79554
                      -0.06960                       0.60188                      -0.79554
                      -0.06960                       0.60188                      -0.79554
                      -0.06960                       0.60188                      -0.79554
                      -0.06960                       0.60188                      -0.79554
                      -0.06960                       0.60188                      -0.79554
                      -0.06960                       0.60188                      -0.79554
                      -0.06960                       0.60188                      -0.79554
                      -0.06960                       0.60188                      -0.79554
                      -0.06960                       0.60188                      -0.79554
                      -0.06960                       0.60188                      -0.79554
                      -0.06960                       0.60188                      -0.79554
                      -0.06960                       0.60188                      -0.79554
                      -0.06960                       0.60188                      -0.79554
        </DataArray>
        <DataArray type="Float32" Name="OrientationZ" NumberOfComponents="3" format="ascii">
                       0.00895                       0.79782                       0.60283
                       0.00895                       0.79782                       0.60283
                       0.00895                       0.79782                       0.60283
                       0.00895                       0.79782                       0.60283
                       0.00895                       0.79782                       0.60283
                       0.00895                       0.79782                       0.60283
                       0.00895                       0.79782                       0.60283
                       0.00895                       0.79782                       0.60283
                       0.00895                       0.79782                       0.60283
                       0.00895                       0.79782                       0.60283
                       0.00895                       0.79782                       0.60283
                       0.00895                       0.79782                       0.60283
                       0.00895                       0.79782                       0.60283
                       0.00895                       0.79782                       0.60283
                       0.00895                       0.79782                       0.60283
                       0.00895                       0.79782                       0.60283
                       0.00895                       0.79782                       0.60283
                       0.00895                       0.79782                       0.60283
                       0.00895                       0.79782                       0.60283
        </DataArray>
        <DataArray type="Float32" Name="Force" NumberOfComponents="3" format="ascii">
                       0.00021                      -0.00178                       0.00235
                     155.87343                      10.65877                     -16.42193
                     171.78785                      24.22538                     -34.61336
                     133.35967                      28.57410                     -39.79797
                    1078.71511                     -28.20112                      21.30016
                    1129.32044                     -19.71618                       9.31888
                    1282.67927                     -23.07761                      11.48964
                    1201.53797                     -14.47529                       1.30999
                    1142.62043                      -0.95222                     -15.71227
                    1218.72087                      -1.05952                     -16.70066
                    1184.31431                      14.55750                     -36.85828
                    1241.23161                      -0.92922                     -17.20748
                    1398.11898                     -53.73696                      50.35172
                    1575.69870                     -86.14645                      90.60702
                    1769.04053                    -115.20543                     126.19388
                    1931.30846                    -142.59664                     160.03507
                    1949.50802                    -148.12300                     167.07872
                    1443.84722                    -110.64411                     124.98752
                     393.45335                      17.24815                     -28.67181
        </DataArray>
        <DataArray type="Float32" Name="Moment" NumberOfComponents="3" format="ascii">
                       0.00000                       0.00000                       0.00000
                       0.00000                       0.00000                       0.00000
                       0.00000                       0.00000                       0.00000
                       0.00000                       0.00000                       0.00000
                      -6.84842                    -610.18467                    -461.04817
                      -7.45012                    -663.79592                    -501.55618
                      -7.40762                    -660.00848                    -498.69444
                      -7.59495                    -676.69959                    -511.30604
                      -7.45332                    -664.08091                    -501.77152
                      -7.10606                    -633.14033                    -478.39319
                      -6.36566                    -567.17155                    -428.54798
                      -5.62508                    -501.18714                    -378.69095
                      -5.72377                    -509.98051                    -385.33512
                      -4.91192                    -437.64523                    -330.67945
                      -4.27206                    -380.63448                    -287.60282
                      -3.56629                    -317.75187                    -240.08947
                      -3.11279                    -277.34563                    -209.55901
                      -1.37511                    -122.52073                     -92.57519
                      -1.15091                    -102.54480                     -77.48161
        </DataArray>
      </PointData>
      <Lines>
        <DataArray type="Int32" Name="connectivity" format="ascii">
      0      1
      1      2
      2      3
      3      4
      4      5
      5      6
      6      7
      7      8
      8      9
      9     10
     10     11
     11     12
     12     13
     13     14
     14     15
     15     16
     16     17
     17     18
        </DataArray>
        <DataArray type="Int32" Name="offsets" format="ascii">
      2
      4
      6
      8
     10
     12
     14
     16
     18
     20
     22
     24
     26
     28
     30
     32
     34
     36
        </DataArray>
      </Lines>
    </Piece>
  </PolyData>
</VTKFile>
