<?xml version="1.0"?>
<VTKFile type="PolyData" version="0.1" byte_order="LittleEndian">
  <PolyData>
    <Piece NumberOfPoints="     19" NumberOfVerts="  0" NumberOfLines="     18"
           NumberOfStrips="  0" NumberOfPolys="      0">
      <Points>
        <DataArray type="Float32" NumberOfComponents="3" format="ascii">
                      -5.06580                      -1.49856                      89.99867
                      -5.12686                      -2.86389                      89.99409
                      -5.27951                      -5.59303                      89.89258
                      -5.44663                      -8.32150                      89.74733
                      -5.66417                     -11.73175                      89.53965
                      -5.86009                     -15.82700                      89.42833
                      -6.02073                     -19.92392                      89.44445
                      -6.18343                     -24.02074                      89.46333
                      -6.34562                     -28.11759                      89.48657
                      -6.50831                     -32.21443                      89.51234
                      -6.67314                     -36.31116                      89.53711
                      -6.83925                     -40.40784                      89.56230
                      -7.00729                     -44.50444                      89.58796
                      -7.17797                     -48.60092                      89.61411
                      -7.34958                     -52.69736                      89.64044
                      -7.49321                     -56.11107                      89.66250
                      -7.60797                     -58.84198                      89.68808
                      -7.71925                     -61.57310                      89.76859
                      -7.77920                     -62.93839                      89.76737
        </DataArray>
      </Points>
      <PointData>
        <DataArray type="Float32" Name="TranslationalVelocity" NumberOfComponents="3" format="ascii">
                      -0.06839                       0.00370                      -0.78166
                      -0.13069                       0.00887                      -1.49382
                      -0.25524                       0.06879                      -2.91736
                      -0.37975                       0.15218                      -4.34055
                      -0.53537                       0.27043                      -6.11936
                      -0.72226                       0.33744                      -8.25547
                      -0.90922                       0.33636                     -10.39244
                      -1.09618                       0.33394                     -12.52937
                      -1.28314                       0.32921                     -14.66631
                      -1.47009                       0.32320                     -16.80325
                      -1.65705                       0.31780                     -18.94013
                      -1.84400                       0.31224                     -21.07699
                      -2.03094                       0.30652                     -23.21380
                      -2.21789                       0.30068                     -25.35055
                      -2.40483                       0.29477                     -27.48728
                      -2.56061                       0.28982                     -29.26789
                      -2.68523                       0.28171                     -30.69235
                      -2.80987                       0.24480                     -32.11692
                      -2.87217                       0.24817                     -32.82906
        </DataArray>
        <DataArray type="Float32" Name="RotationalVelocity" NumberOfComponents="3" format="ascii">
                       0.52161                      -0.00000                      -0.04563
                       0.52161                      -0.00000                      -0.04563
                       0.52161                      -0.00000                      -0.04563
                       0.52161                      -0.00000                      -0.04563
                       0.52161                      -0.00000                      -0.04563
                       0.52161                      -0.00000                      -0.04563
                       0.52161                      -0.00000                      -0.04563
                       0.52161                      -0.00000                      -0.04563
                       0.52161                      -0.00000                      -0.04563
                       0.52161                      -0.00000                      -0.04563
                       0.52161                      -0.00000                      -0.04563
                       0.52161                      -0.00000                      -0.04563
                       0.52161                      -0.00000                      -0.04563
                       0.52161                      -0.00000                      -0.04563
                       0.52161                      -0.00000                      -0.04563
                       0.52161                      -0.00000                      -0.04563
                       0.52161                      -0.00000                      -0.04563
                       0.52161                      -0.00000                      -0.04563
                       0.52161                      -0.00000                      -0.04563
        </DataArray>
        <DataArray type="Float32" Name="TranslationalAcceleration" NumberOfComponents="3" format="ascii">
                       0.00017                       0.41084                       0.00193
                       0.00040                       0.78515                       0.00463
                       0.00314                       1.53336                       0.03588
                       0.00694                       2.28139                       0.07938
                       0.01234                       3.21633                       0.14106
                       0.01540                       4.33906                       0.17601
                       0.01535                       5.46226                       0.17545
                       0.01524                       6.58542                       0.17418
                       0.01502                       7.70860                       0.17172
                       0.01475                       8.83177                       0.16858
                       0.01450                       9.95491                       0.16577
                       0.01425                      11.07804                       0.16287
                       0.01399                      12.20114                       0.15989
                       0.01372                      13.32422                       0.15683
                       0.01345                      14.44728                       0.15376
                       0.01323                      15.38317                       0.15117
                       0.01286                      16.13186                       0.14694
                       0.01117                      16.88062                       0.12769
                       0.01133                      17.25492                       0.12945
        </DataArray>
        <DataArray type="Float32" Name="OrientationX" NumberOfComponents="3" format="ascii">
                       0.99523                      -0.04362                      -0.08728
                       0.99523                      -0.04362                      -0.08728
                       0.99523                      -0.04362                      -0.08728
                       0.99523                      -0.04362                      -0.08728
                       0.99523                      -0.04362                      -0.08728
                       0.99523                      -0.04362                      -0.08728
                       0.99523                      -0.04362                      -0.08728
                       0.99523                      -0.04362                      -0.08728
                       0.99523                      -0.04362                      -0.08728
                       0.99523                      -0.04362                      -0.08728
                       0.99523                      -0.04362                      -0.08728
                       0.99523                      -0.04362                      -0.08728
                       0.99523                      -0.04362                      -0.08728
                       0.99523                      -0.04362                      -0.08728
                       0.99523                      -0.04362                      -0.08728
                       0.99523                      -0.04362                      -0.08728
                       0.99523                      -0.04362                      -0.08728
                       0.99523                      -0.04362                      -0.08728
                       0.99523                      -0.04362                      -0.08728
        </DataArray>
        <DataArray type="Float32" Name="OrientationY" NumberOfComponents="3" format="ascii">
                       0.08715                      -0.00471                       0.99618
                       0.08715                      -0.00471                       0.99618
                       0.08715                      -0.00471                       0.99618
                       0.08715                      -0.00471                       0.99618
                       0.08715                      -0.00471                       0.99618
                       0.08715                      -0.00471                       0.99618
                       0.08715                      -0.00471                       0.99618
                       0.08715                      -0.00471                       0.99618
                       0.08715                      -0.00471                       0.99618
                       0.08715                      -0.00471                       0.99618
                       0.08715                      -0.00471                       0.99618
                       0.08715                      -0.00471                       0.99618
                       0.08715                      -0.00471                       0.99618
                       0.08715                      -0.00471                       0.99618
                       0.08715                      -0.00471                       0.99618
                       0.08715                      -0.00471                       0.99618
                       0.08715                      -0.00471                       0.99618
                       0.08715                      -0.00471                       0.99618
                       0.08715                      -0.00471                       0.99618
        </DataArray>
        <DataArray type="Float32" Name="OrientationZ" NumberOfComponents="3" format="ascii">
                      -0.04386                      -0.99904                      -0.00089
                      -0.04386                      -0.99904                      -0.00089
                      -0.04386                      -0.99904                      -0.00089
                      -0.04386                      -0.99904                      -0.00089
                      -0.04386                      -0.99904                      -0.00089
                      -0.04386                      -0.99904                      -0.00089
                      -0.04386                      -0.99904                      -0.00089
                      -0.04386                      -0.99904                      -0.00089
                      -0.04386                      -0.99904                      -0.00089
                      -0.04386                      -0.99904                      -0.00089
                      -0.04386                      -0.99904                      -0.00089
                      -0.04386                      -0.99904                      -0.00089
                      -0.04386                      -0.99904                      -0.00089
                      -0.04386                      -0.99904                      -0.00089
                      -0.04386                      -0.99904                      -0.00089
                      -0.04386                      -0.99904                      -0.00089
                      -0.04386                      -0.99904                      -0.00089
                      -0.04386                      -0.99904                      -0.00089
                      -0.04386                      -0.99904                      -0.00089
        </DataArray>
        <DataArray type="Float32" Name="Force" NumberOfComponents="3" format="ascii">
                       0.31678                      -0.01713                       3.62081
                     160.37183                      -7.05887                      19.78044
                     181.70694                      -8.01655                      43.33237
                     144.66892                      -6.39702                      50.81796
                    1231.03900                     -53.83981                    -236.38759
                    1239.81036                     -54.23999                    -219.44783
                    1375.51497                     -60.17737                    -242.91473
                    1255.47003                     -54.93686                    -208.96492
                    1167.56098                     -51.11058                    -171.34582
                    1242.02352                     -54.36788                    -184.90064
                    1208.77562                     -52.91537                    -176.71517
                    1349.54228                     -59.02398                    -257.57686
                    1551.87084                     -67.80086                    -377.41498
                    1791.22461                     -78.22553                    -472.32868
                    1987.84571                     -86.79304                    -545.81906
                    2081.49872                     -90.88022                    -573.64418
                    2059.63261                     -89.92804                    -564.78854
                    1504.42757                     -65.69169                    -406.79543
                     442.55227                     -19.40202                     -32.25414
        </DataArray>
        <DataArray type="Float32" Name="Moment" NumberOfComponents="3" format="ascii">
                       0.00000                       0.00000                       0.00000
                       0.00000                       0.00000                       0.00000
                       0.00000                       0.00000                       0.00000
                       0.00000                       0.00000                       0.00000
                      33.10799                     754.06539                       0.67048
                      36.70937                     836.09005                       0.74341
                      36.52581                     831.90935                       0.73969
                      37.37726                     851.30189                       0.75693
                      36.65143                     834.77039                       0.74223
                      35.17338                     801.10646                       0.71230
                      29.43260                     670.35481                       0.59604
                      27.08521                     616.89100                       0.54851
                      25.35046                     577.38036                       0.51338
                      21.36642                     486.64023                       0.43269
                      18.92302                     430.98950                       0.38321
                      16.50303                     375.87180                       0.33421
                      14.52243                     330.76187                       0.29410
                       7.25025                     165.13118                       0.14683
                       6.34143                     144.43190                       0.12842
        </DataArray>
      </PointData>
      <Lines>
        <DataArray type="Int32" Name="connectivity" format="ascii">
      0      1
      1      2
      2      3
      3      4
      4      5
      5      6
      6      7
      7      8
      8      9
      9     10
     10     11
     11     12
     12     13
     13     14
     14     15
     15     16
     16     17
     17     18
        </DataArray>
        <DataArray type="Int32" Name="offsets" format="ascii">
      2
      4
      6
      8
     10
     12
     14
     16
     18
     20
     22
     24
     26
     28
     30
     32
     34
     36
        </DataArray>
      </Lines>
    </Piece>
  </PolyData>
</VTKFile>
