<?xml version="1.0"?>
<VTKFile type="PolyData" version="0.1" byte_order="LittleEndian">
  <PolyData>
    <Piece NumberOfPoints="    625" NumberOfVerts="  0" NumberOfLines="      0"
           NumberOfStrips="  0" NumberOfPolys="    600">
      <Points>
        <DataArray type="Float32" NumberOfComponents="3" format="ascii">
                      -4.99302                       1.49786                      90.07977
                      -4.99302                       1.49786                      90.07977
                      -4.99302                       1.49786                      90.07977
                      -4.99302                       1.49786                      90.07977
                      -4.99302                       1.49786                      90.07977
                      -4.99302                       1.49786                      90.07977
                      -4.99302                       1.49786                      90.07977
                      -4.99302                       1.49786                      90.07977
                      -4.99302                       1.49786                      90.07977
                      -4.99302                       1.49786                      90.07977
                      -4.99302                       1.49786                      90.07977
                      -4.99302                       1.49786                      90.07977
                      -4.99302                       1.49786                      90.07977
                      -4.99302                       1.49786                      90.07977
                      -4.99302                       1.49786                      90.07977
                      -4.99302                       1.49786                      90.07977
                      -4.99302                       1.49786                      90.07977
                      -4.99302                       1.49786                      90.07977
                      -4.99302                       1.49786                      90.07977
                      -4.99302                       1.49786                      90.07977
                      -4.99302                       1.49786                      90.07977
                      -4.99302                       1.49786                      90.07977
                      -4.99302                       1.49786                      90.07977
                      -4.99302                       1.49786                      90.07977
                      -4.99302                       1.49786                      90.07977
                      -4.39641                       1.37304                      90.02088
                      -4.40219                       1.36508                      90.17082
                      -4.44514                       1.35762                      90.31463
                      -4.52255                       1.35113                      90.44326
                      -4.62956                       1.34602                      90.54864
                      -4.75944                       1.34260                      90.62414
                      -4.90403                       1.34110                      90.66501
                      -5.05426                       1.34161                      90.66870
                      -5.20067                       1.34408                      90.63496
                      -5.33407                       1.34838                      90.56592
                      -5.44608                       1.35423                      90.46592
                      -5.52966                       1.36126                      90.34123
                      -5.57955                       1.36903                      90.19970
                      -5.59263                       1.37705                      90.05022
                      -5.56807                       1.38482                      89.90217
                      -5.50741                       1.39185                      89.76487
                      -5.41447                       1.39770                      89.64694
                      -5.29509                       1.40200                      89.55578
                      -5.15676                       1.40447                      89.49713
                      -5.00818                       1.40498                      89.47467
                      -4.85868                       1.40347                      89.48982
                      -4.71766                       1.40006                      89.54162
                      -4.59398                       1.39495                      89.62681
                      -4.49541                       1.38846                      89.74005
                      -4.42814                       1.38100                      89.87421
                      -4.16818                       1.24822                      89.99421
                      -4.17619                       1.23721                      90.20161
                      -4.23559                       1.22689                      90.40051
                      -4.34266                       1.21792                      90.57843
                      -4.49066                       1.21085                      90.72418
                      -4.67031                       1.20612                      90.82860
                      -4.87030                       1.20404                      90.88513
                      -5.07808                       1.20474                      90.89023
                      -5.28058                       1.20817                      90.84357
                      -5.46510                       1.21411                      90.74808
                      -5.62002                       1.22220                      90.60976
                      -5.73562                       1.23192                      90.43731
                      -5.80463                       1.24267                      90.24155
                      -5.82272                       1.25377                      90.03479
                      -5.78875                       1.26451                      89.83003
                      -5.70485                       1.27423                      89.64012
                      -5.57630                       1.28232                      89.47700
                      -5.41117                       1.28827                      89.35092
                      -5.21985                       1.29170                      89.26980
                      -5.01434                       1.29239                      89.23874
                      -4.80757                       1.29031                      89.25969
                      -4.61252                       1.28559                      89.33133
                      -4.44146                       1.27852                      89.44917
                      -4.30512                       1.26954                      89.60579
                      -4.21208                       1.25923                      89.79136
                      -4.00639                       1.12340                      89.97336
                      -4.01596                       1.11022                      90.22152
                      -4.08704                       1.09788                      90.45953
                      -4.21516                       1.08714                      90.67242
                      -4.39226                       1.07868                      90.84682
                      -4.60722                       1.07303                      90.97177
                      -4.84653                       1.07054                      91.03942
                      -5.09515                       1.07137                      91.04552
                      -5.33747                       1.07547                      90.98969
                      -5.55825                       1.08259                      90.87542
                      -5.74363                       1.09227                      90.70991
                      -5.88195                       1.10390                      90.50356
                      -5.96453                       1.11676                      90.26932
                      -5.98618                       1.13003                      90.02192
                      -5.94553                       1.14289                      89.77690
                      -5.84514                       1.15453                      89.54966
                      -5.69132                       1.16420                      89.35447
                      -5.49373                       1.17132                      89.20361
                      -5.26479                       1.17542                      89.10654
                      -5.01888                       1.17625                      89.06938
                      -4.77146                       1.17377                      89.09444
                      -4.53807                       1.16811                      89.18017
                      -4.33338                       1.15965                      89.32116
                      -4.17024                       1.14891                      89.50858
                      -4.05891                       1.13657                      89.73062
                      -3.88157                       0.99857                      89.95574
                      -3.89236                       0.98373                      90.23539
                      -3.97246                       0.96982                      90.50359
                      -4.11683                       0.95772                      90.74350
                      -4.31640                       0.94818                      90.94002
                      -4.55863                       0.94181                      91.08083
                      -4.82830                       0.93901                      91.15706
                      -5.10847                       0.93995                      91.16393
                      -5.38153                       0.94457                      91.10101
                      -5.63032                       0.95259                      90.97225
                      -5.83922                       0.96349                      90.78574
                      -5.99509                       0.97660                      90.55321
                      -6.08815                       0.99109                      90.28925
                      -6.11254                       1.00605                      90.01046
                      -6.06673                       1.02054                      89.73436
                      -5.95361                       1.03365                      89.47829
                      -5.78027                       1.04456                      89.25834
                      -5.55762                       1.05258                      89.08833
                      -5.29963                       1.05720                      88.97895
                      -5.02253                       1.05814                      88.93707
                      -4.74371                       1.05534                      88.96531
                      -4.48071                       1.04897                      89.06191
                      -4.25005                       1.03943                      89.22080
                      -4.06621                       1.02733                      89.43199
                      -3.94076                       1.01342                      89.68221
                      -3.78222                       0.87375                      89.94035
                      -3.79398                       0.85758                      90.24509
                      -3.88126                       0.84242                      90.53736
                      -4.03859                       0.82923                      90.79879
                      -4.25606                       0.81884                      91.01295
                      -4.52003                       0.81190                      91.16639
                      -4.81389                       0.80884                      91.24946
                      -5.11920                       0.80987                      91.25695
                      -5.41676                       0.81490                      91.18838
                      -5.68788                       0.82364                      91.04807
                      -5.91552                       0.83552                      90.84483
                      -6.08538                       0.84981                      90.59142
                      -6.18678                       0.86560                      90.30379
                      -6.21336                       0.88190                      89.99998
                      -6.16345                       0.89769                      89.69910
                      -6.04017                       0.91198                      89.42006
                      -5.85128                       0.92386                      89.18037
                      -5.60865                       0.93260                      88.99511
                      -5.32751                       0.93764                      88.87592
                      -5.02555                       0.93866                      88.83028
                      -4.72172                       0.93561                      88.86106
                      -4.43512                       0.92867                      88.96633
                      -4.18376                       0.91827                      89.13947
                      -3.98343                       0.90508                      89.36961
                      -3.84672                       0.88993                      89.64228
                      -3.70242                       0.74893                      89.92667
                      -3.71496                       0.73169                      90.25160
                      -3.80802                       0.71552                      90.56322
                      -3.97576                       0.70146                      90.84196
                      -4.20764                       0.69038                      91.07030
                      -4.48909                       0.68298                      91.23390
                      -4.80242                       0.67972                      91.32248
                      -5.12795                       0.68081                      91.33046
                      -5.44521                       0.68619                      91.25736
                      -5.73429                       0.69550                      91.10775
                      -5.97700                       0.70817                      90.89105
                      -6.15811                       0.72340                      90.62086
                      -6.26623                       0.74024                      90.31417
                      -6.29457                       0.75762                      89.99025
                      -6.24135                       0.77446                      89.66945
                      -6.10991                       0.78969                      89.37192
                      -5.90851                       0.80236                      89.11636
                      -5.64981                       0.81168                      88.91883
                      -5.35006                       0.81705                      88.79174
                      -5.02809                       0.81814                      88.74308
                      -4.70414                       0.81488                      88.77590
                      -4.39856                       0.80748                      88.88814
                      -4.13055                       0.79640                      89.07275
                      -3.91695                       0.78234                      89.31813
                      -3.77119                       0.76618                      89.60886
                      -3.63869                       0.62411                      89.91440
                      -3.65186                       0.60601                      90.25547
                      -3.74955                       0.58904                      90.58258
                      -3.92562                       0.57428                      90.87517
                      -4.16903                       0.56265                      91.11486
                      -4.46446                       0.55488                      91.28659
                      -4.79336                       0.55146                      91.37956
                      -5.13506                       0.55261                      91.38795
                      -5.46809                       0.55825                      91.31121
                      -5.77153                       0.56802                      91.15417
                      -6.02631                       0.58132                      90.92670
                      -6.21641                       0.59731                      90.64309
                      -6.32991                       0.61499                      90.32116
                      -6.35966                       0.63323                      89.98114
                      -6.30379                       0.65090                      89.64439
                      -6.16582                       0.66689                      89.33208
                      -5.95441                       0.68020                      89.06382
                      -5.68285                       0.68997                      88.85648
                      -5.36820                       0.69561                      88.72307
                      -5.03024                       0.69676                      88.67199
                      -4.69019                       0.69334                      88.70644
                      -4.36943                       0.68557                      88.82426
                      -4.08810                       0.67394                      89.01804
                      -3.86389                       0.65918                      89.27561
                      -3.71088                       0.64221                      89.58079
                      -3.58884                       0.49929                      89.90334
                      -3.60249                       0.48051                      90.25707
                      -3.70381                       0.46292                      90.59632
                      -3.88643                       0.44761                      90.89978
                      -4.13886                       0.43555                      91.14837
                      -4.44526                       0.42749                      91.32647
                      -4.78638                       0.42394                      91.42290
                      -5.14076                       0.42513                      91.43159
                      -5.48616                       0.43098                      91.35200
                      -5.80086                       0.44112                      91.18914
                      -6.06510                       0.45491                      90.95322
                      -6.26226                       0.47150                      90.65908
                      -6.37997                       0.48983                      90.32520
                      -6.41082                       0.50875                      89.97256
                      -6.35288                       0.52708                      89.62331
                      -6.20979                       0.54366                      89.29940
                      -5.99053                       0.55746                      89.02118
                      -5.70889                       0.56760                      88.80614
                      -5.38256                       0.57344                      88.66778
                      -5.03205                       0.57463                      88.61481
                      -4.67938                       0.57109                      88.65054
                      -4.34671                       0.56303                      88.77273
                      -4.05494                       0.55097                      88.97371
                      -3.82240                       0.53566                      89.24084
                      -3.66371                       0.51806                      89.55735
                      -3.55141                       0.37447                      89.89336
                      -3.56543                       0.35518                      90.25664
                      -3.66948                       0.33712                      90.60505
                      -3.85703                       0.32139                      90.91669
                      -4.11627                       0.30900                      91.17199
                      -4.43094                       0.30073                      91.35490
                      -4.78126                       0.29709                      91.45393
                      -5.14520                       0.29831                      91.46285
                      -5.49992                       0.30431                      91.38112
                      -5.82311                       0.31473                      91.21385
                      -6.09448                       0.32889                      90.97157
                      -6.29696                       0.34592                      90.66950
                      -6.41785                       0.36475                      90.32661
                      -6.44953                       0.38418                      89.96445
                      -6.39003                       0.40301                      89.60578
                      -6.24307                       0.42004                      89.27313
                      -6.01790                       0.43420                      88.98741
                      -5.72866                       0.44462                      88.76657
                      -5.39353                       0.45062                      88.62448
                      -5.03356                       0.45184                      88.57007
                      -4.67137                       0.44820                      88.60676
                      -4.32972                       0.43993                      88.73225
                      -4.03008                       0.42754                      88.93865
                      -3.79127                       0.41182                      89.21299
                      -3.62830                       0.39375                      89.53804
                      -3.52545                       0.24964                      89.88439
                      -3.53972                       0.23001                      90.25434
                      -3.64568                       0.21161                      90.60914
                      -3.83667                       0.19560                      90.92650
                      -4.10067                       0.18298                      91.18648
                      -4.42111                       0.17456                      91.37275
                      -4.77786                       0.17085                      91.47359
                      -5.14848                       0.17209                      91.48268
                      -5.50971                       0.17821                      91.39945
                      -5.83883                       0.18881                      91.22911
                      -6.11518                       0.20324                      90.98239
                      -6.32138                       0.22058                      90.67477
                      -6.44448                       0.23975                      90.32559
                      -6.47674                       0.25954                      89.95679
                      -6.41615                       0.27871                      89.59153
                      -6.26650                       0.29605                      89.25278
                      -6.03719                       0.31048                      88.96182
                      -5.74265                       0.32108                      88.73692
                      -5.40137                       0.32720                      88.59222
                      -5.03479                       0.32844                      88.53682
                      -4.66596                       0.32473                      88.57418
                      -4.31804                       0.31631                      88.70198
                      -4.01290                       0.30369                      88.91216
                      -3.76971                       0.28768                      89.19154
                      -3.60375                       0.26928                      89.52255
                      -3.51032                       0.12482                      89.87637
                      -3.52475                       0.10498                      90.25026
                      -3.63184                       0.08638                      90.60884
                      -3.82486                       0.07020                      90.92958
                      -4.09168                       0.05745                      91.19234
                      -4.41554                       0.04893                      91.38059
                      -4.77608                       0.04519                      91.48251
                      -5.15066                       0.04644                      91.49170
                      -5.51573                       0.05262                      91.40757
                      -5.84837                       0.06334                      91.23542
                      -6.12766                       0.07792                      90.98607
                      -6.33605                       0.09545                      90.67517
                      -6.46047                       0.11482                      90.32227
                      -6.49308                       0.13482                      89.94954
                      -6.43183                       0.15420                      89.58039
                      -6.28059                       0.17172                      89.23803
                      -6.04884                       0.18630                      88.94396
                      -5.75116                       0.19702                      88.71667
                      -5.40624                       0.20320                      88.57043
                      -5.03575                       0.20446                      88.51443
                      -4.66299                       0.20071                      88.55220
                      -4.31136                       0.19219                      88.68135
                      -4.00297                       0.17944                      88.89378
                      -3.75719                       0.16326                      89.17613
                      -3.58946                       0.14467                      89.51067
                      -3.50571                       0.00000                      89.86927
                      -3.52019                      -0.01991                      90.24446
                      -3.62765                      -0.03858                      90.60429
                      -3.82134                      -0.05481                      90.92616
                      -4.08909                      -0.06761                      91.18983
                      -4.41408                      -0.07615                      91.37873
                      -4.77588                      -0.07991                      91.48101
                      -5.15177                      -0.07865                      91.49023
                      -5.51812                      -0.07245                      91.40581
                      -5.85191                      -0.06170                      91.23307
                      -6.13217                      -0.04707                      90.98284
                      -6.34130                      -0.02948                      90.67086
                      -6.46615                      -0.01004                      90.31672
                      -6.49887                       0.01004                      89.94269
                      -6.43742                       0.02948                      89.57226
                      -6.28564                       0.04707                      89.22870
                      -6.05309                       0.06170                      88.93361
                      -5.75436                       0.07245                      88.70552
                      -5.40824                       0.07865                      88.55877
                      -5.03646                       0.07991                      88.50258
                      -4.66240                       0.07615                      88.54047
                      -4.30954                       0.06761                      88.67008
                      -4.00007                       0.05481                      88.88325
                      -3.75343                       0.03858                      89.16659
                      -3.58512                       0.01991                      89.50229
                      -3.51149                      -0.12482                      89.86308
                      -3.52592                      -0.14467                      90.23696
                      -3.63301                      -0.16326                      90.59555
                      -3.82602                      -0.17944                      90.91629
                      -4.09284                      -0.19219                      91.17904
                      -4.41670                      -0.20071                      91.36729
                      -4.77724                      -0.20446                      91.46921
                      -5.15182                      -0.20320                      91.47840
                      -5.51690                      -0.19702                      91.39428
                      -5.84953                      -0.18630                      91.22213
                      -6.12882                      -0.17172                      90.97277
                      -6.33722                      -0.15420                      90.66188
                      -6.46163                      -0.13482                      90.30897
                      -6.49424                      -0.11482                      89.93624
                      -6.43300                      -0.09545                      89.56710
                      -6.28175                      -0.07792                      89.22473
                      -6.05001                      -0.06334                      88.93067
                      -5.75232                      -0.05262                      88.70337
                      -5.40740                      -0.04644                      88.55713
                      -5.03692                      -0.04519                      88.50114
                      -4.66415                      -0.04893                      88.53890
                      -4.31253                      -0.05745                      88.66806
                      -4.00413                      -0.07020                      88.88048
                      -3.75835                      -0.08638                      89.16284
                      -3.59062                      -0.10498                      89.49738
                      -3.52777                      -0.24964                      89.85780
                      -3.54205                      -0.26928                      90.22775
                      -3.64801                      -0.28768                      90.58255
                      -3.83899                      -0.30369                      90.89991
                      -4.10300                      -0.31631                      91.15989
                      -4.42344                      -0.32473                      91.34616
                      -4.78018                      -0.32844                      91.44700
                      -5.15081                      -0.32720                      91.45609
                      -5.51203                      -0.32108                      91.37286
                      -5.84116                      -0.31048                      91.20253
                      -6.11750                      -0.29605                      90.95580
                      -6.32370                      -0.27871                      90.64818
                      -6.44680                      -0.25954                      90.29900
                      -6.47907                      -0.23975                      89.93020
                      -6.41847                      -0.22058                      89.56494
                      -6.26882                      -0.20324                      89.22619
                      -6.03952                      -0.18881                      88.93523
                      -5.74497                      -0.17821                      88.71033
                      -5.40369                      -0.17209                      88.56563
                      -5.03712                      -0.17085                      88.51023
                      -4.66828                      -0.17456                      88.54759
                      -4.32036                      -0.18298                      88.67539
                      -4.01522                      -0.19560                      88.88557
                      -3.77203                      -0.21161                      89.16495
                      -3.60607                      -0.23001                      89.49596
                      -3.55490                      -0.37447                      89.85348
                      -3.56892                      -0.39375                      90.21676
                      -3.67297                      -0.41182                      90.56516
                      -3.86052                      -0.42754                      90.87681
                      -4.11976                      -0.43993                      91.13210
                      -4.43443                      -0.44820                      91.31501
                      -4.78475                      -0.45184                      91.41404
                      -5.14869                      -0.45062                      91.42297
                      -5.50341                      -0.44462                      91.34123
                      -5.82660                      -0.43420                      91.17397
                      -6.09797                      -0.42004                      90.93169
                      -6.30045                      -0.40301                      90.62961
                      -6.42134                      -0.38418                      90.28672
                      -6.45302                      -0.36475                      89.92457
                      -6.39352                      -0.34592                      89.56590
                      -6.24656                      -0.32889                      89.23325
                      -6.02139                      -0.31473                      88.94753
                      -5.73215                      -0.30431                      88.72668
                      -5.39702                      -0.29831                      88.58459
                      -5.03705                      -0.29709                      88.53019
                      -4.67486                      -0.30073                      88.56688
                      -4.33321                      -0.30900                      88.69237
                      -4.03357                      -0.32139                      88.89877
                      -3.79476                      -0.33712                      89.17311
                      -3.63179                      -0.35518                      89.49815
                      -3.59350                      -0.49929                      89.85016
                      -3.60715                      -0.51806                      90.20389
                      -3.70846                      -0.53566                      90.54315
                      -3.89108                      -0.55097                      90.84660
                      -4.14352                      -0.56303                      91.09519
                      -4.44992                      -0.57109                      91.27329
                      -4.79103                      -0.57463                      91.36972
                      -5.14541                      -0.57344                      91.37841
                      -5.49081                      -0.56760                      91.29883
                      -5.80551                      -0.55746                      91.13596
                      -6.06975                      -0.54366                      90.90004
                      -6.26692                      -0.52708                      90.60590
                      -6.38462                      -0.50875                      90.27202
                      -6.41548                      -0.48983                      89.91938
                      -6.35754                      -0.47150                      89.57013
                      -6.21444                      -0.45491                      89.24622
                      -5.99519                      -0.44112                      88.96800
                      -5.71355                      -0.43098                      88.75296
                      -5.38722                      -0.42513                      88.61461
                      -5.03670                      -0.42394                      88.56163
                      -4.68403                      -0.42749                      88.59736
                      -4.35136                      -0.43555                      88.71955
                      -4.05959                      -0.44761                      88.92053
                      -3.82705                      -0.46292                      89.18766
                      -3.66837                      -0.48051                      89.50417
                      -3.64451                      -0.62411                      89.84792
                      -3.65767                      -0.64221                      90.18899
                      -3.75536                      -0.65918                      90.51610
                      -3.93144                      -0.67394                      90.80870
                      -4.17484                      -0.68557                      91.04839
                      -4.47027                      -0.69334                      91.22012
                      -4.79917                      -0.69676                      91.31309
                      -5.14087                      -0.69561                      91.32147
                      -5.47391                      -0.68997                      91.24473
                      -5.77734                      -0.68019                      91.08769
                      -6.03212                      -0.66689                      90.86022
                      -6.22223                      -0.65090                      90.57661
                      -6.33572                      -0.63323                      90.25468
                      -6.36547                      -0.61499                      89.91466
                      -6.30960                      -0.59731                      89.57792
                      -6.17163                      -0.58132                      89.26560
                      -5.96023                      -0.56802                      88.99735
                      -5.68867                      -0.55825                      88.79000
                      -5.37402                      -0.55261                      88.65660
                      -5.03605                      -0.55146                      88.60552
                      -4.69601                      -0.55488                      88.63997
                      -4.37524                      -0.56265                      88.75779
                      -4.09392                      -0.57428                      88.95157
                      -3.86971                      -0.58904                      89.20914
                      -3.71670                      -0.60601                      89.51432
                      -3.70940                      -0.74893                      89.84690
                      -3.72194                      -0.76618                      90.17183
                      -3.81500                      -0.78234                      90.48345
                      -3.98274                      -0.79640                      90.76219
                      -4.21462                      -0.80748                      90.99054
                      -4.49607                      -0.81488                      91.15414
                      -4.80940                      -0.81814                      91.24271
                      -5.13492                      -0.81705                      91.25069
                      -5.45219                      -0.81168                      91.17759
                      -5.74127                      -0.80236                      91.02798
                      -5.98398                      -0.78969                      90.81128
                      -6.16509                      -0.77446                      90.54110
                      -6.27321                      -0.75762                      90.23441
                      -6.30155                      -0.74024                      89.91048
                      -6.24833                      -0.72340                      89.58968
                      -6.11689                      -0.70817                      89.29215
                      -5.91549                      -0.69550                      89.03659
                      -5.65679                      -0.68619                      88.83906
                      -5.35703                      -0.68081                      88.71197
                      -5.03507                      -0.67972                      88.66331
                      -4.71112                      -0.68298                      88.69613
                      -4.40554                      -0.69038                      88.80837
                      -4.13753                      -0.70146                      88.99298
                      -3.92393                      -0.71552                      89.23836
                      -3.77817                      -0.73169                      89.52909
                      -3.79036                      -0.87375                      89.84729
                      -3.80212                      -0.88993                      90.15203
                      -3.88940                      -0.90508                      90.44430
                      -4.04673                      -0.91827                      90.70572
                      -4.26420                      -0.92867                      90.91989
                      -4.52817                      -0.93561                      91.07332
                      -4.82204                      -0.93866                      91.15640
                      -5.12734                      -0.93764                      91.16388
                      -5.42490                      -0.93260                      91.09532
                      -5.69602                      -0.92386                      90.95501
                      -5.92366                      -0.91198                      90.75176
                      -6.09352                      -0.89769                      90.49836
                      -6.19492                      -0.88190                      90.21072
                      -6.22150                      -0.86560                      89.90692
                      -6.17159                      -0.84981                      89.60604
                      -6.04831                      -0.83552                      89.32699
                      -5.85942                      -0.82364                      89.08731
                      -5.61679                      -0.81490                      88.90205
                      -5.33566                      -0.80987                      88.78285
                      -5.03369                      -0.80884                      88.73721
                      -4.72986                      -0.81190                      88.76799
                      -4.44326                      -0.81884                      88.87326
                      -4.19190                      -0.82923                      89.04641
                      -3.99157                      -0.84242                      89.27654
                      -3.85486                      -0.85758                      89.54921
                      -3.89087                      -0.99857                      89.84938
                      -3.90167                      -1.01342                      90.12903
                      -3.98176                      -1.02733                      90.39724
                      -4.12613                      -1.03943                      90.63714
                      -4.32570                      -1.04897                      90.83367
                      -4.56793                      -1.05534                      90.97447
                      -4.83761                      -1.05814                      91.05070
                      -5.11777                      -1.05720                      91.05758
                      -5.39083                      -1.05258                      90.99465
                      -5.63963                      -1.04456                      90.86590
                      -5.84853                      -1.03365                      90.67939
                      -6.00440                      -1.02054                      90.44685
                      -6.09745                      -1.00605                      90.18289
                      -6.12185                      -0.99109                      89.90411
                      -6.07604                      -0.97660                      89.62800
                      -5.96291                      -0.96349                      89.37193
                      -5.78958                      -0.95259                      89.15198
                      -5.56692                      -0.94457                      88.98197
                      -5.30894                      -0.93995                      88.87259
                      -5.03183                      -0.93901                      88.83071
                      -4.75302                      -0.94181                      88.85896
                      -4.49002                      -0.94818                      88.95556
                      -4.25935                      -0.95772                      89.11444
                      -4.07552                      -0.96982                      89.32563
                      -3.95006                      -0.98373                      89.57585
                      -4.01685                      -1.12340                      89.85371
                      -4.02643                      -1.13657                      90.10187
                      -4.09751                      -1.14891                      90.33988
                      -4.22563                      -1.15965                      90.55277
                      -4.40273                      -1.16811                      90.72717
                      -4.61769                      -1.17377                      90.85212
                      -4.85700                      -1.17625                      90.91977
                      -5.10562                      -1.17542                      90.92587
                      -5.34794                      -1.17132                      90.87003
                      -5.56872                      -1.16420                      90.75577
                      -5.75410                      -1.15453                      90.59026
                      -5.89242                      -1.14289                      90.38391
                      -5.97500                      -1.13003                      90.14967
                      -5.99664                      -1.11676                      89.90227
                      -5.95600                      -1.10390                      89.65725
                      -5.85561                      -1.09227                      89.43001
                      -5.70179                      -1.08259                      89.23482
                      -5.50420                      -1.07547                      89.08396
                      -5.27526                      -1.07137                      88.98689
                      -5.02935                      -1.07054                      88.94972
                      -4.78193                      -1.07303                      88.97479
                      -4.54854                      -1.07868                      89.06052
                      -4.34385                      -1.08714                      89.20151
                      -4.18071                      -1.09788                      89.38892
                      -4.06938                      -1.11022                      89.61097
                      -4.17982                      -1.24822                      89.86126
                      -4.18782                      -1.25923                      90.06866
                      -4.24722                      -1.26954                      90.26756
                      -4.35429                      -1.27852                      90.44548
                      -4.50229                      -1.28559                      90.59123
                      -4.68194                      -1.29031                      90.69565
                      -4.88193                      -1.29239                      90.75219
                      -5.08971                      -1.29170                      90.75728
                      -5.29222                      -1.28827                      90.71062
                      -5.47673                      -1.28232                      90.61513
                      -5.63165                      -1.27423                      90.47681
                      -5.74725                      -1.26451                      90.30436
                      -5.81626                      -1.25377                      90.10860
                      -5.83435                      -1.24267                      89.90185
                      -5.80038                      -1.23192                      89.69708
                      -5.71648                      -1.22220                      89.50718
                      -5.58793                      -1.21411                      89.34406
                      -5.42281                      -1.20817                      89.21798
                      -5.23148                      -1.20474                      89.13686
                      -5.02597                      -1.20404                      89.10580
                      -4.81920                      -1.20612                      89.12675
                      -4.62415                      -1.21085                      89.19839
                      -4.45309                      -1.21792                      89.31622
                      -4.31675                      -1.22689                      89.47284
                      -4.22371                      -1.23721                      89.65841
                      -4.40920                      -1.37304                      89.87463
                      -4.41499                      -1.38100                      90.02458
                      -4.45793                      -1.38846                      90.16839
                      -4.53534                      -1.39495                      90.29702
                      -4.64235                      -1.40006                      90.40240
                      -4.77223                      -1.40347                      90.47790
                      -4.91683                      -1.40498                      90.51877
                      -5.06705                      -1.40447                      90.52246
                      -5.21346                      -1.40200                      90.48872
                      -5.34687                      -1.39770                      90.41968
                      -5.45887                      -1.39185                      90.31968
                      -5.54245                      -1.38482                      90.19499
                      -5.59235                      -1.37705                      90.05346
                      -5.60543                      -1.36903                      89.90398
                      -5.58086                      -1.36126                      89.75593
                      -5.52021                      -1.35423                      89.61863
                      -5.42727                      -1.34838                      89.50069
                      -5.30788                      -1.34408                      89.40954
                      -5.16955                      -1.34161                      89.35089
                      -5.02097                      -1.34110                      89.32843
                      -4.87147                      -1.34260                      89.34358
                      -4.73046                      -1.34602                      89.39538
                      -4.60677                      -1.35113                      89.48057
                      -4.50820                      -1.35762                      89.59381
                      -4.44094                      -1.36508                      89.72797
                      -5.00698                      -1.49786                      89.92024
                      -5.00698                      -1.49786                      89.92024
                      -5.00698                      -1.49786                      89.92024
                      -5.00698                      -1.49786                      89.92024
                      -5.00698                      -1.49786                      89.92024
                      -5.00698                      -1.49786                      89.92024
                      -5.00698                      -1.49786                      89.92024
                      -5.00698                      -1.49786                      89.92024
                      -5.00698                      -1.49786                      89.92024
                      -5.00698                      -1.49786                      89.92024
                      -5.00698                      -1.49786                      89.92024
                      -5.00698                      -1.49786                      89.92024
                      -5.00698                      -1.49786                      89.92024
                      -5.00698                      -1.49786                      89.92024
                      -5.00698                      -1.49786                      89.92024
                      -5.00698                      -1.49786                      89.92024
                      -5.00698                      -1.49786                      89.92024
                      -5.00698                      -1.49786                      89.92024
                      -5.00698                      -1.49786                      89.92024
                      -5.00698                      -1.49786                      89.92024
                      -5.00698                      -1.49786                      89.92024
                      -5.00698                      -1.49786                      89.92024
                      -5.00698                      -1.49786                      89.92024
                      -5.00698                      -1.49786                      89.92024
                      -5.00698                      -1.49786                      89.92024
        </DataArray>
      </Points>
      <Polys>
        <DataArray type="Int32" Name="connectivity" format="ascii">
      0      1     26     25
      1      2     27     26
      2      3     28     27
      3      4     29     28
      4      5     30     29
      5      6     31     30
      6      7     32     31
      7      8     33     32
      8      9     34     33
      9     10     35     34
     10     11     36     35
     11     12     37     36
     12     13     38     37
     13     14     39     38
     14     15     40     39
     15     16     41     40
     16     17     42     41
     17     18     43     42
     18     19     44     43
     19     20     45     44
     20     21     46     45
     21     22     47     46
     22     23     48     47
     23     24     49     48
     24      0     25     49
     25     26     51     50
     26     27     52     51
     27     28     53     52
     28     29     54     53
     29     30     55     54
     30     31     56     55
     31     32     57     56
     32     33     58     57
     33     34     59     58
     34     35     60     59
     35     36     61     60
     36     37     62     61
     37     38     63     62
     38     39     64     63
     39     40     65     64
     40     41     66     65
     41     42     67     66
     42     43     68     67
     43     44     69     68
     44     45     70     69
     45     46     71     70
     46     47     72     71
     47     48     73     72
     48     49     74     73
     49     25     50     74
     50     51     76     75
     51     52     77     76
     52     53     78     77
     53     54     79     78
     54     55     80     79
     55     56     81     80
     56     57     82     81
     57     58     83     82
     58     59     84     83
     59     60     85     84
     60     61     86     85
     61     62     87     86
     62     63     88     87
     63     64     89     88
     64     65     90     89
     65     66     91     90
     66     67     92     91
     67     68     93     92
     68     69     94     93
     69     70     95     94
     70     71     96     95
     71     72     97     96
     72     73     98     97
     73     74     99     98
     74     50     75     99
     75     76    101    100
     76     77    102    101
     77     78    103    102
     78     79    104    103
     79     80    105    104
     80     81    106    105
     81     82    107    106
     82     83    108    107
     83     84    109    108
     84     85    110    109
     85     86    111    110
     86     87    112    111
     87     88    113    112
     88     89    114    113
     89     90    115    114
     90     91    116    115
     91     92    117    116
     92     93    118    117
     93     94    119    118
     94     95    120    119
     95     96    121    120
     96     97    122    121
     97     98    123    122
     98     99    124    123
     99     75    100    124
    100    101    126    125
    101    102    127    126
    102    103    128    127
    103    104    129    128
    104    105    130    129
    105    106    131    130
    106    107    132    131
    107    108    133    132
    108    109    134    133
    109    110    135    134
    110    111    136    135
    111    112    137    136
    112    113    138    137
    113    114    139    138
    114    115    140    139
    115    116    141    140
    116    117    142    141
    117    118    143    142
    118    119    144    143
    119    120    145    144
    120    121    146    145
    121    122    147    146
    122    123    148    147
    123    124    149    148
    124    100    125    149
    125    126    151    150
    126    127    152    151
    127    128    153    152
    128    129    154    153
    129    130    155    154
    130    131    156    155
    131    132    157    156
    132    133    158    157
    133    134    159    158
    134    135    160    159
    135    136    161    160
    136    137    162    161
    137    138    163    162
    138    139    164    163
    139    140    165    164
    140    141    166    165
    141    142    167    166
    142    143    168    167
    143    144    169    168
    144    145    170    169
    145    146    171    170
    146    147    172    171
    147    148    173    172
    148    149    174    173
    149    125    150    174
    150    151    176    175
    151    152    177    176
    152    153    178    177
    153    154    179    178
    154    155    180    179
    155    156    181    180
    156    157    182    181
    157    158    183    182
    158    159    184    183
    159    160    185    184
    160    161    186    185
    161    162    187    186
    162    163    188    187
    163    164    189    188
    164    165    190    189
    165    166    191    190
    166    167    192    191
    167    168    193    192
    168    169    194    193
    169    170    195    194
    170    171    196    195
    171    172    197    196
    172    173    198    197
    173    174    199    198
    174    150    175    199
    175    176    201    200
    176    177    202    201
    177    178    203    202
    178    179    204    203
    179    180    205    204
    180    181    206    205
    181    182    207    206
    182    183    208    207
    183    184    209    208
    184    185    210    209
    185    186    211    210
    186    187    212    211
    187    188    213    212
    188    189    214    213
    189    190    215    214
    190    191    216    215
    191    192    217    216
    192    193    218    217
    193    194    219    218
    194    195    220    219
    195    196    221    220
    196    197    222    221
    197    198    223    222
    198    199    224    223
    199    175    200    224
    200    201    226    225
    201    202    227    226
    202    203    228    227
    203    204    229    228
    204    205    230    229
    205    206    231    230
    206    207    232    231
    207    208    233    232
    208    209    234    233
    209    210    235    234
    210    211    236    235
    211    212    237    236
    212    213    238    237
    213    214    239    238
    214    215    240    239
    215    216    241    240
    216    217    242    241
    217    218    243    242
    218    219    244    243
    219    220    245    244
    220    221    246    245
    221    222    247    246
    222    223    248    247
    223    224    249    248
    224    200    225    249
    225    226    251    250
    226    227    252    251
    227    228    253    252
    228    229    254    253
    229    230    255    254
    230    231    256    255
    231    232    257    256
    232    233    258    257
    233    234    259    258
    234    235    260    259
    235    236    261    260
    236    237    262    261
    237    238    263    262
    238    239    264    263
    239    240    265    264
    240    241    266    265
    241    242    267    266
    242    243    268    267
    243    244    269    268
    244    245    270    269
    245    246    271    270
    246    247    272    271
    247    248    273    272
    248    249    274    273
    249    225    250    274
    250    251    276    275
    251    252    277    276
    252    253    278    277
    253    254    279    278
    254    255    280    279
    255    256    281    280
    256    257    282    281
    257    258    283    282
    258    259    284    283
    259    260    285    284
    260    261    286    285
    261    262    287    286
    262    263    288    287
    263    264    289    288
    264    265    290    289
    265    266    291    290
    266    267    292    291
    267    268    293    292
    268    269    294    293
    269    270    295    294
    270    271    296    295
    271    272    297    296
    272    273    298    297
    273    274    299    298
    274    250    275    299
    275    276    301    300
    276    277    302    301
    277    278    303    302
    278    279    304    303
    279    280    305    304
    280    281    306    305
    281    282    307    306
    282    283    308    307
    283    284    309    308
    284    285    310    309
    285    286    311    310
    286    287    312    311
    287    288    313    312
    288    289    314    313
    289    290    315    314
    290    291    316    315
    291    292    317    316
    292    293    318    317
    293    294    319    318
    294    295    320    319
    295    296    321    320
    296    297    322    321
    297    298    323    322
    298    299    324    323
    299    275    300    324
    300    301    326    325
    301    302    327    326
    302    303    328    327
    303    304    329    328
    304    305    330    329
    305    306    331    330
    306    307    332    331
    307    308    333    332
    308    309    334    333
    309    310    335    334
    310    311    336    335
    311    312    337    336
    312    313    338    337
    313    314    339    338
    314    315    340    339
    315    316    341    340
    316    317    342    341
    317    318    343    342
    318    319    344    343
    319    320    345    344
    320    321    346    345
    321    322    347    346
    322    323    348    347
    323    324    349    348
    324    300    325    349
    325    326    351    350
    326    327    352    351
    327    328    353    352
    328    329    354    353
    329    330    355    354
    330    331    356    355
    331    332    357    356
    332    333    358    357
    333    334    359    358
    334    335    360    359
    335    336    361    360
    336    337    362    361
    337    338    363    362
    338    339    364    363
    339    340    365    364
    340    341    366    365
    341    342    367    366
    342    343    368    367
    343    344    369    368
    344    345    370    369
    345    346    371    370
    346    347    372    371
    347    348    373    372
    348    349    374    373
    349    325    350    374
    350    351    376    375
    351    352    377    376
    352    353    378    377
    353    354    379    378
    354    355    380    379
    355    356    381    380
    356    357    382    381
    357    358    383    382
    358    359    384    383
    359    360    385    384
    360    361    386    385
    361    362    387    386
    362    363    388    387
    363    364    389    388
    364    365    390    389
    365    366    391    390
    366    367    392    391
    367    368    393    392
    368    369    394    393
    369    370    395    394
    370    371    396    395
    371    372    397    396
    372    373    398    397
    373    374    399    398
    374    350    375    399
    375    376    401    400
    376    377    402    401
    377    378    403    402
    378    379    404    403
    379    380    405    404
    380    381    406    405
    381    382    407    406
    382    383    408    407
    383    384    409    408
    384    385    410    409
    385    386    411    410
    386    387    412    411
    387    388    413    412
    388    389    414    413
    389    390    415    414
    390    391    416    415
    391    392    417    416
    392    393    418    417
    393    394    419    418
    394    395    420    419
    395    396    421    420
    396    397    422    421
    397    398    423    422
    398    399    424    423
    399    375    400    424
    400    401    426    425
    401    402    427    426
    402    403    428    427
    403    404    429    428
    404    405    430    429
    405    406    431    430
    406    407    432    431
    407    408    433    432
    408    409    434    433
    409    410    435    434
    410    411    436    435
    411    412    437    436
    412    413    438    437
    413    414    439    438
    414    415    440    439
    415    416    441    440
    416    417    442    441
    417    418    443    442
    418    419    444    443
    419    420    445    444
    420    421    446    445
    421    422    447    446
    422    423    448    447
    423    424    449    448
    424    400    425    449
    425    426    451    450
    426    427    452    451
    427    428    453    452
    428    429    454    453
    429    430    455    454
    430    431    456    455
    431    432    457    456
    432    433    458    457
    433    434    459    458
    434    435    460    459
    435    436    461    460
    436    437    462    461
    437    438    463    462
    438    439    464    463
    439    440    465    464
    440    441    466    465
    441    442    467    466
    442    443    468    467
    443    444    469    468
    444    445    470    469
    445    446    471    470
    446    447    472    471
    447    448    473    472
    448    449    474    473
    449    425    450    474
    450    451    476    475
    451    452    477    476
    452    453    478    477
    453    454    479    478
    454    455    480    479
    455    456    481    480
    456    457    482    481
    457    458    483    482
    458    459    484    483
    459    460    485    484
    460    461    486    485
    461    462    487    486
    462    463    488    487
    463    464    489    488
    464    465    490    489
    465    466    491    490
    466    467    492    491
    467    468    493    492
    468    469    494    493
    469    470    495    494
    470    471    496    495
    471    472    497    496
    472    473    498    497
    473    474    499    498
    474    450    475    499
    475    476    501    500
    476    477    502    501
    477    478    503    502
    478    479    504    503
    479    480    505    504
    480    481    506    505
    481    482    507    506
    482    483    508    507
    483    484    509    508
    484    485    510    509
    485    486    511    510
    486    487    512    511
    487    488    513    512
    488    489    514    513
    489    490    515    514
    490    491    516    515
    491    492    517    516
    492    493    518    517
    493    494    519    518
    494    495    520    519
    495    496    521    520
    496    497    522    521
    497    498    523    522
    498    499    524    523
    499    475    500    524
    500    501    526    525
    501    502    527    526
    502    503    528    527
    503    504    529    528
    504    505    530    529
    505    506    531    530
    506    507    532    531
    507    508    533    532
    508    509    534    533
    509    510    535    534
    510    511    536    535
    511    512    537    536
    512    513    538    537
    513    514    539    538
    514    515    540    539
    515    516    541    540
    516    517    542    541
    517    518    543    542
    518    519    544    543
    519    520    545    544
    520    521    546    545
    521    522    547    546
    522    523    548    547
    523    524    549    548
    524    500    525    549
    525    526    551    550
    526    527    552    551
    527    528    553    552
    528    529    554    553
    529    530    555    554
    530    531    556    555
    531    532    557    556
    532    533    558    557
    533    534    559    558
    534    535    560    559
    535    536    561    560
    536    537    562    561
    537    538    563    562
    538    539    564    563
    539    540    565    564
    540    541    566    565
    541    542    567    566
    542    543    568    567
    543    544    569    568
    544    545    570    569
    545    546    571    570
    546    547    572    571
    547    548    573    572
    548    549    574    573
    549    525    550    574
    550    551    576    575
    551    552    577    576
    552    553    578    577
    553    554    579    578
    554    555    580    579
    555    556    581    580
    556    557    582    581
    557    558    583    582
    558    559    584    583
    559    560    585    584
    560    561    586    585
    561    562    587    586
    562    563    588    587
    563    564    589    588
    564    565    590    589
    565    566    591    590
    566    567    592    591
    567    568    593    592
    568    569    594    593
    569    570    595    594
    570    571    596    595
    571    572    597    596
    572    573    598    597
    573    574    599    598
    574    550    575    599
    575    576    601    600
    576    577    602    601
    577    578    603    602
    578    579    604    603
    579    580    605    604
    580    581    606    605
    581    582    607    606
    582    583    608    607
    583    584    609    608
    584    585    610    609
    585    586    611    610
    586    587    612    611
    587    588    613    612
    588    589    614    613
    589    590    615    614
    590    591    616    615
    591    592    617    616
    592    593    618    617
    593    594    619    618
    594    595    620    619
    595    596    621    620
    596    597    622    621
    597    598    623    622
    598    599    624    623
    599    575    600    624
        </DataArray>
        <DataArray type="Int32" Name="offsets" format="ascii">
      4
      8
     12
     16
     20
     24
     28
     32
     36
     40
     44
     48
     52
     56
     60
     64
     68
     72
     76
     80
     84
     88
     92
     96
    100
    104
    108
    112
    116
    120
    124
    128
    132
    136
    140
    144
    148
    152
    156
    160
    164
    168
    172
    176
    180
    184
    188
    192
    196
    200
    204
    208
    212
    216
    220
    224
    228
    232
    236
    240
    244
    248
    252
    256
    260
    264
    268
    272
    276
    280
    284
    288
    292
    296
    300
    304
    308
    312
    316
    320
    324
    328
    332
    336
    340
    344
    348
    352
    356
    360
    364
    368
    372
    376
    380
    384
    388
    392
    396
    400
    404
    408
    412
    416
    420
    424
    428
    432
    436
    440
    444
    448
    452
    456
    460
    464
    468
    472
    476
    480
    484
    488
    492
    496
    500
    504
    508
    512
    516
    520
    524
    528
    532
    536
    540
    544
    548
    552
    556
    560
    564
    568
    572
    576
    580
    584
    588
    592
    596
    600
    604
    608
    612
    616
    620
    624
    628
    632
    636
    640
    644
    648
    652
    656
    660
    664
    668
    672
    676
    680
    684
    688
    692
    696
    700
    704
    708
    712
    716
    720
    724
    728
    732
    736
    740
    744
    748
    752
    756
    760
    764
    768
    772
    776
    780
    784
    788
    792
    796
    800
    804
    808
    812
    816
    820
    824
    828
    832
    836
    840
    844
    848
    852
    856
    860
    864
    868
    872
    876
    880
    884
    888
    892
    896
    900
    904
    908
    912
    916
    920
    924
    928
    932
    936
    940
    944
    948
    952
    956
    960
    964
    968
    972
    976
    980
    984
    988
    992
    996
   1000
   1004
   1008
   1012
   1016
   1020
   1024
   1028
   1032
   1036
   1040
   1044
   1048
   1052
   1056
   1060
   1064
   1068
   1072
   1076
   1080
   1084
   1088
   1092
   1096
   1100
   1104
   1108
   1112
   1116
   1120
   1124
   1128
   1132
   1136
   1140
   1144
   1148
   1152
   1156
   1160
   1164
   1168
   1172
   1176
   1180
   1184
   1188
   1192
   1196
   1200
   1204
   1208
   1212
   1216
   1220
   1224
   1228
   1232
   1236
   1240
   1244
   1248
   1252
   1256
   1260
   1264
   1268
   1272
   1276
   1280
   1284
   1288
   1292
   1296
   1300
   1304
   1308
   1312
   1316
   1320
   1324
   1328
   1332
   1336
   1340
   1344
   1348
   1352
   1356
   1360
   1364
   1368
   1372
   1376
   1380
   1384
   1388
   1392
   1396
   1400
   1404
   1408
   1412
   1416
   1420
   1424
   1428
   1432
   1436
   1440
   1444
   1448
   1452
   1456
   1460
   1464
   1468
   1472
   1476
   1480
   1484
   1488
   1492
   1496
   1500
   1504
   1508
   1512
   1516
   1520
   1524
   1528
   1532
   1536
   1540
   1544
   1548
   1552
   1556
   1560
   1564
   1568
   1572
   1576
   1580
   1584
   1588
   1592
   1596
   1600
   1604
   1608
   1612
   1616
   1620
   1624
   1628
   1632
   1636
   1640
   1644
   1648
   1652
   1656
   1660
   1664
   1668
   1672
   1676
   1680
   1684
   1688
   1692
   1696
   1700
   1704
   1708
   1712
   1716
   1720
   1724
   1728
   1732
   1736
   1740
   1744
   1748
   1752
   1756
   1760
   1764
   1768
   1772
   1776
   1780
   1784
   1788
   1792
   1796
   1800
   1804
   1808
   1812
   1816
   1820
   1824
   1828
   1832
   1836
   1840
   1844
   1848
   1852
   1856
   1860
   1864
   1868
   1872
   1876
   1880
   1884
   1888
   1892
   1896
   1900
   1904
   1908
   1912
   1916
   1920
   1924
   1928
   1932
   1936
   1940
   1944
   1948
   1952
   1956
   1960
   1964
   1968
   1972
   1976
   1980
   1984
   1988
   1992
   1996
   2000
   2004
   2008
   2012
   2016
   2020
   2024
   2028
   2032
   2036
   2040
   2044
   2048
   2052
   2056
   2060
   2064
   2068
   2072
   2076
   2080
   2084
   2088
   2092
   2096
   2100
   2104
   2108
   2112
   2116
   2120
   2124
   2128
   2132
   2136
   2140
   2144
   2148
   2152
   2156
   2160
   2164
   2168
   2172
   2176
   2180
   2184
   2188
   2192
   2196
   2200
   2204
   2208
   2212
   2216
   2220
   2224
   2228
   2232
   2236
   2240
   2244
   2248
   2252
   2256
   2260
   2264
   2268
   2272
   2276
   2280
   2284
   2288
   2292
   2296
   2300
   2304
   2308
   2312
   2316
   2320
   2324
   2328
   2332
   2336
   2340
   2344
   2348
   2352
   2356
   2360
   2364
   2368
   2372
   2376
   2380
   2384
   2388
   2392
   2396
   2400
        </DataArray>
      </Polys>
    </Piece>
  </PolyData>
</VTKFile>
