<?xml version="1.0"?>
<VTKFile type="PolyData" version="0.1" byte_order="LittleEndian">
  <PolyData>
    <Piece NumberOfPoints="     19" NumberOfVerts="  0" NumberOfLines="     18"
           NumberOfStrips="  0" NumberOfPolys="      0">
      <Points>
        <DataArray type="Float32" NumberOfComponents="3" format="ascii">
                      -5.16277                      -0.99602                      88.89029
                      -5.31208                      -1.90092                      87.87701
                      -5.63840                      -3.63928                      85.79052
                      -5.97784                      -5.34383                      83.67561
                      -6.40998                      -7.45438                      81.01494
                      -6.86776                     -10.09544                      77.91058
                      -7.29413                     -12.83435                      74.88943
                      -7.72263                     -15.57512                      71.87026
                      -8.15074                     -18.31917                      68.85398
                      -8.57942                     -21.06505                      65.83943
                      -9.01020                     -23.80998                      62.82433
                      -9.44227                     -26.55511                      59.80960
                      -9.87627                     -29.30040                      56.79530
                     -10.31292                     -32.04580                      53.78148
                     -10.75049                     -34.79126                      50.76785
                     -11.11576                     -37.07919                      48.25659
                     -11.40806                     -38.91539                      46.25292
                     -11.69848                     -40.79266                      44.28584
                     -11.84677                     -41.70010                      43.27482
        </DataArray>
      </Points>
      <PointData>
        <DataArray type="Float32" Name="TranslationalVelocity" NumberOfComponents="3" format="ascii">
                      -0.04545                       0.58626                      -0.51953
                      -0.08675                       1.12161                      -0.99153
                      -0.16608                       2.22483                      -1.89827
                      -0.24386                       3.34347                      -2.78738
                      -0.34018                       4.75101                      -3.88825
                      -0.46070                       6.39116                      -5.26585
                      -0.58569                       7.98646                      -6.69448
                      -0.71076                       9.58083                      -8.12408
                      -0.83599                      11.17368                      -9.55539
                      -0.96130                      12.76566                     -10.98766
                      -1.08656                      14.35801                     -12.41944
                      -1.21183                      15.95023                     -13.85131
                      -1.33711                      17.54231                     -15.28327
                      -1.46240                      19.13426                     -16.71529
                      -1.58769                      20.72616                     -18.14734
                      -1.69210                      22.05272                     -19.34074
                      -1.77589                      23.11118                     -20.29851
                      -1.86156                      24.15048                     -21.27771
                      -1.90297                      24.68460                     -21.75104
        </DataArray>
        <DataArray type="Float32" Name="RotationalVelocity" NumberOfComponents="3" format="ascii">
                       0.52161                      -0.00000                      -0.04563
                       0.52161                      -0.00000                      -0.04563
                       0.52161                      -0.00000                      -0.04563
                       0.52161                      -0.00000                      -0.04563
                       0.52161                      -0.00000                      -0.04563
                       0.52161                      -0.00000                      -0.04563
                       0.52161                      -0.00000                      -0.04563
                       0.52161                      -0.00000                      -0.04563
                       0.52161                      -0.00000                      -0.04563
                       0.52161                      -0.00000                      -0.04563
                       0.52161                      -0.00000                      -0.04563
                       0.52161                      -0.00000                      -0.04563
                       0.52161                      -0.00000                      -0.04563
                       0.52161                      -0.00000                      -0.04563
                       0.52161                      -0.00000                      -0.04563
                       0.52161                      -0.00000                      -0.04563
                       0.52161                      -0.00000                      -0.04563
                       0.52161                      -0.00000                      -0.04563
                       0.52161                      -0.00000                      -0.04563
        </DataArray>
        <DataArray type="Float32" Name="TranslationalAcceleration" NumberOfComponents="3" format="ascii">
                       0.02675                       0.27306                       0.30580
                       0.05118                       0.52115                       0.58504
                       0.10153                       0.99773                       1.16048
                       0.15258                       1.46504                       1.74397
                       0.21681                       2.04366                       2.47816
                       0.29166                       2.76772                       3.33367
                       0.36446                       3.51861                       4.16579
                       0.43722                       4.27001                       4.99742
                       0.50991                       5.02230                       5.82826
                       0.58256                       5.77510                       6.65865
                       0.65522                       6.52764                       7.48923
                       0.72788                       7.28023                       8.31974
                       0.80054                       8.03287                       9.15018
                       0.87319                       8.78554                       9.98055
                       0.94583                       9.53822                      10.81090
                       1.00637                      10.16547                      11.50284
                       1.05467                      10.66888                      12.05494
                       1.10210                      11.18354                      12.59704
                       1.12647                      11.43232                      12.87564
        </DataArray>
        <DataArray type="Float32" Name="OrientationX" NumberOfComponents="3" format="ascii">
                       0.99241                      -0.02899                      -0.11954
                       0.99241                      -0.02899                      -0.11954
                       0.99241                      -0.02899                      -0.11954
                       0.99241                      -0.02899                      -0.11954
                       0.99241                      -0.02899                      -0.11954
                       0.99241                      -0.02899                      -0.11954
                       0.99241                      -0.02899                      -0.11954
                       0.99241                      -0.02899                      -0.11954
                       0.99241                      -0.02899                      -0.11954
                       0.99241                      -0.02899                      -0.11954
                       0.99241                      -0.02899                      -0.11954
                       0.99241                      -0.02899                      -0.11954
                       0.99241                      -0.02899                      -0.11954
                       0.99241                      -0.02899                      -0.11954
                       0.99241                      -0.02899                      -0.11954
                       0.99241                      -0.02899                      -0.11954
                       0.99241                      -0.02899                      -0.11954
                       0.99241                      -0.02899                      -0.11954
                       0.99241                      -0.02899                      -0.11954
        </DataArray>
        <DataArray type="Float32" Name="OrientationY" NumberOfComponents="3" format="ascii">
                       0.05793                      -0.74716                       0.66211
                       0.05793                      -0.74716                       0.66211
                       0.05793                      -0.74716                       0.66211
                       0.05793                      -0.74716                       0.66211
                       0.05793                      -0.74716                       0.66211
                       0.05793                      -0.74716                       0.66211
                       0.05793                      -0.74716                       0.66211
                       0.05793                      -0.74716                       0.66211
                       0.05793                      -0.74716                       0.66211
                       0.05793                      -0.74716                       0.66211
                       0.05793                      -0.74716                       0.66211
                       0.05793                      -0.74716                       0.66211
                       0.05793                      -0.74716                       0.66211
                       0.05793                      -0.74716                       0.66211
                       0.05793                      -0.74716                       0.66211
                       0.05793                      -0.74716                       0.66211
                       0.05793                      -0.74716                       0.66211
                       0.05793                      -0.74716                       0.66211
                       0.05793                      -0.74716                       0.66211
        </DataArray>
        <DataArray type="Float32" Name="OrientationZ" NumberOfComponents="3" format="ascii">
                      -0.10851                      -0.66401                      -0.73981
                      -0.10851                      -0.66401                      -0.73981
                      -0.10851                      -0.66401                      -0.73981
                      -0.10851                      -0.66401                      -0.73981
                      -0.10851                      -0.66401                      -0.73981
                      -0.10851                      -0.66401                      -0.73981
                      -0.10851                      -0.66401                      -0.73981
                      -0.10851                      -0.66401                      -0.73981
                      -0.10851                      -0.66401                      -0.73981
                      -0.10851                      -0.66401                      -0.73981
                      -0.10851                      -0.66401                      -0.73981
                      -0.10851                      -0.66401                      -0.73981
                      -0.10851                      -0.66401                      -0.73981
                      -0.10851                      -0.66401                      -0.73981
                      -0.10851                      -0.66401                      -0.73981
                      -0.10851                      -0.66401                      -0.73981
                      -0.10851                      -0.66401                      -0.73981
                      -0.10851                      -0.66401                      -0.73981
                      -0.10851                      -0.66401                      -0.73981
        </DataArray>
        <DataArray type="Float32" Name="Force" NumberOfComponents="3" format="ascii">
                       0.15460                      -1.99411                       1.76713
                     132.80045                     -28.91241                       6.47181
                     166.62818                     -50.63202                      21.00450
                     137.76642                     -51.93812                      26.41006
                    1204.68015                      58.19355                    -228.92711
                    1196.24507                      44.41514                    -215.32313
                    1320.43684                      48.95618                    -237.61468
                    1198.94768                      35.13100                    -207.38659
                    1102.10259                      17.33727                    -177.21120
                    1165.27776                      23.65500                    -192.14783
                    1163.37908                      39.63305                    -206.21038
                    1325.58505                      95.23997                    -279.91162
                    1597.00640                     159.91862                    -377.77426
                    1820.67921                     199.16164                    -445.80376
                    1949.22299                     212.87502                    -476.96623
                    1985.97589                     210.56470                    -480.28332
                    1940.80904                     200.81402                    -464.90681
                    1432.57843                     145.67345                    -340.87120
                     430.01248                     -17.30823                     -47.53687
        </DataArray>
        <DataArray type="Float32" Name="Moment" NumberOfComponents="3" format="ascii">
                       0.00000                       0.00000                       0.00000
                       0.00000                       0.00000                       0.00000
                       0.00000                       0.00000                       0.00000
                       0.00000                       0.00000                       0.00000
                      79.58971                     487.03431                     542.62864
                      87.50115                     535.44687                     596.56743
                      86.36824                     528.51427                     588.84347
                      87.54243                     535.69947                     596.84886
                      84.46534                     516.86983                     575.86984
                      79.84518                     488.59763                     544.37041
                      65.43139                     400.39514                     446.09972
                      59.04629                     361.32268                     402.56719
                      52.41032                     320.71510                     357.32431
                      46.59101                     285.10497                     317.64932
                      40.86293                     250.05306                     278.59628
                      38.24081                     234.00745                     260.71909
                      34.70777                     212.38770                     236.63148
                      17.34653                     106.14885                     118.26560
                      15.29309                      93.58320                     104.26560
        </DataArray>
      </PointData>
      <Lines>
        <DataArray type="Int32" Name="connectivity" format="ascii">
      0      1
      1      2
      2      3
      3      4
      4      5
      5      6
      6      7
      7      8
      8      9
      9     10
     10     11
     11     12
     12     13
     13     14
     14     15
     15     16
     16     17
     17     18
        </DataArray>
        <DataArray type="Int32" Name="offsets" format="ascii">
      2
      4
      6
      8
     10
     12
     14
     16
     18
     20
     22
     24
     26
     28
     30
     32
     34
     36
        </DataArray>
      </Lines>
    </Piece>
  </PolyData>
</VTKFile>
