<?xml version="1.0"?>
<VTKFile type="PolyData" version="0.1" byte_order="LittleEndian">
  <PolyData>
    <Piece NumberOfPoints="     19" NumberOfVerts="  0" NumberOfLines="     18"
           NumberOfStrips="  0" NumberOfPolys="      0">
      <Points>
        <DataArray type="Float32" NumberOfComponents="3" format="ascii">
                      -4.98581                       1.19009                      90.91296
                      -4.97345                       2.27230                      91.74755
                      -4.96452                       4.37832                      93.49295
                      -4.96307                       6.45674                      95.27445
                      -4.96572                       9.03831                      97.52296
                      -4.92602                      12.22496                     100.10473
                      -4.87133                      15.49146                     102.58218
                      -4.81910                      18.75944                     105.05773
                      -4.76705                      22.03010                     107.52980
                      -4.71588                      25.30223                     109.99996
                      -4.66667                      28.57358                     112.47118
                      -4.61879                      31.84506                     114.94223
                      -4.57290                      35.11666                     117.41317
                      -4.52969                      38.38832                     119.88407
                      -4.48743                      41.66001                     122.35494
                      -4.45285                      44.38647                     124.41401
                      -4.42628                      46.57237                     126.05501
                      -4.40483                      48.79166                     127.65255
                      -4.39190                      49.87592                     128.48431
        </DataArray>
      </Points>
      <PointData>
        <DataArray type="Float32" Name="TranslationalVelocity" NumberOfComponents="3" format="ascii">
                       0.05431                      -0.47685                       0.62076
                       0.10370                      -0.91275                       1.18525
                       0.19980                      -1.82356                       2.28376
                       0.29465                      -2.75287                       3.36787
                       0.41246                      -3.92558                       4.71444
                       0.55788                      -5.27407                       6.37662
                       0.70695                      -6.56882                       8.08044
                       0.85608                      -7.86246                       9.78504
                       1.00534                      -9.15429                      11.49104
                       1.15466                     -10.44507                      13.19781
                       1.30394                     -11.73632                      14.90416
                       1.45324                     -13.02742                      16.61059
                       1.60254                     -14.31837                      18.31707
                       1.75184                     -15.60918                      20.02359
                       1.90114                     -16.89993                      21.73013
                       2.02556                     -17.97553                      23.15226
                       2.12531                     -18.83270                      24.29244
                       2.22659                     -19.66697                      25.45004
                       2.27607                     -20.10141                      26.01559
        </DataArray>
        <DataArray type="Float32" Name="RotationalVelocity" NumberOfComponents="3" format="ascii">
                       0.52161                      -0.00000                      -0.04563
                       0.52161                      -0.00000                      -0.04563
                       0.52161                      -0.00000                      -0.04563
                       0.52161                      -0.00000                      -0.04563
                       0.52161                      -0.00000                      -0.04563
                       0.52161                      -0.00000                      -0.04563
                       0.52161                      -0.00000                      -0.04563
                       0.52161                      -0.00000                      -0.04563
                       0.52161                      -0.00000                      -0.04563
                       0.52161                      -0.00000                      -0.04563
                       0.52161                      -0.00000                      -0.04563
                       0.52161                      -0.00000                      -0.04563
                       0.52161                      -0.00000                      -0.04563
                       0.52161                      -0.00000                      -0.04563
                       0.52161                      -0.00000                      -0.04563
                       0.52161                      -0.00000                      -0.04563
                       0.52161                      -0.00000                      -0.04563
                       0.52161                      -0.00000                      -0.04563
                       0.52161                      -0.00000                      -0.04563
        </DataArray>
        <DataArray type="Float32" Name="TranslationalAcceleration" NumberOfComponents="3" format="ascii">
                      -0.02176                      -0.32627                      -0.24873
                      -0.04165                      -0.62296                      -0.47609
                      -0.08322                      -1.20034                      -0.95118
                      -0.12563                      -1.77015                      -1.43592
                      -0.17914                      -2.47791                      -2.04761
                      -0.24068                      -3.35154                      -2.75099
                      -0.29977                      -4.24707                      -3.42634
                      -0.35880                      -5.14301                      -4.10111
                      -0.41775                      -6.03968                      -4.77493
                      -0.47666                      -6.93675                      -5.44821
                      -0.53558                      -7.83361                      -6.12174
                      -0.59450                      -8.73050                      -6.79519
                      -0.65341                      -9.62743                      -7.46855
                      -0.71232                     -10.52438                      -8.14185
                      -0.77122                     -11.42133                      -8.81511
                      -0.82031                     -12.16880                      -9.37615
                      -0.85942                     -12.76808                      -9.82326
                      -0.89749                     -13.37651                     -10.25841
                      -0.91732                     -13.67377                     -10.48502
        </DataArray>
        <DataArray type="Float32" Name="OrientationX" NumberOfComponents="3" format="ascii">
                       0.99756                       0.03464                      -0.06067
                       0.99756                       0.03464                      -0.06067
                       0.99756                       0.03464                      -0.06067
                       0.99756                       0.03464                      -0.06067
                       0.99756                       0.03464                      -0.06067
                       0.99756                       0.03464                      -0.06067
                       0.99756                       0.03464                      -0.06067
                       0.99756                       0.03464                      -0.06067
                       0.99756                       0.03464                      -0.06067
                       0.99756                       0.03464                      -0.06067
                       0.99756                       0.03464                      -0.06067
                       0.99756                       0.03464                      -0.06067
                       0.99756                       0.03464                      -0.06067
                       0.99756                       0.03464                      -0.06067
                       0.99756                       0.03464                      -0.06067
                       0.99756                       0.03464                      -0.06067
                       0.99756                       0.03464                      -0.06067
                       0.99756                       0.03464                      -0.06067
                       0.99756                       0.03464                      -0.06067
        </DataArray>
        <DataArray type="Float32" Name="OrientationY" NumberOfComponents="3" format="ascii">
                      -0.06921                       0.60772                      -0.79113
                      -0.06921                       0.60772                      -0.79113
                      -0.06921                       0.60772                      -0.79113
                      -0.06921                       0.60772                      -0.79113
                      -0.06921                       0.60772                      -0.79113
                      -0.06921                       0.60772                      -0.79113
                      -0.06921                       0.60772                      -0.79113
                      -0.06921                       0.60772                      -0.79113
                      -0.06921                       0.60772                      -0.79113
                      -0.06921                       0.60772                      -0.79113
                      -0.06921                       0.60772                      -0.79113
                      -0.06921                       0.60772                      -0.79113
                      -0.06921                       0.60772                      -0.79113
                      -0.06921                       0.60772                      -0.79113
                      -0.06921                       0.60772                      -0.79113
                      -0.06921                       0.60772                      -0.79113
                      -0.06921                       0.60772                      -0.79113
                      -0.06921                       0.60772                      -0.79113
                      -0.06921                       0.60772                      -0.79113
        </DataArray>
        <DataArray type="Float32" Name="OrientationZ" NumberOfComponents="3" format="ascii">
                       0.00946                       0.79339                       0.60864
                       0.00946                       0.79339                       0.60864
                       0.00946                       0.79339                       0.60864
                       0.00946                       0.79339                       0.60864
                       0.00946                       0.79339                       0.60864
                       0.00946                       0.79339                       0.60864
                       0.00946                       0.79339                       0.60864
                       0.00946                       0.79339                       0.60864
                       0.00946                       0.79339                       0.60864
                       0.00946                       0.79339                       0.60864
                       0.00946                       0.79339                       0.60864
                       0.00946                       0.79339                       0.60864
                       0.00946                       0.79339                       0.60864
                       0.00946                       0.79339                       0.60864
                       0.00946                       0.79339                       0.60864
                       0.00946                       0.79339                       0.60864
                       0.00946                       0.79339                       0.60864
                       0.00946                       0.79339                       0.60864
                       0.00946                       0.79339                       0.60864
        </DataArray>
        <DataArray type="Float32" Name="Force" NumberOfComponents="3" format="ascii">
                       0.00017                      -0.00149                       0.00194
                     155.89762                      10.71667                     -16.39364
                     171.84076                      24.41253                     -34.49491
                     133.41947                      28.81703                     -39.63910
                    1079.43763                     -29.06895                      21.11075
                    1130.05008                     -20.51945                       9.17905
                    1283.47454                     -23.99510                      11.32443
                    1202.23655                     -15.26245                       1.20392
                    1142.77880                      -1.58220                     -15.70472
                    1219.75567                      -1.68980                     -16.76125
                    1184.86478                      14.08972                     -36.78836
                    1241.32588                      -1.49314                     -17.35296
                    1397.95963                     -54.82721                      49.73605
                    1576.11199                     -87.64697                      89.74882
                    1769.20137                    -116.97797                     124.98156
                    1931.74500                    -144.85329                     158.79163
                    1949.90224                    -150.57672                     165.97018
                    1444.90465                    -112.47390                     124.15218
                     393.57407                      17.21048                     -28.55397
        </DataArray>
        <DataArray type="Float32" Name="Moment" NumberOfComponents="3" format="ascii">
                       0.00000                       0.00000                       0.00000
                       0.00000                       0.00000                       0.00000
                       0.00000                       0.00000                       0.00000
                       0.00000                       0.00000                       0.00000
                      -7.23966                    -607.00520                    -465.65130
                      -7.87672                    -660.41932                    -506.62682
                      -7.83237                    -656.70091                    -503.77432
                      -8.03008                    -673.27821                    -516.49125
                      -7.87515                    -660.28755                    -506.52574
                      -7.51643                    -630.21119                    -483.45329
                      -6.73590                    -564.76791                    -433.24985
                      -5.94630                    -498.56418                    -382.46305
                      -6.05628                    -507.78596                    -389.53734
                      -5.21163                    -436.96642                    -335.20962
                      -4.54245                    -380.85956                    -292.16842
                      -3.78798                    -317.60083                    -243.64081
                      -3.29607                    -276.35755                    -212.00190
                      -1.45554                    -122.03895                     -93.61962
                      -1.21659                    -102.00393                     -78.25018
        </DataArray>
      </PointData>
      <Lines>
        <DataArray type="Int32" Name="connectivity" format="ascii">
      0      1
      1      2
      2      3
      3      4
      4      5
      5      6
      6      7
      7      8
      8      9
      9     10
     10     11
     11     12
     12     13
     13     14
     14     15
     15     16
     16     17
     17     18
        </DataArray>
        <DataArray type="Int32" Name="offsets" format="ascii">
      2
      4
      6
      8
     10
     12
     14
     16
     18
     20
     22
     24
     26
     28
     30
     32
     34
     36
        </DataArray>
      </Lines>
    </Piece>
  </PolyData>
</VTKFile>
