<?xml version="1.0"?>
<VTKFile type="PolyData" version="0.1" byte_order="LittleEndian">
  <PolyData>
    <Piece NumberOfPoints="    625" NumberOfVerts="  0" NumberOfLines="      0"
           NumberOfStrips="  0" NumberOfPolys="    600">
      <Points>
        <DataArray type="Float32" NumberOfComponents="3" format="ascii">
                      -5.10260                       0.92957                      88.82724
                      -5.10260                       0.92957                      88.82724
                      -5.10260                       0.92957                      88.82724
                      -5.10260                       0.92957                      88.82724
                      -5.10260                       0.92957                      88.82724
                      -5.10260                       0.92957                      88.82724
                      -5.10260                       0.92957                      88.82724
                      -5.10260                       0.92957                      88.82724
                      -5.10260                       0.92957                      88.82724
                      -5.10260                       0.92957                      88.82724
                      -5.10260                       0.92957                      88.82724
                      -5.10260                       0.92957                      88.82724
                      -5.10260                       0.92957                      88.82724
                      -5.10260                       0.92957                      88.82724
                      -5.10260                       0.92957                      88.82724
                      -5.10260                       0.92957                      88.82724
                      -5.10260                       0.92957                      88.82724
                      -5.10260                       0.92957                      88.82724
                      -5.10260                       0.92957                      88.82724
                      -5.10260                       0.92957                      88.82724
                      -5.10260                       0.92957                      88.82724
                      -5.10260                       0.92957                      88.82724
                      -5.10260                       0.92957                      88.82724
                      -5.10260                       0.92957                      88.82724
                      -5.10260                       0.92957                      88.82724
                      -4.49686                       0.85210                      88.87272
                      -4.50757                       0.96911                      88.96640
                      -4.55513                       1.07876                      89.05747
                      -4.63655                       1.17417                      89.14022
                      -4.74672                       1.24935                      89.20945
                      -4.87872                       1.29956                      89.26080
                      -5.02424                       1.32166                      89.29105
                      -5.17415                       1.31426                      89.29829
                      -5.31903                       1.27781                      89.28208
                      -5.44977                       1.21462                      89.24343
                      -5.55817                       1.12865                      89.18477
                      -5.63740                       1.02530                      89.10979
                      -5.68248                       0.91107                      89.02319
                      -5.69060                       0.79313                      88.93042
                      -5.66123                       0.67890                      88.83731
                      -5.59623                       0.57556                      88.74970
                      -5.49967                       0.48958                      88.67311
                      -5.37763                       0.42639                      88.61235
                      -5.23776                       0.38995                      88.57122
                      -5.08887                       0.38254                      88.55233
                      -4.94030                       0.40464                      88.55685
                      -4.80140                       0.45485                      88.58449
                      -4.68088                       0.53003                      88.63354
                      -4.58632                       0.62544                      88.70089
                      -4.52367                       0.73510                      88.78232
                      -4.25950                       0.77464                      88.95043
                      -4.27432                       0.93647                      89.08000
                      -4.34010                       1.08814                      89.20597
                      -4.45272                       1.22011                      89.32043
                      -4.60510                       1.32408                      89.41617
                      -4.78766                       1.39354                      89.48720
                      -4.98894                       1.42410                      89.52903
                      -5.19629                       1.41386                      89.53905
                      -5.39668                       1.36345                      89.51663
                      -5.57751                       1.27605                      89.46317
                      -5.72743                       1.15714                      89.38204
                      -5.83701                       1.01419                      89.27833
                      -5.89938                       0.85620                      89.15855
                      -5.91060                       0.69308                      89.03024
                      -5.86999                       0.53508                      88.90145
                      -5.78008                       0.39214                      88.78029
                      -5.64652                       0.27323                      88.67435
                      -5.47772                       0.18582                      88.59030
                      -5.28427                       0.13542                      88.53343
                      -5.07833                       0.12518                      88.50729
                      -4.87285                       0.15574                      88.51354
                      -4.68072                       0.22519                      88.55178
                      -4.51403                       0.32917                      88.61961
                      -4.38325                       0.46114                      88.71277
                      -4.29659                       0.61280                      88.82540
                      -4.08857                       0.69717                      89.03396
                      -4.10630                       0.89082                      89.18900
                      -4.18501                       1.07230                      89.33973
                      -4.31977                       1.23021                      89.47669
                      -4.50211                       1.35463                      89.59125
                      -4.72056                       1.43774                      89.67624
                      -4.96141                       1.47431                      89.72630
                      -5.20952                       1.46206                      89.73829
                      -5.44930                       1.40174                      89.71146
                      -5.66568                       1.29715                      89.64750
                      -5.84507                       1.15487                      89.55041
                      -5.97620                       0.98382                      89.42631
                      -6.05082                       0.79477                      89.28299
                      -6.06426                       0.59958                      89.12945
                      -6.01565                       0.41053                      88.97535
                      -5.90807                       0.23948                      88.83036
                      -5.74826                       0.09719                      88.70360
                      -5.54627                      -0.00739                      88.60303
                      -5.31480                      -0.06771                      88.53497
                      -5.06837                      -0.07996                      88.50370
                      -4.82249                      -0.04339                      88.51118
                      -4.59260                       0.03972                      88.55694
                      -4.39314                       0.16413                      88.63810
                      -4.23664                       0.32204                      88.74957
                      -4.13295                       0.50353                      88.88435
                      -3.95462                       0.61971                      89.12072
                      -3.97460                       0.83793                      89.29543
                      -4.06330                       1.04243                      89.46529
                      -4.21516                       1.22038                      89.61962
                      -4.42062                       1.36058                      89.74872
                      -4.66680                       1.45423                      89.84449
                      -4.93820                       1.49545                      89.90090
                      -5.21779                       1.48164                      89.91441
                      -5.48799                       1.41367                      89.88418
                      -5.73182                       1.29581                      89.81210
                      -5.93398                       1.13547                      89.70269
                      -6.08174                       0.94273                      89.56285
                      -6.16583                       0.72969                      89.40134
                      -6.18097                       0.50973                      89.22833
                      -6.12620                       0.29669                      89.05467
                      -6.00496                       0.10395                      88.89129
                      -5.82488                      -0.05639                      88.74845
                      -5.59727                      -0.17425                      88.63512
                      -5.33642                      -0.24221                      88.55842
                      -5.05874                      -0.25603                      88.52318
                      -4.78166                      -0.21481                      88.53161
                      -4.52260                      -0.12116                      88.58317
                      -4.29783                       0.01904                      88.67464
                      -4.12148                       0.19699                      88.80025
                      -4.00463                       0.40149                      88.95213
                      -3.84614                       0.54225                      89.20970
                      -3.86791                       0.78004                      89.40009
                      -3.96457                       1.00290                      89.58519
                      -4.13005                       1.19681                      89.75337
                      -4.35395                       1.34959                      89.89405
                      -4.62221                       1.45164                      89.99841
                      -4.91797                       1.49656                      90.05989
                      -5.22264                       1.48151                      90.07462
                      -5.51709                       1.40744                      90.04167
                      -5.78280                       1.27901                      89.96312
                      -6.00309                       1.10429                      89.84390
                      -6.16411                       0.89425                      89.69150
                      -6.25575                       0.66209                      89.51551
                      -6.27224                       0.42240                      89.32697
                      -6.21256                       0.19025                      89.13773
                      -6.08045                      -0.01979                      88.95969
                      -5.88421                      -0.19452                      88.80403
                      -5.63617                      -0.32295                      88.68054
                      -5.35192                      -0.39701                      88.59696
                      -5.04932                      -0.41206                      88.55856
                      -4.74738                      -0.36715                      88.56774
                      -4.46507                      -0.26510                      88.62393
                      -4.22014                      -0.11232                      88.72360
                      -4.02797                       0.08160                      88.86049
                      -3.90064                       0.30445                      89.02599
                      -3.75721                       0.46478                      89.30040
                      -3.78042                       0.71833                      89.50340
                      -3.88348                       0.95594                      89.70076
                      -4.05992                       1.16270                      89.88007
                      -4.29865                       1.32560                      90.03008
                      -4.58468                       1.43441                      90.14135
                      -4.90002                       1.48230                      90.20689
                      -5.22487                       1.46625                      90.22259
                      -5.53882                       1.38728                      90.18747
                      -5.82213                       1.25034                      90.10371
                      -6.05701                       1.06404                      89.97660
                      -6.22869                       0.84009                      89.81411
                      -6.32640                       0.59256                      89.62646
                      -6.34399                       0.33700                      89.42543
                      -6.28035                       0.08947                      89.22367
                      -6.13949                      -0.13448                      89.03383
                      -5.93025                      -0.32077                      88.86786
                      -5.66579                      -0.45771                      88.73619
                      -5.36271                      -0.53668                      88.64708
                      -5.04007                      -0.55273                      88.60613
                      -4.71813                      -0.50484                      88.61592
                      -4.41713                      -0.39603                      88.67583
                      -4.15598                      -0.23313                      88.78211
                      -3.95108                      -0.02638                      88.92806
                      -3.81531                       0.21124                      89.10452
                      -3.68435                       0.38732                      89.39251
                      -3.70871                       0.65346                      89.60559
                      -3.81690                       0.90289                      89.81275
                      -4.00210                       1.11991                      90.00098
                      -4.25270                       1.29091                      90.15844
                      -4.55294                       1.40513                      90.27524
                      -4.88395                       1.45539                      90.34404
                      -5.22495                       1.43855                      90.36052
                      -5.55449                       1.35565                      90.32365
                      -5.85188                       1.21191                      90.23573
                      -6.09843                       1.01636                      90.10230
                      -6.27865                       0.78128                      89.93174
                      -6.38121                       0.52145                      89.73477
                      -6.39967                       0.25319                      89.52375
                      -6.33287                      -0.00664                      89.31196
                      -6.18501                      -0.24172                      89.11269
                      -5.96538                      -0.43727                      88.93848
                      -5.68777                      -0.58101                      88.80026
                      -5.36964                      -0.66391                      88.70672
                      -5.03096                      -0.68076                      88.66373
                      -4.69303                      -0.63049                      88.67401
                      -4.37707                      -0.51627                      88.73690
                      -4.10294                      -0.34527                      88.84845
                      -3.88786                      -0.12825                      89.00166
                      -3.74534                       0.12117                      89.18689
                      -3.62537                       0.30986                      89.48582
                      -3.65064                       0.58588                      89.70682
                      -3.76284                       0.84456                      89.92167
                      -3.95492                       1.06965                      90.11689
                      -4.21482                       1.24699                      90.28019
                      -4.52620                       1.36545                      90.40133
                      -4.86951                       1.41758                      90.47269
                      -5.22316                       1.40011                      90.48978
                      -5.56494                       1.31414                      90.45154
                      -5.87337                       1.16506                      90.36036
                      -6.12907                       0.96225                      90.22197
                      -6.31598                       0.71844                      90.04508
                      -6.42235                       0.44896                      89.84079
                      -6.44150                       0.17075                      89.62194
                      -6.37222                      -0.09873                      89.40228
                      -6.21887                      -0.34254                      89.19562
                      -5.99108                      -0.54535                      89.01494
                      -5.70317                      -0.69443                      88.87159
                      -5.37322                      -0.78040                      88.77457
                      -5.02197                      -0.79787                      88.73000
                      -4.67149                      -0.74574                      88.74066
                      -4.34381                      -0.62728                      88.80588
                      -4.05950                      -0.44994                      88.92157
                      -3.83643                      -0.22485                      89.08047
                      -3.68863                       0.03383                      89.27257
                      -3.57881                       0.23239                      89.58023
                      -3.60476                       0.51586                      89.80719
                      -3.71998                       0.78152                      90.02784
                      -3.91725                       1.01268                      90.22832
                      -4.18416                       1.19481                      90.39603
                      -4.50395                       1.31647                      90.52044
                      -4.85651                       1.37001                      90.59372
                      -5.21971                       1.35206                      90.61127
                      -5.57071                       1.26377                      90.57200
                      -5.88746                       1.11067                      90.47836
                      -6.15006                       0.90239                      90.33624
                      -6.34201                       0.65200                      90.15457
                      -6.45125                       0.37525                      89.94477
                      -6.47092                       0.08953                      89.72002
                      -6.39977                      -0.18722                      89.49444
                      -6.24228                      -0.43760                      89.28220
                      -6.00835                      -0.64589                      89.09664
                      -5.71267                      -0.79899                      88.94942
                      -5.37382                      -0.88728                      88.84979
                      -5.01309                      -0.90522                      88.80401
                      -4.65316                      -0.85168                      88.81496
                      -4.31663                      -0.73003                      88.88194
                      -4.02465                      -0.54790                      89.00076
                      -3.79557                      -0.31674                      89.16394
                      -3.64377                      -0.05108                      89.36123
                      -3.54371                       0.15493                      89.67564
                      -3.57013                       0.44360                      89.90676
                      -3.68747                       0.71414                      90.13146
                      -3.88836                       0.94954                      90.33562
                      -4.16017                       1.13501                      90.50641
                      -4.48582                       1.25889                      90.63310
                      -4.84486                       1.31342                      90.70772
                      -5.21472                       1.29515                      90.72560
                      -5.57216                       1.20523                      90.68560
                      -5.89473                       1.04932                      90.59025
                      -6.16215                       0.83722                      90.44552
                      -6.35762                       0.58224                      90.26052
                      -6.46886                       0.30041                      90.04687
                      -6.48889                       0.00944                      89.81799
                      -6.41643                      -0.27238                      89.58827
                      -6.25605                      -0.52736                      89.37214
                      -6.01783                      -0.73947                      89.18317
                      -5.71672                      -0.89538                      89.03325
                      -5.37166                      -0.98529                      88.93179
                      -5.00431                      -1.00356                      88.88517
                      -4.63777                      -0.94904                      88.89632
                      -4.29507                      -0.82515                      88.96454
                      -3.99773                      -0.63968                      89.08553
                      -3.76444                      -0.40428                      89.25170
                      -3.60987                      -0.13375                      89.45261
                      -3.51946                       0.07746                      89.77199
                      -3.54616                       0.36921                      90.00558
                      -3.66475                       0.64263                      90.23267
                      -3.86778                       0.88054                      90.43901
                      -4.14249                       1.06799                      90.61162
                      -4.47161                       1.19320                      90.73966
                      -4.83447                       1.24830                      90.81508
                      -5.20827                       1.22984                      90.83315
                      -5.56953                       1.13896                      90.79272
                      -5.89553                       0.98139                      90.69635
                      -6.16580                       0.76702                      90.55008
                      -6.36336                       0.50933                      90.36311
                      -6.47578                       0.22450                      90.14718
                      -6.49602                      -0.06957                      89.91587
                      -6.42280                      -0.35440                      89.68370
                      -6.26071                      -0.61210                      89.46526
                      -6.01994                      -0.82646                      89.27428
                      -5.71563                      -0.98403                      89.12276
                      -5.36688                      -1.07491                      89.02022
                      -4.99563                      -1.09337                      88.97311
                      -4.62518                      -1.03827                      88.98437
                      -4.27882                      -0.91306                      89.05331
                      -3.97832                      -0.72561                      89.17560
                      -3.74254                      -0.48771                      89.34354
                      -3.58632                      -0.21429                      89.54659
                      -3.50571                       0.00000                      89.86927
                      -3.53251                       0.29277                      90.10367
                      -3.65151                       0.56714                      90.33156
                      -3.85525                       0.80588                      90.53861
                      -4.13091                       0.99398                      90.71182
                      -4.46119                       1.11963                      90.84031
                      -4.82532                       1.17492                      90.91600
                      -5.20042                       1.15639                      90.93413
                      -5.56293                       1.06520                      90.89356
                      -5.89007                       0.90708                      90.79685
                      -6.16129                       0.69197                      90.65007
                      -6.35953                       0.43337                      90.46245
                      -6.47236                       0.14755                      90.24577
                      -6.49266                      -0.14755                      90.01364
                      -6.41918                      -0.43337                      89.78066
                      -6.25653                      -0.69197                      89.56146
                      -6.01492                      -0.90708                      89.36982
                      -5.70955                      -1.06520                      89.21777
                      -5.35959                      -1.15639                      89.11487
                      -4.98703                      -1.17492                      89.06759
                      -4.61529                      -1.11963                      89.07890
                      -4.26772                      -0.99398                      89.14808
                      -3.96617                      -0.80588                      89.27079
                      -3.72957                      -0.56714                      89.43932
                      -3.57280                      -0.29277                      89.64308
                      -3.50236                      -0.07746                      89.96746
                      -3.52906                       0.21429                      90.20104
                      -3.64765                       0.48771                      90.42814
                      -3.85068                       0.72561                      90.63447
                      -4.12539                       0.91306                      90.80708
                      -4.45451                       1.03827                      90.93512
                      -4.81737                       1.09337                      91.01054
                      -5.19117                       1.07491                      91.02861
                      -5.55242                       0.98403                      90.98819
                      -5.87843                       0.82646                      90.89181
                      -6.14870                       0.61210                      90.74554
                      -6.34625                       0.35440                      90.55857
                      -6.45868                       0.06957                      90.34264
                      -6.47892                      -0.22450                      90.11133
                      -6.40570                      -0.50933                      89.87916
                      -6.24361                      -0.76702                      89.66072
                      -6.00284                      -0.98139                      89.46974
                      -5.69853                      -1.13896                      89.31822
                      -5.34978                      -1.22983                      89.21568
                      -4.97853                      -1.24830                      89.16857
                      -4.60808                      -1.19320                      89.17983
                      -4.26172                      -1.06799                      89.24877
                      -3.96121                      -0.88054                      89.37106
                      -3.72544                      -0.64263                      89.53900
                      -3.56922                      -0.36921                      89.74206
                      -3.50951                      -0.15493                      90.06656
                      -3.53593                       0.13375                      90.29768
                      -3.65327                       0.40428                      90.52238
                      -3.85416                       0.63968                      90.72654
                      -4.12597                       0.82515                      90.89733
                      -4.45162                       0.94904                      91.02402
                      -4.81066                       1.00356                      91.09864
                      -5.18052                       0.98529                      91.11652
                      -5.53796                       0.89538                      91.07653
                      -5.86052                       0.73947                      90.98117
                      -6.12794                       0.52736                      90.83644
                      -6.32342                       0.27238                      90.65144
                      -6.43466                      -0.00944                      90.43779
                      -6.45469                      -0.30041                      90.20891
                      -6.38223                      -0.58224                      89.97919
                      -6.22185                      -0.83722                      89.76306
                      -5.98363                      -1.04932                      89.57409
                      -5.68252                      -1.20523                      89.42417
                      -5.33746                      -1.29515                      89.32272
                      -4.97011                      -1.31342                      89.27610
                      -4.60357                      -1.25889                      89.28724
                      -4.26087                      -1.13501                      89.35546
                      -3.96353                      -0.94954                      89.47645
                      -3.73024                      -0.71414                      89.64263
                      -3.57566                      -0.44360                      89.84354
                      -3.52751                      -0.23239                      90.16661
                      -3.55345                       0.05108                      90.39357
                      -3.66868                       0.31674                      90.61422
                      -3.86595                       0.54790                      90.81470
                      -4.13286                       0.73003                      90.98241
                      -4.45265                       0.85168                      91.10682
                      -4.80521                       0.90522                      91.18010
                      -5.16841                       0.88728                      91.19766
                      -5.51941                       0.79899                      91.15838
                      -5.83616                       0.64589                      91.06474
                      -6.09876                       0.43760                      90.92262
                      -6.29071                       0.18722                      90.74096
                      -6.39995                      -0.08953                      90.53116
                      -6.41961                      -0.37525                      90.30640
                      -6.34847                      -0.65200                      90.08082
                      -6.19098                      -0.90239                      89.86858
                      -5.95704                      -1.11067                      89.68302
                      -5.66136                      -1.26377                      89.53580
                      -5.32252                      -1.35206                      89.43617
                      -4.96179                      -1.37001                      89.39039
                      -4.60186                      -1.31647                      89.40134
                      -4.26533                      -1.19481                      89.46832
                      -3.97335                      -1.01268                      89.58714
                      -3.74426                      -0.78152                      89.75032
                      -3.59247                      -0.51586                      89.94761
                      -3.55697                      -0.30986                      90.26767
                      -3.58223                      -0.03383                      90.48866
                      -3.69443                       0.22485                      90.70352
                      -3.88652                       0.44994                      90.89873
                      -4.14642                       0.62728                      91.06204
                      -4.45780                       0.74574                      91.18317
                      -4.80111                       0.79787                      91.25453
                      -5.15476                       0.78040                      91.27162
                      -5.49654                       0.69443                      91.23338
                      -5.80497                       0.54535                      91.14220
                      -6.06067                       0.34254                      91.00382
                      -6.24758                       0.09873                      90.82692
                      -6.35395                      -0.17075                      90.62263
                      -6.37310                      -0.44896                      90.40379
                      -6.30382                      -0.71844                      90.18413
                      -6.15047                      -0.96225                      89.97747
                      -5.92268                      -1.16506                      89.79678
                      -5.63477                      -1.31414                      89.65343
                      -5.30482                      -1.40011                      89.55642
                      -4.95357                      -1.41758                      89.51184
                      -4.60309                      -1.36545                      89.52250
                      -4.27540                      -1.24699                      89.58773
                      -3.99109                      -1.06965                      89.70342
                      -3.76803                      -0.84456                      89.86231
                      -3.62022                      -0.58588                      90.05442
                      -3.59885                      -0.38732                      90.36981
                      -3.62321                      -0.12117                      90.58290
                      -3.73139                       0.12825                      90.79006
                      -3.91660                       0.34527                      90.97828
                      -4.16720                       0.51627                      91.13574
                      -4.46744                       0.63049                      91.25254
                      -4.79845                       0.68076                      91.32135
                      -5.13944                       0.66391                      91.33783
                      -5.46899                       0.58101                      91.30095
                      -5.76638                       0.43727                      91.21304
                      -6.01293                       0.24172                      91.07961
                      -6.19315                       0.00664                      90.90905
                      -6.29571                      -0.25319                      90.71207
                      -6.31417                      -0.52145                      90.50106
                      -6.24737                      -0.78128                      90.28926
                      -6.09951                      -1.01636                      90.09000
                      -5.87987                      -1.21191                      89.91578
                      -5.60227                      -1.35565                      89.77756
                      -5.28413                      -1.43855                      89.68402
                      -4.94546                      -1.45539                      89.64104
                      -4.60752                      -1.40513                      89.65132
                      -4.29157                      -1.29091                      89.71421
                      -4.01743                      -1.11991                      89.82576
                      -3.80235                      -0.90289                      89.97896
                      -3.65984                      -0.65346                      90.16419
                      -3.65460                      -0.46478                      90.47317
                      -3.67781                      -0.21124                      90.67617
                      -3.78087                       0.02638                      90.87352
                      -3.95731                       0.23313                      91.05284
                      -4.19605                       0.39603                      91.20284
                      -4.48207                       0.50484                      91.31411
                      -4.79742                       0.55273                      91.37966
                      -5.12227                       0.53668                      91.39536
                      -5.43621                       0.45771                      91.36023
                      -5.71952                       0.32077                      91.27648
                      -5.95440                       0.13448                      91.14936
                      -6.12609                      -0.08947                      90.98688
                      -6.22380                      -0.33700                      90.79922
                      -6.24138                      -0.59256                      90.59820
                      -6.17775                      -0.84009                      90.39643
                      -6.03688                      -1.06404                      90.20660
                      -5.82765                      -1.25034                      90.04063
                      -5.56318                      -1.38728                      89.90895
                      -5.26011                      -1.46625                      89.81984
                      -4.93747                      -1.48230                      89.77890
                      -4.61553                      -1.43441                      89.78869
                      -4.31453                      -1.32560                      89.84860
                      -4.05337                      -1.16270                      89.95487
                      -3.84848                      -0.95594                      90.10082
                      -3.71271                      -0.71833                      90.27728
                      -3.72644                      -0.54225                      90.57793
                      -3.74820                      -0.30445                      90.76832
                      -3.84486                      -0.08160                      90.95342
                      -4.01034                       0.11232                      91.12159
                      -4.23425                       0.26510                      91.26228
                      -4.50251                       0.36715                      91.36664
                      -4.79826                       0.41206                      91.42812
                      -5.10294                       0.39701                      91.44284
                      -5.39738                       0.32295                      91.40990
                      -5.66310                       0.19452                      91.33134
                      -5.88338                       0.01979                      91.21213
                      -6.04441                      -0.19025                      91.05973
                      -6.13604                      -0.42240                      90.88374
                      -6.15254                      -0.66209                      90.69520
                      -6.09285                      -0.89425                      90.50596
                      -5.96074                      -1.10429                      90.32792
                      -5.76450                      -1.27901                      90.17226
                      -5.51646                      -1.40744                      90.04876
                      -5.23221                      -1.48151                      89.96519
                      -4.92961                      -1.49656                      89.92678
                      -4.62767                      -1.45164                      89.93597
                      -4.34537                      -1.34959                      89.99216
                      -4.10044                      -1.19681                      90.09183
                      -3.90827                      -1.00290                      90.22871
                      -3.78093                      -0.78004                      90.39421
                      -3.81782                      -0.61971                      90.68440
                      -3.83779                      -0.40149                      90.85912
                      -3.92649                      -0.19699                      91.02897
                      -4.07835                      -0.01904                      91.18330
                      -4.28382                       0.12116                      91.31241
                      -4.52999                       0.21481                      91.40817
                      -4.80140                       0.25603                      91.46459
                      -5.08098                       0.24221                      91.47810
                      -5.35118                       0.17425                      91.44787
                      -5.59502                       0.05639                      91.37578
                      -5.79717                      -0.10395                      91.26638
                      -5.94493                      -0.29669                      91.12653
                      -6.02903                      -0.50973                      90.96503
                      -6.04416                      -0.72969                      90.79201
                      -5.98939                      -0.94273                      90.61836
                      -5.86816                      -1.13547                      90.45498
                      -5.68808                      -1.29581                      90.31214
                      -5.46046                      -1.41367                      90.19881
                      -5.19962                      -1.48164                      90.12211
                      -4.92193                      -1.49545                      90.08687
                      -4.64485                      -1.45423                      90.09530
                      -4.38579                      -1.36058                      90.14686
                      -4.16103                      -1.22038                      90.23833
                      -3.98468                      -1.04243                      90.36394
                      -3.86783                      -0.83793                      90.51581
                      -3.93467                      -0.69717                      90.79311
                      -3.95239                      -0.50353                      90.94815
                      -4.03111                      -0.32204                      91.09888
                      -4.16587                      -0.16413                      91.23583
                      -4.34820                      -0.03972                      91.35040
                      -4.56666                       0.04339                      91.43539
                      -4.80751                       0.07996                      91.48545
                      -5.05561                       0.06771                      91.49744
                      -5.29539                       0.00739                      91.47061
                      -5.51178                      -0.09720                      91.40664
                      -5.69117                      -0.23948                      91.30956
                      -5.82229                      -0.41053                      91.18546
                      -5.89692                      -0.59958                      91.04214
                      -5.91035                      -0.79477                      90.88860
                      -5.86175                      -0.98382                      90.73450
                      -5.75416                      -1.15487                      90.58951
                      -5.59436                      -1.29715                      90.46275
                      -5.39237                      -1.40174                      90.36218
                      -5.16089                      -1.46206                      90.29412
                      -4.91447                      -1.47431                      90.26285
                      -4.66859                      -1.43774                      90.27032
                      -4.43869                      -1.35463                      90.31608
                      -4.23923                      -1.23021                      90.39725
                      -4.08274                      -1.07230                      90.50872
                      -3.97905                      -0.89082                      90.64350
                      -4.08850                      -0.77464                      90.90504
                      -4.10331                      -0.61280                      91.03461
                      -4.16909                      -0.46114                      91.16058
                      -4.28171                      -0.32917                      91.27504
                      -4.43409                      -0.22519                      91.37078
                      -4.61666                      -0.15574                      91.44181
                      -4.81794                      -0.12518                      91.48364
                      -5.02528                      -0.13542                      91.49366
                      -5.22567                      -0.18582                      91.47124
                      -5.40650                      -0.27323                      91.41778
                      -5.55642                      -0.39214                      91.33665
                      -5.66601                      -0.53508                      91.23294
                      -5.72837                      -0.69308                      91.11316
                      -5.73960                      -0.85620                      90.98485
                      -5.69898                      -1.01419                      90.85606
                      -5.60907                      -1.15714                      90.73490
                      -5.47552                      -1.27605                      90.62896
                      -5.30671                      -1.36345                      90.54491
                      -5.11327                      -1.41386                      90.48803
                      -4.90733                      -1.42410                      90.46190
                      -4.70184                      -1.39354                      90.46815
                      -4.50972                      -1.32408                      90.50639
                      -4.34303                      -1.22011                      90.57422
                      -4.21224                      -1.08814                      90.66738
                      -4.12558                      -0.93647                      90.78001
                      -4.30875                      -0.85210                      91.02279
                      -4.31946                      -0.73510                      91.11647
                      -4.36702                      -0.62544                      91.20755
                      -4.44844                      -0.53003                      91.29030
                      -4.55861                      -0.45485                      91.35952
                      -4.69061                      -0.40464                      91.41087
                      -4.83613                      -0.38254                      91.44112
                      -4.98605                      -0.38995                      91.44836
                      -5.13092                      -0.42639                      91.43215
                      -5.26167                      -0.48958                      91.39350
                      -5.37006                      -0.57556                      91.33484
                      -5.44929                      -0.67890                      91.25986
                      -5.49438                      -0.79313                      91.17326
                      -5.50249                      -0.91107                      91.08049
                      -5.47313                      -1.02530                      90.98738
                      -5.40812                      -1.12865                      90.89977
                      -5.31156                      -1.21462                      90.82318
                      -5.18952                      -1.27781                      90.76242
                      -5.04966                      -1.31426                      90.72129
                      -4.90076                      -1.32166                      90.70240
                      -4.75220                      -1.29956                      90.70692
                      -4.61329                      -1.24935                      90.73457
                      -4.49277                      -1.17417                      90.78361
                      -4.39822                      -1.07876                      90.85096
                      -4.33556                      -0.96911                      90.93239
                      -4.89740                      -0.92957                      91.17277
                      -4.89740                      -0.92957                      91.17277
                      -4.89740                      -0.92957                      91.17277
                      -4.89740                      -0.92957                      91.17277
                      -4.89740                      -0.92957                      91.17277
                      -4.89740                      -0.92957                      91.17277
                      -4.89740                      -0.92957                      91.17277
                      -4.89740                      -0.92957                      91.17277
                      -4.89740                      -0.92957                      91.17277
                      -4.89740                      -0.92957                      91.17277
                      -4.89740                      -0.92957                      91.17277
                      -4.89740                      -0.92957                      91.17277
                      -4.89740                      -0.92957                      91.17277
                      -4.89740                      -0.92957                      91.17277
                      -4.89740                      -0.92957                      91.17277
                      -4.89740                      -0.92957                      91.17277
                      -4.89740                      -0.92957                      91.17277
                      -4.89740                      -0.92957                      91.17277
                      -4.89740                      -0.92957                      91.17277
                      -4.89740                      -0.92957                      91.17277
                      -4.89740                      -0.92957                      91.17277
                      -4.89740                      -0.92957                      91.17277
                      -4.89740                      -0.92957                      91.17277
                      -4.89740                      -0.92957                      91.17277
                      -4.89740                      -0.92957                      91.17277
        </DataArray>
      </Points>
      <Polys>
        <DataArray type="Int32" Name="connectivity" format="ascii">
      0      1     26     25
      1      2     27     26
      2      3     28     27
      3      4     29     28
      4      5     30     29
      5      6     31     30
      6      7     32     31
      7      8     33     32
      8      9     34     33
      9     10     35     34
     10     11     36     35
     11     12     37     36
     12     13     38     37
     13     14     39     38
     14     15     40     39
     15     16     41     40
     16     17     42     41
     17     18     43     42
     18     19     44     43
     19     20     45     44
     20     21     46     45
     21     22     47     46
     22     23     48     47
     23     24     49     48
     24      0     25     49
     25     26     51     50
     26     27     52     51
     27     28     53     52
     28     29     54     53
     29     30     55     54
     30     31     56     55
     31     32     57     56
     32     33     58     57
     33     34     59     58
     34     35     60     59
     35     36     61     60
     36     37     62     61
     37     38     63     62
     38     39     64     63
     39     40     65     64
     40     41     66     65
     41     42     67     66
     42     43     68     67
     43     44     69     68
     44     45     70     69
     45     46     71     70
     46     47     72     71
     47     48     73     72
     48     49     74     73
     49     25     50     74
     50     51     76     75
     51     52     77     76
     52     53     78     77
     53     54     79     78
     54     55     80     79
     55     56     81     80
     56     57     82     81
     57     58     83     82
     58     59     84     83
     59     60     85     84
     60     61     86     85
     61     62     87     86
     62     63     88     87
     63     64     89     88
     64     65     90     89
     65     66     91     90
     66     67     92     91
     67     68     93     92
     68     69     94     93
     69     70     95     94
     70     71     96     95
     71     72     97     96
     72     73     98     97
     73     74     99     98
     74     50     75     99
     75     76    101    100
     76     77    102    101
     77     78    103    102
     78     79    104    103
     79     80    105    104
     80     81    106    105
     81     82    107    106
     82     83    108    107
     83     84    109    108
     84     85    110    109
     85     86    111    110
     86     87    112    111
     87     88    113    112
     88     89    114    113
     89     90    115    114
     90     91    116    115
     91     92    117    116
     92     93    118    117
     93     94    119    118
     94     95    120    119
     95     96    121    120
     96     97    122    121
     97     98    123    122
     98     99    124    123
     99     75    100    124
    100    101    126    125
    101    102    127    126
    102    103    128    127
    103    104    129    128
    104    105    130    129
    105    106    131    130
    106    107    132    131
    107    108    133    132
    108    109    134    133
    109    110    135    134
    110    111    136    135
    111    112    137    136
    112    113    138    137
    113    114    139    138
    114    115    140    139
    115    116    141    140
    116    117    142    141
    117    118    143    142
    118    119    144    143
    119    120    145    144
    120    121    146    145
    121    122    147    146
    122    123    148    147
    123    124    149    148
    124    100    125    149
    125    126    151    150
    126    127    152    151
    127    128    153    152
    128    129    154    153
    129    130    155    154
    130    131    156    155
    131    132    157    156
    132    133    158    157
    133    134    159    158
    134    135    160    159
    135    136    161    160
    136    137    162    161
    137    138    163    162
    138    139    164    163
    139    140    165    164
    140    141    166    165
    141    142    167    166
    142    143    168    167
    143    144    169    168
    144    145    170    169
    145    146    171    170
    146    147    172    171
    147    148    173    172
    148    149    174    173
    149    125    150    174
    150    151    176    175
    151    152    177    176
    152    153    178    177
    153    154    179    178
    154    155    180    179
    155    156    181    180
    156    157    182    181
    157    158    183    182
    158    159    184    183
    159    160    185    184
    160    161    186    185
    161    162    187    186
    162    163    188    187
    163    164    189    188
    164    165    190    189
    165    166    191    190
    166    167    192    191
    167    168    193    192
    168    169    194    193
    169    170    195    194
    170    171    196    195
    171    172    197    196
    172    173    198    197
    173    174    199    198
    174    150    175    199
    175    176    201    200
    176    177    202    201
    177    178    203    202
    178    179    204    203
    179    180    205    204
    180    181    206    205
    181    182    207    206
    182    183    208    207
    183    184    209    208
    184    185    210    209
    185    186    211    210
    186    187    212    211
    187    188    213    212
    188    189    214    213
    189    190    215    214
    190    191    216    215
    191    192    217    216
    192    193    218    217
    193    194    219    218
    194    195    220    219
    195    196    221    220
    196    197    222    221
    197    198    223    222
    198    199    224    223
    199    175    200    224
    200    201    226    225
    201    202    227    226
    202    203    228    227
    203    204    229    228
    204    205    230    229
    205    206    231    230
    206    207    232    231
    207    208    233    232
    208    209    234    233
    209    210    235    234
    210    211    236    235
    211    212    237    236
    212    213    238    237
    213    214    239    238
    214    215    240    239
    215    216    241    240
    216    217    242    241
    217    218    243    242
    218    219    244    243
    219    220    245    244
    220    221    246    245
    221    222    247    246
    222    223    248    247
    223    224    249    248
    224    200    225    249
    225    226    251    250
    226    227    252    251
    227    228    253    252
    228    229    254    253
    229    230    255    254
    230    231    256    255
    231    232    257    256
    232    233    258    257
    233    234    259    258
    234    235    260    259
    235    236    261    260
    236    237    262    261
    237    238    263    262
    238    239    264    263
    239    240    265    264
    240    241    266    265
    241    242    267    266
    242    243    268    267
    243    244    269    268
    244    245    270    269
    245    246    271    270
    246    247    272    271
    247    248    273    272
    248    249    274    273
    249    225    250    274
    250    251    276    275
    251    252    277    276
    252    253    278    277
    253    254    279    278
    254    255    280    279
    255    256    281    280
    256    257    282    281
    257    258    283    282
    258    259    284    283
    259    260    285    284
    260    261    286    285
    261    262    287    286
    262    263    288    287
    263    264    289    288
    264    265    290    289
    265    266    291    290
    266    267    292    291
    267    268    293    292
    268    269    294    293
    269    270    295    294
    270    271    296    295
    271    272    297    296
    272    273    298    297
    273    274    299    298
    274    250    275    299
    275    276    301    300
    276    277    302    301
    277    278    303    302
    278    279    304    303
    279    280    305    304
    280    281    306    305
    281    282    307    306
    282    283    308    307
    283    284    309    308
    284    285    310    309
    285    286    311    310
    286    287    312    311
    287    288    313    312
    288    289    314    313
    289    290    315    314
    290    291    316    315
    291    292    317    316
    292    293    318    317
    293    294    319    318
    294    295    320    319
    295    296    321    320
    296    297    322    321
    297    298    323    322
    298    299    324    323
    299    275    300    324
    300    301    326    325
    301    302    327    326
    302    303    328    327
    303    304    329    328
    304    305    330    329
    305    306    331    330
    306    307    332    331
    307    308    333    332
    308    309    334    333
    309    310    335    334
    310    311    336    335
    311    312    337    336
    312    313    338    337
    313    314    339    338
    314    315    340    339
    315    316    341    340
    316    317    342    341
    317    318    343    342
    318    319    344    343
    319    320    345    344
    320    321    346    345
    321    322    347    346
    322    323    348    347
    323    324    349    348
    324    300    325    349
    325    326    351    350
    326    327    352    351
    327    328    353    352
    328    329    354    353
    329    330    355    354
    330    331    356    355
    331    332    357    356
    332    333    358    357
    333    334    359    358
    334    335    360    359
    335    336    361    360
    336    337    362    361
    337    338    363    362
    338    339    364    363
    339    340    365    364
    340    341    366    365
    341    342    367    366
    342    343    368    367
    343    344    369    368
    344    345    370    369
    345    346    371    370
    346    347    372    371
    347    348    373    372
    348    349    374    373
    349    325    350    374
    350    351    376    375
    351    352    377    376
    352    353    378    377
    353    354    379    378
    354    355    380    379
    355    356    381    380
    356    357    382    381
    357    358    383    382
    358    359    384    383
    359    360    385    384
    360    361    386    385
    361    362    387    386
    362    363    388    387
    363    364    389    388
    364    365    390    389
    365    366    391    390
    366    367    392    391
    367    368    393    392
    368    369    394    393
    369    370    395    394
    370    371    396    395
    371    372    397    396
    372    373    398    397
    373    374    399    398
    374    350    375    399
    375    376    401    400
    376    377    402    401
    377    378    403    402
    378    379    404    403
    379    380    405    404
    380    381    406    405
    381    382    407    406
    382    383    408    407
    383    384    409    408
    384    385    410    409
    385    386    411    410
    386    387    412    411
    387    388    413    412
    388    389    414    413
    389    390    415    414
    390    391    416    415
    391    392    417    416
    392    393    418    417
    393    394    419    418
    394    395    420    419
    395    396    421    420
    396    397    422    421
    397    398    423    422
    398    399    424    423
    399    375    400    424
    400    401    426    425
    401    402    427    426
    402    403    428    427
    403    404    429    428
    404    405    430    429
    405    406    431    430
    406    407    432    431
    407    408    433    432
    408    409    434    433
    409    410    435    434
    410    411    436    435
    411    412    437    436
    412    413    438    437
    413    414    439    438
    414    415    440    439
    415    416    441    440
    416    417    442    441
    417    418    443    442
    418    419    444    443
    419    420    445    444
    420    421    446    445
    421    422    447    446
    422    423    448    447
    423    424    449    448
    424    400    425    449
    425    426    451    450
    426    427    452    451
    427    428    453    452
    428    429    454    453
    429    430    455    454
    430    431    456    455
    431    432    457    456
    432    433    458    457
    433    434    459    458
    434    435    460    459
    435    436    461    460
    436    437    462    461
    437    438    463    462
    438    439    464    463
    439    440    465    464
    440    441    466    465
    441    442    467    466
    442    443    468    467
    443    444    469    468
    444    445    470    469
    445    446    471    470
    446    447    472    471
    447    448    473    472
    448    449    474    473
    449    425    450    474
    450    451    476    475
    451    452    477    476
    452    453    478    477
    453    454    479    478
    454    455    480    479
    455    456    481    480
    456    457    482    481
    457    458    483    482
    458    459    484    483
    459    460    485    484
    460    461    486    485
    461    462    487    486
    462    463    488    487
    463    464    489    488
    464    465    490    489
    465    466    491    490
    466    467    492    491
    467    468    493    492
    468    469    494    493
    469    470    495    494
    470    471    496    495
    471    472    497    496
    472    473    498    497
    473    474    499    498
    474    450    475    499
    475    476    501    500
    476    477    502    501
    477    478    503    502
    478    479    504    503
    479    480    505    504
    480    481    506    505
    481    482    507    506
    482    483    508    507
    483    484    509    508
    484    485    510    509
    485    486    511    510
    486    487    512    511
    487    488    513    512
    488    489    514    513
    489    490    515    514
    490    491    516    515
    491    492    517    516
    492    493    518    517
    493    494    519    518
    494    495    520    519
    495    496    521    520
    496    497    522    521
    497    498    523    522
    498    499    524    523
    499    475    500    524
    500    501    526    525
    501    502    527    526
    502    503    528    527
    503    504    529    528
    504    505    530    529
    505    506    531    530
    506    507    532    531
    507    508    533    532
    508    509    534    533
    509    510    535    534
    510    511    536    535
    511    512    537    536
    512    513    538    537
    513    514    539    538
    514    515    540    539
    515    516    541    540
    516    517    542    541
    517    518    543    542
    518    519    544    543
    519    520    545    544
    520    521    546    545
    521    522    547    546
    522    523    548    547
    523    524    549    548
    524    500    525    549
    525    526    551    550
    526    527    552    551
    527    528    553    552
    528    529    554    553
    529    530    555    554
    530    531    556    555
    531    532    557    556
    532    533    558    557
    533    534    559    558
    534    535    560    559
    535    536    561    560
    536    537    562    561
    537    538    563    562
    538    539    564    563
    539    540    565    564
    540    541    566    565
    541    542    567    566
    542    543    568    567
    543    544    569    568
    544    545    570    569
    545    546    571    570
    546    547    572    571
    547    548    573    572
    548    549    574    573
    549    525    550    574
    550    551    576    575
    551    552    577    576
    552    553    578    577
    553    554    579    578
    554    555    580    579
    555    556    581    580
    556    557    582    581
    557    558    583    582
    558    559    584    583
    559    560    585    584
    560    561    586    585
    561    562    587    586
    562    563    588    587
    563    564    589    588
    564    565    590    589
    565    566    591    590
    566    567    592    591
    567    568    593    592
    568    569    594    593
    569    570    595    594
    570    571    596    595
    571    572    597    596
    572    573    598    597
    573    574    599    598
    574    550    575    599
    575    576    601    600
    576    577    602    601
    577    578    603    602
    578    579    604    603
    579    580    605    604
    580    581    606    605
    581    582    607    606
    582    583    608    607
    583    584    609    608
    584    585    610    609
    585    586    611    610
    586    587    612    611
    587    588    613    612
    588    589    614    613
    589    590    615    614
    590    591    616    615
    591    592    617    616
    592    593    618    617
    593    594    619    618
    594    595    620    619
    595    596    621    620
    596    597    622    621
    597    598    623    622
    598    599    624    623
    599    575    600    624
        </DataArray>
        <DataArray type="Int32" Name="offsets" format="ascii">
      4
      8
     12
     16
     20
     24
     28
     32
     36
     40
     44
     48
     52
     56
     60
     64
     68
     72
     76
     80
     84
     88
     92
     96
    100
    104
    108
    112
    116
    120
    124
    128
    132
    136
    140
    144
    148
    152
    156
    160
    164
    168
    172
    176
    180
    184
    188
    192
    196
    200
    204
    208
    212
    216
    220
    224
    228
    232
    236
    240
    244
    248
    252
    256
    260
    264
    268
    272
    276
    280
    284
    288
    292
    296
    300
    304
    308
    312
    316
    320
    324
    328
    332
    336
    340
    344
    348
    352
    356
    360
    364
    368
    372
    376
    380
    384
    388
    392
    396
    400
    404
    408
    412
    416
    420
    424
    428
    432
    436
    440
    444
    448
    452
    456
    460
    464
    468
    472
    476
    480
    484
    488
    492
    496
    500
    504
    508
    512
    516
    520
    524
    528
    532
    536
    540
    544
    548
    552
    556
    560
    564
    568
    572
    576
    580
    584
    588
    592
    596
    600
    604
    608
    612
    616
    620
    624
    628
    632
    636
    640
    644
    648
    652
    656
    660
    664
    668
    672
    676
    680
    684
    688
    692
    696
    700
    704
    708
    712
    716
    720
    724
    728
    732
    736
    740
    744
    748
    752
    756
    760
    764
    768
    772
    776
    780
    784
    788
    792
    796
    800
    804
    808
    812
    816
    820
    824
    828
    832
    836
    840
    844
    848
    852
    856
    860
    864
    868
    872
    876
    880
    884
    888
    892
    896
    900
    904
    908
    912
    916
    920
    924
    928
    932
    936
    940
    944
    948
    952
    956
    960
    964
    968
    972
    976
    980
    984
    988
    992
    996
   1000
   1004
   1008
   1012
   1016
   1020
   1024
   1028
   1032
   1036
   1040
   1044
   1048
   1052
   1056
   1060
   1064
   1068
   1072
   1076
   1080
   1084
   1088
   1092
   1096
   1100
   1104
   1108
   1112
   1116
   1120
   1124
   1128
   1132
   1136
   1140
   1144
   1148
   1152
   1156
   1160
   1164
   1168
   1172
   1176
   1180
   1184
   1188
   1192
   1196
   1200
   1204
   1208
   1212
   1216
   1220
   1224
   1228
   1232
   1236
   1240
   1244
   1248
   1252
   1256
   1260
   1264
   1268
   1272
   1276
   1280
   1284
   1288
   1292
   1296
   1300
   1304
   1308
   1312
   1316
   1320
   1324
   1328
   1332
   1336
   1340
   1344
   1348
   1352
   1356
   1360
   1364
   1368
   1372
   1376
   1380
   1384
   1388
   1392
   1396
   1400
   1404
   1408
   1412
   1416
   1420
   1424
   1428
   1432
   1436
   1440
   1444
   1448
   1452
   1456
   1460
   1464
   1468
   1472
   1476
   1480
   1484
   1488
   1492
   1496
   1500
   1504
   1508
   1512
   1516
   1520
   1524
   1528
   1532
   1536
   1540
   1544
   1548
   1552
   1556
   1560
   1564
   1568
   1572
   1576
   1580
   1584
   1588
   1592
   1596
   1600
   1604
   1608
   1612
   1616
   1620
   1624
   1628
   1632
   1636
   1640
   1644
   1648
   1652
   1656
   1660
   1664
   1668
   1672
   1676
   1680
   1684
   1688
   1692
   1696
   1700
   1704
   1708
   1712
   1716
   1720
   1724
   1728
   1732
   1736
   1740
   1744
   1748
   1752
   1756
   1760
   1764
   1768
   1772
   1776
   1780
   1784
   1788
   1792
   1796
   1800
   1804
   1808
   1812
   1816
   1820
   1824
   1828
   1832
   1836
   1840
   1844
   1848
   1852
   1856
   1860
   1864
   1868
   1872
   1876
   1880
   1884
   1888
   1892
   1896
   1900
   1904
   1908
   1912
   1916
   1920
   1924
   1928
   1932
   1936
   1940
   1944
   1948
   1952
   1956
   1960
   1964
   1968
   1972
   1976
   1980
   1984
   1988
   1992
   1996
   2000
   2004
   2008
   2012
   2016
   2020
   2024
   2028
   2032
   2036
   2040
   2044
   2048
   2052
   2056
   2060
   2064
   2068
   2072
   2076
   2080
   2084
   2088
   2092
   2096
   2100
   2104
   2108
   2112
   2116
   2120
   2124
   2128
   2132
   2136
   2140
   2144
   2148
   2152
   2156
   2160
   2164
   2168
   2172
   2176
   2180
   2184
   2188
   2192
   2196
   2200
   2204
   2208
   2212
   2216
   2220
   2224
   2228
   2232
   2236
   2240
   2244
   2248
   2252
   2256
   2260
   2264
   2268
   2272
   2276
   2280
   2284
   2288
   2292
   2296
   2300
   2304
   2308
   2312
   2316
   2320
   2324
   2328
   2332
   2336
   2340
   2344
   2348
   2352
   2356
   2360
   2364
   2368
   2372
   2376
   2380
   2384
   2388
   2392
   2396
   2400
        </DataArray>
      </Polys>
    </Piece>
  </PolyData>
</VTKFile>
