<?xml version="1.0"?>
<VTKFile type="PolyData" version="0.1" byte_order="LittleEndian">
  <PolyData>
    <Piece NumberOfPoints="     19" NumberOfVerts="  0" NumberOfLines="     18"
           NumberOfStrips="  0" NumberOfPolys="      0">
      <Points>
        <DataArray type="Float32" NumberOfComponents="3" format="ascii">
                      -5.07082                       1.49717                      89.94124
                      -5.13586                       2.86141                      89.89120
                      -5.27997                       5.59290                      89.88734
                      -5.43073                       8.32587                      89.92905
                      -5.62316                      11.74303                      90.00840
                      -5.81388                      15.83971                      89.95652
                      -5.99198                      19.93182                      89.77309
                      -6.17259                      24.02372                      89.58729
                      -6.35345                      28.11544                      89.39712
                      -6.53524                      32.20702                      89.20455
                      -6.71896                      36.29856                      89.01335
                      -6.90402                      40.39004                      88.82195
                      -7.09106                      44.48141                      88.63043
                      -7.28079                      48.57265                      88.43889
                      -7.47146                      52.66386                      88.24734
                      -7.63099                      56.07319                      88.08770
                      -7.75985                      58.80023                      87.95217
                      -7.89481                      61.52484                      87.76199
                      -7.95933                      62.88887                      87.70845
        </DataArray>
      </Points>
      <PointData>
        <DataArray type="Float32" Name="TranslationalVelocity" NumberOfComponents="3" format="ascii">
                       0.06832                       0.03388                       0.78094
                       0.13058                       0.06295                       1.49253
                       0.25523                       0.07154                       2.91729
                       0.37995                       0.05667                       4.34283
                       0.53589                       0.02406                       6.12524
                       0.72284                       0.05982                       8.26209
                       0.90958                       0.16363                      10.39656
                       1.09631                       0.26878                      12.53093
                       1.28304                       0.37623                      14.66519
                       1.46976                       0.48497                      16.79939
                       1.65647                       0.59309                      18.93356
                       1.84318                       0.70137                      21.06770
                       2.02989                       0.80981                      23.20178
                       2.21660                       0.91837                      25.33580
                       2.40330                       1.02699                      27.46980
                       2.55888                       1.11753                      29.24813
                       2.68333                       1.19411                      30.67057
                       2.80766                       1.29947                      32.09175
                       2.86991                       1.33034                      32.80323
        </DataArray>
        <DataArray type="Float32" Name="RotationalVelocity" NumberOfComponents="3" format="ascii">
                       0.52161                      -0.00000                      -0.04563
                       0.52161                      -0.00000                      -0.04563
                       0.52161                      -0.00000                      -0.04563
                       0.52161                      -0.00000                      -0.04563
                       0.52161                      -0.00000                      -0.04563
                       0.52161                      -0.00000                      -0.04563
                       0.52161                      -0.00000                      -0.04563
                       0.52161                      -0.00000                      -0.04563
                       0.52161                      -0.00000                      -0.04563
                       0.52161                      -0.00000                      -0.04563
                       0.52161                      -0.00000                      -0.04563
                       0.52161                      -0.00000                      -0.04563
                       0.52161                      -0.00000                      -0.04563
                       0.52161                      -0.00000                      -0.04563
                       0.52161                      -0.00000                      -0.04563
                       0.52161                      -0.00000                      -0.04563
                       0.52161                      -0.00000                      -0.04563
                       0.52161                      -0.00000                      -0.04563
                       0.52161                      -0.00000                      -0.04563
        </DataArray>
        <DataArray type="Float32" Name="TranslationalAcceleration" NumberOfComponents="3" format="ascii">
                       0.00155                      -0.41046                       0.01767
                       0.00287                      -0.78447                       0.03284
                       0.00326                      -1.53333                       0.03732
                       0.00259                      -2.28258                       0.02956
                       0.00110                      -3.21942                       0.01255
                       0.00273                      -4.34255                       0.03120
                       0.00747                      -5.46442                       0.08535
                       0.01227                      -6.58624                       0.14020
                       0.01717                      -7.70801                       0.19624
                       0.02213                      -8.82974                       0.25296
                       0.02707                      -9.95146                       0.30936
                       0.03201                     -11.07316                       0.36584
                       0.03696                     -12.19483                       0.42240
                       0.04191                     -13.31647                       0.47903
                       0.04687                     -14.43809                       0.53568
                       0.05100                     -15.37278                       0.58291
                       0.05449                     -16.12042                       0.62285
                       0.05930                     -16.86739                       0.67781
                       0.06071                     -17.24134                       0.69391
        </DataArray>
        <DataArray type="Float32" Name="OrientationX" NumberOfComponents="3" format="ascii">
                       0.99508                       0.04358                      -0.08895
                       0.99508                       0.04358                      -0.08895
                       0.99508                       0.04358                      -0.08895
                       0.99508                       0.04358                      -0.08895
                       0.99508                       0.04358                      -0.08895
                       0.99508                       0.04358                      -0.08895
                       0.99508                       0.04358                      -0.08895
                       0.99508                       0.04358                      -0.08895
                       0.99508                       0.04358                      -0.08895
                       0.99508                       0.04358                      -0.08895
                       0.99508                       0.04358                      -0.08895
                       0.99508                       0.04358                      -0.08895
                       0.99508                       0.04358                      -0.08895
                       0.99508                       0.04358                      -0.08895
                       0.99508                       0.04358                      -0.08895
                       0.99508                       0.04358                      -0.08895
                       0.99508                       0.04358                      -0.08895
                       0.99508                       0.04358                      -0.08895
                       0.99508                       0.04358                      -0.08895
        </DataArray>
        <DataArray type="Float32" Name="OrientationY" NumberOfComponents="3" format="ascii">
                      -0.08707                      -0.04318                      -0.99527
                      -0.08707                      -0.04318                      -0.99527
                      -0.08707                      -0.04318                      -0.99527
                      -0.08707                      -0.04318                      -0.99527
                      -0.08707                      -0.04318                      -0.99527
                      -0.08707                      -0.04318                      -0.99527
                      -0.08707                      -0.04318                      -0.99527
                      -0.08707                      -0.04318                      -0.99527
                      -0.08707                      -0.04318                      -0.99527
                      -0.08707                      -0.04318                      -0.99527
                      -0.08707                      -0.04318                      -0.99527
                      -0.08707                      -0.04318                      -0.99527
                      -0.08707                      -0.04318                      -0.99527
                      -0.08707                      -0.04318                      -0.99527
                      -0.08707                      -0.04318                      -0.99527
                      -0.08707                      -0.04318                      -0.99527
                      -0.08707                      -0.04318                      -0.99527
                      -0.08707                      -0.04318                      -0.99527
                      -0.08707                      -0.04318                      -0.99527
        </DataArray>
        <DataArray type="Float32" Name="OrientationZ" NumberOfComponents="3" format="ascii">
                      -0.04721                       0.99812                      -0.03918
                      -0.04721                       0.99812                      -0.03918
                      -0.04721                       0.99812                      -0.03918
                      -0.04721                       0.99812                      -0.03918
                      -0.04721                       0.99812                      -0.03918
                      -0.04721                       0.99812                      -0.03918
                      -0.04721                       0.99812                      -0.03918
                      -0.04721                       0.99812                      -0.03918
                      -0.04721                       0.99812                      -0.03918
                      -0.04721                       0.99812                      -0.03918
                      -0.04721                       0.99812                      -0.03918
                      -0.04721                       0.99812                      -0.03918
                      -0.04721                       0.99812                      -0.03918
                      -0.04721                       0.99812                      -0.03918
                      -0.04721                       0.99812                      -0.03918
                      -0.04721                       0.99812                      -0.03918
                      -0.04721                       0.99812                      -0.03918
                      -0.04721                       0.99812                      -0.03918
                      -0.04721                       0.99812                      -0.03918
        </DataArray>
        <DataArray type="Float32" Name="Force" NumberOfComponents="3" format="ascii">
                       0.00639                       0.00317                       0.07304
                     153.43498                       6.48744                     -19.62865
                     167.18084                       6.26317                     -41.90833
                     128.42249                       4.17980                     -48.27754
                    1029.15928                      49.15980                      12.17513
                    1075.16110                      50.75756                      -2.55712
                    1217.97300                      57.54157                      -1.82769
                    1140.81550                      53.45572                     -12.93819
                    1123.12313                      51.72514                     -35.70717
                    1209.97031                      55.77101                     -37.29245
                    1139.29359                      51.97378                     -48.86009
                    1230.57459                      58.13590                      -1.87237
                    1480.76094                      73.09987                      77.85915
                    1616.01620                      81.52204                     129.43172
                    1879.62970                      95.77345                     174.82732
                    1989.11607                     101.51899                     189.26151
                    1961.29447                     100.14110                     187.68579
                    1432.77662                      72.98094                     132.65729
                     388.85699                      16.80308                     -40.53120
        </DataArray>
        <DataArray type="Float32" Name="Moment" NumberOfComponents="3" format="ascii">
                       0.00000                       0.00000                       0.00000
                       0.00000                       0.00000                       0.00000
                       0.00000                       0.00000                       0.00000
                       0.00000                       0.00000                       0.00000
                      34.79925                    -735.67298                      28.87550
                      37.48281                    -792.40470                      31.10224
                      37.00513                    -782.30633                      30.70588
                      37.67735                    -796.51729                      31.26366
                      37.74244                    -797.89335                      31.31767
                      38.67684                    -817.64711                      32.09302
                      31.39201                    -663.64223                      26.04826
                      27.24054                    -575.87816                      22.60348
                      29.24897                    -618.33720                      24.27001
                      22.83836                    -482.81384                      18.95066
                      20.87624                    -441.33374                      17.32255
                      18.23622                    -385.52244                      15.13193
                      14.69419                    -310.64224                      12.19285
                       7.39603                    -156.35560                       6.13703
                       6.01390                    -127.13681                       4.99018
        </DataArray>
      </PointData>
      <Lines>
        <DataArray type="Int32" Name="connectivity" format="ascii">
      0      1
      1      2
      2      3
      3      4
      4      5
      5      6
      6      7
      7      8
      8      9
      9     10
     10     11
     11     12
     12     13
     13     14
     14     15
     15     16
     16     17
     17     18
        </DataArray>
        <DataArray type="Int32" Name="offsets" format="ascii">
      2
      4
      6
      8
     10
     12
     14
     16
     18
     20
     22
     24
     26
     28
     30
     32
     34
     36
        </DataArray>
      </Lines>
    </Piece>
  </PolyData>
</VTKFile>
