<?xml version="1.0"?>
<VTKFile type="PolyData" version="0.1" byte_order="LittleEndian">
  <PolyData>
    <Piece NumberOfPoints="    625" NumberOfVerts="  0" NumberOfLines="      0"
           NumberOfStrips="  0" NumberOfPolys="    600">
      <Points>
        <DataArray type="Float32" NumberOfComponents="3" format="ascii">
                      -5.12280                      -0.51475                      88.59645
                      -5.12280                      -0.51475                      88.59645
                      -5.12280                      -0.51475                      88.59645
                      -5.12280                      -0.51475                      88.59645
                      -5.12280                      -0.51475                      88.59645
                      -5.12280                      -0.51475                      88.59645
                      -5.12280                      -0.51475                      88.59645
                      -5.12280                      -0.51475                      88.59645
                      -5.12280                      -0.51475                      88.59645
                      -5.12280                      -0.51475                      88.59645
                      -5.12280                      -0.51475                      88.59645
                      -5.12280                      -0.51475                      88.59645
                      -5.12280                      -0.51475                      88.59645
                      -5.12280                      -0.51475                      88.59645
                      -5.12280                      -0.51475                      88.59645
                      -5.12280                      -0.51475                      88.59645
                      -5.12280                      -0.51475                      88.59645
                      -5.12280                      -0.51475                      88.59645
                      -5.12280                      -0.51475                      88.59645
                      -5.12280                      -0.51475                      88.59645
                      -5.12280                      -0.51475                      88.59645
                      -5.12280                      -0.51475                      88.59645
                      -5.12280                      -0.51475                      88.59645
                      -5.12280                      -0.51475                      88.59645
                      -5.12280                      -0.51475                      88.59645
                      -4.51536                      -0.47186                      88.66117
                      -4.53859                      -0.33182                      88.61184
                      -4.59787                      -0.20059                      88.56890
                      -4.68950                      -0.08640                      88.53504
                      -4.80771                       0.00356                      88.51238
                      -4.94507                       0.06366                      88.50236
                      -5.09296                       0.09011                      88.50560
                      -5.24208                       0.08125                      88.52190
                      -5.38306                       0.03763                      88.55023
                      -5.50705                      -0.03800                      88.58881
                      -5.60624                      -0.14089                      88.63523
                      -5.67442                      -0.26457                      88.68655
                      -5.70730                      -0.40128                      88.73957
                      -5.70280                      -0.54243                      88.79094
                      -5.66122                      -0.67914                      88.83744
                      -5.58517                      -0.80282                      88.87615
                      -5.47942                      -0.90571                      88.90463
                      -5.35061                      -0.98134                      88.92110
                      -5.20685                      -1.02496                      88.92452
                      -5.05717                      -1.03382                      88.91467
                      -4.91097                      -1.00737                      88.89218
                      -4.77743                      -0.94728                      88.85846
                      -4.66495                      -0.85731                      88.81562
                      -4.58060                      -0.74312                      88.76636
                      -4.52967                      -0.61189                      88.71378
                      -4.27633                      -0.42896                      88.75811
                      -4.30845                      -0.23528                      88.68989
                      -4.39045                      -0.05377                      88.63050
                      -4.51718                       0.10417                      88.58366
                      -4.68068                       0.22861                      88.55233
                      -4.87067                       0.31173                      88.53846
                      -5.07522                       0.34831                      88.54294
                      -5.28147                       0.33605                      88.56548
                      -5.47646                       0.27572                      88.60467
                      -5.64795                       0.17112                      88.65804
                      -5.78516                       0.02881                      88.72223
                      -5.87946                      -0.14226                      88.79322
                      -5.92493                      -0.33135                      88.86655
                      -5.91871                      -0.52657                      88.93760
                      -5.86120                      -0.71566                      89.00192
                      -5.75600                      -0.88673                      89.05545
                      -5.60973                      -1.02904                      89.09485
                      -5.43158                      -1.13364                      89.11763
                      -5.23275                      -1.19397                      89.12236
                      -5.02571                      -1.20623                      89.10874
                      -4.82350                      -1.16965                      89.07763
                      -4.63880                      -1.08653                      89.03099
                      -4.48322                      -0.96209                      88.97174
                      -4.36655                      -0.80415                      88.90361
                      -4.29611                      -0.62264                      88.83088
                      -4.10372                      -0.38606                      88.86087
                      -4.14215                      -0.15431                      88.77923
                      -4.24027                       0.06289                      88.70816
                      -4.39191                       0.25187                      88.65212
                      -4.58755                       0.40077                      88.61463
                      -4.81489                       0.50023                      88.59804
                      -5.05965                       0.54400                      88.60340
                      -5.30645                       0.52934                      88.63037
                      -5.53978                       0.45715                      88.67726
                      -5.74498                       0.33198                      88.74112
                      -5.90916                       0.16170                      88.81793
                      -6.02199                      -0.04301                      88.90288
                      -6.07640                      -0.26927                      88.99062
                      -6.06897                      -0.50286                      89.07564
                      -6.00015                      -0.72912                      89.15260
                      -5.87427                      -0.93383                      89.21666
                      -5.69925                      -1.10411                      89.26380
                      -5.48608                      -1.22928                      89.29106
                      -5.24815                      -1.30146                      89.29672
                      -5.00042                      -1.31613                      89.28042
                      -4.75845                      -1.27236                      89.24320
                      -4.53744                      -1.17290                      89.18739
                      -4.35128                      -1.02400                      89.11649
                      -4.21168                      -0.83501                      89.03497
                      -4.12739                      -0.61782                      88.94794
                      -3.96808                      -0.34317                      88.96686
                      -4.01139                      -0.08201                      88.87487
                      -4.12196                       0.16274                      88.79478
                      -4.29284                       0.37570                      88.73163
                      -4.51330                       0.54349                      88.68938
                      -4.76949                       0.65557                      88.67069
                      -5.04530                       0.70490                      88.67673
                      -5.32341                       0.68837                      88.70712
                      -5.58635                       0.60703                      88.75996
                      -5.81758                       0.46598                      88.83192
                      -6.00259                       0.27409                      88.91848
                      -6.12974                       0.04341                      89.01420
                      -6.19105                      -0.21155                      89.11307
                      -6.18267                      -0.47479                      89.20888
                      -6.10512                      -0.72975                      89.29561
                      -5.96328                      -0.96043                      89.36780
                      -5.76605                      -1.15232                      89.42092
                      -5.52583                      -1.29336                      89.45163
                      -5.25772                      -1.37471                      89.45801
                      -4.97856                      -1.39124                      89.43964
                      -4.70588                      -1.34191                      89.39770
                      -4.45684                      -1.22983                      89.33480
                      -4.24706                      -1.06204                      89.25491
                      -4.08974                      -0.84908                      89.16305
                      -3.99476                      -0.60433                      89.06497
                      -3.85792                      -0.30027                      89.07508
                      -3.90511                      -0.01568                      88.97483
                      -4.02560                       0.25103                      88.88756
                      -4.21182                       0.48310                      88.81874
                      -4.45206                       0.66595                      88.77270
                      -4.73123                       0.78808                      88.75233
                      -5.03179                       0.84183                      88.75891
                      -5.33485                       0.82382                      88.79203
                      -5.62138                       0.73518                      88.84961
                      -5.87336                       0.58148                      88.92803
                      -6.07496                       0.37237                      89.02236
                      -6.21353                       0.12100                      89.12667
                      -6.28034                      -0.15685                      89.23441
                      -6.27121                      -0.44370                      89.33882
                      -6.18670                      -0.72154                      89.43332
                      -6.03213                      -0.97291                      89.51199
                      -5.81720                      -1.18202                      89.56988
                      -5.55543                      -1.33572                      89.60334
                      -5.26326                      -1.42437                      89.61029
                      -4.95905                      -1.44238                      89.59028
                      -4.66192                      -1.38863                      89.54457
                      -4.39052                      -1.26649                      89.47604
                      -4.16193                      -1.08364                      89.38898
                      -3.99049                      -0.85157                      89.28887
                      -3.88699                      -0.58486                      89.18200
                      -3.76730                      -0.25738                      89.18501
                      -3.81762                       0.04606                      89.07813
                      -3.94609                       0.33044                      88.98507
                      -4.14464                       0.57788                      88.91169
                      -4.40079                       0.77283                      88.86260
                      -4.69845                       0.90306                      88.84089
                      -5.01892                       0.96037                      88.84790
                      -5.34205                       0.94116                      88.88322
                      -5.64755                       0.84665                      88.94461
                      -5.91622                       0.68277                      89.02822
                      -6.13118                       0.45981                      89.12879
                      -6.27892                       0.19179                      89.24002
                      -6.35016                      -0.10445                      89.35489
                      -6.34042                      -0.41030                      89.46621
                      -6.25031                      -0.70654                      89.56698
                      -6.08551                      -0.97456                      89.65085
                      -5.85635                      -1.19752                      89.71258
                      -5.57724                      -1.36140                      89.74826
                      -5.26572                      -1.45592                      89.75567
                      -4.94136                      -1.47512                      89.73433
                      -4.62455                      -1.41781                      89.68560
                      -4.33518                      -1.28759                      89.61252
                      -4.09145                      -1.09263                      89.51970
                      -3.90866                      -0.84519                      89.41296
                      -3.79830                      -0.56082                      89.29901
                      -3.69277                      -0.21448                      89.29635
                      -3.74558                       0.10404                      89.18415
                      -3.88044                       0.40254                      89.08647
                      -4.08885                       0.66228                      89.00945
                      -4.35773                       0.86692                      88.95792
                      -4.67018                       1.00362                      88.93512
                      -5.00657                       1.06378                      88.94249
                      -5.34577                       1.04362                      88.97956
                      -5.66645                       0.94441                      89.04400
                      -5.94847                       0.77238                      89.13176
                      -6.17411                       0.53835                      89.23734
                      -6.32919                       0.25701                      89.35409
                      -6.40397                      -0.05396                      89.47467
                      -6.39374                      -0.37500                      89.59152
                      -6.29916                      -0.68597                      89.69729
                      -6.12616                      -0.96731                      89.78534
                      -5.88562                      -1.20134                      89.85013
                      -5.59264                      -1.37337                      89.88759
                      -5.26564                      -1.47258                      89.89536
                      -4.92517                      -1.49274                      89.87297
                      -4.59261                      -1.43258                      89.82181
                      -4.28886                      -1.29588                      89.74510
                      -4.03302                      -1.09124                      89.64767
                      -3.84114                      -0.83150                      89.53562
                      -3.72530                      -0.53300                      89.41601
                      -3.63210                      -0.17158                      89.40890
                      -3.68688                       0.15876                      89.29254
                      -3.82674                       0.46835                      89.19123
                      -4.04289                       0.73772                      89.11135
                      -4.32176                       0.94997                      89.05791
                      -4.64581                       1.09174                      89.03426
                      -4.99469                       1.15413                      89.04190
                      -5.34647                       1.13322                      89.08035
                      -5.67906                       1.03033                      89.14718
                      -5.97155                       0.85192                      89.23820
                      -6.20556                       0.60919                      89.34770
                      -6.36640                       0.31741                      89.46878
                      -6.44396                      -0.00510                      89.59384
                      -6.43335                      -0.33807                      89.71503
                      -6.33526                      -0.66058                      89.82473
                      -6.15584                      -0.95236                      89.91604
                      -5.90636                      -1.19508                      89.98324
                      -5.60251                      -1.37350                      90.02209
                      -5.26337                      -1.47639                      90.03015
                      -4.91026                      -1.49730                      90.00693
                      -4.56535                      -1.43490                      89.95387
                      -4.25033                      -1.29313                      89.87431
                      -3.98498                      -1.08089                      89.77326
                      -3.78599                      -0.81151                      89.65705
                      -3.66584                      -0.50193                      89.53300
                      -3.58386                      -0.12869                      89.52253
                      -3.64012                       0.21057                      89.40303
                      -3.78375                       0.52851                      89.29900
                      -4.00573                       0.80515                      89.21696
                      -4.29212                       1.02312                      89.16207
                      -4.62491                       1.16872                      89.13779
                      -4.98320                       1.23279                      89.14564
                      -5.34448                       1.21132                      89.18512
                      -5.68604                       1.10565                      89.25376
                      -5.98642                       0.92242                      89.34724
                      -6.22675                       0.67315                      89.45968
                      -6.39193                       0.37350                      89.58403
                      -6.47158                       0.04229                      89.71247
                      -6.46069                      -0.29966                      89.83693
                      -6.35995                      -0.63087                      89.94959
                      -6.17569                      -0.93053                      90.04336
                      -5.91948                      -1.17980                      90.11237
                      -5.60743                      -1.36303                      90.15227
                      -5.25914                      -1.46870                      90.16055
                      -4.89650                      -1.49017                      90.13670
                      -4.54229                      -1.42609                      90.08221
                      -4.21877                      -1.28050                      90.00051
                      -3.94626                      -1.06253                      89.89673
                      -3.74190                      -0.78588                      89.77739
                      -3.61851                      -0.46794                      89.64999
                      -3.54707                      -0.08579                      89.63717
                      -3.60437                       0.25969                      89.51548
                      -3.75063                       0.58346                      89.40953
                      -3.97669                       0.86518                      89.32599
                      -4.26833                       1.08715                      89.27010
                      -4.60723                       1.23542                      89.24537
                      -4.97210                       1.30067                      89.25336
                      -5.34001                       1.27881                      89.29357
                      -5.68783                       1.17120                      89.36346
                      -5.99373                       0.98461                      89.45866
                      -6.23847                       0.73076                      89.57317
                      -6.40668                       0.42561                      89.69980
                      -6.48778                       0.08832                      89.83060
                      -6.47670                      -0.25991                      89.95734
                      -6.37411                      -0.59719                      90.07206
                      -6.18646                      -0.90235                      90.16756
                      -5.92556                      -1.15619                      90.23783
                      -5.60778                      -1.34278                      90.27846
                      -5.25310                      -1.45039                      90.28690
                      -4.88380                      -1.47226                      90.26261
                      -4.52309                      -1.40700                      90.20712
                      -4.19363                      -1.25874                      90.12392
                      -3.91613                      -1.03677                      90.01823
                      -3.70801                      -0.75505                      89.89670
                      -3.58236                      -0.43127                      89.76697
                      -3.52114                      -0.04290                      89.75276
                      -3.57904                       0.30627                      89.62977
                      -3.72687                       0.63349                      89.52270
                      -3.95533                       0.91822                      89.43826
                      -4.25008                       1.14255                      89.38177
                      -4.59260                       1.29240                      89.35678
                      -4.96135                       1.35834                      89.36486
                      -5.33318                       1.33625                      89.40549
                      -5.68471                       1.22749                      89.47614
                      -5.99387                       1.03891                      89.57234
                      -6.24122                       0.78236                      89.68807
                      -6.41122                       0.47395                      89.81606
                      -6.49319                       0.13307                      89.94825
                      -6.48198                      -0.21887                      90.07634
                      -6.37830                      -0.55975                      90.19229
                      -6.18866                      -0.86815                      90.28880
                      -5.92497                      -1.12470                      90.35982
                      -5.60381                      -1.31328                      90.40089
                      -5.24535                      -1.42204                      90.40941
                      -4.87211                      -1.44414                      90.38486
                      -4.50756                      -1.37819                      90.32878
                      -4.17459                      -1.22834                      90.24469
                      -3.89413                      -1.00401                      90.13788
                      -3.68379                      -0.71928                      90.01506
                      -3.55680                      -0.39206                      89.88394
                      -3.50571                       0.00000                      89.86927
                      -3.56381                       0.35038                      89.74585
                      -3.71216                       0.67875                      89.63840
                      -3.94142                       0.96447                      89.55367
                      -4.23720                       1.18958                      89.49699
                      -4.58091                       1.33995                      89.47191
                      -4.95095                       1.40613                      89.48001
                      -5.32407                       1.38396                      89.52079
                      -5.67683                       1.27482                      89.59168
                      -5.98707                       1.08558                      89.68822
                      -6.23528                       0.82814                      89.80436
                      -6.40587                       0.51865                      89.93278
                      -6.48813                       0.17658                      90.06544
                      -6.47689                      -0.17658                      90.19398
                      -6.37284                      -0.51865                      90.31033
                      -6.18254                      -0.82814                      90.40718
                      -5.91793                      -1.08558                      90.47845
                      -5.59565                      -1.27482                      90.51966
                      -5.23593                      -1.38396                      90.52821
                      -4.86140                      -1.40613                      90.50358
                      -4.49557                      -1.33995                      90.44730
                      -4.16144                      -1.18958                      90.36292
                      -3.88000                      -0.96447                      90.25573
                      -3.66893                      -0.67875                      90.13248
                      -3.54150                      -0.35038                      90.00090
                      -3.50067                       0.04290                      89.98669
                      -3.55857                       0.39206                      89.86370
                      -3.70640                       0.71928                      89.75662
                      -3.93487                       1.00401                      89.67219
                      -4.22962                       1.22834                      89.61570
                      -4.57213                       1.37819                      89.59071
                      -4.94089                       1.44414                      89.59878
                      -5.31271                       1.42204                      89.63942
                      -5.66425                       1.31328                      89.71006
                      -5.97340                       1.12470                      89.80627
                      -6.22075                       0.86815                      89.92200
                      -6.39075                       0.55975                      90.04998
                      -6.47272                       0.21887                      90.18217
                      -6.46152                      -0.13307                      90.31026
                      -6.35783                      -0.47395                      90.42621
                      -6.16819                      -0.78236                      90.52273
                      -5.90450                      -1.03891                      90.59375
                      -5.58334                      -1.22749                      90.63481
                      -5.22488                      -1.33625                      90.64334
                      -4.85165                      -1.35834                      90.61879
                      -4.48709                      -1.29240                      90.56271
                      -4.15412                      -1.14255                      90.47862
                      -3.87366                      -0.91822                      90.37181
                      -3.66333                      -0.63349                      90.24898
                      -3.53634                      -0.30627                      90.11786
                      -3.50614                       0.08579                      90.10502
                      -3.56343                       0.43127                      89.98333
                      -3.70970                       0.75505                      89.87738
                      -3.93576                       1.03677                      89.79384
                      -4.22740                       1.25874                      89.73795
                      -4.56630                       1.40700                      89.71322
                      -4.93117                       1.47226                      89.72121
                      -5.29907                       1.45039                      89.76142
                      -5.64690                       1.34278                      89.83131
                      -5.95279                       1.15619                      89.92651
                      -6.19754                       0.90235                      90.04102
                      -6.36574                       0.59719                      90.16765
                      -6.44685                       0.25991                      90.29845
                      -6.43576                      -0.08832                      90.42519
                      -6.33318                      -0.42561                      90.53991
                      -6.14553                      -0.73076                      90.63541
                      -5.88463                      -0.98461                      90.70568
                      -5.56685                      -1.17120                      90.74631
                      -5.21217                      -1.27881                      90.75475
                      -4.84287                      -1.30067                      90.73046
                      -4.48216                      -1.23542                      90.67497
                      -4.15270                      -1.08715                      90.59177
                      -3.87520                      -0.86518                      90.48608
                      -3.66708                      -0.58346                      90.36455
                      -3.54143                      -0.25969                      90.23482
                      -3.52246                       0.12869                      90.22431
                      -3.57872                       0.46794                      90.10481
                      -3.72235                       0.78588                      90.00077
                      -3.94434                       1.06253                      89.91873
                      -4.23072                       1.28050                      89.86385
                      -4.56352                       1.42609                      89.83957
                      -4.92181                       1.49017                      89.84741
                      -5.28308                       1.46870                      89.88689
                      -5.62464                       1.36303                      89.95553
                      -5.92502                       1.17980                      90.04901
                      -6.16535                       0.93053                      90.16146
                      -6.33053                       0.63087                      90.28581
                      -6.41018                       0.29966                      90.41425
                      -6.39929                      -0.04229                      90.53870
                      -6.29855                      -0.37350                      90.65136
                      -6.11429                      -0.67315                      90.74514
                      -5.85808                      -0.92242                      90.81414
                      -5.54603                      -1.10565                      90.85404
                      -5.19774                      -1.21132                      90.86233
                      -4.83510                      -1.23279                      90.83847
                      -4.48089                      -1.16872                      90.78398
                      -4.15737                      -1.02312                      90.70228
                      -3.88486                      -0.80515                      90.59850
                      -3.68050                      -0.52851                      90.47916
                      -3.55711                      -0.21057                      90.35176
                      -3.55024                       0.17158                      90.34460
                      -3.60502                       0.50193                      90.22824
                      -3.74488                       0.81151                      90.12693
                      -3.96103                       1.08089                      90.04705
                      -4.23989                       1.29313                      89.99361
                      -4.56394                       1.43490                      89.96996
                      -4.91282                       1.49730                      89.97760
                      -5.26461                       1.47639                      90.01605
                      -5.59719                       1.37350                      90.08288
                      -5.88968                       1.19508                      90.17390
                      -6.12370                       0.95236                      90.28340
                      -6.28454                       0.66058                      90.40448
                      -6.36209                       0.33807                      90.52954
                      -6.35149                       0.00510                      90.65073
                      -6.25340                      -0.31741                      90.76043
                      -6.07398                      -0.60919                      90.85174
                      -5.82450                      -0.85192                      90.91894
                      -5.52065                      -1.03033                      90.95779
                      -5.18151                      -1.13322                      90.96585
                      -4.82839                      -1.15413                      90.94263
                      -4.48349                      -1.09174                      90.88957
                      -4.16847                      -0.94997                      90.81001
                      -3.90312                      -0.73772                      90.70896
                      -3.70412                      -0.46835                      90.59275
                      -3.58398                      -0.15876                      90.46870
                      -3.59044                       0.21448                      90.46597
                      -3.64326                       0.53300                      90.35378
                      -3.77811                       0.83150                      90.25610
                      -3.98652                       1.09124                      90.17907
                      -4.25540                       1.29588                      90.12754
                      -4.56786                       1.43258                      90.10475
                      -4.90424                       1.49274                      90.11211
                      -5.24344                       1.47258                      90.14918
                      -5.56412                       1.37337                      90.21362
                      -5.84614                       1.20134                      90.30139
                      -6.07178                       0.96731                      90.40696
                      -6.22686                       0.68597                      90.52371
                      -6.30164                       0.37500                      90.64430
                      -6.29141                       0.05396                      90.76115
                      -6.19683                      -0.25701                      90.86692
                      -6.02383                      -0.53835                      90.95496
                      -5.78329                      -0.77238                      91.01975
                      -5.49031                      -0.94441                      91.05721
                      -5.16331                      -1.04362                      91.06499
                      -4.82284                      -1.06378                      91.04259
                      -4.49028                      -1.00362                      90.99143
                      -4.18653                      -0.86692                      90.91473
                      -3.93069                      -0.66228                      90.81729
                      -3.73881                      -0.40254                      90.70525
                      -3.62297                      -0.10404                      90.58563
                      -3.64451                       0.25738                      90.58856
                      -3.69483                       0.56082                      90.48168
                      -3.82330                       0.84519                      90.38862
                      -4.02185                       1.09263                      90.31524
                      -4.27800                       1.28759                      90.26615
                      -4.57566                       1.41781                      90.24444
                      -4.89612                       1.47512                      90.25145
                      -5.21926                       1.45592                      90.28677
                      -5.52476                       1.36140                      90.34816
                      -5.79343                       1.19752                      90.43177
                      -6.00839                       0.97456                      90.53234
                      -6.15613                       0.70654                      90.64357
                      -6.22736                       0.41030                      90.75844
                      -6.21762                       0.10445                      90.86976
                      -6.12752                      -0.19179                      90.97053
                      -5.96271                      -0.45981                      91.05440
                      -5.73355                      -0.68277                      91.11613
                      -5.45445                      -0.84665                      91.15181
                      -5.14293                      -0.94116                      91.15922
                      -4.81857                      -0.96037                      91.13788
                      -4.50175                      -0.90306                      91.08915
                      -4.21239                      -0.77283                      91.01607
                      -3.96865                      -0.57788                      90.92325
                      -3.78586                      -0.33044                      90.81651
                      -3.67550                      -0.04606                      90.70256
                      -3.71466                       0.30027                      90.71255
                      -3.76185                       0.58486                      90.61231
                      -3.88234                       0.85157                      90.52504
                      -4.06856                       1.08364                      90.45622
                      -4.30880                       1.26649                      90.41017
                      -4.58797                       1.38863                      90.38981
                      -4.88853                       1.44238                      90.39639
                      -5.19159                       1.42437                      90.42951
                      -5.47812                       1.33572                      90.48709
                      -5.73010                       1.18202                      90.56550
                      -5.93170                       0.97291                      90.65983
                      -6.07027                       0.72154                      90.76414
                      -6.13708                       0.44370                      90.87189
                      -6.12795                       0.15685                      90.97629
                      -6.04344                      -0.12100                      91.07080
                      -5.88887                      -0.37237                      91.14946
                      -5.67394                      -0.58148                      91.20735
                      -5.41217                      -0.73518                      91.24082
                      -5.12000                      -0.82382                      91.24777
                      -4.81579                      -0.84183                      91.22776
                      -4.51866                      -0.78808                      91.18205
                      -4.24726                      -0.66595                      91.11351
                      -4.01867                      -0.48310                      91.02645
                      -3.84723                      -0.25103                      90.92634
                      -3.74373                       0.01568                      90.81947
                      -3.80436                       0.34317                      90.83826
                      -3.84767                       0.60433                      90.74627
                      -3.95823                       0.84908                      90.66618
                      -4.12912                       1.06204                      90.60303
                      -4.34958                       1.22983                      90.56078
                      -4.60576                       1.34191                      90.54209
                      -4.88158                       1.39124                      90.54813
                      -5.15969                       1.37471                      90.57852
                      -5.42262                       1.29336                      90.63136
                      -5.65385                       1.15231                      90.70332
                      -5.83886                       0.96042                      90.78988
                      -5.96601                       0.72975                      90.88560
                      -6.02733                       0.47479                      90.98447
                      -6.01894                       0.21155                      91.08028
                      -5.94139                      -0.04341                      91.16701
                      -5.79955                      -0.27409                      91.23920
                      -5.60232                      -0.46598                      91.29232
                      -5.36211                      -0.60703                      91.32303
                      -5.09399                      -0.68837                      91.32941
                      -4.81483                      -0.70490                      91.31104
                      -4.54216                      -0.65557                      91.26910
                      -4.29311                      -0.54350                      91.20620
                      -4.08334                      -0.37570                      91.12631
                      -3.92602                      -0.16274                      91.03445
                      -3.83103                       0.08201                      90.93637
                      -3.91952                       0.38606                      90.96619
                      -3.95796                       0.61782                      90.88456
                      -4.05608                       0.83501                      90.81349
                      -4.20772                       1.02400                      90.75744
                      -4.40336                       1.17290                      90.71995
                      -4.63070                       1.27236                      90.70336
                      -4.87546                       1.31613                      90.70872
                      -5.12226                       1.30146                      90.73570
                      -5.35559                       1.22928                      90.78258
                      -5.56079                       1.10411                      90.84644
                      -5.72496                       0.93383                      90.92326
                      -5.83780                       0.72912                      91.00820
                      -5.89221                       0.50286                      91.09595
                      -5.88477                       0.26927                      91.18097
                      -5.81595                       0.04301                      91.25793
                      -5.69008                      -0.16170                      91.32199
                      -5.51506                      -0.33198                      91.36913
                      -5.30189                      -0.45715                      91.39638
                      -5.06396                      -0.52934                      91.40204
                      -4.81623                      -0.54400                      91.38575
                      -4.57426                      -0.50023                      91.34852
                      -4.35325                      -0.40077                      91.29271
                      -4.16709                      -0.25187                      91.22182
                      -4.02748                      -0.06289                      91.14029
                      -3.94320                       0.15431                      91.05326
                      -4.07167                       0.42896                      91.09736
                      -4.10379                       0.62264                      91.02914
                      -4.18579                       0.80415                      90.96974
                      -4.31252                       0.96209                      90.92291
                      -4.47602                       1.08653                      90.89158
                      -4.66601                       1.16965                      90.87771
                      -4.87056                       1.20623                      90.88219
                      -5.07681                       1.19397                      90.90473
                      -5.27181                       1.13364                      90.94392
                      -5.44329                       1.02904                      90.99728
                      -5.58050                       0.88673                      91.06148
                      -5.67480                       0.71566                      91.13247
                      -5.72027                       0.52657                      91.20580
                      -5.71405                       0.33135                      91.27685
                      -5.65654                       0.14226                      91.34117
                      -5.55134                      -0.02881                      91.39470
                      -5.40508                      -0.17112                      91.43410
                      -5.22693                      -0.27572                      91.45688
                      -5.02809                      -0.33605                      91.46161
                      -4.82106                      -0.34831                      91.44799
                      -4.61884                      -0.31173                      91.41688
                      -4.43414                      -0.22861                      91.37024
                      -4.27857                      -0.10417                      91.31099
                      -4.16189                       0.05377                      91.24286
                      -4.09145                       0.23528                      91.17013
                      -4.29024                       0.47186                      91.23434
                      -4.31346                       0.61189                      91.18502
                      -4.37275                       0.74312                      91.14208
                      -4.46437                       0.85731                      91.10821
                      -4.58258                       0.94728                      91.08556
                      -4.71995                       1.00737                      91.07554
                      -4.86784                       1.03382                      91.07878
                      -5.01695                       1.02496                      91.09507
                      -5.15794                       0.98134                      91.12340
                      -5.28192                       0.90571                      91.16199
                      -5.38112                       0.80282                      91.20840
                      -5.44930                       0.67914                      91.25973
                      -5.48217                       0.54243                      91.31274
                      -5.47768                       0.40128                      91.36411
                      -5.43610                       0.26457                      91.41061
                      -5.36004                       0.14089                      91.44932
                      -5.25429                       0.03800                      91.47780
                      -5.12549                      -0.03763                      91.49427
                      -4.98173                      -0.08125                      91.49769
                      -4.83205                      -0.09011                      91.48784
                      -4.68584                      -0.06366                      91.46535
                      -4.55231                      -0.00356                      91.43163
                      -4.43983                       0.08640                      91.38879
                      -4.35547                       0.20059                      91.33954
                      -4.30454                       0.33182                      91.28695
                      -4.87721                       0.51475                      91.40355
                      -4.87721                       0.51475                      91.40355
                      -4.87721                       0.51475                      91.40355
                      -4.87721                       0.51475                      91.40355
                      -4.87721                       0.51475                      91.40355
                      -4.87721                       0.51475                      91.40355
                      -4.87721                       0.51475                      91.40355
                      -4.87721                       0.51475                      91.40355
                      -4.87721                       0.51475                      91.40355
                      -4.87721                       0.51475                      91.40355
                      -4.87721                       0.51475                      91.40355
                      -4.87721                       0.51475                      91.40355
                      -4.87721                       0.51475                      91.40355
                      -4.87721                       0.51475                      91.40355
                      -4.87721                       0.51475                      91.40355
                      -4.87721                       0.51475                      91.40355
                      -4.87721                       0.51475                      91.40355
                      -4.87721                       0.51475                      91.40355
                      -4.87721                       0.51475                      91.40355
                      -4.87721                       0.51475                      91.40355
                      -4.87721                       0.51475                      91.40355
                      -4.87721                       0.51475                      91.40355
                      -4.87721                       0.51475                      91.40355
                      -4.87721                       0.51475                      91.40355
                      -4.87721                       0.51475                      91.40355
        </DataArray>
      </Points>
      <Polys>
        <DataArray type="Int32" Name="connectivity" format="ascii">
      0      1     26     25
      1      2     27     26
      2      3     28     27
      3      4     29     28
      4      5     30     29
      5      6     31     30
      6      7     32     31
      7      8     33     32
      8      9     34     33
      9     10     35     34
     10     11     36     35
     11     12     37     36
     12     13     38     37
     13     14     39     38
     14     15     40     39
     15     16     41     40
     16     17     42     41
     17     18     43     42
     18     19     44     43
     19     20     45     44
     20     21     46     45
     21     22     47     46
     22     23     48     47
     23     24     49     48
     24      0     25     49
     25     26     51     50
     26     27     52     51
     27     28     53     52
     28     29     54     53
     29     30     55     54
     30     31     56     55
     31     32     57     56
     32     33     58     57
     33     34     59     58
     34     35     60     59
     35     36     61     60
     36     37     62     61
     37     38     63     62
     38     39     64     63
     39     40     65     64
     40     41     66     65
     41     42     67     66
     42     43     68     67
     43     44     69     68
     44     45     70     69
     45     46     71     70
     46     47     72     71
     47     48     73     72
     48     49     74     73
     49     25     50     74
     50     51     76     75
     51     52     77     76
     52     53     78     77
     53     54     79     78
     54     55     80     79
     55     56     81     80
     56     57     82     81
     57     58     83     82
     58     59     84     83
     59     60     85     84
     60     61     86     85
     61     62     87     86
     62     63     88     87
     63     64     89     88
     64     65     90     89
     65     66     91     90
     66     67     92     91
     67     68     93     92
     68     69     94     93
     69     70     95     94
     70     71     96     95
     71     72     97     96
     72     73     98     97
     73     74     99     98
     74     50     75     99
     75     76    101    100
     76     77    102    101
     77     78    103    102
     78     79    104    103
     79     80    105    104
     80     81    106    105
     81     82    107    106
     82     83    108    107
     83     84    109    108
     84     85    110    109
     85     86    111    110
     86     87    112    111
     87     88    113    112
     88     89    114    113
     89     90    115    114
     90     91    116    115
     91     92    117    116
     92     93    118    117
     93     94    119    118
     94     95    120    119
     95     96    121    120
     96     97    122    121
     97     98    123    122
     98     99    124    123
     99     75    100    124
    100    101    126    125
    101    102    127    126
    102    103    128    127
    103    104    129    128
    104    105    130    129
    105    106    131    130
    106    107    132    131
    107    108    133    132
    108    109    134    133
    109    110    135    134
    110    111    136    135
    111    112    137    136
    112    113    138    137
    113    114    139    138
    114    115    140    139
    115    116    141    140
    116    117    142    141
    117    118    143    142
    118    119    144    143
    119    120    145    144
    120    121    146    145
    121    122    147    146
    122    123    148    147
    123    124    149    148
    124    100    125    149
    125    126    151    150
    126    127    152    151
    127    128    153    152
    128    129    154    153
    129    130    155    154
    130    131    156    155
    131    132    157    156
    132    133    158    157
    133    134    159    158
    134    135    160    159
    135    136    161    160
    136    137    162    161
    137    138    163    162
    138    139    164    163
    139    140    165    164
    140    141    166    165
    141    142    167    166
    142    143    168    167
    143    144    169    168
    144    145    170    169
    145    146    171    170
    146    147    172    171
    147    148    173    172
    148    149    174    173
    149    125    150    174
    150    151    176    175
    151    152    177    176
    152    153    178    177
    153    154    179    178
    154    155    180    179
    155    156    181    180
    156    157    182    181
    157    158    183    182
    158    159    184    183
    159    160    185    184
    160    161    186    185
    161    162    187    186
    162    163    188    187
    163    164    189    188
    164    165    190    189
    165    166    191    190
    166    167    192    191
    167    168    193    192
    168    169    194    193
    169    170    195    194
    170    171    196    195
    171    172    197    196
    172    173    198    197
    173    174    199    198
    174    150    175    199
    175    176    201    200
    176    177    202    201
    177    178    203    202
    178    179    204    203
    179    180    205    204
    180    181    206    205
    181    182    207    206
    182    183    208    207
    183    184    209    208
    184    185    210    209
    185    186    211    210
    186    187    212    211
    187    188    213    212
    188    189    214    213
    189    190    215    214
    190    191    216    215
    191    192    217    216
    192    193    218    217
    193    194    219    218
    194    195    220    219
    195    196    221    220
    196    197    222    221
    197    198    223    222
    198    199    224    223
    199    175    200    224
    200    201    226    225
    201    202    227    226
    202    203    228    227
    203    204    229    228
    204    205    230    229
    205    206    231    230
    206    207    232    231
    207    208    233    232
    208    209    234    233
    209    210    235    234
    210    211    236    235
    211    212    237    236
    212    213    238    237
    213    214    239    238
    214    215    240    239
    215    216    241    240
    216    217    242    241
    217    218    243    242
    218    219    244    243
    219    220    245    244
    220    221    246    245
    221    222    247    246
    222    223    248    247
    223    224    249    248
    224    200    225    249
    225    226    251    250
    226    227    252    251
    227    228    253    252
    228    229    254    253
    229    230    255    254
    230    231    256    255
    231    232    257    256
    232    233    258    257
    233    234    259    258
    234    235    260    259
    235    236    261    260
    236    237    262    261
    237    238    263    262
    238    239    264    263
    239    240    265    264
    240    241    266    265
    241    242    267    266
    242    243    268    267
    243    244    269    268
    244    245    270    269
    245    246    271    270
    246    247    272    271
    247    248    273    272
    248    249    274    273
    249    225    250    274
    250    251    276    275
    251    252    277    276
    252    253    278    277
    253    254    279    278
    254    255    280    279
    255    256    281    280
    256    257    282    281
    257    258    283    282
    258    259    284    283
    259    260    285    284
    260    261    286    285
    261    262    287    286
    262    263    288    287
    263    264    289    288
    264    265    290    289
    265    266    291    290
    266    267    292    291
    267    268    293    292
    268    269    294    293
    269    270    295    294
    270    271    296    295
    271    272    297    296
    272    273    298    297
    273    274    299    298
    274    250    275    299
    275    276    301    300
    276    277    302    301
    277    278    303    302
    278    279    304    303
    279    280    305    304
    280    281    306    305
    281    282    307    306
    282    283    308    307
    283    284    309    308
    284    285    310    309
    285    286    311    310
    286    287    312    311
    287    288    313    312
    288    289    314    313
    289    290    315    314
    290    291    316    315
    291    292    317    316
    292    293    318    317
    293    294    319    318
    294    295    320    319
    295    296    321    320
    296    297    322    321
    297    298    323    322
    298    299    324    323
    299    275    300    324
    300    301    326    325
    301    302    327    326
    302    303    328    327
    303    304    329    328
    304    305    330    329
    305    306    331    330
    306    307    332    331
    307    308    333    332
    308    309    334    333
    309    310    335    334
    310    311    336    335
    311    312    337    336
    312    313    338    337
    313    314    339    338
    314    315    340    339
    315    316    341    340
    316    317    342    341
    317    318    343    342
    318    319    344    343
    319    320    345    344
    320    321    346    345
    321    322    347    346
    322    323    348    347
    323    324    349    348
    324    300    325    349
    325    326    351    350
    326    327    352    351
    327    328    353    352
    328    329    354    353
    329    330    355    354
    330    331    356    355
    331    332    357    356
    332    333    358    357
    333    334    359    358
    334    335    360    359
    335    336    361    360
    336    337    362    361
    337    338    363    362
    338    339    364    363
    339    340    365    364
    340    341    366    365
    341    342    367    366
    342    343    368    367
    343    344    369    368
    344    345    370    369
    345    346    371    370
    346    347    372    371
    347    348    373    372
    348    349    374    373
    349    325    350    374
    350    351    376    375
    351    352    377    376
    352    353    378    377
    353    354    379    378
    354    355    380    379
    355    356    381    380
    356    357    382    381
    357    358    383    382
    358    359    384    383
    359    360    385    384
    360    361    386    385
    361    362    387    386
    362    363    388    387
    363    364    389    388
    364    365    390    389
    365    366    391    390
    366    367    392    391
    367    368    393    392
    368    369    394    393
    369    370    395    394
    370    371    396    395
    371    372    397    396
    372    373    398    397
    373    374    399    398
    374    350    375    399
    375    376    401    400
    376    377    402    401
    377    378    403    402
    378    379    404    403
    379    380    405    404
    380    381    406    405
    381    382    407    406
    382    383    408    407
    383    384    409    408
    384    385    410    409
    385    386    411    410
    386    387    412    411
    387    388    413    412
    388    389    414    413
    389    390    415    414
    390    391    416    415
    391    392    417    416
    392    393    418    417
    393    394    419    418
    394    395    420    419
    395    396    421    420
    396    397    422    421
    397    398    423    422
    398    399    424    423
    399    375    400    424
    400    401    426    425
    401    402    427    426
    402    403    428    427
    403    404    429    428
    404    405    430    429
    405    406    431    430
    406    407    432    431
    407    408    433    432
    408    409    434    433
    409    410    435    434
    410    411    436    435
    411    412    437    436
    412    413    438    437
    413    414    439    438
    414    415    440    439
    415    416    441    440
    416    417    442    441
    417    418    443    442
    418    419    444    443
    419    420    445    444
    420    421    446    445
    421    422    447    446
    422    423    448    447
    423    424    449    448
    424    400    425    449
    425    426    451    450
    426    427    452    451
    427    428    453    452
    428    429    454    453
    429    430    455    454
    430    431    456    455
    431    432    457    456
    432    433    458    457
    433    434    459    458
    434    435    460    459
    435    436    461    460
    436    437    462    461
    437    438    463    462
    438    439    464    463
    439    440    465    464
    440    441    466    465
    441    442    467    466
    442    443    468    467
    443    444    469    468
    444    445    470    469
    445    446    471    470
    446    447    472    471
    447    448    473    472
    448    449    474    473
    449    425    450    474
    450    451    476    475
    451    452    477    476
    452    453    478    477
    453    454    479    478
    454    455    480    479
    455    456    481    480
    456    457    482    481
    457    458    483    482
    458    459    484    483
    459    460    485    484
    460    461    486    485
    461    462    487    486
    462    463    488    487
    463    464    489    488
    464    465    490    489
    465    466    491    490
    466    467    492    491
    467    468    493    492
    468    469    494    493
    469    470    495    494
    470    471    496    495
    471    472    497    496
    472    473    498    497
    473    474    499    498
    474    450    475    499
    475    476    501    500
    476    477    502    501
    477    478    503    502
    478    479    504    503
    479    480    505    504
    480    481    506    505
    481    482    507    506
    482    483    508    507
    483    484    509    508
    484    485    510    509
    485    486    511    510
    486    487    512    511
    487    488    513    512
    488    489    514    513
    489    490    515    514
    490    491    516    515
    491    492    517    516
    492    493    518    517
    493    494    519    518
    494    495    520    519
    495    496    521    520
    496    497    522    521
    497    498    523    522
    498    499    524    523
    499    475    500    524
    500    501    526    525
    501    502    527    526
    502    503    528    527
    503    504    529    528
    504    505    530    529
    505    506    531    530
    506    507    532    531
    507    508    533    532
    508    509    534    533
    509    510    535    534
    510    511    536    535
    511    512    537    536
    512    513    538    537
    513    514    539    538
    514    515    540    539
    515    516    541    540
    516    517    542    541
    517    518    543    542
    518    519    544    543
    519    520    545    544
    520    521    546    545
    521    522    547    546
    522    523    548    547
    523    524    549    548
    524    500    525    549
    525    526    551    550
    526    527    552    551
    527    528    553    552
    528    529    554    553
    529    530    555    554
    530    531    556    555
    531    532    557    556
    532    533    558    557
    533    534    559    558
    534    535    560    559
    535    536    561    560
    536    537    562    561
    537    538    563    562
    538    539    564    563
    539    540    565    564
    540    541    566    565
    541    542    567    566
    542    543    568    567
    543    544    569    568
    544    545    570    569
    545    546    571    570
    546    547    572    571
    547    548    573    572
    548    549    574    573
    549    525    550    574
    550    551    576    575
    551    552    577    576
    552    553    578    577
    553    554    579    578
    554    555    580    579
    555    556    581    580
    556    557    582    581
    557    558    583    582
    558    559    584    583
    559    560    585    584
    560    561    586    585
    561    562    587    586
    562    563    588    587
    563    564    589    588
    564    565    590    589
    565    566    591    590
    566    567    592    591
    567    568    593    592
    568    569    594    593
    569    570    595    594
    570    571    596    595
    571    572    597    596
    572    573    598    597
    573    574    599    598
    574    550    575    599
    575    576    601    600
    576    577    602    601
    577    578    603    602
    578    579    604    603
    579    580    605    604
    580    581    606    605
    581    582    607    606
    582    583    608    607
    583    584    609    608
    584    585    610    609
    585    586    611    610
    586    587    612    611
    587    588    613    612
    588    589    614    613
    589    590    615    614
    590    591    616    615
    591    592    617    616
    592    593    618    617
    593    594    619    618
    594    595    620    619
    595    596    621    620
    596    597    622    621
    597    598    623    622
    598    599    624    623
    599    575    600    624
        </DataArray>
        <DataArray type="Int32" Name="offsets" format="ascii">
      4
      8
     12
     16
     20
     24
     28
     32
     36
     40
     44
     48
     52
     56
     60
     64
     68
     72
     76
     80
     84
     88
     92
     96
    100
    104
    108
    112
    116
    120
    124
    128
    132
    136
    140
    144
    148
    152
    156
    160
    164
    168
    172
    176
    180
    184
    188
    192
    196
    200
    204
    208
    212
    216
    220
    224
    228
    232
    236
    240
    244
    248
    252
    256
    260
    264
    268
    272
    276
    280
    284
    288
    292
    296
    300
    304
    308
    312
    316
    320
    324
    328
    332
    336
    340
    344
    348
    352
    356
    360
    364
    368
    372
    376
    380
    384
    388
    392
    396
    400
    404
    408
    412
    416
    420
    424
    428
    432
    436
    440
    444
    448
    452
    456
    460
    464
    468
    472
    476
    480
    484
    488
    492
    496
    500
    504
    508
    512
    516
    520
    524
    528
    532
    536
    540
    544
    548
    552
    556
    560
    564
    568
    572
    576
    580
    584
    588
    592
    596
    600
    604
    608
    612
    616
    620
    624
    628
    632
    636
    640
    644
    648
    652
    656
    660
    664
    668
    672
    676
    680
    684
    688
    692
    696
    700
    704
    708
    712
    716
    720
    724
    728
    732
    736
    740
    744
    748
    752
    756
    760
    764
    768
    772
    776
    780
    784
    788
    792
    796
    800
    804
    808
    812
    816
    820
    824
    828
    832
    836
    840
    844
    848
    852
    856
    860
    864
    868
    872
    876
    880
    884
    888
    892
    896
    900
    904
    908
    912
    916
    920
    924
    928
    932
    936
    940
    944
    948
    952
    956
    960
    964
    968
    972
    976
    980
    984
    988
    992
    996
   1000
   1004
   1008
   1012
   1016
   1020
   1024
   1028
   1032
   1036
   1040
   1044
   1048
   1052
   1056
   1060
   1064
   1068
   1072
   1076
   1080
   1084
   1088
   1092
   1096
   1100
   1104
   1108
   1112
   1116
   1120
   1124
   1128
   1132
   1136
   1140
   1144
   1148
   1152
   1156
   1160
   1164
   1168
   1172
   1176
   1180
   1184
   1188
   1192
   1196
   1200
   1204
   1208
   1212
   1216
   1220
   1224
   1228
   1232
   1236
   1240
   1244
   1248
   1252
   1256
   1260
   1264
   1268
   1272
   1276
   1280
   1284
   1288
   1292
   1296
   1300
   1304
   1308
   1312
   1316
   1320
   1324
   1328
   1332
   1336
   1340
   1344
   1348
   1352
   1356
   1360
   1364
   1368
   1372
   1376
   1380
   1384
   1388
   1392
   1396
   1400
   1404
   1408
   1412
   1416
   1420
   1424
   1428
   1432
   1436
   1440
   1444
   1448
   1452
   1456
   1460
   1464
   1468
   1472
   1476
   1480
   1484
   1488
   1492
   1496
   1500
   1504
   1508
   1512
   1516
   1520
   1524
   1528
   1532
   1536
   1540
   1544
   1548
   1552
   1556
   1560
   1564
   1568
   1572
   1576
   1580
   1584
   1588
   1592
   1596
   1600
   1604
   1608
   1612
   1616
   1620
   1624
   1628
   1632
   1636
   1640
   1644
   1648
   1652
   1656
   1660
   1664
   1668
   1672
   1676
   1680
   1684
   1688
   1692
   1696
   1700
   1704
   1708
   1712
   1716
   1720
   1724
   1728
   1732
   1736
   1740
   1744
   1748
   1752
   1756
   1760
   1764
   1768
   1772
   1776
   1780
   1784
   1788
   1792
   1796
   1800
   1804
   1808
   1812
   1816
   1820
   1824
   1828
   1832
   1836
   1840
   1844
   1848
   1852
   1856
   1860
   1864
   1868
   1872
   1876
   1880
   1884
   1888
   1892
   1896
   1900
   1904
   1908
   1912
   1916
   1920
   1924
   1928
   1932
   1936
   1940
   1944
   1948
   1952
   1956
   1960
   1964
   1968
   1972
   1976
   1980
   1984
   1988
   1992
   1996
   2000
   2004
   2008
   2012
   2016
   2020
   2024
   2028
   2032
   2036
   2040
   2044
   2048
   2052
   2056
   2060
   2064
   2068
   2072
   2076
   2080
   2084
   2088
   2092
   2096
   2100
   2104
   2108
   2112
   2116
   2120
   2124
   2128
   2132
   2136
   2140
   2144
   2148
   2152
   2156
   2160
   2164
   2168
   2172
   2176
   2180
   2184
   2188
   2192
   2196
   2200
   2204
   2208
   2212
   2216
   2220
   2224
   2228
   2232
   2236
   2240
   2244
   2248
   2252
   2256
   2260
   2264
   2268
   2272
   2276
   2280
   2284
   2288
   2292
   2296
   2300
   2304
   2308
   2312
   2316
   2320
   2324
   2328
   2332
   2336
   2340
   2344
   2348
   2352
   2356
   2360
   2364
   2368
   2372
   2376
   2380
   2384
   2388
   2392
   2396
   2400
        </DataArray>
      </Polys>
    </Piece>
  </PolyData>
</VTKFile>
