<?xml version="1.0"?>
<VTKFile type="PolyData" version="0.1" byte_order="LittleEndian">
  <PolyData>
    <Piece NumberOfPoints="     19" NumberOfVerts="  0" NumberOfLines="     18"
           NumberOfStrips="  0" NumberOfPolys="      0">
      <Points>
        <DataArray type="Float32" NumberOfComponents="3" format="ascii">
                      -5.18628                      -0.56150                      88.62159
                      -5.35692                      -1.06989                      87.36449
                      -5.72349                      -1.99848                      84.81789
                      -6.10204                      -2.88534                      82.25591
                      -6.58240                      -3.96900                      79.04418
                      -7.10169                      -5.40290                      75.23680
                      -7.59287                      -6.95774                      71.47489
                      -8.08623                      -8.51494                      67.71423
                      -8.57933                     -10.07621                      63.95520
                      -9.07305                     -11.63976                      60.19718
                      -9.56885                     -13.20217                      56.43898
                     -10.06594                     -14.76486                      52.68106
                     -10.56497                     -16.32778                      48.92351
                     -11.06664                     -17.89090                      45.16638
                     -11.56924                     -19.45410                      41.40942
                     -11.98871                     -20.75683                      38.27869
                     -12.32457                     -21.80631                      35.77719
                     -12.65993                     -22.90679                      33.29639
                     -12.82964                     -23.41835                      32.04056
        </DataArray>
      </Points>
      <PointData>
        <DataArray type="Float32" Name="TranslationalVelocity" NumberOfComponents="3" format="ascii">
                      -0.02562                       0.72749                      -0.29288
                      -0.04882                       1.39099                      -0.55806
                      -0.09120                       2.73604                      -1.04242
                      -0.13167                       4.08966                      -1.50501
                      -0.18112                       5.78684                      -2.07026
                      -0.24656                       7.79649                      -2.81819
                      -0.31751                       9.78114                      -3.62920
                      -0.38858                      11.76524                      -4.44145
                      -0.45982                      13.74848                      -5.25581
                      -0.53118                      15.73121                      -6.07137
                      -0.60248                      17.71414                      -6.88634
                      -0.67379                      19.69698                      -7.70144
                      -0.74511                      21.67972                      -8.51668
                      -0.81644                      23.66235                      -9.33201
                      -0.88778                      25.64494                     -10.14738
                      -0.94723                      27.29709                     -10.82689
                      -0.99512                      28.61722                     -11.37431
                      -1.04534                      29.92652                     -11.94833
                      -1.06869                      30.58931                     -12.21516
        </DataArray>
        <DataArray type="Float32" Name="RotationalVelocity" NumberOfComponents="3" format="ascii">
                       0.52161                      -0.00000                      -0.04563
                       0.52161                      -0.00000                      -0.04563
                       0.52161                      -0.00000                      -0.04563
                       0.52161                      -0.00000                      -0.04563
                       0.52161                      -0.00000                      -0.04563
                       0.52161                      -0.00000                      -0.04563
                       0.52161                      -0.00000                      -0.04563
                       0.52161                      -0.00000                      -0.04563
                       0.52161                      -0.00000                      -0.04563
                       0.52161                      -0.00000                      -0.04563
                       0.52161                      -0.00000                      -0.04563
                       0.52161                      -0.00000                      -0.04563
                       0.52161                      -0.00000                      -0.04563
                       0.52161                      -0.00000                      -0.04563
                       0.52161                      -0.00000                      -0.04563
                       0.52161                      -0.00000                      -0.04563
                       0.52161                      -0.00000                      -0.04563
                       0.52161                      -0.00000                      -0.04563
                       0.52161                      -0.00000                      -0.04563
        </DataArray>
        <DataArray type="Float32" Name="TranslationalAcceleration" NumberOfComponents="3" format="ascii">
                       0.03320                       0.15394                       0.37946
                       0.06348                       0.29332                       0.72555
                       0.12486                       0.54790                       1.42713
                       0.18663                       0.79103                       2.13319
                       0.26408                       1.08812                       3.01845
                       0.35579                       1.48124                       4.06670
                       0.44636                       1.90751                       5.10191
                       0.53690                       2.33442                       6.13682
                       0.62741                       2.76245                       7.17129
                       0.71789                       3.19111                       8.20550
                       0.80838                       3.61945                       9.23981
                       0.89886                       4.04787                      10.27407
                       0.98935                       4.47635                      11.30828
                       1.07982                       4.90489                      12.34243
                       1.17030                       5.33345                      13.37656
                       1.24569                       5.69060                      14.23833
                       1.30594                       5.97832                      14.92692
                       1.36569                       6.28003                      15.60986
                       1.39593                       6.42027                      15.95558
        </DataArray>
        <DataArray type="Float32" Name="OrientationX" NumberOfComponents="3" format="ascii">
                       0.99172                      -0.01634                      -0.12736
                       0.99172                      -0.01634                      -0.12736
                       0.99172                      -0.01634                      -0.12736
                       0.99172                      -0.01634                      -0.12736
                       0.99172                      -0.01634                      -0.12736
                       0.99172                      -0.01634                      -0.12736
                       0.99172                      -0.01634                      -0.12736
                       0.99172                      -0.01634                      -0.12736
                       0.99172                      -0.01634                      -0.12736
                       0.99172                      -0.01634                      -0.12736
                       0.99172                      -0.01634                      -0.12736
                       0.99172                      -0.01634                      -0.12736
                       0.99172                      -0.01634                      -0.12736
                       0.99172                      -0.01634                      -0.12736
                       0.99172                      -0.01634                      -0.12736
                       0.99172                      -0.01634                      -0.12736
                       0.99172                      -0.01634                      -0.12736
                       0.99172                      -0.01634                      -0.12736
                       0.99172                      -0.01634                      -0.12736
        </DataArray>
        <DataArray type="Float32" Name="OrientationY" NumberOfComponents="3" format="ascii">
                       0.03266                      -0.92715                       0.37326
                       0.03266                      -0.92715                       0.37326
                       0.03266                      -0.92715                       0.37326
                       0.03266                      -0.92715                       0.37326
                       0.03266                      -0.92715                       0.37326
                       0.03266                      -0.92715                       0.37326
                       0.03266                      -0.92715                       0.37326
                       0.03266                      -0.92715                       0.37326
                       0.03266                      -0.92715                       0.37326
                       0.03266                      -0.92715                       0.37326
                       0.03266                      -0.92715                       0.37326
                       0.03266                      -0.92715                       0.37326
                       0.03266                      -0.92715                       0.37326
                       0.03266                      -0.92715                       0.37326
                       0.03266                      -0.92715                       0.37326
                       0.03266                      -0.92715                       0.37326
                       0.03266                      -0.92715                       0.37326
                       0.03266                      -0.92715                       0.37326
                       0.03266                      -0.92715                       0.37326
        </DataArray>
        <DataArray type="Float32" Name="OrientationZ" NumberOfComponents="3" format="ascii">
                      -0.12418                      -0.37433                      -0.91894
                      -0.12418                      -0.37433                      -0.91894
                      -0.12418                      -0.37433                      -0.91894
                      -0.12418                      -0.37433                      -0.91894
                      -0.12418                      -0.37433                      -0.91894
                      -0.12418                      -0.37433                      -0.91894
                      -0.12418                      -0.37433                      -0.91894
                      -0.12418                      -0.37433                      -0.91894
                      -0.12418                      -0.37433                      -0.91894
                      -0.12418                      -0.37433                      -0.91894
                      -0.12418                      -0.37433                      -0.91894
                      -0.12418                      -0.37433                      -0.91894
                      -0.12418                      -0.37433                      -0.91894
                      -0.12418                      -0.37433                      -0.91894
                      -0.12418                      -0.37433                      -0.91894
                      -0.12418                      -0.37433                      -0.91894
                      -0.12418                      -0.37433                      -0.91894
                      -0.12418                      -0.37433                      -0.91894
                      -0.12418                      -0.37433                      -0.91894
        </DataArray>
        <DataArray type="Float32" Name="Force" NumberOfComponents="3" format="ascii">
                       0.05987                      -1.69982                       0.68433
                     121.81112                     -27.65711                      -5.19506
                     148.11683                     -52.76049                       1.47592
                     123.00602                     -57.61929                       6.84855
                    1134.07482                      90.51824                    -190.12797
                    1150.71237                      75.90135                    -186.42213
                    1280.11024                      83.68033                    -207.07733
                    1169.90545                      65.38714                    -184.73286
                    1077.50464                      42.38133                    -162.87469
                    1143.74763                      54.35716                    -176.70491
                    1150.45542                      79.29643                    -187.77039
                    1323.43682                     155.94520                    -242.36942
                    1620.06622                     242.05957                    -317.53367
                    1816.58250                     283.52739                    -360.98218
                    1928.97035                     297.37251                    -381.80973
                    1948.22897                     290.54557                    -381.63133
                    1913.95519                     280.59007                    -372.94431
                    1409.20161                     202.98346                    -273.12043
                     423.87894                     -12.80706                     -52.06474
        </DataArray>
        <DataArray type="Float32" Name="Moment" NumberOfComponents="3" format="ascii">
                       0.00000                       0.00000                       0.00000
                       0.00000                       0.00000                       0.00000
                       0.00000                       0.00000                       0.00000
                       0.00000                       0.00000                       0.00000
                      83.79349                     252.58273                     620.06361
                      94.84616                     285.89933                     701.85230
                      94.65354                     285.31871                     700.42693
                      96.86606                     291.98800                     716.79934
                      93.84711                     282.88784                     694.45941
                      88.62581                     267.14903                     655.82231
                      72.24379                     217.76791                     534.59694
                      64.74491                     195.16368                     479.10598
                      56.21096                     169.43940                     415.95561
                      50.53732                     152.33707                     373.97122
                      46.19958                     139.26162                     341.87238
                      43.69540                     131.71315                     323.34170
                      38.99351                     117.54001                     288.54816
                      19.51921                      58.83768                     144.44020
                      17.27055                      52.05945                     127.80038
        </DataArray>
      </PointData>
      <Lines>
        <DataArray type="Int32" Name="connectivity" format="ascii">
      0      1
      1      2
      2      3
      3      4
      4      5
      5      6
      6      7
      7      8
      8      9
      9     10
     10     11
     11     12
     12     13
     13     14
     14     15
     15     16
     16     17
     17     18
        </DataArray>
        <DataArray type="Int32" Name="offsets" format="ascii">
      2
      4
      6
      8
     10
     12
     14
     16
     18
     20
     22
     24
     26
     28
     30
     32
     34
     36
        </DataArray>
      </Lines>
    </Piece>
  </PolyData>
</VTKFile>
