<?xml version="1.0"?>
<VTKFile type="PolyData" version="0.1" byte_order="LittleEndian">
  <PolyData>
    <Piece NumberOfPoints="    625" NumberOfVerts="  0" NumberOfLines="      0"
           NumberOfStrips="  0" NumberOfPolys="    600">
      <Points>
        <DataArray type="Float32" NumberOfComponents="3" format="ascii">
                      -4.86942                       0.07223                      91.49256
                      -4.86942                       0.07223                      91.49256
                      -4.86942                       0.07223                      91.49256
                      -4.86942                       0.07223                      91.49256
                      -4.86942                       0.07223                      91.49256
                      -4.86942                       0.07223                      91.49256
                      -4.86942                       0.07223                      91.49256
                      -4.86942                       0.07223                      91.49256
                      -4.86942                       0.07223                      91.49256
                      -4.86942                       0.07223                      91.49256
                      -4.86942                       0.07223                      91.49256
                      -4.86942                       0.07223                      91.49256
                      -4.86942                       0.07223                      91.49256
                      -4.86942                       0.07223                      91.49256
                      -4.86942                       0.07223                      91.49256
                      -4.86942                       0.07223                      91.49256
                      -4.86942                       0.07223                      91.49256
                      -4.86942                       0.07223                      91.49256
                      -4.86942                       0.07223                      91.49256
                      -4.86942                       0.07223                      91.49256
                      -4.86942                       0.07223                      91.49256
                      -4.86942                       0.07223                      91.49256
                      -4.86942                       0.07223                      91.49256
                      -4.86942                       0.07223                      91.49256
                      -4.86942                       0.07223                      91.49256
                      -4.28310                       0.06621                      91.31593
                      -4.30124                      -0.08270                      91.32473
                      -4.35576                      -0.22226                      91.33625
                      -4.44324                      -0.34369                      91.34978
                      -4.55818                      -0.43936                      91.36447
                      -4.69336                      -0.50327                      91.37939
                      -4.84029                      -0.53139                      91.39360
                      -4.98973                      -0.52197                      91.40622
                      -5.13230                      -0.47559                      91.41645
                      -5.25903                      -0.39516                      91.42364
                      -5.36197                      -0.28575                      91.42735
                      -5.43463                      -0.15422                      91.42735
                      -5.47247                      -0.00884                      91.42362
                      -5.47310                       0.14126                      91.41641
                      -5.43649                       0.28664                      91.40618
                      -5.36492                       0.41817                      91.39355
                      -5.26291                       0.52758                      91.37933
                      -5.13685                       0.60801                      91.36441
                      -4.99468                       0.65439                      91.34973
                      -4.84531                       0.66381                      91.33620
                      -4.69815                       0.63569                      91.32469
                      -4.56243                       0.57178                      91.31591
                      -4.44668                       0.47611                      91.31041
                      -4.35818                       0.35468                      91.30854
                      -4.30249                       0.21512                      91.31042
                      -4.06518                       0.06019                      91.17154
                      -4.09027                      -0.14577                      91.18370
                      -4.16568                      -0.33880                      91.19964
                      -4.28667                      -0.50675                      91.21835
                      -4.44565                      -0.63908                      91.23866
                      -4.63262                      -0.72747                      91.25930
                      -4.83584                      -0.76637                      91.27896
                      -5.04254                      -0.75333                      91.29641
                      -5.23973                      -0.68918                      91.31056
                      -5.41501                      -0.57794                      91.32051
                      -5.55739                      -0.42661                      91.32565
                      -5.65790                      -0.24469                      91.32564
                      -5.71023                      -0.04361                      91.32048
                      -5.71111                       0.16399                      91.31051
                      -5.66046                       0.36507                      91.29635
                      -5.56148                       0.54699                      91.27889
                      -5.42038                       0.69833                      91.25922
                      -5.24603                       0.80956                      91.23858
                      -5.04938                       0.87372                      91.21827
                      -4.84279                       0.88675                      91.19957
                      -4.63924                       0.84785                      91.18364
                      -4.45153                       0.75946                      91.17150
                      -4.29144                       0.62713                      91.16390
                      -4.16903                       0.45918                      91.16131
                      -4.09200                       0.26615                      91.16392
                      -3.91368                       0.05417                      91.03295
                      -3.94370                      -0.19228                      91.04750
                      -4.03393                      -0.42325                      91.06657
                      -4.17872                      -0.62422                      91.08897
                      -4.36895                      -0.78256                      91.11327
                      -4.59268                      -0.88833                      91.13796
                      -4.83585                      -0.93488                      91.16149
                      -5.08318                      -0.91928                      91.18238
                      -5.31913                      -0.84252                      91.19930
                      -5.52887                      -0.70941                      91.21121
                      -5.69923                      -0.52833                      91.21735
                      -5.81951                      -0.31064                      91.21734
                      -5.88213                      -0.07003                      91.21118
                      -5.88317                       0.17838                      91.19925
                      -5.82257                       0.41899                      91.18230
                      -5.70413                       0.63667                      91.16141
                      -5.53529                       0.81775                      91.13787
                      -5.32666                       0.95086                      91.11318
                      -5.09136                       1.02762                      91.08888
                      -4.84416                       1.04322                      91.06649
                      -4.60060                       0.99667                      91.04744
                      -4.37598                       0.89091                      91.03290
                      -4.18442                       0.73256                      91.02381
                      -4.03795                       0.53159                      91.02072
                      -3.94577                       0.30062                      91.02383
                      -3.79917                       0.04815                      90.89760
                      -3.83299                      -0.22957                      90.91400
                      -3.93467                      -0.48984                      90.93549
                      -4.09782                      -0.71631                      90.96072
                      -4.31219                      -0.89474                      90.98811
                      -4.56431                      -1.01393                      91.01594
                      -4.83833                      -1.06638                      91.04245
                      -5.11704                      -1.04880                      91.06598
                      -5.38292                      -0.96230                      91.08506
                      -5.61928                      -0.81231                      91.09848
                      -5.81125                      -0.60825                      91.10540
                      -5.94678                      -0.36295                      91.10539
                      -6.01736                      -0.09181                      91.09844
                      -6.01853                       0.18812                      91.08500
                      -5.95024                       0.45925                      91.06590
                      -5.81677                       0.70455                      91.04235
                      -5.62651                       0.90861                      91.01583
                      -5.39142                       1.05861                      90.98800
                      -5.12626                       1.14511                      90.96062
                      -4.84769                       1.16269                      90.93540
                      -4.57323                       1.11023                      90.91392
                      -4.32012                       0.99104                      90.89755
                      -4.10425                       0.81261                      90.88730
                      -3.93919                       0.58614                      90.88382
                      -3.83532                       0.32587                      90.88732
                      -3.71011                       0.04213                      90.76448
                      -3.74697                      -0.26051                      90.78235
                      -3.85778                      -0.54413                      90.80577
                      -4.03557                      -0.79092                      90.83326
                      -4.26917                      -0.98536                      90.86311
                      -4.54391                      -1.11524                      90.89343
                      -4.84252                      -1.17240                      90.92232
                      -5.14623                      -1.15325                      90.94797
                      -5.43598                      -1.05898                      90.96876
                      -5.69354                      -0.89553                      90.98338
                      -5.90274                      -0.67316                      90.99092
                      -6.05043                      -0.40585                      90.99091
                      -6.12733                      -0.11039                      90.98334
                      -6.12861                       0.19466                      90.96869
                      -6.05419                       0.49012                      90.94788
                      -5.90875                       0.75743                      90.92222
                      -5.70142                       0.97980                      90.89332
                      -5.44523                       1.14325                      90.86299
                      -5.15628                       1.23751                      90.83315
                      -4.85272                       1.25667                      90.80567
                      -4.55363                       1.19951                      90.78227
                      -4.27781                       1.06963                      90.76442
                      -4.04257                       0.87518                      90.75325
                      -3.86271                       0.62840                      90.74946
                      -3.74952                       0.34477                      90.75328
                      -3.64062                       0.03611                      90.63306
                      -3.67992                      -0.28657                      90.65212
                      -3.79806                      -0.58898                      90.67709
                      -3.98762                      -0.85211                      90.70641
                      -4.23670                      -1.05943                      90.73823
                      -4.52963                      -1.19791                      90.77056
                      -4.84801                      -1.25886                      90.80136
                      -5.17184                      -1.23843                      90.82871
                      -5.48078                      -1.13793                      90.85087
                      -5.75540                      -0.96365                      90.86646
                      -5.97845                      -0.72656                      90.87451
                      -6.13592                      -0.44154                      90.87449
                      -6.21792                      -0.12651                      90.86642
                      -6.21928                       0.19874                      90.85080
                      -6.13994                       0.51377                      90.82861
                      -5.98486                       0.79878                      90.80125
                      -5.76380                       1.03588                      90.77044
                      -5.49064                       1.21016                      90.73811
                      -5.18255                       1.31066                      90.70629
                      -4.85889                       1.33109                      90.67698
                      -4.54000                       1.27014                      90.65203
                      -4.24590                       1.13166                      90.63300
                      -3.99509                       0.92434                      90.62109
                      -3.80331                       0.66120                      90.61705
                      -3.68263                       0.35880                      90.62112
                      -3.58719                       0.03010                      90.50306
                      -3.62845                      -0.30862                      90.52306
                      -3.75246                      -0.62606                      90.54927
                      -3.95144                      -0.90226                      90.58005
                      -4.21289                      -1.11989                      90.61345
                      -4.52038                      -1.26525                      90.64739
                      -4.85459                      -1.32922                      90.67972
                      -5.19451                      -1.30779                      90.70842
                      -5.51879                      -1.20229                      90.73169
                      -5.80706                      -1.01935                      90.74806
                      -6.04120                      -0.77047                      90.75650
                      -6.20649                      -0.47129                      90.75648
                      -6.29256                      -0.14061                      90.74801
                      -6.29400                       0.20080                      90.73161
                      -6.21071                       0.53148                      90.70832
                      -6.04792                       0.83066                      90.67960
                      -5.81588                       1.07954                      90.64726
                      -5.52915                       1.26248                      90.61332
                      -5.20575                       1.36798                      90.57992
                      -4.86601                       1.38941                      90.54916
                      -4.53127                       1.32544                      90.52297
                      -4.22256                       1.18008                      90.50299
                      -3.95928                       0.96245                      90.49049
                      -3.75797                       0.68625                      90.48625
                      -3.63129                       0.36881                      90.49053
                      -3.54764                       0.02408                      90.37427
                      -3.59043                      -0.32722                      90.39501
                      -3.71905                      -0.65644                      90.42219
                      -3.92542                      -0.94290                      90.45411
                      -4.19657                      -1.16860                      90.48876
                      -4.51548                      -1.31936                      90.52395
                      -4.86209                      -1.38571                      90.55749
                      -5.21463                      -1.36348                      90.58726
                      -5.55095                      -1.25406                      90.61139
                      -5.84992                      -1.06433                      90.62836
                      -6.09275                      -0.80621                      90.63711
                      -6.26419                      -0.49593                      90.63710
                      -6.35345                      -0.15297                      90.62831
                      -6.35494                       0.20112                      90.61131
                      -6.26856                       0.54408                      90.58715
                      -6.09973                       0.85437                      90.55737
                      -5.85907                       1.11248                      90.52382
                      -5.56170                       1.30221                      90.48862
                      -5.22629                       1.41163                      90.45398
                      -4.87394                       1.43386                      90.42208
                      -4.52676                       1.36751                      90.39492
                      -4.20659                       1.21675                      90.37420
                      -3.93354                       0.99105                      90.36123
                      -3.72476                       0.70459                      90.35683
                      -3.59338                       0.37537                      90.36127
                      -3.52051                       0.01806                      90.24656
                      -3.56445                      -0.34271                      90.26786
                      -3.69654                      -0.68082                      90.29578
                      -3.90848                      -0.97500                      90.32856
                      -4.18695                      -1.20680                      90.36414
                      -4.51446                      -1.36163                      90.40029
                      -4.87042                      -1.42976                      90.43473
                      -5.23248                      -1.40693                      90.46530
                      -5.57788                      -1.29456                      90.49008
                      -5.88491                      -1.09971                      90.50751
                      -6.13429                      -0.83463                      90.51650
                      -6.31035                      -0.51598                      90.51648
                      -6.40202                      -0.16376                      90.50746
                      -6.40355                       0.19988                      90.49000
                      -6.31484                       0.55209                      90.46519
                      -6.14146                       0.87075                      90.43460
                      -5.89430                       1.13583                      90.40015
                      -5.58891                       1.33068                      90.36400
                      -5.24445                       1.44305                      90.32843
                      -4.88259                       1.46588                      90.29566
                      -4.52605                       1.39774                      90.26777
                      -4.19725                       1.24291                      90.24649
                      -3.91683                       1.01112                      90.23318
                      -3.70241                       0.71693                      90.22865
                      -3.56748                       0.37883                      90.23321
                      -3.50485                       0.01204                      90.11986
                      -3.54959                      -0.35535                      90.14155
                      -3.68410                      -0.69966                      90.16998
                      -3.89993                      -0.99925                      90.20336
                      -4.18351                      -1.23529                      90.23960
                      -4.51703                      -1.39296                      90.27640
                      -4.87953                      -1.46235                      90.31148
                      -5.24823                      -1.43910                      90.34261
                      -5.59996                      -1.32467                      90.36784
                      -5.91263                      -1.12624                      90.38560
                      -6.16659                      -0.85630                      90.39475
                      -6.34588                      -0.53179                      90.39473
                      -6.43923                      -0.17312                      90.38554
                      -6.44079                       0.19719                      90.36776
                      -6.35045                       0.55587                      90.34250
                      -6.17388                       0.88038                      90.31135
                      -5.92219                       1.15032                      90.27626
                      -5.61119                       1.34874                      90.23945
                      -5.26042                       1.46318                      90.20323
                      -4.89192                       1.48643                      90.16986
                      -4.52884                       1.41704                      90.14145
                      -4.19400                       1.25937                      90.11979
                      -3.90843                       1.02332                      90.10623
                      -3.69008                       0.72373                      90.10162
                      -3.55268                       0.37943                      90.10626
                      -3.50002                       0.00602                      89.99410
                      -3.54525                      -0.36529                      90.01603
                      -3.68119                      -0.71326                      90.04476
                      -3.89932                      -1.01604                      90.07850
                      -4.18593                      -1.25460                      90.11512
                      -4.52300                      -1.41395                      90.15232
                      -4.88936                      -1.48408                      90.18777
                      -5.26199                      -1.46058                      90.21923
                      -5.61747                      -1.34493                      90.24473
                      -5.93347                      -1.14439                      90.26267
                      -6.19013                      -0.87157                      90.27193
                      -6.37133                      -0.54361                      90.27191
                      -6.46569                      -0.18111                      90.26262
                      -6.46726                       0.19315                      90.24465
                      -6.37595                       0.55565                      90.21912
                      -6.19751                       0.88361                      90.18763
                      -5.94314                       1.15643                      90.15218
                      -5.62882                       1.35697                      90.11497
                      -5.27431                       1.47262                      90.07836
                      -4.90188                       1.49612                      90.04464
                      -4.53493                       1.42599                      90.01593
                      -4.19652                       1.26664                      89.99404
                      -3.90791                       1.02808                      89.98033
                      -3.68724                       0.72530                      89.97568
                      -3.54837                       0.37733                      89.98037
                      -3.50571                       0.00000                      89.86927
                      -3.55109                      -0.37260                      89.89127
                      -3.68751                      -0.72179                      89.92010
                      -3.90640                      -1.02563                      89.95396
                      -4.19400                      -1.26502                      89.99071
                      -4.53225                      -1.42493                      90.02804
                      -4.89989                      -1.49530                      90.06361
                      -5.27382                      -1.47172                      90.09518
                      -5.63054                      -1.35567                      90.12077
                      -5.94765                      -1.15443                      90.13878
                      -6.20521                      -0.88065                      90.14806
                      -6.38704                      -0.55155                      90.14804
                      -6.48172                      -0.18778                      90.13872
                      -6.48330                       0.18778                      90.12069
                      -6.39168                       0.55155                      90.09507
                      -6.21261                       0.88066                      90.06348
                      -5.95735                       1.15443                      90.02789
                      -5.64194                       1.35567                      89.99056
                      -5.28619                       1.47172                      89.95382
                      -4.91246                       1.49530                      89.91998
                      -4.54423                       1.42493                      89.89117
                      -4.20463                       1.26502                      89.86920
                      -3.91502                       1.02563                      89.85545
                      -3.69358                       0.72179                      89.85078
                      -3.55422                       0.37260                      89.85548
                      -3.52179                      -0.00602                      89.74534
                      -3.56701                      -0.37733                      89.76727
                      -3.70296                      -0.72530                      89.79600
                      -3.92109                      -1.02808                      89.82974
                      -4.20769                      -1.26664                      89.86636
                      -4.54476                      -1.42599                      89.90356
                      -4.91112                      -1.49612                      89.93901
                      -5.28375                      -1.47262                      89.97047
                      -5.63923                      -1.35697                      89.99597
                      -5.95523                      -1.15643                      90.01391
                      -6.21190                      -0.88361                      90.02317
                      -6.39310                      -0.55565                      90.02315
                      -6.48745                      -0.19315                      90.01386
                      -6.48902                       0.18111                      89.99589
                      -6.39772                       0.54361                      89.97036
                      -6.21927                       0.87157                      89.93887
                      -5.96490                       1.14439                      89.90342
                      -5.65058                       1.34493                      89.86621
                      -5.29607                       1.46058                      89.82960
                      -4.92364                       1.48408                      89.79588
                      -4.55669                       1.41395                      89.76717
                      -4.21828                       1.25460                      89.74528
                      -3.92967                       1.01604                      89.73157
                      -3.70900                       0.71326                      89.72692
                      -3.57013                       0.36529                      89.73161
                      -3.54837                      -0.01204                      89.62234
                      -3.59312                      -0.37943                      89.64403
                      -3.72763                      -0.72373                      89.67246
                      -3.94346                      -1.02332                      89.70584
                      -4.22704                      -1.25937                      89.74208
                      -4.56056                      -1.41704                      89.77888
                      -4.92305                      -1.48643                      89.81396
                      -5.29175                      -1.46318                      89.84509
                      -5.64349                      -1.34874                      89.87032
                      -5.95616                      -1.15032                      89.88808
                      -6.21012                      -0.88038                      89.89723
                      -6.38940                      -0.55587                      89.89721
                      -6.48276                      -0.19719                      89.88802
                      -6.48432                       0.17312                      89.87024
                      -6.39397                       0.53179                      89.84498
                      -6.21741                       0.85630                      89.81383
                      -5.96572                       1.12624                      89.77874
                      -5.65472                       1.32467                      89.74193
                      -5.30395                       1.43910                      89.70571
                      -4.93544                       1.46235                      89.67234
                      -4.57236                       1.39296                      89.64393
                      -4.23752                       1.23529                      89.62227
                      -3.95196                       0.99925                      89.60871
                      -3.73361                       0.69966                      89.60410
                      -3.59621                       0.35535                      89.60874
                      -3.58580                      -0.01806                      89.50028
                      -3.62974                      -0.37883                      89.52158
                      -3.76183                      -0.71693                      89.54950
                      -3.97377                      -1.01112                      89.58228
                      -4.25224                      -1.24291                      89.61786
                      -4.57975                      -1.39774                      89.65401
                      -4.93572                      -1.46588                      89.68845
                      -5.29777                      -1.44305                      89.71902
                      -5.64317                      -1.33068                      89.74380
                      -5.95020                      -1.13583                      89.76123
                      -6.19958                      -0.87075                      89.77022
                      -6.37564                      -0.55209                      89.77020
                      -6.46732                      -0.19988                      89.76118
                      -6.46884                       0.16376                      89.74372
                      -6.38013                       0.51598                      89.71891
                      -6.20675                       0.83463                      89.68832
                      -5.95959                       1.09971                      89.65387
                      -5.65420                       1.29456                      89.61772
                      -5.30974                       1.40693                      89.58215
                      -4.94788                       1.42976                      89.54938
                      -4.59134                       1.36163                      89.52149
                      -4.26254                       1.20680                      89.50021
                      -3.98212                       0.97500                      89.48690
                      -3.76771                       0.68082                      89.48238
                      -3.63278                       0.34271                      89.48693
                      -3.63470                      -0.02408                      89.37923
                      -3.67748                      -0.37537                      89.39997
                      -3.80610                      -0.70459                      89.42715
                      -4.01247                      -0.99105                      89.45907
                      -4.28363                      -1.21675                      89.49372
                      -4.60253                      -1.36751                      89.52891
                      -4.94914                      -1.43386                      89.56245
                      -5.30169                      -1.41163                      89.59222
                      -5.63801                      -1.30221                      89.61635
                      -5.93698                      -1.11248                      89.63332
                      -6.17981                      -0.85437                      89.64208
                      -6.35124                      -0.54408                      89.64206
                      -6.44051                      -0.20112                      89.63327
                      -6.44199                       0.15297                      89.61627
                      -6.35561                       0.49593                      89.59211
                      -6.18679                       0.80621                      89.56233
                      -5.94612                       1.06433                      89.52878
                      -5.64875                       1.25406                      89.49358
                      -5.31335                       1.36348                      89.45894
                      -4.96099                       1.38571                      89.42704
                      -4.61382                       1.31936                      89.39988
                      -4.29365                       1.16860                      89.37916
                      -4.02060                       0.94290                      89.36619
                      -3.81182                       0.65644                      89.36179
                      -3.68043                       0.32722                      89.36623
                      -3.69601                      -0.03010                      89.25926
                      -3.73726                      -0.36881                      89.27926
                      -3.86128                      -0.68625                      89.30547
                      -4.06026                      -0.96245                      89.33625
                      -4.32171                      -1.18008                      89.36965
                      -4.62920                      -1.32544                      89.40359
                      -4.96340                      -1.38942                      89.43592
                      -5.30333                      -1.36798                      89.46462
                      -5.62761                      -1.26248                      89.48789
                      -5.91588                      -1.07954                      89.50426
                      -6.15002                      -0.83066                      89.51270
                      -6.31531                      -0.53148                      89.51268
                      -6.40138                      -0.20080                      89.50421
                      -6.40282                       0.14061                      89.48781
                      -6.31953                       0.47129                      89.46452
                      -6.15674                       0.77047                      89.43580
                      -5.92470                       1.01935                      89.40346
                      -5.63797                       1.20229                      89.36952
                      -5.31457                       1.30779                      89.33612
                      -4.97483                       1.32922                      89.30536
                      -4.64008                       1.26525                      89.27917
                      -4.33137                       1.11989                      89.25920
                      -4.06810                       0.90226                      89.24669
                      -3.86679                       0.62606                      89.24245
                      -3.74011                       0.30862                      89.24673
                      -3.77120                      -0.03611                      89.14051
                      -3.81050                      -0.35880                      89.15956
                      -3.92864                      -0.66120                      89.18453
                      -4.11821                      -0.92434                      89.21385
                      -4.36728                      -1.13166                      89.24567
                      -4.66021                      -1.27014                      89.27800
                      -4.97859                      -1.33109                      89.30881
                      -5.30243                      -1.31066                      89.33615
                      -5.61136                      -1.21016                      89.35831
                      -5.88598                      -1.03588                      89.37391
                      -6.10903                      -0.79878                      89.38195
                      -6.26650                      -0.51377                      89.38193
                      -6.34850                      -0.19874                      89.37386
                      -6.34987                       0.12651                      89.35824
                      -6.27052                       0.44154                      89.33605
                      -6.11544                       0.72656                      89.30869
                      -5.89438                       0.96365                      89.27788
                      -5.62122                       1.13793                      89.24555
                      -5.31314                       1.23843                      89.21373
                      -4.98948                       1.25886                      89.18442
                      -4.67058                       1.19791                      89.15947
                      -4.37648                       1.05943                      89.14045
                      -4.12567                       0.85211                      89.12853
                      -3.93389                       0.58898                      89.12449
                      -3.81321                       0.28657                      89.12857
                      -3.86246                      -0.04213                      89.02316
                      -3.89932                      -0.34477                      89.04103
                      -4.01013                      -0.62840                      89.06445
                      -4.18791                      -0.87518                      89.09194
                      -4.42152                      -1.06963                      89.12179
                      -4.69625                      -1.19951                      89.15211
                      -4.99486                      -1.25667                      89.18100
                      -5.29858                      -1.23751                      89.20665
                      -5.58832                      -1.14325                      89.22744
                      -5.84588                      -0.97980                      89.24206
                      -6.05508                      -0.75743                      89.24960
                      -6.20277                      -0.49012                      89.24959
                      -6.27968                      -0.19466                      89.24202
                      -6.28096                       0.11039                      89.22737
                      -6.20654                       0.40585                      89.20656
                      -6.06109                       0.67316                      89.18090
                      -5.85376                       0.89553                      89.15200
                      -5.59757                       1.05898                      89.12167
                      -5.30862                       1.15325                      89.09183
                      -5.00507                       1.17240                      89.06435
                      -4.70598                       1.11524                      89.04095
                      -4.43015                       0.98536                      89.02310
                      -4.19492                       0.79092                      89.01193
                      -4.01505                       0.54413                      89.00814
                      -3.90186                       0.26051                      89.01196
                      -3.97328                      -0.04815                      88.90752
                      -4.00710                      -0.32587                      88.92392
                      -4.10878                      -0.58614                      88.94541
                      -4.27193                      -0.81261                      88.97064
                      -4.48630                      -0.99104                      88.99803
                      -4.73842                      -1.11023                      89.02586
                      -5.01244                      -1.16269                      89.05237
                      -5.29115                      -1.14511                      89.07590
                      -5.55703                      -1.05861                      89.09498
                      -5.79339                      -0.90861                      89.10840
                      -5.98536                      -0.70455                      89.11532
                      -6.12089                      -0.45925                      89.11531
                      -6.19146                      -0.18812                      89.10836
                      -6.19264                       0.09181                      89.09492
                      -6.12435                       0.36295                      89.07582
                      -5.99088                       0.60825                      89.05227
                      -5.80062                       0.81231                      89.02575
                      -5.56553                       0.96230                      88.99793
                      -5.30037                       1.04880                      88.97054
                      -5.02180                       1.06638                      88.94532
                      -4.74734                       1.01393                      88.92385
                      -4.49422                       0.89474                      88.90747
                      -4.27836                       0.71631                      88.89722
                      -4.11330                       0.48984                      88.89374
                      -4.00943                       0.22957                      88.89725
                      -4.10956                      -0.05417                      88.79411
                      -4.13957                      -0.30062                      88.80866
                      -4.22981                      -0.53159                      88.82774
                      -4.37459                      -0.73256                      88.85013
                      -4.56482                      -0.89091                      88.87443
                      -4.78855                      -0.99667                      88.89913
                      -5.03172                      -1.04322                      88.92265
                      -5.27905                      -1.02762                      88.94354
                      -5.51500                      -0.95086                      88.96047
                      -5.72475                      -0.81775                      88.97237
                      -5.89511                      -0.63667                      88.97852
                      -6.01538                      -0.41899                      88.97850
                      -6.07800                      -0.17838                      88.97234
                      -6.07905                       0.07003                      88.96041
                      -6.01844                       0.31064                      88.94346
                      -5.90000                       0.52833                      88.92257
                      -5.73116                       0.70941                      88.89903
                      -5.52254                       0.84252                      88.87434
                      -5.28723                       0.91928                      88.85004
                      -5.04003                       0.93488                      88.82766
                      -4.79647                       0.88833                      88.80860
                      -4.57185                       0.78256                      88.79407
                      -4.38029                       0.62422                      88.78497
                      -4.23382                       0.42325                      88.78188
                      -4.14164                       0.19228                      88.78499
                      -4.28282                      -0.06019                      88.68394
                      -4.30790                      -0.26615                      88.69610
                      -4.38331                      -0.45918                      88.71204
                      -4.50431                      -0.62713                      88.73075
                      -4.66329                      -0.75946                      88.75106
                      -4.85026                      -0.84785                      88.77170
                      -5.05348                      -0.88675                      88.79136
                      -5.26018                      -0.87372                      88.80882
                      -5.45736                      -0.80956                      88.82296
                      -5.63265                      -0.69833                      88.83291
                      -5.77502                      -0.54699                      88.83805
                      -5.87553                      -0.36507                      88.83804
                      -5.92787                      -0.16399                      88.83289
                      -5.92874                       0.04361                      88.82292
                      -5.87810                       0.24469                      88.80875
                      -5.77911                       0.42661                      88.79129
                      -5.63801                       0.57794                      88.77162
                      -5.46366                       0.68918                      88.75099
                      -5.26701                       0.75333                      88.73068
                      -5.06043                       0.76637                      88.71197
                      -4.85688                       0.72747                      88.69605
                      -4.66916                       0.63908                      88.68390
                      -4.50907                       0.50675                      88.67630
                      -4.38667                       0.33880                      88.67372
                      -4.30963                       0.14577                      88.67632
                      -4.52250                      -0.06621                      88.57958
                      -4.54064                      -0.21512                      88.58837
                      -4.59516                      -0.35468                      88.59989
                      -4.68264                      -0.47611                      88.61342
                      -4.79758                      -0.57178                      88.62811
                      -4.93276                      -0.63569                      88.64303
                      -5.07969                      -0.66381                      88.65724
                      -5.22913                      -0.65439                      88.66986
                      -5.37170                      -0.60801                      88.68009
                      -5.49843                      -0.52758                      88.68729
                      -5.60137                      -0.41817                      88.69100
                      -5.67404                      -0.28664                      88.69099
                      -5.71187                      -0.14126                      88.68726
                      -5.71251                       0.00884                      88.68006
                      -5.67589                       0.15422                      88.66982
                      -5.60432                       0.28575                      88.65719
                      -5.50231                       0.39516                      88.64297
                      -5.37625                       0.47559                      88.62805
                      -5.23408                       0.52197                      88.61337
                      -5.08471                       0.53139                      88.59984
                      -4.93755                       0.50327                      88.58833
                      -4.80183                       0.43936                      88.57955
                      -4.68608                       0.34369                      88.57405
                      -4.59758                       0.22226                      88.57219
                      -4.54189                       0.08270                      88.57407
                      -5.13058                      -0.07223                      88.50744
                      -5.13058                      -0.07223                      88.50744
                      -5.13058                      -0.07223                      88.50744
                      -5.13058                      -0.07223                      88.50744
                      -5.13058                      -0.07223                      88.50744
                      -5.13058                      -0.07223                      88.50744
                      -5.13058                      -0.07223                      88.50744
                      -5.13058                      -0.07223                      88.50744
                      -5.13058                      -0.07223                      88.50744
                      -5.13058                      -0.07223                      88.50744
                      -5.13058                      -0.07223                      88.50744
                      -5.13058                      -0.07223                      88.50744
                      -5.13058                      -0.07223                      88.50744
                      -5.13058                      -0.07223                      88.50744
                      -5.13058                      -0.07223                      88.50744
                      -5.13058                      -0.07223                      88.50744
                      -5.13058                      -0.07223                      88.50744
                      -5.13058                      -0.07223                      88.50744
                      -5.13058                      -0.07223                      88.50744
                      -5.13058                      -0.07223                      88.50744
                      -5.13058                      -0.07223                      88.50744
                      -5.13058                      -0.07223                      88.50744
                      -5.13058                      -0.07223                      88.50744
                      -5.13058                      -0.07223                      88.50744
                      -5.13058                      -0.07223                      88.50744
        </DataArray>
      </Points>
      <Polys>
        <DataArray type="Int32" Name="connectivity" format="ascii">
      0      1     26     25
      1      2     27     26
      2      3     28     27
      3      4     29     28
      4      5     30     29
      5      6     31     30
      6      7     32     31
      7      8     33     32
      8      9     34     33
      9     10     35     34
     10     11     36     35
     11     12     37     36
     12     13     38     37
     13     14     39     38
     14     15     40     39
     15     16     41     40
     16     17     42     41
     17     18     43     42
     18     19     44     43
     19     20     45     44
     20     21     46     45
     21     22     47     46
     22     23     48     47
     23     24     49     48
     24      0     25     49
     25     26     51     50
     26     27     52     51
     27     28     53     52
     28     29     54     53
     29     30     55     54
     30     31     56     55
     31     32     57     56
     32     33     58     57
     33     34     59     58
     34     35     60     59
     35     36     61     60
     36     37     62     61
     37     38     63     62
     38     39     64     63
     39     40     65     64
     40     41     66     65
     41     42     67     66
     42     43     68     67
     43     44     69     68
     44     45     70     69
     45     46     71     70
     46     47     72     71
     47     48     73     72
     48     49     74     73
     49     25     50     74
     50     51     76     75
     51     52     77     76
     52     53     78     77
     53     54     79     78
     54     55     80     79
     55     56     81     80
     56     57     82     81
     57     58     83     82
     58     59     84     83
     59     60     85     84
     60     61     86     85
     61     62     87     86
     62     63     88     87
     63     64     89     88
     64     65     90     89
     65     66     91     90
     66     67     92     91
     67     68     93     92
     68     69     94     93
     69     70     95     94
     70     71     96     95
     71     72     97     96
     72     73     98     97
     73     74     99     98
     74     50     75     99
     75     76    101    100
     76     77    102    101
     77     78    103    102
     78     79    104    103
     79     80    105    104
     80     81    106    105
     81     82    107    106
     82     83    108    107
     83     84    109    108
     84     85    110    109
     85     86    111    110
     86     87    112    111
     87     88    113    112
     88     89    114    113
     89     90    115    114
     90     91    116    115
     91     92    117    116
     92     93    118    117
     93     94    119    118
     94     95    120    119
     95     96    121    120
     96     97    122    121
     97     98    123    122
     98     99    124    123
     99     75    100    124
    100    101    126    125
    101    102    127    126
    102    103    128    127
    103    104    129    128
    104    105    130    129
    105    106    131    130
    106    107    132    131
    107    108    133    132
    108    109    134    133
    109    110    135    134
    110    111    136    135
    111    112    137    136
    112    113    138    137
    113    114    139    138
    114    115    140    139
    115    116    141    140
    116    117    142    141
    117    118    143    142
    118    119    144    143
    119    120    145    144
    120    121    146    145
    121    122    147    146
    122    123    148    147
    123    124    149    148
    124    100    125    149
    125    126    151    150
    126    127    152    151
    127    128    153    152
    128    129    154    153
    129    130    155    154
    130    131    156    155
    131    132    157    156
    132    133    158    157
    133    134    159    158
    134    135    160    159
    135    136    161    160
    136    137    162    161
    137    138    163    162
    138    139    164    163
    139    140    165    164
    140    141    166    165
    141    142    167    166
    142    143    168    167
    143    144    169    168
    144    145    170    169
    145    146    171    170
    146    147    172    171
    147    148    173    172
    148    149    174    173
    149    125    150    174
    150    151    176    175
    151    152    177    176
    152    153    178    177
    153    154    179    178
    154    155    180    179
    155    156    181    180
    156    157    182    181
    157    158    183    182
    158    159    184    183
    159    160    185    184
    160    161    186    185
    161    162    187    186
    162    163    188    187
    163    164    189    188
    164    165    190    189
    165    166    191    190
    166    167    192    191
    167    168    193    192
    168    169    194    193
    169    170    195    194
    170    171    196    195
    171    172    197    196
    172    173    198    197
    173    174    199    198
    174    150    175    199
    175    176    201    200
    176    177    202    201
    177    178    203    202
    178    179    204    203
    179    180    205    204
    180    181    206    205
    181    182    207    206
    182    183    208    207
    183    184    209    208
    184    185    210    209
    185    186    211    210
    186    187    212    211
    187    188    213    212
    188    189    214    213
    189    190    215    214
    190    191    216    215
    191    192    217    216
    192    193    218    217
    193    194    219    218
    194    195    220    219
    195    196    221    220
    196    197    222    221
    197    198    223    222
    198    199    224    223
    199    175    200    224
    200    201    226    225
    201    202    227    226
    202    203    228    227
    203    204    229    228
    204    205    230    229
    205    206    231    230
    206    207    232    231
    207    208    233    232
    208    209    234    233
    209    210    235    234
    210    211    236    235
    211    212    237    236
    212    213    238    237
    213    214    239    238
    214    215    240    239
    215    216    241    240
    216    217    242    241
    217    218    243    242
    218    219    244    243
    219    220    245    244
    220    221    246    245
    221    222    247    246
    222    223    248    247
    223    224    249    248
    224    200    225    249
    225    226    251    250
    226    227    252    251
    227    228    253    252
    228    229    254    253
    229    230    255    254
    230    231    256    255
    231    232    257    256
    232    233    258    257
    233    234    259    258
    234    235    260    259
    235    236    261    260
    236    237    262    261
    237    238    263    262
    238    239    264    263
    239    240    265    264
    240    241    266    265
    241    242    267    266
    242    243    268    267
    243    244    269    268
    244    245    270    269
    245    246    271    270
    246    247    272    271
    247    248    273    272
    248    249    274    273
    249    225    250    274
    250    251    276    275
    251    252    277    276
    252    253    278    277
    253    254    279    278
    254    255    280    279
    255    256    281    280
    256    257    282    281
    257    258    283    282
    258    259    284    283
    259    260    285    284
    260    261    286    285
    261    262    287    286
    262    263    288    287
    263    264    289    288
    264    265    290    289
    265    266    291    290
    266    267    292    291
    267    268    293    292
    268    269    294    293
    269    270    295    294
    270    271    296    295
    271    272    297    296
    272    273    298    297
    273    274    299    298
    274    250    275    299
    275    276    301    300
    276    277    302    301
    277    278    303    302
    278    279    304    303
    279    280    305    304
    280    281    306    305
    281    282    307    306
    282    283    308    307
    283    284    309    308
    284    285    310    309
    285    286    311    310
    286    287    312    311
    287    288    313    312
    288    289    314    313
    289    290    315    314
    290    291    316    315
    291    292    317    316
    292    293    318    317
    293    294    319    318
    294    295    320    319
    295    296    321    320
    296    297    322    321
    297    298    323    322
    298    299    324    323
    299    275    300    324
    300    301    326    325
    301    302    327    326
    302    303    328    327
    303    304    329    328
    304    305    330    329
    305    306    331    330
    306    307    332    331
    307    308    333    332
    308    309    334    333
    309    310    335    334
    310    311    336    335
    311    312    337    336
    312    313    338    337
    313    314    339    338
    314    315    340    339
    315    316    341    340
    316    317    342    341
    317    318    343    342
    318    319    344    343
    319    320    345    344
    320    321    346    345
    321    322    347    346
    322    323    348    347
    323    324    349    348
    324    300    325    349
    325    326    351    350
    326    327    352    351
    327    328    353    352
    328    329    354    353
    329    330    355    354
    330    331    356    355
    331    332    357    356
    332    333    358    357
    333    334    359    358
    334    335    360    359
    335    336    361    360
    336    337    362    361
    337    338    363    362
    338    339    364    363
    339    340    365    364
    340    341    366    365
    341    342    367    366
    342    343    368    367
    343    344    369    368
    344    345    370    369
    345    346    371    370
    346    347    372    371
    347    348    373    372
    348    349    374    373
    349    325    350    374
    350    351    376    375
    351    352    377    376
    352    353    378    377
    353    354    379    378
    354    355    380    379
    355    356    381    380
    356    357    382    381
    357    358    383    382
    358    359    384    383
    359    360    385    384
    360    361    386    385
    361    362    387    386
    362    363    388    387
    363    364    389    388
    364    365    390    389
    365    366    391    390
    366    367    392    391
    367    368    393    392
    368    369    394    393
    369    370    395    394
    370    371    396    395
    371    372    397    396
    372    373    398    397
    373    374    399    398
    374    350    375    399
    375    376    401    400
    376    377    402    401
    377    378    403    402
    378    379    404    403
    379    380    405    404
    380    381    406    405
    381    382    407    406
    382    383    408    407
    383    384    409    408
    384    385    410    409
    385    386    411    410
    386    387    412    411
    387    388    413    412
    388    389    414    413
    389    390    415    414
    390    391    416    415
    391    392    417    416
    392    393    418    417
    393    394    419    418
    394    395    420    419
    395    396    421    420
    396    397    422    421
    397    398    423    422
    398    399    424    423
    399    375    400    424
    400    401    426    425
    401    402    427    426
    402    403    428    427
    403    404    429    428
    404    405    430    429
    405    406    431    430
    406    407    432    431
    407    408    433    432
    408    409    434    433
    409    410    435    434
    410    411    436    435
    411    412    437    436
    412    413    438    437
    413    414    439    438
    414    415    440    439
    415    416    441    440
    416    417    442    441
    417    418    443    442
    418    419    444    443
    419    420    445    444
    420    421    446    445
    421    422    447    446
    422    423    448    447
    423    424    449    448
    424    400    425    449
    425    426    451    450
    426    427    452    451
    427    428    453    452
    428    429    454    453
    429    430    455    454
    430    431    456    455
    431    432    457    456
    432    433    458    457
    433    434    459    458
    434    435    460    459
    435    436    461    460
    436    437    462    461
    437    438    463    462
    438    439    464    463
    439    440    465    464
    440    441    466    465
    441    442    467    466
    442    443    468    467
    443    444    469    468
    444    445    470    469
    445    446    471    470
    446    447    472    471
    447    448    473    472
    448    449    474    473
    449    425    450    474
    450    451    476    475
    451    452    477    476
    452    453    478    477
    453    454    479    478
    454    455    480    479
    455    456    481    480
    456    457    482    481
    457    458    483    482
    458    459    484    483
    459    460    485    484
    460    461    486    485
    461    462    487    486
    462    463    488    487
    463    464    489    488
    464    465    490    489
    465    466    491    490
    466    467    492    491
    467    468    493    492
    468    469    494    493
    469    470    495    494
    470    471    496    495
    471    472    497    496
    472    473    498    497
    473    474    499    498
    474    450    475    499
    475    476    501    500
    476    477    502    501
    477    478    503    502
    478    479    504    503
    479    480    505    504
    480    481    506    505
    481    482    507    506
    482    483    508    507
    483    484    509    508
    484    485    510    509
    485    486    511    510
    486    487    512    511
    487    488    513    512
    488    489    514    513
    489    490    515    514
    490    491    516    515
    491    492    517    516
    492    493    518    517
    493    494    519    518
    494    495    520    519
    495    496    521    520
    496    497    522    521
    497    498    523    522
    498    499    524    523
    499    475    500    524
    500    501    526    525
    501    502    527    526
    502    503    528    527
    503    504    529    528
    504    505    530    529
    505    506    531    530
    506    507    532    531
    507    508    533    532
    508    509    534    533
    509    510    535    534
    510    511    536    535
    511    512    537    536
    512    513    538    537
    513    514    539    538
    514    515    540    539
    515    516    541    540
    516    517    542    541
    517    518    543    542
    518    519    544    543
    519    520    545    544
    520    521    546    545
    521    522    547    546
    522    523    548    547
    523    524    549    548
    524    500    525    549
    525    526    551    550
    526    527    552    551
    527    528    553    552
    528    529    554    553
    529    530    555    554
    530    531    556    555
    531    532    557    556
    532    533    558    557
    533    534    559    558
    534    535    560    559
    535    536    561    560
    536    537    562    561
    537    538    563    562
    538    539    564    563
    539    540    565    564
    540    541    566    565
    541    542    567    566
    542    543    568    567
    543    544    569    568
    544    545    570    569
    545    546    571    570
    546    547    572    571
    547    548    573    572
    548    549    574    573
    549    525    550    574
    550    551    576    575
    551    552    577    576
    552    553    578    577
    553    554    579    578
    554    555    580    579
    555    556    581    580
    556    557    582    581
    557    558    583    582
    558    559    584    583
    559    560    585    584
    560    561    586    585
    561    562    587    586
    562    563    588    587
    563    564    589    588
    564    565    590    589
    565    566    591    590
    566    567    592    591
    567    568    593    592
    568    569    594    593
    569    570    595    594
    570    571    596    595
    571    572    597    596
    572    573    598    597
    573    574    599    598
    574    550    575    599
    575    576    601    600
    576    577    602    601
    577    578    603    602
    578    579    604    603
    579    580    605    604
    580    581    606    605
    581    582    607    606
    582    583    608    607
    583    584    609    608
    584    585    610    609
    585    586    611    610
    586    587    612    611
    587    588    613    612
    588    589    614    613
    589    590    615    614
    590    591    616    615
    591    592    617    616
    592    593    618    617
    593    594    619    618
    594    595    620    619
    595    596    621    620
    596    597    622    621
    597    598    623    622
    598    599    624    623
    599    575    600    624
        </DataArray>
        <DataArray type="Int32" Name="offsets" format="ascii">
      4
      8
     12
     16
     20
     24
     28
     32
     36
     40
     44
     48
     52
     56
     60
     64
     68
     72
     76
     80
     84
     88
     92
     96
    100
    104
    108
    112
    116
    120
    124
    128
    132
    136
    140
    144
    148
    152
    156
    160
    164
    168
    172
    176
    180
    184
    188
    192
    196
    200
    204
    208
    212
    216
    220
    224
    228
    232
    236
    240
    244
    248
    252
    256
    260
    264
    268
    272
    276
    280
    284
    288
    292
    296
    300
    304
    308
    312
    316
    320
    324
    328
    332
    336
    340
    344
    348
    352
    356
    360
    364
    368
    372
    376
    380
    384
    388
    392
    396
    400
    404
    408
    412
    416
    420
    424
    428
    432
    436
    440
    444
    448
    452
    456
    460
    464
    468
    472
    476
    480
    484
    488
    492
    496
    500
    504
    508
    512
    516
    520
    524
    528
    532
    536
    540
    544
    548
    552
    556
    560
    564
    568
    572
    576
    580
    584
    588
    592
    596
    600
    604
    608
    612
    616
    620
    624
    628
    632
    636
    640
    644
    648
    652
    656
    660
    664
    668
    672
    676
    680
    684
    688
    692
    696
    700
    704
    708
    712
    716
    720
    724
    728
    732
    736
    740
    744
    748
    752
    756
    760
    764
    768
    772
    776
    780
    784
    788
    792
    796
    800
    804
    808
    812
    816
    820
    824
    828
    832
    836
    840
    844
    848
    852
    856
    860
    864
    868
    872
    876
    880
    884
    888
    892
    896
    900
    904
    908
    912
    916
    920
    924
    928
    932
    936
    940
    944
    948
    952
    956
    960
    964
    968
    972
    976
    980
    984
    988
    992
    996
   1000
   1004
   1008
   1012
   1016
   1020
   1024
   1028
   1032
   1036
   1040
   1044
   1048
   1052
   1056
   1060
   1064
   1068
   1072
   1076
   1080
   1084
   1088
   1092
   1096
   1100
   1104
   1108
   1112
   1116
   1120
   1124
   1128
   1132
   1136
   1140
   1144
   1148
   1152
   1156
   1160
   1164
   1168
   1172
   1176
   1180
   1184
   1188
   1192
   1196
   1200
   1204
   1208
   1212
   1216
   1220
   1224
   1228
   1232
   1236
   1240
   1244
   1248
   1252
   1256
   1260
   1264
   1268
   1272
   1276
   1280
   1284
   1288
   1292
   1296
   1300
   1304
   1308
   1312
   1316
   1320
   1324
   1328
   1332
   1336
   1340
   1344
   1348
   1352
   1356
   1360
   1364
   1368
   1372
   1376
   1380
   1384
   1388
   1392
   1396
   1400
   1404
   1408
   1412
   1416
   1420
   1424
   1428
   1432
   1436
   1440
   1444
   1448
   1452
   1456
   1460
   1464
   1468
   1472
   1476
   1480
   1484
   1488
   1492
   1496
   1500
   1504
   1508
   1512
   1516
   1520
   1524
   1528
   1532
   1536
   1540
   1544
   1548
   1552
   1556
   1560
   1564
   1568
   1572
   1576
   1580
   1584
   1588
   1592
   1596
   1600
   1604
   1608
   1612
   1616
   1620
   1624
   1628
   1632
   1636
   1640
   1644
   1648
   1652
   1656
   1660
   1664
   1668
   1672
   1676
   1680
   1684
   1688
   1692
   1696
   1700
   1704
   1708
   1712
   1716
   1720
   1724
   1728
   1732
   1736
   1740
   1744
   1748
   1752
   1756
   1760
   1764
   1768
   1772
   1776
   1780
   1784
   1788
   1792
   1796
   1800
   1804
   1808
   1812
   1816
   1820
   1824
   1828
   1832
   1836
   1840
   1844
   1848
   1852
   1856
   1860
   1864
   1868
   1872
   1876
   1880
   1884
   1888
   1892
   1896
   1900
   1904
   1908
   1912
   1916
   1920
   1924
   1928
   1932
   1936
   1940
   1944
   1948
   1952
   1956
   1960
   1964
   1968
   1972
   1976
   1980
   1984
   1988
   1992
   1996
   2000
   2004
   2008
   2012
   2016
   2020
   2024
   2028
   2032
   2036
   2040
   2044
   2048
   2052
   2056
   2060
   2064
   2068
   2072
   2076
   2080
   2084
   2088
   2092
   2096
   2100
   2104
   2108
   2112
   2116
   2120
   2124
   2128
   2132
   2136
   2140
   2144
   2148
   2152
   2156
   2160
   2164
   2168
   2172
   2176
   2180
   2184
   2188
   2192
   2196
   2200
   2204
   2208
   2212
   2216
   2220
   2224
   2228
   2232
   2236
   2240
   2244
   2248
   2252
   2256
   2260
   2264
   2268
   2272
   2276
   2280
   2284
   2288
   2292
   2296
   2300
   2304
   2308
   2312
   2316
   2320
   2324
   2328
   2332
   2336
   2340
   2344
   2348
   2352
   2356
   2360
   2364
   2368
   2372
   2376
   2380
   2384
   2388
   2392
   2396
   2400
        </DataArray>
      </Polys>
    </Piece>
  </PolyData>
</VTKFile>
