<?xml version="1.0"?>
<VTKFile type="PolyData" version="0.1" byte_order="LittleEndian">
  <PolyData>
    <Piece NumberOfPoints="     19" NumberOfVerts="  0" NumberOfLines="     18"
           NumberOfStrips="  0" NumberOfPolys="      0">
      <Points>
        <DataArray type="Float32" NumberOfComponents="3" format="ascii">
                      -4.99572                       1.26906                      90.79968
                      -4.99237                       2.42347                      91.53125
                      -5.00103                       4.68104                      93.07563
                      -5.01696                       6.91437                      94.65852
                      -5.04120                       9.69163                      96.66017
                      -5.02810                      13.10234                      98.93804
                      -5.00060                      16.58310                     101.10468
                      -4.97557                      20.06514                     103.26929
                      -4.95074                      23.54952                     105.43020
                      -4.92680                      27.03519                     107.58906
                      -4.90482                      30.52016                     109.74905
                      -4.88418                      34.00524                     111.90887
                      -4.86551                      37.49041                     114.06856
                      -4.84954                      40.97561                     116.22821
                      -4.83451                      44.46083                     118.38783
                      -4.82262                      47.36523                     120.18751
                      -4.81424                      49.69288                     121.62059
                      -4.81124                      52.04974                     123.00734
                      -4.80734                      53.20593                     123.73589
        </DataArray>
      </Points>
      <PointData>
        <DataArray type="Float32" Name="TranslationalVelocity" NumberOfComponents="3" format="ascii">
                       0.05791                      -0.41731                       0.66195
                       0.11059                      -0.79905                       1.26410
                       0.21362                      -1.60422                       2.44166
                       0.31553                      -2.42914                       3.60658
                       0.44227                      -3.47210                       5.05521
                       0.59792                      -4.66085                       6.83426
                       0.75676                      -5.79224                       8.64985
                       0.91567                      -6.92246                      10.46610
                       1.07467                      -8.05074                      12.28358
                       1.23374                      -9.17790                      14.10173
                       1.39278                     -10.30557                      15.91951
                       1.55182                     -11.43309                      17.73735
                       1.71086                     -12.56045                      19.55523
                       1.86991                     -13.68766                      21.37314
                       2.02895                     -14.81482                      23.19105
                       2.16150                     -15.75409                      24.70600
                       2.26772                     -16.50198                      25.92012
                       2.37527                     -17.22545                      27.14947
                       2.42803                     -17.60565                      27.75255
        </DataArray>
        <DataArray type="Float32" Name="RotationalVelocity" NumberOfComponents="3" format="ascii">
                       0.52161                      -0.00000                      -0.04563
                       0.52161                      -0.00000                      -0.04563
                       0.52161                      -0.00000                      -0.04563
                       0.52161                      -0.00000                      -0.04563
                       0.52161                      -0.00000                      -0.04563
                       0.52161                      -0.00000                      -0.04563
                       0.52161                      -0.00000                      -0.04563
                       0.52161                      -0.00000                      -0.04563
                       0.52161                      -0.00000                      -0.04563
                       0.52161                      -0.00000                      -0.04563
                       0.52161                      -0.00000                      -0.04563
                       0.52161                      -0.00000                      -0.04563
                       0.52161                      -0.00000                      -0.04563
                       0.52161                      -0.00000                      -0.04563
                       0.52161                      -0.00000                      -0.04563
                       0.52161                      -0.00000                      -0.04563
                       0.52161                      -0.00000                      -0.04563
                       0.52161                      -0.00000                      -0.04563
                       0.52161                      -0.00000                      -0.04563
        </DataArray>
        <DataArray type="Float32" Name="TranslationalAcceleration" NumberOfComponents="3" format="ascii">
                      -0.01904                      -0.34792                      -0.21767
                      -0.03646                      -0.66441                      -0.41679
                      -0.07321                      -1.28333                      -0.83677
                      -0.11085                      -1.89561                      -1.26705
                      -0.15845                      -2.65701                      -1.81107
                      -0.21270                      -3.59208                      -2.43113
                      -0.26433                      -4.54635                      -3.02127
                      -0.31590                      -5.50097                      -3.61080
                      -0.36739                      -6.45624                      -4.19931
                      -0.41883                      -7.41185                      -4.78725
                      -0.47029                      -8.36727                      -5.37545
                      -0.52174                      -9.32273                      -5.96357
                      -0.57319                     -10.27821                      -6.55161
                      -0.62463                     -11.23370                      -7.13957
                      -0.67607                     -12.18919                      -7.72750
                      -0.71893                     -12.98545                      -8.21743
                      -0.75306                     -13.62358                      -8.60754
                      -0.78608                     -14.26973                      -8.98490
                      -0.80343                     -14.58671                      -9.18322
        </DataArray>
        <DataArray type="Float32" Name="OrientationX" NumberOfComponents="3" format="ascii">
                       0.99727                       0.03694                      -0.06396
                       0.99727                       0.03694                      -0.06396
                       0.99727                       0.03694                      -0.06396
                       0.99727                       0.03694                      -0.06396
                       0.99727                       0.03694                      -0.06396
                       0.99727                       0.03694                      -0.06396
                       0.99727                       0.03694                      -0.06396
                       0.99727                       0.03694                      -0.06396
                       0.99727                       0.03694                      -0.06396
                       0.99727                       0.03694                      -0.06396
                       0.99727                       0.03694                      -0.06396
                       0.99727                       0.03694                      -0.06396
                       0.99727                       0.03694                      -0.06396
                       0.99727                       0.03694                      -0.06396
                       0.99727                       0.03694                      -0.06396
                       0.99727                       0.03694                      -0.06396
                       0.99727                       0.03694                      -0.06396
                       0.99727                       0.03694                      -0.06396
                       0.99727                       0.03694                      -0.06396
        </DataArray>
        <DataArray type="Float32" Name="OrientationY" NumberOfComponents="3" format="ascii">
                      -0.07381                       0.53184                      -0.84362
                      -0.07381                       0.53184                      -0.84362
                      -0.07381                       0.53184                      -0.84362
                      -0.07381                       0.53184                      -0.84362
                      -0.07381                       0.53184                      -0.84362
                      -0.07381                       0.53184                      -0.84362
                      -0.07381                       0.53184                      -0.84362
                      -0.07381                       0.53184                      -0.84362
                      -0.07381                       0.53184                      -0.84362
                      -0.07381                       0.53184                      -0.84362
                      -0.07381                       0.53184                      -0.84362
                      -0.07381                       0.53184                      -0.84362
                      -0.07381                       0.53184                      -0.84362
                      -0.07381                       0.53184                      -0.84362
                      -0.07381                       0.53184                      -0.84362
                      -0.07381                       0.53184                      -0.84362
                      -0.07381                       0.53184                      -0.84362
                      -0.07381                       0.53184                      -0.84362
                      -0.07381                       0.53184                      -0.84362
        </DataArray>
        <DataArray type="Float32" Name="OrientationZ" NumberOfComponents="3" format="ascii">
                       0.00286                       0.84604                       0.53312
                       0.00286                       0.84604                       0.53312
                       0.00286                       0.84604                       0.53312
                       0.00286                       0.84604                       0.53312
                       0.00286                       0.84604                       0.53312
                       0.00286                       0.84604                       0.53312
                       0.00286                       0.84604                       0.53312
                       0.00286                       0.84604                       0.53312
                       0.00286                       0.84604                       0.53312
                       0.00286                       0.84604                       0.53312
                       0.00286                       0.84604                       0.53312
                       0.00286                       0.84604                       0.53312
                       0.00286                       0.84604                       0.53312
                       0.00286                       0.84604                       0.53312
                       0.00286                       0.84604                       0.53312
                       0.00286                       0.84604                       0.53312
                       0.00286                       0.84604                       0.53312
                       0.00286                       0.84604                       0.53312
                       0.00286                       0.84604                       0.53312
        </DataArray>
        <DataArray type="Float32" Name="Force" NumberOfComponents="3" format="ascii">
                       0.00084                      -0.00607                       0.00963
                     155.59041                      10.02206                     -16.73810
                     171.17788                      22.04891                     -35.90781
                     132.67380                      25.71933                     -41.52642
                    1070.60393                     -18.12591                      23.03069
                    1121.06209                     -10.40618                      10.50945
                    1273.59149                     -12.43472                      12.91166
                    1192.97540                      -5.38010                       2.14801
                    1142.16268                       6.37654                     -16.23723
                    1204.71985                       6.13008                     -16.18118
                    1176.90656                      19.85446                     -37.81236
                    1242.79316                       5.68112                     -15.67262
                    1398.57903                     -40.84756                      57.33247
                    1566.96639                     -68.51716                     100.34128
                    1761.13706                     -94.28643                     140.19624
                    1920.54096                    -115.97220                     173.75704
                    1942.74394                    -119.30319                     178.92428
                    1448.28201                     -88.52339                     132.72626
                     392.15697                      17.62019                     -30.06322
        </DataArray>
        <DataArray type="Float32" Name="Moment" NumberOfComponents="3" format="ascii">
                       0.00000                       0.00000                       0.00000
                       0.00000                       0.00000                       0.00000
                       0.00000                       0.00000                       0.00000
                       0.00000                       0.00000                       0.00000
                      -2.17511                    -644.43347                    -406.07839
                      -2.36286                    -700.05981                    -441.13035
                      -2.34733                    -695.45761                    -438.23035
                      -2.40501                    -712.54773                    -448.99939
                      -2.38998                    -708.09380                    -446.19282
                      -2.24670                    -665.64286                    -419.44311
                      -1.98700                    -588.70170                    -370.95999
                      -1.79782                    -532.65295                    -335.64186
                      -1.76768                    -523.72259                    -330.01456
                      -1.50639                    -446.30690                    -281.23243
                      -1.28499                    -380.71354                    -239.89992
                      -1.08923                    -322.71384                    -203.35244
                      -0.94547                    -280.11946                    -176.51234
                      -0.45234                    -134.01905                     -84.44974
                      -0.36594                    -108.41936                     -68.31855
        </DataArray>
      </PointData>
      <Lines>
        <DataArray type="Int32" Name="connectivity" format="ascii">
      0      1
      1      2
      2      3
      3      4
      4      5
      5      6
      6      7
      7      8
      8      9
      9     10
     10     11
     11     12
     12     13
     13     14
     14     15
     15     16
     16     17
     17     18
        </DataArray>
        <DataArray type="Int32" Name="offsets" format="ascii">
      2
      4
      6
      8
     10
     12
     14
     16
     18
     20
     22
     24
     26
     28
     30
     32
     34
     36
        </DataArray>
      </Lines>
    </Piece>
  </PolyData>
</VTKFile>
