<?xml version="1.0"?>
<VTKFile type="PolyData" version="0.1" byte_order="LittleEndian">
  <PolyData>
    <Piece NumberOfPoints="     19" NumberOfVerts="  0" NumberOfLines="     18"
           NumberOfStrips="  0" NumberOfPolys="      0">
      <Points>
        <DataArray type="Float32" NumberOfComponents="3" format="ascii">
                      -5.08050                      -1.48823                      89.83063
                      -5.15495                      -2.84377                      89.67297
                      -5.33433                      -5.54267                      89.26606
                      -5.52813                      -8.23586                      88.81577
                      -5.77901                     -11.59900                      88.22699
                      -6.01505                     -15.65379                      87.65714
                      -6.21590                     -19.72489                      87.21370
                      -6.41880                     -23.79618                      86.77302
                      -6.62120                     -27.86799                      86.33667
                      -6.82410                     -31.94007                      85.90283
                      -7.02914                     -36.01191                      85.46801
                      -7.23545                     -40.08374                      85.03362
                      -7.44370                     -44.15551                      84.59971
                      -7.65459                     -48.22720                      84.16629
                      -7.86641                     -52.29886                      83.73306
                      -8.04355                     -55.69192                      83.37215
                      -8.18512                     -58.40722                      83.09131
                      -8.32324                     -61.12891                      82.86503
                      -8.39657                     -62.48479                      82.71071
        </DataArray>
      </Points>
      <PointData>
        <DataArray type="Float32" Name="TranslationalVelocity" NumberOfComponents="3" format="ascii">
                      -0.06791                       0.09202                      -0.77627
                      -0.12977                       0.17766                      -1.48333
                      -0.25294                       0.39809                      -2.89109
                      -0.37584                       0.64180                      -4.29587
                      -0.52932                       0.96036                      -6.05011
                      -0.71436                       1.26838                      -8.16512
                      -0.90014                       1.50884                     -10.28862
                      -1.08593                       1.74796                     -12.41224
                      -1.27175                       1.98480                     -14.53612
                      -1.45757                       2.22035                     -16.66014
                      -1.64339                       2.45651                     -18.78404
                      -1.82921                       2.69251                     -20.90793
                      -2.01502                       2.92835                     -23.03179
                      -2.20083                       3.16404                     -25.15561
                      -2.38664                       3.39968                     -27.27942
                      -2.54148                       3.59602                     -29.04926
                      -2.66539                       3.74897                     -30.46557
                      -2.78960                       3.87330                     -31.88522
                      -2.85147                       3.95714                     -32.59246
        </DataArray>
        <DataArray type="Float32" Name="RotationalVelocity" NumberOfComponents="3" format="ascii">
                       0.52161                      -0.00000                      -0.04563
                       0.52161                      -0.00000                      -0.04563
                       0.52161                      -0.00000                      -0.04563
                       0.52161                      -0.00000                      -0.04563
                       0.52161                      -0.00000                      -0.04563
                       0.52161                      -0.00000                      -0.04563
                       0.52161                      -0.00000                      -0.04563
                       0.52161                      -0.00000                      -0.04563
                       0.52161                      -0.00000                      -0.04563
                       0.52161                      -0.00000                      -0.04563
                       0.52161                      -0.00000                      -0.04563
                       0.52161                      -0.00000                      -0.04563
                       0.52161                      -0.00000                      -0.04563
                       0.52161                      -0.00000                      -0.04563
                       0.52161                      -0.00000                      -0.04563
                       0.52161                      -0.00000                      -0.04563
                       0.52161                      -0.00000                      -0.04563
                       0.52161                      -0.00000                      -0.04563
                       0.52161                      -0.00000                      -0.04563
        </DataArray>
        <DataArray type="Float32" Name="TranslationalAcceleration" NumberOfComponents="3" format="ascii">
                       0.00420                       0.40801                       0.04800
                       0.00811                       0.77964                       0.09267
                       0.01817                       1.51955                       0.20764
                       0.02929                       2.25791                       0.33477
                       0.04383                       3.17993                       0.50093
                       0.05788                       4.29158                       0.66159
                       0.06886                       5.40769                       0.78702
                       0.07977                       6.52386                       0.91175
                       0.09058                       7.64017                       1.03529
                       0.10132                       8.75655                       1.15815
                       0.11210                       9.87287                       1.28133
                       0.12287                      10.98918                       1.40443
                       0.13363                      12.10548                       1.52744
                       0.14439                      13.22176                       1.65039
                       0.15514                      14.33803                       1.77330
                       0.16410                      15.26826                       1.87571
                       0.17108                      16.01267                       1.95549
                       0.17676                      16.75884                       2.02034
                       0.18058                      17.13056                       2.06407
        </DataArray>
        <DataArray type="Float32" Name="OrientationX" NumberOfComponents="3" format="ascii">
                       0.99480                      -0.04332                      -0.09217
                       0.99480                      -0.04332                      -0.09217
                       0.99480                      -0.04332                      -0.09217
                       0.99480                      -0.04332                      -0.09217
                       0.99480                      -0.04332                      -0.09217
                       0.99480                      -0.04332                      -0.09217
                       0.99480                      -0.04332                      -0.09217
                       0.99480                      -0.04332                      -0.09217
                       0.99480                      -0.04332                      -0.09217
                       0.99480                      -0.04332                      -0.09217
                       0.99480                      -0.04332                      -0.09217
                       0.99480                      -0.04332                      -0.09217
                       0.99480                      -0.04332                      -0.09217
                       0.99480                      -0.04332                      -0.09217
                       0.99480                      -0.04332                      -0.09217
                       0.99480                      -0.04332                      -0.09217
                       0.99480                      -0.04332                      -0.09217
                       0.99480                      -0.04332                      -0.09217
                       0.99480                      -0.04332                      -0.09217
        </DataArray>
        <DataArray type="Float32" Name="OrientationY" NumberOfComponents="3" format="ascii">
                       0.08655                      -0.11728                       0.98932
                       0.08655                      -0.11728                       0.98932
                       0.08655                      -0.11728                       0.98932
                       0.08655                      -0.11728                       0.98932
                       0.08655                      -0.11728                       0.98932
                       0.08655                      -0.11728                       0.98932
                       0.08655                      -0.11728                       0.98932
                       0.08655                      -0.11728                       0.98932
                       0.08655                      -0.11728                       0.98932
                       0.08655                      -0.11728                       0.98932
                       0.08655                      -0.11728                       0.98932
                       0.08655                      -0.11728                       0.98932
                       0.08655                      -0.11728                       0.98932
                       0.08655                      -0.11728                       0.98932
                       0.08655                      -0.11728                       0.98932
                       0.08655                      -0.11728                       0.98932
                       0.08655                      -0.11728                       0.98932
                       0.08655                      -0.11728                       0.98932
                       0.08655                      -0.11728                       0.98932
        </DataArray>
        <DataArray type="Float32" Name="OrientationZ" NumberOfComponents="3" format="ascii">
                      -0.05367                      -0.99215                      -0.11292
                      -0.05367                      -0.99215                      -0.11292
                      -0.05367                      -0.99215                      -0.11292
                      -0.05367                      -0.99215                      -0.11292
                      -0.05367                      -0.99215                      -0.11292
                      -0.05367                      -0.99215                      -0.11292
                      -0.05367                      -0.99215                      -0.11292
                      -0.05367                      -0.99215                      -0.11292
                      -0.05367                      -0.99215                      -0.11292
                      -0.05367                      -0.99215                      -0.11292
                      -0.05367                      -0.99215                      -0.11292
                      -0.05367                      -0.99215                      -0.11292
                      -0.05367                      -0.99215                      -0.11292
                      -0.05367                      -0.99215                      -0.11292
                      -0.05367                      -0.99215                      -0.11292
                      -0.05367                      -0.99215                      -0.11292
                      -0.05367                      -0.99215                      -0.11292
                      -0.05367                      -0.99215                      -0.11292
                      -0.05367                      -0.99215                      -0.11292
        </DataArray>
        <DataArray type="Float32" Name="Force" NumberOfComponents="3" format="ascii">
                       0.31199                      -0.42274                       3.56609
                     159.89774                     -10.77305                      18.66483
                     181.03138                     -14.56698                      41.95624
                     145.22569                     -13.53422                      49.89876
                    1245.62436                     -39.54456                    -244.53287
                    1249.96848                     -41.80300                    -226.75371
                    1381.41177                     -46.24074                    -250.23084
                    1257.72977                     -43.55878                    -215.01521
                    1165.99590                     -42.95588                    -176.71552
                    1237.16593                     -45.27236                    -190.18577
                    1207.78852                     -44.10129                    -186.51358
                    1352.10872                     -42.32488                    -270.71103
                    1560.87942                     -40.09800                    -389.49694
                    1805.94167                     -42.15809                    -487.86336
                    1992.11093                     -44.49617                    -555.79786
                    2078.07529                     -46.38410                    -580.06473
                    2048.68515                     -46.18053                    -567.88556
                    1495.58539                     -34.36632                    -408.82690
                     441.76562                     -19.97691                     -34.42502
        </DataArray>
        <DataArray type="Float32" Name="Moment" NumberOfComponents="3" format="ascii">
                       0.00000                       0.00000                       0.00000
                       0.00000                       0.00000                       0.00000
                       0.00000                       0.00000                       0.00000
                       0.00000                       0.00000                       0.00000
                      41.09218                     759.70764                      86.46325
                      45.37954                     838.97186                      95.48441
                      44.93345                     830.72461                      94.54578
                      45.83377                     847.36970                      96.44018
                      44.73559                     827.06662                      94.12946
                      42.79011                     791.09883                      90.03592
                      35.67215                     659.50278                      75.05882
                      32.71781                     604.88326                      68.84250
                      30.65983                     566.83559                      64.51225
                      25.50503                     471.53416                      53.66588
                      22.90527                     423.47010                      48.19565
                      19.88708                     367.67009                      41.84498
                      17.65388                     326.38299                      37.14605
                       8.90354                     164.60775                      18.73421
                       7.74804                     143.24490                      16.30288
        </DataArray>
      </PointData>
      <Lines>
        <DataArray type="Int32" Name="connectivity" format="ascii">
      0      1
      1      2
      2      3
      3      4
      4      5
      5      6
      6      7
      7      8
      8      9
      9     10
     10     11
     11     12
     12     13
     13     14
     14     15
     15     16
     16     17
     17     18
        </DataArray>
        <DataArray type="Int32" Name="offsets" format="ascii">
      2
      4
      6
      8
     10
     12
     14
     16
     18
     20
     22
     24
     26
     28
     30
     32
     34
     36
        </DataArray>
      </Lines>
    </Piece>
  </PolyData>
</VTKFile>
