<?xml version="1.0"?>
<VTKFile type="PolyData" version="0.1" byte_order="LittleEndian">
  <PolyData>
    <Piece NumberOfPoints="     19" NumberOfVerts="  0" NumberOfLines="     18"
           NumberOfStrips="  0" NumberOfPolys="      0">
      <Points>
        <DataArray type="Float32" NumberOfComponents="3" format="ascii">
                      -5.19557                      -0.08783                      88.51540
                      -5.37458                      -0.16441                      87.16264
                      -5.75527                      -0.22300                      84.45460
                      -6.14671                      -0.23681                      81.74533
                      -6.64244                      -0.22732                      78.35793
                      -7.18412                      -0.35889                      74.29454
                      -7.70129                      -0.62033                      70.23561
                      -8.22071                      -0.88433                      66.17712
                      -8.73999                      -1.15272                      62.11888
                      -9.25996                      -1.42357                      58.06087
                      -9.78196                      -1.69324                      54.00306
                     -10.30527                      -1.96320                      49.94544
                     -10.83053                      -2.23347                      45.88809
                     -11.35844                      -2.50398                      41.83111
                     -11.88728                      -2.77459                      37.77426
                     -12.32861                      -3.00016                      34.39360
                     -12.68218                      -3.18851                      31.68967
                     -13.03677                      -3.43179                      28.98912
                     -13.21494                      -3.51180                      27.63655
        </DataArray>
      </Points>
      <PointData>
        <DataArray type="Float32" Name="TranslationalVelocity" NumberOfComponents="3" format="ascii">
                      -0.00401                       0.78330                      -0.04581
                      -0.00750                       1.49708                      -0.08576
                      -0.01018                       2.92698                      -0.11632
                      -0.01081                       4.35802                      -0.12352
                      -0.01037                       6.14753                      -0.11857
                      -0.01638                       8.29174                      -0.18720
                      -0.02831                      10.43251                      -0.32357
                      -0.04036                      12.57314                      -0.46127
                      -0.05260                      14.71364                      -0.60127
                      -0.06496                      16.85406                      -0.74254
                      -0.07727                      18.99446                      -0.88320
                      -0.08959                      21.13482                      -1.02402
                      -0.10192                      23.27513                      -1.16499
                      -0.11427                      25.41536                      -1.30609
                      -0.12662                      27.55558                      -1.44724
                      -0.13691                      29.33909                      -1.56490
                      -0.14551                      30.76561                      -1.66315
                      -0.15661                      32.19042                      -1.79004
                      -0.16026                      32.90406                      -1.83178
        </DataArray>
        <DataArray type="Float32" Name="RotationalVelocity" NumberOfComponents="3" format="ascii">
                       0.52161                      -0.00000                      -0.04563
                       0.52161                      -0.00000                      -0.04563
                       0.52161                      -0.00000                      -0.04563
                       0.52161                      -0.00000                      -0.04563
                       0.52161                      -0.00000                      -0.04563
                       0.52161                      -0.00000                      -0.04563
                       0.52161                      -0.00000                      -0.04563
                       0.52161                      -0.00000                      -0.04563
                       0.52161                      -0.00000                      -0.04563
                       0.52161                      -0.00000                      -0.04563
                       0.52161                      -0.00000                      -0.04563
                       0.52161                      -0.00000                      -0.04563
                       0.52161                      -0.00000                      -0.04563
                       0.52161                      -0.00000                      -0.04563
                       0.52161                      -0.00000                      -0.04563
                       0.52161                      -0.00000                      -0.04563
                       0.52161                      -0.00000                      -0.04563
                       0.52161                      -0.00000                      -0.04563
                       0.52161                      -0.00000                      -0.04563
        </DataArray>
        <DataArray type="Float32" Name="TranslationalAcceleration" NumberOfComponents="3" format="ascii">
                       0.03575                       0.02408                       0.40858
                       0.06832                       0.04507                       0.78089
                       0.13357                       0.06114                       1.52673
                       0.19888                       0.06492                       2.27317
                       0.28054                       0.06232                       3.20659
                       0.37839                       0.09839                       4.32502
                       0.47608                       0.17007                       5.44166
                       0.57377                       0.24245                       6.55823
                       0.67145                       0.31602                       7.67473
                       0.76913                       0.39028                       8.79118
                       0.86681                       0.46421                       9.90763
                       0.96448                       0.53822                      11.02405
                       1.06215                       0.61232                      12.14045
                       1.15982                       0.68648                      13.25681
                       1.25749                       0.76067                      14.37316
                       1.33888                       0.82251                      15.30346
                       1.40398                       0.87415                      16.04754
                       1.46900                       0.94084                      16.79073
                       1.50156                       0.96278                      17.16297
        </DataArray>
        <DataArray type="Float32" Name="OrientationX" NumberOfComponents="3" format="ascii">
                       0.99145                      -0.00256                      -0.13045
                       0.99145                      -0.00256                      -0.13045
                       0.99145                      -0.00256                      -0.13045
                       0.99145                      -0.00256                      -0.13045
                       0.99145                      -0.00256                      -0.13045
                       0.99145                      -0.00256                      -0.13045
                       0.99145                      -0.00256                      -0.13045
                       0.99145                      -0.00256                      -0.13045
                       0.99145                      -0.00256                      -0.13045
                       0.99145                      -0.00256                      -0.13045
                       0.99145                      -0.00256                      -0.13045
                       0.99145                      -0.00256                      -0.13045
                       0.99145                      -0.00256                      -0.13045
                       0.99145                      -0.00256                      -0.13045
                       0.99145                      -0.00256                      -0.13045
                       0.99145                      -0.00256                      -0.13045
                       0.99145                      -0.00256                      -0.13045
                       0.99145                      -0.00256                      -0.13045
                       0.99145                      -0.00256                      -0.13045
        </DataArray>
        <DataArray type="Float32" Name="OrientationY" NumberOfComponents="3" format="ascii">
                       0.00511                      -0.99828                       0.05839
                       0.00511                      -0.99828                       0.05839
                       0.00511                      -0.99828                       0.05839
                       0.00511                      -0.99828                       0.05839
                       0.00511                      -0.99828                       0.05839
                       0.00511                      -0.99828                       0.05839
                       0.00511                      -0.99828                       0.05839
                       0.00511                      -0.99828                       0.05839
                       0.00511                      -0.99828                       0.05839
                       0.00511                      -0.99828                       0.05839
                       0.00511                      -0.99828                       0.05839
                       0.00511                      -0.99828                       0.05839
                       0.00511                      -0.99828                       0.05839
                       0.00511                      -0.99828                       0.05839
                       0.00511                      -0.99828                       0.05839
                       0.00511                      -0.99828                       0.05839
                       0.00511                      -0.99828                       0.05839
                       0.00511                      -0.99828                       0.05839
                       0.00511                      -0.99828                       0.05839
        </DataArray>
        <DataArray type="Float32" Name="OrientationZ" NumberOfComponents="3" format="ascii">
                      -0.13038                      -0.05855                      -0.98973
                      -0.13038                      -0.05855                      -0.98973
                      -0.13038                      -0.05855                      -0.98973
                      -0.13038                      -0.05855                      -0.98973
                      -0.13038                      -0.05855                      -0.98973
                      -0.13038                      -0.05855                      -0.98973
                      -0.13038                      -0.05855                      -0.98973
                      -0.13038                      -0.05855                      -0.98973
                      -0.13038                      -0.05855                      -0.98973
                      -0.13038                      -0.05855                      -0.98973
                      -0.13038                      -0.05855                      -0.98973
                      -0.13038                      -0.05855                      -0.98973
                      -0.13038                      -0.05855                      -0.98973
                      -0.13038                      -0.05855                      -0.98973
                      -0.13038                      -0.05855                      -0.98973
                      -0.13038                      -0.05855                      -0.98973
                      -0.13038                      -0.05855                      -0.98973
                      -0.13038                      -0.05855                      -0.98973
                      -0.13038                      -0.05855                      -0.98973
        </DataArray>
        <DataArray type="Float32" Name="Force" NumberOfComponents="3" format="ascii">
                       0.00421                      -0.82235                       0.04810
                     115.50217                     -18.88767                     -14.09755
                     132.56918                     -39.84660                     -15.10582
                     105.97626                     -46.07600                     -11.23423
                     954.91804                      96.08898                    -131.47497
                     983.39025                      84.56051                    -134.54354
                    1106.16126                      94.21764                    -151.28735
                    1031.53982                      77.47794                    -140.46722
                     966.41584                      55.77180                    -130.60435
                    1053.31404                      73.47238                    -143.09854
                    1096.96225                     108.36717                    -150.91268
                    1285.36873                     193.77774                    -180.78422
                    1596.94688                     285.54958                    -227.25736
                    1774.27604                     323.79145                    -252.87915
                    1863.86399                     332.82186                    -265.21472
                    1909.30400                     332.91284                    -271.20586
                    1867.28064                     319.52999                    -264.87843
                    1387.02043                     233.66790                    -196.53462
                     419.30238                      -7.28949                     -54.80296
        </DataArray>
        <DataArray type="Float32" Name="Moment" NumberOfComponents="3" format="ascii">
                       0.00000                       0.00000                       0.00000
                       0.00000                       0.00000                       0.00000
                       0.00000                       0.00000                       0.00000
                       0.00000                       0.00000                       0.00000
                      76.33106                      34.28121                     579.45599
                      85.36209                      38.33715                     648.01366
                      85.63315                      38.45889                     650.07140
                      88.87668                      39.91559                     674.69416
                      87.25945                      39.18928                     662.41723
                      83.23955                      37.38389                     631.90076
                      67.63565                      30.37599                     513.44606
                      60.67802                      27.25124                     460.62823
                      53.98902                      24.24712                     409.84968
                      48.15241                      21.62583                     365.54189
                      46.14407                      20.72386                     350.29586
                      44.97669                      20.19958                     341.43391
                      39.41301                      17.70086                     299.19805
                      20.65533                       9.27656                     156.80186
                      17.94872                       8.06099                     136.25502
        </DataArray>
      </PointData>
      <Lines>
        <DataArray type="Int32" Name="connectivity" format="ascii">
      0      1
      1      2
      2      3
      3      4
      4      5
      5      6
      6      7
      7      8
      8      9
      9     10
     10     11
     11     12
     12     13
     13     14
     14     15
     15     16
     16     17
     17     18
        </DataArray>
        <DataArray type="Int32" Name="offsets" format="ascii">
      2
      4
      6
      8
     10
     12
     14
     16
     18
     20
     22
     24
     26
     28
     30
     32
     34
     36
        </DataArray>
      </Lines>
    </Piece>
  </PolyData>
</VTKFile>
