<?xml version="1.0"?>
<VTKFile type="PolyData" version="0.1" byte_order="LittleEndian">
  <PolyData>
    <Piece NumberOfPoints="     19" NumberOfVerts="  0" NumberOfLines="     18"
           NumberOfStrips="  0" NumberOfPolys="      0">
      <Points>
        <DataArray type="Float32" NumberOfComponents="3" format="ascii">
                      -5.13876                       1.23812                      89.16465
                      -5.26576                       2.36812                      88.40646
                      -5.53516                       4.68057                      86.97055
                      -5.81186                       7.01789                      85.57273
                      -6.16211                       9.95447                      83.84817
                      -6.54016                      13.39963                      81.65504
                      -6.90369                      16.77241                      79.35222
                      -7.26967                      20.14365                      77.04753
                      -7.63585                      23.51243                      74.73922
                      -8.00291                      26.87978                      72.42895
                      -8.37192                      30.24773                      70.11989
                      -8.74226                      33.61546                      67.81071
                      -9.11458                      36.98295                      65.50151
                      -9.48957                      40.35020                      63.19240
                      -9.86550                      43.71735                      60.88331
                     -10.17941                      46.52328                      58.95907
                     -10.43166                      48.76350                      57.41326
                     -10.68917                      50.97268                      55.82231
                     -10.81559                      52.10068                      55.06125
        </DataArray>
      </Points>
      <PointData>
        <DataArray type="Float32" Name="TranslationalVelocity" NumberOfComponents="3" format="ascii">
                       0.05650                       0.44206                       0.64581
                       0.10807                       0.84333                       1.23522
                       0.21360                       1.60460                       2.44141
                       0.32026                       2.34634                       3.66058
                       0.45427                       3.26187                       5.19232
                       0.61149                       4.42307                       6.98933
                       0.76540                       5.64082                       8.74860
                       0.91925                       6.85967                      10.50706
                       1.07298                       8.08041                      12.26423
                       1.22665                       9.30221                      14.02066
                       1.38034                      10.52347                      15.77741
                       1.53403                      11.74485                      17.53404
                       1.68770                      12.96633                      19.29054
                       1.84137                      14.18789                      21.04692
                       1.99503                      15.40949                      22.80325
                       2.12307                      16.42751                      24.26684
                       2.22530                      17.24532                      25.43535
                       2.32612                      18.08692                      26.58767
                       2.37760                      18.48967                      27.17605
        </DataArray>
        <DataArray type="Float32" Name="RotationalVelocity" NumberOfComponents="3" format="ascii">
                       0.52161                      -0.00000                      -0.04563
                       0.52161                      -0.00000                      -0.04563
                       0.52161                      -0.00000                      -0.04563
                       0.52161                      -0.00000                      -0.04563
                       0.52161                      -0.00000                      -0.04563
                       0.52161                      -0.00000                      -0.04563
                       0.52161                      -0.00000                      -0.04563
                       0.52161                      -0.00000                      -0.04563
                       0.52161                      -0.00000                      -0.04563
                       0.52161                      -0.00000                      -0.04563
                       0.52161                      -0.00000                      -0.04563
                       0.52161                      -0.00000                      -0.04563
                       0.52161                      -0.00000                      -0.04563
                       0.52161                      -0.00000                      -0.04563
                       0.52161                      -0.00000                      -0.04563
                       0.52161                      -0.00000                      -0.04563
                       0.52161                      -0.00000                      -0.04563
                       0.52161                      -0.00000                      -0.04563
                       0.52161                      -0.00000                      -0.04563
        </DataArray>
        <DataArray type="Float32" Name="TranslationalAcceleration" NumberOfComponents="3" format="ascii">
                       0.02017                      -0.33944                       0.23058
                       0.03849                      -0.64923                       0.43989
                       0.07323                      -1.28320                       0.83697
                       0.10707                      -1.92399                       1.22387
                       0.14885                      -2.72907                       1.70141
                       0.20185                      -3.67359                       2.30710
                       0.25742                      -4.59825                       2.94229
                       0.31304                      -5.52250                       3.57804
                       0.36875                      -6.44607                       4.21479
                       0.42450                      -7.36924                       4.85209
                       0.48023                      -8.29259                       5.48911
                       0.53597                      -9.21587                       6.12619
                       0.59171                     -10.13908                       6.76332
                       0.64746                     -11.06224                       7.40049
                       0.70321                     -11.98536                       8.03768
                       0.74966                     -12.75462                       8.56869
                       0.78698                     -13.36879                       8.99527
                       0.82539                     -13.97445                       9.43425
                       0.84377                     -14.28370                       9.64433
        </DataArray>
        <DataArray type="Float32" Name="OrientationX" NumberOfComponents="3" format="ascii">
                       0.99310                       0.03604                      -0.11155
                       0.99310                       0.03604                      -0.11155
                       0.99310                       0.03604                      -0.11155
                       0.99310                       0.03604                      -0.11155
                       0.99310                       0.03604                      -0.11155
                       0.99310                       0.03604                      -0.11155
                       0.99310                       0.03604                      -0.11155
                       0.99310                       0.03604                      -0.11155
                       0.99310                       0.03604                      -0.11155
                       0.99310                       0.03604                      -0.11155
                       0.99310                       0.03604                      -0.11155
                       0.99310                       0.03604                      -0.11155
                       0.99310                       0.03604                      -0.11155
                       0.99310                       0.03604                      -0.11155
                       0.99310                       0.03604                      -0.11155
                       0.99310                       0.03604                      -0.11155
                       0.99310                       0.03604                      -0.11155
                       0.99310                       0.03604                      -0.11155
                       0.99310                       0.03604                      -0.11155
        </DataArray>
        <DataArray type="Float32" Name="OrientationY" NumberOfComponents="3" format="ascii">
                      -0.07201                      -0.56338                      -0.82305
                      -0.07201                      -0.56338                      -0.82305
                      -0.07201                      -0.56338                      -0.82305
                      -0.07201                      -0.56338                      -0.82305
                      -0.07201                      -0.56338                      -0.82305
                      -0.07201                      -0.56338                      -0.82305
                      -0.07201                      -0.56338                      -0.82305
                      -0.07201                      -0.56338                      -0.82305
                      -0.07201                      -0.56338                      -0.82305
                      -0.07201                      -0.56338                      -0.82305
                      -0.07201                      -0.56338                      -0.82305
                      -0.07201                      -0.56338                      -0.82305
                      -0.07201                      -0.56338                      -0.82305
                      -0.07201                      -0.56338                      -0.82305
                      -0.07201                      -0.56338                      -0.82305
                      -0.07201                      -0.56338                      -0.82305
                      -0.07201                      -0.56338                      -0.82305
                      -0.07201                      -0.56338                      -0.82305
                      -0.07201                      -0.56338                      -0.82305
        </DataArray>
        <DataArray type="Float32" Name="OrientationZ" NumberOfComponents="3" format="ascii">
                      -0.09251                       0.82541                      -0.55690
                      -0.09251                       0.82541                      -0.55690
                      -0.09251                       0.82541                      -0.55690
                      -0.09251                       0.82541                      -0.55690
                      -0.09251                       0.82541                      -0.55690
                      -0.09251                       0.82541                      -0.55690
                      -0.09251                       0.82541                      -0.55690
                      -0.09251                       0.82541                      -0.55690
                      -0.09251                       0.82541                      -0.55690
                      -0.09251                       0.82541                      -0.55690
                      -0.09251                       0.82541                      -0.55690
                      -0.09251                       0.82541                      -0.55690
                      -0.09251                       0.82541                      -0.55690
                      -0.09251                       0.82541                      -0.55690
                      -0.09251                       0.82541                      -0.55690
                      -0.09251                       0.82541                      -0.55690
                      -0.09251                       0.82541                      -0.55690
                      -0.09251                       0.82541                      -0.55690
                      -0.09251                       0.82541                      -0.55690
        </DataArray>
        <DataArray type="Float32" Name="Force" NumberOfComponents="3" format="ascii">
                       0.00086                       0.00672                       0.00981
                     138.34219                       2.78877                     -18.84705
                     161.12616                      -6.75980                     -36.78414
                     128.00205                     -15.13272                     -43.69168
                    1023.01172                      95.25617                     -28.75190
                    1066.31354                      90.76153                     -42.60659
                    1198.44997                     102.57493                     -47.04698
                    1159.71108                      94.90711                     -51.97678
                    1062.08571                      71.25489                     -70.81598
                    1106.14865                      77.59694                     -68.73556
                    1075.15639                      79.46654                     -60.81634
                    1241.87108                     132.52018                      -9.87656
                    1527.67961                     201.01670                      44.16880
                    1760.86057                     242.15066                      66.40096
                    1878.55201                     266.89389                      83.52398
                    1984.82135                     276.87797                      80.66913
                    1890.69584                     260.14829                      71.50876
                    1396.91252                     189.94972                      49.48802
                     394.30650                      11.03096                     -49.14991
        </DataArray>
        <DataArray type="Float32" Name="Moment" NumberOfComponents="3" format="ascii">
                       0.00000                       0.00000                       0.00000
                       0.00000                       0.00000                       0.00000
                       0.00000                       0.00000                       0.00000
                       0.00000                       0.00000                       0.00000
                      67.82188                    -605.14215                     408.28783
                      72.31284                    -645.21292                     435.32347
                      70.71150                    -630.92486                     425.68336
                      78.18805                    -697.63458                     470.69223
                      72.42974                    -646.25592                     436.02719
                      66.10346                    -589.80954                     397.94296
                      54.64495                    -487.57076                     328.96273
                      49.80085                    -444.34917                     299.80123
                      51.12584                    -456.17146                     307.77770
                      43.07185                    -384.30949                     259.29261
                      34.15085                    -304.71173                     205.58821
                      34.13733                    -304.59106                     205.50679
                      27.76087                    -247.69694                     167.12048
                      14.27046                    -127.32850                      85.90821
                      11.96983                    -106.80111                      72.05843
        </DataArray>
      </PointData>
      <Lines>
        <DataArray type="Int32" Name="connectivity" format="ascii">
      0      1
      1      2
      2      3
      3      4
      4      5
      5      6
      6      7
      7      8
      8      9
      9     10
     10     11
     11     12
     12     13
     13     14
     14     15
     15     16
     16     17
     17     18
        </DataArray>
        <DataArray type="Int32" Name="offsets" format="ascii">
      2
      4
      6
      8
     10
     12
     14
     16
     18
     20
     22
     24
     26
     28
     30
     32
     34
     36
        </DataArray>
      </Lines>
    </Piece>
  </PolyData>
</VTKFile>
