<?xml version="1.0"?>
<VTKFile type="PolyData" version="0.1" byte_order="LittleEndian">
  <PolyData>
    <Piece NumberOfPoints="     19" NumberOfVerts="  0" NumberOfLines="     18"
           NumberOfStrips="  0" NumberOfPolys="      0">
      <Points>
        <DataArray type="Float32" NumberOfComponents="3" format="ascii">
                      -5.19156                      -0.37838                      88.56121
                      -5.36698                      -0.71978                      87.24951
                      -5.74209                      -1.31072                      84.60529
                      -6.12871                      -1.85816                      81.95116
                      -6.61885                      -2.51649                      78.62751
                      -7.15142                      -3.44551                      74.66832
                      -7.65727                      -4.50059                      70.73873
                      -8.16533                      -5.55815                      66.81009
                      -8.67318                      -6.61996                      62.88253
                      -9.18167                      -7.68415                      58.95569
                      -9.69222                      -8.74717                      55.02881
                     -10.20407                      -9.81047                      51.10218
                     -10.71786                     -10.87405                      47.17588
                     -11.23431                     -11.93784                      43.24999
                     -11.75167                     -13.00172                      39.32425
                     -12.18345                     -13.88835                      36.05287
                     -12.52923                     -14.60528                      33.43788
                     -12.87511                     -15.37545                      30.83689
                     -13.04963                     -15.72017                      29.52605
        </DataArray>
      </Points>
      <PointData>
        <DataArray type="Float32" Name="TranslationalVelocity" NumberOfComponents="3" format="ascii">
                      -0.01727                       0.75923                      -0.19736
                      -0.03285                       1.45142                      -0.37544
                      -0.05981                       2.84778                      -0.68368
                      -0.08480                       4.24984                      -0.96923
                      -0.11484                       6.00584                      -1.31262
                      -0.15723                       8.09528                      -1.79720
                      -0.20538                      10.16806                      -2.34754
                      -0.25364                      12.24046                      -2.89917
                      -0.30210                      14.31227                      -3.45301
                      -0.35066                      16.38374                      -4.00810
                      -0.39917                      18.45532                      -4.56258
                      -0.44770                      20.52683                      -5.11721
                      -0.49623                      22.59826                      -5.67197
                      -0.54478                      24.66960                      -6.22685
                      -0.59333                      26.74090                      -6.78178
                      -0.63379                      28.46698                      -7.24425
                      -0.66651                      29.84676                      -7.61821
                      -0.70165                      31.21923                      -8.01993
                      -0.71738                      31.91094                      -8.19974
        </DataArray>
        <DataArray type="Float32" Name="RotationalVelocity" NumberOfComponents="3" format="ascii">
                       0.52161                      -0.00000                      -0.04563
                       0.52161                      -0.00000                      -0.04563
                       0.52161                      -0.00000                      -0.04563
                       0.52161                      -0.00000                      -0.04563
                       0.52161                      -0.00000                      -0.04563
                       0.52161                      -0.00000                      -0.04563
                       0.52161                      -0.00000                      -0.04563
                       0.52161                      -0.00000                      -0.04563
                       0.52161                      -0.00000                      -0.04563
                       0.52161                      -0.00000                      -0.04563
                       0.52161                      -0.00000                      -0.04563
                       0.52161                      -0.00000                      -0.04563
                       0.52161                      -0.00000                      -0.04563
                       0.52161                      -0.00000                      -0.04563
                       0.52161                      -0.00000                      -0.04563
                       0.52161                      -0.00000                      -0.04563
                       0.52161                      -0.00000                      -0.04563
                       0.52161                      -0.00000                      -0.04563
                       0.52161                      -0.00000                      -0.04563
        </DataArray>
        <DataArray type="Float32" Name="TranslationalAcceleration" NumberOfComponents="3" format="ascii">
                       0.03465                       0.10373                       0.39602
                       0.06624                       0.19733                       0.75707
                       0.12996                       0.35934                       1.48542
                       0.19394                       0.50943                       2.21674
                       0.27407                       0.68991                       3.13269
                       0.36943                       0.94460                       4.22255
                       0.46402                       1.23386                       5.30373
                       0.55859                       1.52380                       6.38470
                       0.65314                       1.81490                       7.46537
                       0.74767                       2.10665                       8.54586
                       0.84220                       2.39809                       9.62641
                       0.93673                       2.68960                      10.70693
                       1.03126                       2.98118                      11.78740
                       1.12579                       3.27283                      12.86782
                       1.22031                       3.56449                      13.94822
                       1.29908                       3.80757                      14.84856
                       1.36205                       4.00412                      15.56826
                       1.42468                       4.21527                      16.28415
                       1.45624                       4.30977                      16.64495
        </DataArray>
        <DataArray type="Float32" Name="OrientationX" NumberOfComponents="3" format="ascii">
                       0.99157                      -0.01101                      -0.12912
                       0.99157                      -0.01101                      -0.12912
                       0.99157                      -0.01101                      -0.12912
                       0.99157                      -0.01101                      -0.12912
                       0.99157                      -0.01101                      -0.12912
                       0.99157                      -0.01101                      -0.12912
                       0.99157                      -0.01101                      -0.12912
                       0.99157                      -0.01101                      -0.12912
                       0.99157                      -0.01101                      -0.12912
                       0.99157                      -0.01101                      -0.12912
                       0.99157                      -0.01101                      -0.12912
                       0.99157                      -0.01101                      -0.12912
                       0.99157                      -0.01101                      -0.12912
                       0.99157                      -0.01101                      -0.12912
                       0.99157                      -0.01101                      -0.12912
                       0.99157                      -0.01101                      -0.12912
                       0.99157                      -0.01101                      -0.12912
                       0.99157                      -0.01101                      -0.12912
                       0.99157                      -0.01101                      -0.12912
        </DataArray>
        <DataArray type="Float32" Name="OrientationY" NumberOfComponents="3" format="ascii">
                       0.02201                      -0.96760                       0.25153
                       0.02201                      -0.96760                       0.25153
                       0.02201                      -0.96760                       0.25153
                       0.02201                      -0.96760                       0.25153
                       0.02201                      -0.96760                       0.25153
                       0.02201                      -0.96760                       0.25153
                       0.02201                      -0.96760                       0.25153
                       0.02201                      -0.96760                       0.25153
                       0.02201                      -0.96760                       0.25153
                       0.02201                      -0.96760                       0.25153
                       0.02201                      -0.96760                       0.25153
                       0.02201                      -0.96760                       0.25153
                       0.02201                      -0.96760                       0.25153
                       0.02201                      -0.96760                       0.25153
                       0.02201                      -0.96760                       0.25153
                       0.02201                      -0.96760                       0.25153
                       0.02201                      -0.96760                       0.25153
                       0.02201                      -0.96760                       0.25153
                       0.02201                      -0.96760                       0.25153
        </DataArray>
        <DataArray type="Float32" Name="OrientationZ" NumberOfComponents="3" format="ascii">
                      -0.12770                      -0.25225                      -0.95920
                      -0.12770                      -0.25225                      -0.95920
                      -0.12770                      -0.25225                      -0.95920
                      -0.12770                      -0.25225                      -0.95920
                      -0.12770                      -0.25225                      -0.95920
                      -0.12770                      -0.25225                      -0.95920
                      -0.12770                      -0.25225                      -0.95920
                      -0.12770                      -0.25225                      -0.95920
                      -0.12770                      -0.25225                      -0.95920
                      -0.12770                      -0.25225                      -0.95920
                      -0.12770                      -0.25225                      -0.95920
                      -0.12770                      -0.25225                      -0.95920
                      -0.12770                      -0.25225                      -0.95920
                      -0.12770                      -0.25225                      -0.95920
                      -0.12770                      -0.25225                      -0.95920
                      -0.12770                      -0.25225                      -0.95920
                      -0.12770                      -0.25225                      -0.95920
                      -0.12770                      -0.25225                      -0.95920
                      -0.12770                      -0.25225                      -0.95920
        </DataArray>
        <DataArray type="Float32" Name="Force" NumberOfComponents="3" format="ascii">
                       0.03138                      -1.37992                       0.35872
                     118.65734                     -24.84638                      -9.26357
                     140.59825                     -49.10694                      -5.80465
                     115.22858                     -54.99183                      -0.87938
                    1070.25376                      95.61202                    -167.63480
                    1099.65268                      82.48795                    -168.09750
                    1242.00484                      92.50373                    -189.68384
                    1149.25876                      74.32900                    -172.55627
                    1064.62849                      50.46085                    -155.01195
                    1138.83324                      64.63228                    -168.61819
                    1156.57941                      93.21688                    -178.49808
                    1335.44026                     176.10676                    -224.10962
                    1639.33610                     268.31524                    -288.81858
                    1826.86977                     310.25815                    -324.81650
                    1929.02506                     322.86415                    -341.73232
                    1953.75134                     317.50923                    -343.61606
                    1913.82337                     305.73273                    -335.20316
                    1410.58692                     221.33523                    -246.00868
                     423.00252                     -10.76513                     -53.48635
        </DataArray>
        <DataArray type="Float32" Name="Moment" NumberOfComponents="3" format="ascii">
                       0.00000                       0.00000                       0.00000
                       0.00000                       0.00000                       0.00000
                       0.00000                       0.00000                       0.00000
                       0.00000                       0.00000                       0.00000
                      80.95749                     159.91259                     608.07557
                      92.28596                     182.28933                     693.16423
                      93.44594                     184.58059                     701.87686
                      96.79883                     191.20344                     727.06061
                      94.31467                     186.29656                     708.40195
                      89.38205                     176.55333                     671.35281
                      72.63936                     143.48207                     545.59770
                      64.98866                     128.36989                     488.13288
                      56.72072                     112.03852                     426.03203
                      50.65289                     100.05294                     380.45628
                      47.09473                      93.02462                     353.73076
                      45.21595                      89.31353                     339.61916
                      39.84978                      78.71391                     299.31357
                      20.19116                      39.88292                     151.65678
                      17.72907                      35.01963                     133.16387
        </DataArray>
      </PointData>
      <Lines>
        <DataArray type="Int32" Name="connectivity" format="ascii">
      0      1
      1      2
      2      3
      3      4
      4      5
      5      6
      6      7
      7      8
      8      9
      9     10
     10     11
     11     12
     12     13
     13     14
     14     15
     15     16
     16     17
     17     18
        </DataArray>
        <DataArray type="Int32" Name="offsets" format="ascii">
      2
      4
      6
      8
     10
     12
     14
     16
     18
     20
     22
     24
     26
     28
     30
     32
     34
     36
        </DataArray>
      </Lines>
    </Piece>
  </PolyData>
</VTKFile>
