<?xml version="1.0"?>
<VTKFile type="PolyData" version="0.1" byte_order="LittleEndian">
  <PolyData>
    <Piece NumberOfPoints="     19" NumberOfVerts="  0" NumberOfLines="     18"
           NumberOfStrips="  0" NumberOfPolys="      0">
      <Points>
        <DataArray type="Float32" NumberOfComponents="3" format="ascii">
                      -4.95912                      -0.87448                      91.21804
                      -4.92285                      -1.67402                      92.32587
                      -4.87750                      -3.34937                      94.48758
                      -4.84502                      -5.06085                      96.62378
                      -4.81210                      -7.22184                      99.27884
                      -4.71250                      -9.70016                     102.54532
                      -4.58227                     -12.07350                     105.88613
                      -4.45420                     -14.44469                     109.22857
                      -4.32578                     -16.81232                     112.57355
                      -4.19794                     -19.17792                     115.92000
                      -4.07221                     -21.54443                     119.26587
                      -3.94777                     -23.91065                     122.61199
                      -3.82529                     -26.27659                     125.95838
                      -3.70546                     -28.64225                     129.30506
                      -3.58657                     -31.00780                     132.65185
                      -3.48812                     -32.97905                     135.44094
                      -3.40951                     -34.54957                     137.67679
                      -3.32941                     -36.07537                     139.94469
                      -3.29216                     -36.87208                     141.05440
        </DataArray>
      </Points>
      <PointData>
        <DataArray type="Float32" Name="TranslationalVelocity" NumberOfComponents="3" format="ascii">
                      -0.03991                      -0.63720                      -0.45613
                      -0.07639                      -1.21671                      -0.87318
                      -0.15285                      -2.34634                      -1.74705
                      -0.23095                      -3.46208                      -2.63977
                      -0.32957                      -4.84848                      -3.76696
                      -0.44266                      -6.55684                      -5.05966
                      -0.55097                      -8.30537                      -6.29761
                      -0.65918                     -10.05465                      -7.53444
                      -0.76722                     -11.80527                      -8.76941
                      -0.87518                     -13.55664                     -10.00332
                      -0.98317                     -15.30760                     -11.23771
                      -1.09115                     -17.05864                     -12.47195
                      -1.19912                     -18.80973                     -13.70603
                      -1.30708                     -20.56084                     -14.93998
                      -1.41503                     -22.31197                     -16.17386
                      -1.50499                     -23.77127                     -17.20208
                      -1.57666                     -24.94109                     -18.02127
                      -1.64629                     -26.12770                     -18.81714
                      -1.68264                     -26.70823                     -19.23271
        </DataArray>
        <DataArray type="Float32" Name="RotationalVelocity" NumberOfComponents="3" format="ascii">
                       0.52161                      -0.00000                      -0.04563
                       0.52161                      -0.00000                      -0.04563
                       0.52161                      -0.00000                      -0.04563
                       0.52161                      -0.00000                      -0.04563
                       0.52161                      -0.00000                      -0.04563
                       0.52161                      -0.00000                      -0.04563
                       0.52161                      -0.00000                      -0.04563
                       0.52161                      -0.00000                      -0.04563
                       0.52161                      -0.00000                      -0.04563
                       0.52161                      -0.00000                      -0.04563
                       0.52161                      -0.00000                      -0.04563
                       0.52161                      -0.00000                      -0.04563
                       0.52161                      -0.00000                      -0.04563
                       0.52161                      -0.00000                      -0.04563
                       0.52161                      -0.00000                      -0.04563
                       0.52161                      -0.00000                      -0.04563
                       0.52161                      -0.00000                      -0.04563
                       0.52161                      -0.00000                      -0.04563
                       0.52161                      -0.00000                      -0.04563
        </DataArray>
        <DataArray type="Float32" Name="TranslationalAcceleration" NumberOfComponents="3" format="ascii">
                      -0.02908                       0.23974                      -0.33237
                      -0.05552                       0.45894                      -0.63464
                      -0.10707                       0.91825                      -1.22387
                      -0.15799                       1.38746                      -1.80584
                      -0.22126                       1.97991                      -2.52900
                      -0.29922                       2.65935                      -3.42009
                      -0.37901                       3.31002                      -4.33213
                      -0.45884                       3.96009                      -5.24457
                      -0.53873                       4.60919                      -6.15770
                      -0.61865                       5.25773                      -7.07123
                      -0.69856                       5.90653                      -7.98454
                      -0.77846                       6.55524                      -8.89789
                      -0.85838                       7.20388                      -9.81127
                      -0.93829                       7.85244                     -10.72467
                      -1.01820                       8.50096                     -11.63807
                      -1.08479                       9.04139                     -12.39925
                      -1.13818                       9.47196                     -13.00943
                      -1.19233                       9.89027                     -13.62837
                      -1.21882                      10.10869                     -13.93118
        </DataArray>
        <DataArray type="Float32" Name="OrientationX" NumberOfComponents="3" format="ascii">
                       0.99833                      -0.02545                      -0.05178
                       0.99833                      -0.02545                      -0.05178
                       0.99833                      -0.02545                      -0.05178
                       0.99833                      -0.02545                      -0.05178
                       0.99833                      -0.02545                      -0.05178
                       0.99833                      -0.02545                      -0.05178
                       0.99833                      -0.02545                      -0.05178
                       0.99833                      -0.02545                      -0.05178
                       0.99833                      -0.02545                      -0.05178
                       0.99833                      -0.02545                      -0.05178
                       0.99833                      -0.02545                      -0.05178
                       0.99833                      -0.02545                      -0.05178
                       0.99833                      -0.02545                      -0.05178
                       0.99833                      -0.02545                      -0.05178
                       0.99833                      -0.02545                      -0.05178
                       0.99833                      -0.02545                      -0.05178
                       0.99833                      -0.02545                      -0.05178
                       0.99833                      -0.02545                      -0.05178
                       0.99833                      -0.02545                      -0.05178
        </DataArray>
        <DataArray type="Float32" Name="OrientationY" NumberOfComponents="3" format="ascii">
                       0.05086                       0.81208                       0.58132
                       0.05086                       0.81208                       0.58132
                       0.05086                       0.81208                       0.58132
                       0.05086                       0.81208                       0.58132
                       0.05086                       0.81208                       0.58132
                       0.05086                       0.81208                       0.58132
                       0.05086                       0.81208                       0.58132
                       0.05086                       0.81208                       0.58132
                       0.05086                       0.81208                       0.58132
                       0.05086                       0.81208                       0.58132
                       0.05086                       0.81208                       0.58132
                       0.05086                       0.81208                       0.58132
                       0.05086                       0.81208                       0.58132
                       0.05086                       0.81208                       0.58132
                       0.05086                       0.81208                       0.58132
                       0.05086                       0.81208                       0.58132
                       0.05086                       0.81208                       0.58132
                       0.05086                       0.81208                       0.58132
                       0.05086                       0.81208                       0.58132
        </DataArray>
        <DataArray type="Float32" Name="OrientationZ" NumberOfComponents="3" format="ascii">
                       0.02726                      -0.58299                       0.81203
                       0.02726                      -0.58299                       0.81203
                       0.02726                      -0.58299                       0.81203
                       0.02726                      -0.58299                       0.81203
                       0.02726                      -0.58299                       0.81203
                       0.02726                      -0.58299                       0.81203
                       0.02726                      -0.58299                       0.81203
                       0.02726                      -0.58299                       0.81203
                       0.02726                      -0.58299                       0.81203
                       0.02726                      -0.58299                       0.81203
                       0.02726                      -0.58299                       0.81203
                       0.02726                      -0.58299                       0.81203
                       0.02726                      -0.58299                       0.81203
                       0.02726                      -0.58299                       0.81203
                       0.02726                      -0.58299                       0.81203
                       0.02726                      -0.58299                       0.81203
                       0.02726                      -0.58299                       0.81203
                       0.02726                      -0.58299                       0.81203
                       0.02726                      -0.58299                       0.81203
        </DataArray>
        <DataArray type="Float32" Name="Force" NumberOfComponents="3" format="ascii">
                       0.10761                       1.71819                       1.22994
                     160.84339                      18.69077                       8.01988
                     182.44036                      38.25858                      21.34348
                     145.39302                      43.79589                      26.56249
                    1233.88803                    -134.99402                    -138.33522
                    1261.04834                    -122.84696                    -130.52603
                    1425.00668                    -139.49795                    -147.98399
                    1311.35951                    -115.51683                    -126.95221
                    1226.03281                     -89.32900                    -105.28677
                    1307.71672                     -96.83793                    -113.41959
                    1248.34723                     -71.10897                     -92.95489
                    1354.28676                    -107.39520                    -122.56229
                    1486.96749                    -195.85913                    -190.52779
                    1683.71517                    -254.16764                    -238.99401
                    1892.20169                    -314.00126                    -288.94920
                    2045.79831                    -359.29116                    -326.62039
                    2054.42294                    -365.38314                    -331.28357
                    1536.92335                    -273.05508                    -247.62676
                     433.89605                      -5.86809                     -18.77739
        </DataArray>
        <DataArray type="Float32" Name="Moment" NumberOfComponents="3" format="ascii">
                       0.00000                       0.00000                       0.00000
                       0.00000                       0.00000                       0.00000
                       0.00000                       0.00000                       0.00000
                       0.00000                       0.00000                       0.00000
                     -21.37037                     457.08007                    -636.65434
                     -23.75975                     508.18535                    -707.83749
                     -23.90455                     511.28240                    -712.15128
                     -24.60876                     526.34442                    -733.13076
                     -24.11636                     515.81277                    -718.46151
                     -23.23471                     496.95555                    -692.19581
                     -19.63484                     419.95966                    -584.95033
                     -18.26135                     390.58294                    -544.03230
                     -16.96918                     362.94533                    -505.53663
                     -15.44864                     330.42318                    -460.23742
                     -12.86959                     275.26127                    -383.40390
                     -11.22036                     239.98665                    -334.27085
                      -9.46216                     202.38148                    -281.89163
                      -4.52507                      96.78452                    -134.80851
                      -3.85352                      82.42108                    -114.80207
        </DataArray>
      </PointData>
      <Lines>
        <DataArray type="Int32" Name="connectivity" format="ascii">
      0      1
      1      2
      2      3
      3      4
      4      5
      5      6
      6      7
      7      8
      8      9
      9     10
     10     11
     11     12
     12     13
     13     14
     14     15
     15     16
     16     17
     17     18
        </DataArray>
        <DataArray type="Int32" Name="offsets" format="ascii">
      2
      4
      6
      8
     10
     12
     14
     16
     18
     20
     22
     24
     26
     28
     30
     32
     34
     36
        </DataArray>
      </Lines>
    </Piece>
  </PolyData>
</VTKFile>
