<?xml version="1.0"?>
<VTKFile type="PolyData" version="0.1" byte_order="LittleEndian">
  <PolyData>
    <Piece NumberOfPoints="     19" NumberOfVerts="  0" NumberOfLines="     18"
           NumberOfStrips="  0" NumberOfPolys="      0">
      <Points>
        <DataArray type="Float32" NumberOfComponents="3" format="ascii">
                      -4.95299                      -0.76722                      91.28809
                      -4.91112                      -1.46920                      92.45999
                      -4.85397                      -2.95394                      94.75653
                      -4.80941                      -4.47696                      97.03073
                      -4.76123                      -6.40364                      99.86020
                      -4.64421                      -8.59390                     103.32588
                      -4.49736                     -10.67301                     106.85667
                      -4.35268                     -12.74986                     110.38889
                      -4.20768                     -14.82294                     113.92334
                      -4.06329                     -16.89388                     117.45909
                      -3.92099                     -18.96579                     120.99434
                      -3.77999                     -21.03741                     124.52980
                      -3.64094                     -23.10872                     128.06552
                      -3.50455                     -25.17976                     131.60151
                      -3.36909                     -27.25069                     135.13759
                      -3.25684                     -28.97641                     138.08442
                      -3.16724                     -30.35015                     140.44589
                      -3.07650                     -31.67660                     142.83549
                      -3.03367                     -32.37559                     144.00902
        </DataArray>
      </Points>
      <PointData>
        <DataArray type="Float32" Name="TranslationalVelocity" NumberOfComponents="3" format="ascii">
                      -0.03501                      -0.67402                      -0.40019
                      -0.06705                      -1.28720                      -0.76635
                      -0.13480                      -2.48770                      -1.54080
                      -0.20430                      -3.67597                      -2.33521
                      -0.29223                      -5.15404                      -3.34018
                      -0.39218                      -6.96710                      -4.48263
                      -0.48706                      -8.81548                      -5.56711
                      -0.58184                     -10.66451                      -6.65041
                      -0.67644                     -12.51472                      -7.73174
                      -0.77095                     -14.36558                      -8.81195
                      -0.86550                     -16.21608                      -9.89268
                      -0.96003                     -18.06664                     -10.97325
                      -1.05456                     -19.91724                     -12.05366
                      -1.14907                     -21.76785                     -13.13392
                      -1.24358                     -23.61848                     -14.21413
                      -1.32233                     -25.16068                     -15.11428
                      -1.38502                     -26.39653                     -15.83083
                      -1.44555                     -27.64710                     -16.52271
                      -1.47745                     -28.26118                     -16.88731
        </DataArray>
        <DataArray type="Float32" Name="RotationalVelocity" NumberOfComponents="3" format="ascii">
                       0.52161                      -0.00000                      -0.04563
                       0.52161                      -0.00000                      -0.04563
                       0.52161                      -0.00000                      -0.04563
                       0.52161                      -0.00000                      -0.04563
                       0.52161                      -0.00000                      -0.04563
                       0.52161                      -0.00000                      -0.04563
                       0.52161                      -0.00000                      -0.04563
                       0.52161                      -0.00000                      -0.04563
                       0.52161                      -0.00000                      -0.04563
                       0.52161                      -0.00000                      -0.04563
                       0.52161                      -0.00000                      -0.04563
                       0.52161                      -0.00000                      -0.04563
                       0.52161                      -0.00000                      -0.04563
                       0.52161                      -0.00000                      -0.04563
                       0.52161                      -0.00000                      -0.04563
                       0.52161                      -0.00000                      -0.04563
                       0.52161                      -0.00000                      -0.04563
                       0.52161                      -0.00000                      -0.04563
                       0.52161                      -0.00000                      -0.04563
        </DataArray>
        <DataArray type="Float32" Name="TranslationalAcceleration" NumberOfComponents="3" format="ascii">
                      -0.03076                       0.21034                      -0.35157
                      -0.05874                       0.40279                      -0.67141
                      -0.11353                       0.80984                      -1.29760
                      -0.16775                       1.22738                      -1.91741
                      -0.23520                       1.75559                      -2.68838
                      -0.31794                       2.35607                      -3.63408
                      -0.40229                       2.92607                      -4.59821
                      -0.48667                       3.49545                      -5.56268
                      -0.57110                       4.06379                      -6.52776
                      -0.65557                       4.63155                      -7.49318
                      -0.74001                       5.19958                      -8.45841
                      -0.82446                       5.76753                      -9.42367
                      -0.90892                       6.33539                     -10.38896
                      -0.99337                       6.90318                     -11.35425
                      -1.07782                       7.47093                     -12.31955
                      -1.14820                       7.94405                     -13.12397
                      -1.20460                       8.32067                     -13.76860
                      -1.26167                       8.68432                     -14.42090
                      -1.28969                       8.87595                     -14.74121
        </DataArray>
        <DataArray type="Float32" Name="OrientationX" NumberOfComponents="3" format="ascii">
                       0.99851                      -0.02233                      -0.04975
                       0.99851                      -0.02233                      -0.04975
                       0.99851                      -0.02233                      -0.04975
                       0.99851                      -0.02233                      -0.04975
                       0.99851                      -0.02233                      -0.04975
                       0.99851                      -0.02233                      -0.04975
                       0.99851                      -0.02233                      -0.04975
                       0.99851                      -0.02233                      -0.04975
                       0.99851                      -0.02233                      -0.04975
                       0.99851                      -0.02233                      -0.04975
                       0.99851                      -0.02233                      -0.04975
                       0.99851                      -0.02233                      -0.04975
                       0.99851                      -0.02233                      -0.04975
                       0.99851                      -0.02233                      -0.04975
                       0.99851                      -0.02233                      -0.04975
                       0.99851                      -0.02233                      -0.04975
                       0.99851                      -0.02233                      -0.04975
                       0.99851                      -0.02233                      -0.04975
                       0.99851                      -0.02233                      -0.04975
        </DataArray>
        <DataArray type="Float32" Name="OrientationY" NumberOfComponents="3" format="ascii">
                       0.04462                       0.85900                       0.51002
                       0.04462                       0.85900                       0.51002
                       0.04462                       0.85900                       0.51002
                       0.04462                       0.85900                       0.51002
                       0.04462                       0.85900                       0.51002
                       0.04462                       0.85900                       0.51002
                       0.04462                       0.85900                       0.51002
                       0.04462                       0.85900                       0.51002
                       0.04462                       0.85900                       0.51002
                       0.04462                       0.85900                       0.51002
                       0.04462                       0.85900                       0.51002
                       0.04462                       0.85900                       0.51002
                       0.04462                       0.85900                       0.51002
                       0.04462                       0.85900                       0.51002
                       0.04462                       0.85900                       0.51002
                       0.04462                       0.85900                       0.51002
                       0.04462                       0.85900                       0.51002
                       0.04462                       0.85900                       0.51002
                       0.04462                       0.85900                       0.51002
        </DataArray>
        <DataArray type="Float32" Name="OrientationZ" NumberOfComponents="3" format="ascii">
                       0.03134                      -0.51148                       0.85872
                       0.03134                      -0.51148                       0.85872
                       0.03134                      -0.51148                       0.85872
                       0.03134                      -0.51148                       0.85872
                       0.03134                      -0.51148                       0.85872
                       0.03134                      -0.51148                       0.85872
                       0.03134                      -0.51148                       0.85872
                       0.03134                      -0.51148                       0.85872
                       0.03134                      -0.51148                       0.85872
                       0.03134                      -0.51148                       0.85872
                       0.03134                      -0.51148                       0.85872
                       0.03134                      -0.51148                       0.85872
                       0.03134                      -0.51148                       0.85872
                       0.03134                      -0.51148                       0.85872
                       0.03134                      -0.51148                       0.85872
                       0.03134                      -0.51148                       0.85872
                       0.03134                      -0.51148                       0.85872
                       0.03134                      -0.51148                       0.85872
                       0.03134                      -0.51148                       0.85872
        </DataArray>
        <DataArray type="Float32" Name="Force" NumberOfComponents="3" format="ascii">
                       0.08454                       1.62756                       0.96634
                     160.63299                      19.63554                       5.83256
                     182.05044                      40.29148                      17.35413
                     144.97293                      46.15804                      22.20172
                    1228.53458                    -136.36864                    -126.06544
                    1257.22591                    -123.59054                    -119.50163
                    1421.37996                    -140.40427                    -135.50783
                    1309.87818                    -116.06826                    -116.94289
                    1225.09044                     -88.83065                     -97.62471
                    1307.03161                     -96.19691                    -105.00303
                    1247.24452                     -69.15366                     -86.71311
                    1348.55757                    -103.82530                    -111.06238
                    1475.77130                    -196.06974                    -170.64905
                    1671.79632                    -257.08141                    -214.14411
                    1874.39284                    -317.12760                    -257.30395
                    2035.32688                    -367.39347                    -293.11771
                    2047.21097                    -375.14320                    -298.16743
                    1532.35727                    -280.68558                    -223.11406
                     431.88590                      -4.19289                     -18.26081
        </DataArray>
        <DataArray type="Float32" Name="Moment" NumberOfComponents="3" format="ascii">
                       0.00000                       0.00000                       0.00000
                       0.00000                       0.00000                       0.00000
                       0.00000                       0.00000                       0.00000
                       0.00000                       0.00000                       0.00000
                     -24.61122                     401.63215                    -674.29879
                     -27.34604                     446.26177                    -749.22732
                     -27.50858                     448.91423                    -753.68052
                     -28.31164                     462.01940                    -775.68274
                     -27.74652                     452.79723                    -760.19967
                     -26.74033                     436.37720                    -732.63214
                     -22.60918                     368.96061                    -619.44666
                     -21.05359                     343.57482                    -576.82656
                     -19.54650                     318.98050                    -535.53524
                     -17.79924                     290.46687                    -487.66381
                     -15.03973                     245.43435                    -412.05887
                     -12.89970                     210.51101                    -353.42619
                     -10.94317                     178.58222                    -299.82107
                      -5.17740                      84.49031                    -141.85048
                      -4.41021                      71.97047                    -120.83096
        </DataArray>
      </PointData>
      <Lines>
        <DataArray type="Int32" Name="connectivity" format="ascii">
      0      1
      1      2
      2      3
      3      4
      4      5
      5      6
      6      7
      7      8
      8      9
      9     10
     10     11
     11     12
     12     13
     13     14
     14     15
     15     16
     16     17
     17     18
        </DataArray>
        <DataArray type="Int32" Name="offsets" format="ascii">
      2
      4
      6
      8
     10
     12
     14
     16
     18
     20
     22
     24
     26
     28
     30
     32
     34
     36
        </DataArray>
      </Lines>
    </Piece>
  </PolyData>
</VTKFile>
