<?xml version="1.0"?>
<VTKFile type="PolyData" version="0.1" byte_order="LittleEndian">
  <PolyData>
    <Piece NumberOfPoints="     19" NumberOfVerts="  0" NumberOfLines="     18"
           NumberOfStrips="  0" NumberOfPolys="      0">
      <Points>
        <DataArray type="Float32" NumberOfComponents="3" format="ascii">
                      -5.18403                      -0.62133                      88.64720
                      -5.35265                      -1.18429                      87.41329
                      -5.71549                      -2.22362                      84.90930
                      -6.09047                      -3.22195                      82.38813
                      -6.56646                      -4.44541                      79.22635
                      -7.08000                      -6.04470                      75.48464
                      -7.56498                      -7.76275                      71.79359
                      -8.05214                      -9.48311                      68.10389
                      -8.53902                     -11.20746                      64.41599
                      -9.02651                     -12.93405                      60.72921
                      -9.51607                     -14.65952                      57.04219
                     -10.00693                     -16.38525                      53.35546
                     -10.49973                     -18.11122                      49.66911
                     -10.99518                     -19.83737                      45.98320
                     -11.49155                     -21.56359                      42.29746
                     -11.90583                     -23.00217                      39.22608
                     -12.23750                     -24.16020                      36.77237
                     -12.56849                     -25.36828                      34.34155
                     -12.73616                     -25.93435                      33.10905
        </DataArray>
      </Points>
      <PointData>
        <DataArray type="Float32" Name="TranslationalVelocity" NumberOfComponents="3" format="ascii">
                      -0.02835                       0.71403                      -0.32409
                      -0.05404                       1.36534                      -0.61773
                      -0.10147                       2.68799                      -1.15985
                      -0.14703                       4.02016                      -1.68059
                      -0.20286                       5.69109                      -2.31875
                      -0.27585                       7.66623                      -3.15296
                      -0.35425                       9.61363                      -4.04910
                      -0.43276                      11.56043                      -4.94645
                      -0.51145                      13.50628                      -5.84588
                      -0.59024                      15.45158                      -6.74648
                      -0.66898                      17.39710                      -7.64650
                      -0.74773                      19.34251                      -8.54665
                      -0.82650                      21.28783                      -9.44693
                      -0.90527                      23.23303                     -10.34730
                      -0.98405                      25.17819                     -11.24771
                      -1.04970                      26.79914                     -11.99808
                      -1.10254                      28.09415                     -12.60212
                      -1.15767                      29.37719                     -13.23226
                      -1.18350                      30.02772                     -13.52752
        </DataArray>
        <DataArray type="Float32" Name="RotationalVelocity" NumberOfComponents="3" format="ascii">
                       0.52161                      -0.00000                      -0.04563
                       0.52161                      -0.00000                      -0.04563
                       0.52161                      -0.00000                      -0.04563
                       0.52161                      -0.00000                      -0.04563
                       0.52161                      -0.00000                      -0.04563
                       0.52161                      -0.00000                      -0.04563
                       0.52161                      -0.00000                      -0.04563
                       0.52161                      -0.00000                      -0.04563
                       0.52161                      -0.00000                      -0.04563
                       0.52161                      -0.00000                      -0.04563
                       0.52161                      -0.00000                      -0.04563
                       0.52161                      -0.00000                      -0.04563
                       0.52161                      -0.00000                      -0.04563
                       0.52161                      -0.00000                      -0.04563
                       0.52161                      -0.00000                      -0.04563
                       0.52161                      -0.00000                      -0.04563
                       0.52161                      -0.00000                      -0.04563
                       0.52161                      -0.00000                      -0.04563
                       0.52161                      -0.00000                      -0.04563
        </DataArray>
        <DataArray type="Float32" Name="TranslationalAcceleration" NumberOfComponents="3" format="ascii">
                       0.03258                       0.17034                       0.37244
                       0.06231                       0.32468                       0.71217
                       0.12267                       0.60962                       1.40207
                       0.18346                       0.88332                       2.09694
                       0.25971                       1.21873                       2.96851
                       0.34985                       1.65719                       3.99875
                       0.43871                       2.12820                       5.01453
                       0.52756                       2.59985                       6.02999
                       0.61635                       3.07259                       7.04496
                       0.70513                       3.54594                       8.05964
                       0.79391                       4.01899                       9.07443
                       0.88269                       4.49211                      10.08918
                       0.97146                       4.96529                      11.10386
                       1.06023                       5.43853                      12.11849
                       1.14900                       5.91178                      13.13310
                       1.22297                       6.30618                      13.97860
                       1.28207                       6.62366                      14.65409
                       1.34062                       6.95486                      15.32333
                       1.37030                       7.11005                      15.66265
        </DataArray>
        <DataArray type="Float32" Name="OrientationX" NumberOfComponents="3" format="ascii">
                       0.99179                      -0.01809                      -0.12662
                       0.99179                      -0.01809                      -0.12662
                       0.99179                      -0.01809                      -0.12662
                       0.99179                      -0.01809                      -0.12662
                       0.99179                      -0.01809                      -0.12662
                       0.99179                      -0.01809                      -0.12662
                       0.99179                      -0.01809                      -0.12662
                       0.99179                      -0.01809                      -0.12662
                       0.99179                      -0.01809                      -0.12662
                       0.99179                      -0.01809                      -0.12662
                       0.99179                      -0.01809                      -0.12662
                       0.99179                      -0.01809                      -0.12662
                       0.99179                      -0.01809                      -0.12662
                       0.99179                      -0.01809                      -0.12662
                       0.99179                      -0.01809                      -0.12662
                       0.99179                      -0.01809                      -0.12662
                       0.99179                      -0.01809                      -0.12662
                       0.99179                      -0.01809                      -0.12662
                       0.99179                      -0.01809                      -0.12662
        </DataArray>
        <DataArray type="Float32" Name="OrientationY" NumberOfComponents="3" format="ascii">
                       0.03614                      -0.91000                       0.41304
                       0.03614                      -0.91000                       0.41304
                       0.03614                      -0.91000                       0.41304
                       0.03614                      -0.91000                       0.41304
                       0.03614                      -0.91000                       0.41304
                       0.03614                      -0.91000                       0.41304
                       0.03614                      -0.91000                       0.41304
                       0.03614                      -0.91000                       0.41304
                       0.03614                      -0.91000                       0.41304
                       0.03614                      -0.91000                       0.41304
                       0.03614                      -0.91000                       0.41304
                       0.03614                      -0.91000                       0.41304
                       0.03614                      -0.91000                       0.41304
                       0.03614                      -0.91000                       0.41304
                       0.03614                      -0.91000                       0.41304
                       0.03614                      -0.91000                       0.41304
                       0.03614                      -0.91000                       0.41304
                       0.03614                      -0.91000                       0.41304
                       0.03614                      -0.91000                       0.41304
        </DataArray>
        <DataArray type="Float32" Name="OrientationZ" NumberOfComponents="3" format="ascii">
                      -0.12269                      -0.41422                      -0.90187
                      -0.12269                      -0.41422                      -0.90187
                      -0.12269                      -0.41422                      -0.90187
                      -0.12269                      -0.41422                      -0.90187
                      -0.12269                      -0.41422                      -0.90187
                      -0.12269                      -0.41422                      -0.90187
                      -0.12269                      -0.41422                      -0.90187
                      -0.12269                      -0.41422                      -0.90187
                      -0.12269                      -0.41422                      -0.90187
                      -0.12269                      -0.41422                      -0.90187
                      -0.12269                      -0.41422                      -0.90187
                      -0.12269                      -0.41422                      -0.90187
                      -0.12269                      -0.41422                      -0.90187
                      -0.12269                      -0.41422                      -0.90187
                      -0.12269                      -0.41422                      -0.90187
                      -0.12269                      -0.41422                      -0.90187
                      -0.12269                      -0.41422                      -0.90187
                      -0.12269                      -0.41422                      -0.90187
                      -0.12269                      -0.41422                      -0.90187
        </DataArray>
        <DataArray type="Float32" Name="Force" NumberOfComponents="3" format="ascii">
                       0.07096                      -1.78683                       0.81102
                     123.00087                     -28.34479                      -3.71445
                     150.74870                     -53.42278                       4.02882
                     125.47301                     -57.81028                       9.48243
                    1149.78663                      87.71157                    -196.70068
                    1161.46245                      72.77354                    -191.42817
                    1295.32905                      80.97241                    -213.40489
                    1182.97963                      62.78824                    -189.76921
                    1087.47156                      39.91207                    -166.26962
                    1154.73253                      51.26676                    -180.63481
                    1163.21556                      75.35412                    -192.85190
                    1336.55338                     150.54700                    -250.96786
                    1630.83543                     235.78500                    -330.15056
                    1826.13684                     277.74194                    -375.98952
                    1938.98915                     292.17623                    -397.97133
                    1957.54766                     285.47183                    -397.41675
                    1922.99102                     275.87676                    -388.30879
                    1413.75387                     198.85071                    -283.65550
                     424.46024                     -13.46015                     -51.56100
        </DataArray>
        <DataArray type="Float32" Name="Moment" NumberOfComponents="3" format="ascii">
                       0.00000                       0.00000                       0.00000
                       0.00000                       0.00000                       0.00000
                       0.00000                       0.00000                       0.00000
                       0.00000                       0.00000                       0.00000
                      84.21745                     284.33165                     619.06889
                      94.89945                     320.39580                     697.59054
                      94.90509                     320.41485                     697.63202
                      96.83088                     326.91661                     711.78815
                      93.40654                     315.35549                     686.61640
                      88.06164                     297.31027                     647.32694
                      71.58021                     241.66630                     526.17457
                      64.01103                     216.11152                     470.53472
                      55.68675                     188.00742                     409.34431
                      50.01328                     168.85287                     367.63954
                      45.85504                     154.81398                     337.07299
                      43.38287                     146.46753                     318.90045
                      38.68544                     130.60825                     284.37040
                      19.34319                      65.30572                     142.18867
                      17.08420                      57.67901                     125.58322
        </DataArray>
      </PointData>
      <Lines>
        <DataArray type="Int32" Name="connectivity" format="ascii">
      0      1
      1      2
      2      3
      3      4
      4      5
      5      6
      6      7
      7      8
      8      9
      9     10
     10     11
     11     12
     12     13
     13     14
     14     15
     15     16
     16     17
     17     18
        </DataArray>
        <DataArray type="Int32" Name="offsets" format="ascii">
      2
      4
      6
      8
     10
     12
     14
     16
     18
     20
     22
     24
     26
     28
     30
     32
     34
     36
        </DataArray>
      </Lines>
    </Piece>
  </PolyData>
</VTKFile>
