<?xml version="1.0"?>
<VTKFile type="PolyData" version="0.1" byte_order="LittleEndian">
  <PolyData>
    <Piece NumberOfPoints="     19" NumberOfVerts="  0" NumberOfLines="     18"
           NumberOfStrips="  0" NumberOfPolys="      0">
      <Points>
        <DataArray type="Float32" NumberOfComponents="3" format="ascii">
                      -4.93632                       0.24450                      91.47857
                      -4.87907                       0.46386                      92.82634
                      -4.78559                       0.80901                      95.53816
                      -4.70206                       1.10984                      98.25773
                      -4.60361                       1.45943                     101.66191
                      -4.43464                       2.02047                     105.72129
                      -4.24349                       2.70996                     109.75847
                      -4.05466                       3.40198                     113.79533
                      -3.86577                       4.09833                     117.83147
                      -3.67762                       4.79711                     121.86724
                      -3.49151                       5.49471                     125.90330
                      -3.30671                       6.19260                     129.93936
                      -3.12388                       6.89078                     133.97547
                      -2.94374                       7.58919                     138.01165
                      -2.76452                       8.28769                     142.04785
                      -2.61581                       8.86984                     145.41140
                      -2.49751                       9.34335                     148.10093
                      -2.38131                       9.87113                     150.78157
                      -2.32329                      10.09389                     152.12864
        </DataArray>
      </Points>
      <PointData>
        <DataArray type="Float32" Name="TranslationalVelocity" NumberOfComponents="3" format="ascii">
                       0.01116                      -0.77414                       0.12753
                       0.02117                      -1.47975                       0.24195
                       0.03692                      -2.89852                       0.42198
                       0.05065                      -4.32088                       0.57890
                       0.06660                      -6.10101                       0.76125
                       0.09220                      -8.22612                       1.05389
                       0.12367                     -10.34066                       1.41353
                       0.15525                     -12.45493                       1.77449
                       0.18703                     -14.56883                       2.13771
                       0.21891                     -16.68250                       2.50220
                       0.25075                     -18.79623                       2.86607
                       0.28260                     -20.90990                       3.23010
                       0.31446                     -23.02350                       3.59427
                       0.34633                     -25.13701                       3.95857
                       0.37821                     -27.25050                       4.32291
                       0.40477                     -29.01174                       4.62656
                       0.42638                     -30.42001                       4.87355
                       0.45047                     -31.82355                       5.14885
                       0.46063                     -32.52884                       5.26504
        </DataArray>
        <DataArray type="Float32" Name="RotationalVelocity" NumberOfComponents="3" format="ascii">
                       0.52161                      -0.00000                      -0.04563
                       0.52161                      -0.00000                      -0.04563
                       0.52161                      -0.00000                      -0.04563
                       0.52161                      -0.00000                      -0.04563
                       0.52161                      -0.00000                      -0.04563
                       0.52161                      -0.00000                      -0.04563
                       0.52161                      -0.00000                      -0.04563
                       0.52161                      -0.00000                      -0.04563
                       0.52161                      -0.00000                      -0.04563
                       0.52161                      -0.00000                      -0.04563
                       0.52161                      -0.00000                      -0.04563
                       0.52161                      -0.00000                      -0.04563
                       0.52161                      -0.00000                      -0.04563
                       0.52161                      -0.00000                      -0.04563
                       0.52161                      -0.00000                      -0.04563
                       0.52161                      -0.00000                      -0.04563
                       0.52161                      -0.00000                      -0.04563
                       0.52161                      -0.00000                      -0.04563
                       0.52161                      -0.00000                      -0.04563
        </DataArray>
        <DataArray type="Float32" Name="TranslationalAcceleration" NumberOfComponents="3" format="ascii">
                      -0.03533                      -0.06703                      -0.40379
                      -0.06753                      -0.12717                      -0.77185
                      -0.13227                      -0.22179                      -1.51189
                      -0.19718                      -0.30427                      -2.25380
                      -0.27842                      -0.40011                      -3.18233
                      -0.37540                      -0.55392                      -4.29080
                      -0.47189                      -0.74295                      -5.39375
                      -0.56838                      -0.93267                      -6.49657
                      -0.66484                      -1.12358                      -7.59919
                      -0.76130                      -1.31516                      -8.70170
                      -0.85776                      -1.50641                      -9.80423
                      -0.95422                      -1.69774                     -10.90673
                      -1.05067                      -1.88915                     -12.00920
                      -1.14712                      -2.08062                     -13.11163
                      -1.24357                      -2.27212                     -14.21403
                      -1.32394                      -2.43172                     -15.13271
                      -1.38821                      -2.56153                     -15.86727
                      -1.45226                      -2.70623                     -16.59937
                      -1.48444                      -2.76730                     -16.96725
        </DataArray>
        <DataArray type="Float32" Name="OrientationX" NumberOfComponents="3" format="ascii">
                       0.99900                       0.00712                      -0.04420
                       0.99900                       0.00712                      -0.04420
                       0.99900                       0.00712                      -0.04420
                       0.99900                       0.00712                      -0.04420
                       0.99900                       0.00712                      -0.04420
                       0.99900                       0.00712                      -0.04420
                       0.99900                       0.00712                      -0.04420
                       0.99900                       0.00712                      -0.04420
                       0.99900                       0.00712                      -0.04420
                       0.99900                       0.00712                      -0.04420
                       0.99900                       0.00712                      -0.04420
                       0.99900                       0.00712                      -0.04420
                       0.99900                       0.00712                      -0.04420
                       0.99900                       0.00712                      -0.04420
                       0.99900                       0.00712                      -0.04420
                       0.99900                       0.00712                      -0.04420
                       0.99900                       0.00712                      -0.04420
                       0.99900                       0.00712                      -0.04420
                       0.99900                       0.00712                      -0.04420
        </DataArray>
        <DataArray type="Float32" Name="OrientationY" NumberOfComponents="3" format="ascii">
                      -0.01422                       0.98660                      -0.16253
                      -0.01422                       0.98660                      -0.16253
                      -0.01422                       0.98660                      -0.16253
                      -0.01422                       0.98660                      -0.16253
                      -0.01422                       0.98660                      -0.16253
                      -0.01422                       0.98660                      -0.16253
                      -0.01422                       0.98660                      -0.16253
                      -0.01422                       0.98660                      -0.16253
                      -0.01422                       0.98660                      -0.16253
                      -0.01422                       0.98660                      -0.16253
                      -0.01422                       0.98660                      -0.16253
                      -0.01422                       0.98660                      -0.16253
                      -0.01422                       0.98660                      -0.16253
                      -0.01422                       0.98660                      -0.16253
                      -0.01422                       0.98660                      -0.16253
                      -0.01422                       0.98660                      -0.16253
                      -0.01422                       0.98660                      -0.16253
                      -0.01422                       0.98660                      -0.16253
                      -0.01422                       0.98660                      -0.16253
        </DataArray>
        <DataArray type="Float32" Name="OrientationZ" NumberOfComponents="3" format="ascii">
                       0.04245                       0.16300                       0.98571
                       0.04245                       0.16300                       0.98571
                       0.04245                       0.16300                       0.98571
                       0.04245                       0.16300                       0.98571
                       0.04245                       0.16300                       0.98571
                       0.04245                       0.16300                       0.98571
                       0.04245                       0.16300                       0.98571
                       0.04245                       0.16300                       0.98571
                       0.04245                       0.16300                       0.98571
                       0.04245                       0.16300                       0.98571
                       0.04245                       0.16300                       0.98571
                       0.04245                       0.16300                       0.98571
                       0.04245                       0.16300                       0.98571
                       0.04245                       0.16300                       0.98571
                       0.04245                       0.16300                       0.98571
                       0.04245                       0.16300                       0.98571
                       0.04245                       0.16300                       0.98571
                       0.04245                       0.16300                       0.98571
                       0.04245                       0.16300                       0.98571
        </DataArray>
        <DataArray type="Float32" Name="Force" NumberOfComponents="3" format="ascii">
                      -0.00580                       0.40275                      -0.06635
                     158.37688                      18.37518                      -9.85951
                     177.46197                      41.20449                     -14.45655
                     139.86602                      48.58346                     -14.05756
                    1167.02571                    -108.15051                     -32.37758
                    1205.41903                     -95.21175                     -36.17067
                    1366.25069                    -108.73376                     -40.86135
                    1273.22896                     -88.56284                     -40.19058
                    1192.80920                     -61.27276                     -41.23978
                    1270.84033                     -64.88569                     -44.00298
                    1215.10248                     -36.35775                     -46.31988
                    1294.18842                     -59.33987                     -45.92560
                    1386.49928                    -150.98097                     -34.74738
                    1578.26285                    -214.64154                     -32.47927
                    1757.83333                    -268.36099                     -31.32990
                    1935.53488                    -327.18774                     -29.25550
                    1971.31266                    -344.91929                     -27.86427
                    1484.16762                    -261.36434                     -20.70064
                     411.93303                       8.91878                     -19.21595
        </DataArray>
        <DataArray type="Float32" Name="Moment" NumberOfComponents="3" format="ascii">
                       0.00000                       0.00000                       0.00000
                       0.00000                       0.00000                       0.00000
                       0.00000                       0.00000                       0.00000
                       0.00000                       0.00000                       0.00000
                     -33.32193                    -127.94071                    -773.70515
                     -36.69673                    -140.89836                    -852.06488
                     -36.76618                    -141.16501                    -853.67741
                     -37.74417                    -144.92006                    -876.38560
                     -36.89586                    -141.66292                    -856.68846
                     -35.53923                    -136.45411                    -825.18882
                     -30.16156                    -115.80633                    -700.32405
                     -28.24800                    -108.45918                    -655.89307
                     -26.14680                    -100.39152                    -607.10493
                     -23.83018                     -91.49681                    -553.31533
                     -21.25941                     -81.62622                    -493.62417
                     -17.30764                     -66.45326                    -401.86764
                     -14.74319                     -56.60699                    -342.32357
                      -6.91937                     -26.56714                    -160.66141
                      -5.69972                     -21.88426                    -132.34228
        </DataArray>
      </PointData>
      <Lines>
        <DataArray type="Int32" Name="connectivity" format="ascii">
      0      1
      1      2
      2      3
      3      4
      4      5
      5      6
      6      7
      7      8
      8      9
      9     10
     10     11
     11     12
     12     13
     13     14
     14     15
     15     16
     16     17
     17     18
        </DataArray>
        <DataArray type="Int32" Name="offsets" format="ascii">
      2
      4
      6
      8
     10
     12
     14
     16
     18
     20
     22
     24
     26
     28
     30
     32
     34
     36
        </DataArray>
      </Lines>
    </Piece>
  </PolyData>
</VTKFile>
