<?xml version="1.0"?>
<VTKFile type="PolyData" version="0.1" byte_order="LittleEndian">
  <PolyData>
    <Piece NumberOfPoints="     19" NumberOfVerts="  0" NumberOfLines="     18"
           NumberOfStrips="  0" NumberOfPolys="      0">
      <Points>
        <DataArray type="Float32" NumberOfComponents="3" format="ascii">
                      -4.94462                      -0.57638                      91.38374
                      -4.89509                      -1.10470                      92.64322
                      -4.82157                      -2.24833                      95.12688
                      -4.76015                      -3.43316                      97.59385
                      -4.69059                      -4.93885                     100.66767
                      -4.54949                      -6.61447                     104.40856
                      -4.38000                      -8.17048                     108.19813
                      -4.21271                      -9.72407                     111.98880
                      -4.04515                     -11.27361                     115.78115
                      -3.87821                     -12.82086                     119.57447
                      -3.71337                     -14.36916                     123.36744
                      -3.54982                     -15.91716                     127.16059
                      -3.38823                     -17.46485                     130.95394
                      -3.22931                     -19.01226                     134.74752
                      -3.07132                     -20.55956                     138.54118
                      -2.94029                     -21.84892                     141.70265
                      -2.83575                     -22.87307                     144.23483
                      -2.73069                     -23.84641                     146.78815
                      -2.68023                     -24.37153                     148.04883
        </DataArray>
      </Points>
      <PointData>
        <DataArray type="Float32" Name="TranslationalVelocity" NumberOfComponents="3" format="ascii">
                      -0.02630                      -0.72429                      -0.30064
                      -0.05041                      -1.38351                      -0.57622
                      -0.10260                      -2.68235                      -1.17274
                      -0.15667                      -3.97194                      -1.79076
                      -0.22538                      -5.57844                      -2.57613
                      -0.30185                      -7.53615                      -3.45015
                      -0.37286                      -9.52055                      -4.26178
                      -0.44375                     -11.50542                      -5.07214
                      -0.51447                     -13.49118                      -5.88039
                      -0.58508                     -15.47742                      -6.68744
                      -0.65573                     -17.46338                      -7.49505
                      -0.72637                     -19.44937                      -8.30249
                      -0.79700                     -21.43539                      -9.10978
                      -0.86762                     -23.42139                      -9.91692
                      -0.93823                     -25.40740                     -10.72400
                      -0.99707                     -27.06242                     -11.39653
                      -1.04380                     -28.38799                     -11.93074
                      -1.08822                     -29.72462                     -12.43844
                      -1.11219                     -30.38450                     -12.71234
        </DataArray>
        <DataArray type="Float32" Name="RotationalVelocity" NumberOfComponents="3" format="ascii">
                       0.52161                      -0.00000                      -0.04563
                       0.52161                      -0.00000                      -0.04563
                       0.52161                      -0.00000                      -0.04563
                       0.52161                      -0.00000                      -0.04563
                       0.52161                      -0.00000                      -0.04563
                       0.52161                      -0.00000                      -0.04563
                       0.52161                      -0.00000                      -0.04563
                       0.52161                      -0.00000                      -0.04563
                       0.52161                      -0.00000                      -0.04563
                       0.52161                      -0.00000                      -0.04563
                       0.52161                      -0.00000                      -0.04563
                       0.52161                      -0.00000                      -0.04563
                       0.52161                      -0.00000                      -0.04563
                       0.52161                      -0.00000                      -0.04563
                       0.52161                      -0.00000                      -0.04563
                       0.52161                      -0.00000                      -0.04563
                       0.52161                      -0.00000                      -0.04563
                       0.52161                      -0.00000                      -0.04563
                       0.52161                      -0.00000                      -0.04563
        </DataArray>
        <DataArray type="Float32" Name="TranslationalAcceleration" NumberOfComponents="3" format="ascii">
                      -0.03305                       0.15802                      -0.37780
                      -0.06314                       0.30286                      -0.72165
                      -0.12241                       0.61639                      -1.39913
                      -0.18126                       0.94122                      -2.07179
                      -0.25457                       1.35401                      -2.90975
                      -0.34391                       1.81340                      -3.93090
                      -0.43447                       2.23998                      -4.96598
                      -0.52505                       2.66591                      -6.00130
                      -0.61567                       3.09073                      -7.03709
                      -0.70631                       3.51491                      -8.07312
                      -0.79694                       3.93939                      -9.10901
                      -0.88757                       4.36378                     -10.14492
                      -0.97820                       4.78809                     -11.18083
                      -1.06883                       5.21232                     -12.21675
                      -1.15946                       5.63652                     -13.25266
                      -1.23498                       5.99001                     -14.11593
                      -1.29548                       6.27078                     -14.80736
                      -1.35647                       6.53763                     -15.50455
                      -1.38659                       6.68159                     -15.84875
        </DataArray>
        <DataArray type="Float32" Name="OrientationX" NumberOfComponents="3" format="ascii">
                       0.99876                      -0.01678                      -0.04696
                       0.99876                      -0.01678                      -0.04696
                       0.99876                      -0.01678                      -0.04696
                       0.99876                      -0.01678                      -0.04696
                       0.99876                      -0.01678                      -0.04696
                       0.99876                      -0.01678                      -0.04696
                       0.99876                      -0.01678                      -0.04696
                       0.99876                      -0.01678                      -0.04696
                       0.99876                      -0.01678                      -0.04696
                       0.99876                      -0.01678                      -0.04696
                       0.99876                      -0.01678                      -0.04696
                       0.99876                      -0.01678                      -0.04696
                       0.99876                      -0.01678                      -0.04696
                       0.99876                      -0.01678                      -0.04696
                       0.99876                      -0.01678                      -0.04696
                       0.99876                      -0.01678                      -0.04696
                       0.99876                      -0.01678                      -0.04696
                       0.99876                      -0.01678                      -0.04696
                       0.99876                      -0.01678                      -0.04696
        </DataArray>
        <DataArray type="Float32" Name="OrientationY" NumberOfComponents="3" format="ascii">
                       0.03352                       0.92308                       0.38315
                       0.03352                       0.92308                       0.38315
                       0.03352                       0.92308                       0.38315
                       0.03352                       0.92308                       0.38315
                       0.03352                       0.92308                       0.38315
                       0.03352                       0.92308                       0.38315
                       0.03352                       0.92308                       0.38315
                       0.03352                       0.92308                       0.38315
                       0.03352                       0.92308                       0.38315
                       0.03352                       0.92308                       0.38315
                       0.03352                       0.92308                       0.38315
                       0.03352                       0.92308                       0.38315
                       0.03352                       0.92308                       0.38315
                       0.03352                       0.92308                       0.38315
                       0.03352                       0.92308                       0.38315
                       0.03352                       0.92308                       0.38315
                       0.03352                       0.92308                       0.38315
                       0.03352                       0.92308                       0.38315
                       0.03352                       0.92308                       0.38315
        </DataArray>
        <DataArray type="Float32" Name="OrientationZ" NumberOfComponents="3" format="ascii">
                       0.03692                      -0.38425                       0.92249
                       0.03692                      -0.38425                       0.92249
                       0.03692                      -0.38425                       0.92249
                       0.03692                      -0.38425                       0.92249
                       0.03692                      -0.38425                       0.92249
                       0.03692                      -0.38425                       0.92249
                       0.03692                      -0.38425                       0.92249
                       0.03692                      -0.38425                       0.92249
                       0.03692                      -0.38425                       0.92249
                       0.03692                      -0.38425                       0.92249
                       0.03692                      -0.38425                       0.92249
                       0.03692                      -0.38425                       0.92249
                       0.03692                      -0.38425                       0.92249
                       0.03692                      -0.38425                       0.92249
                       0.03692                      -0.38425                       0.92249
                       0.03692                      -0.38425                       0.92249
                       0.03692                      -0.38425                       0.92249
                       0.03692                      -0.38425                       0.92249
                       0.03692                      -0.38425                       0.92249
        </DataArray>
        <DataArray type="Float32" Name="Force" NumberOfComponents="3" format="ascii">
                       0.05133                       1.41350                       0.58672
                     160.23121                      20.59138                       2.16404
                     181.28771                      42.66841                      10.51719
                     144.14387                      49.04284                      14.65901
                    1218.26649                    -136.17610                    -105.48189
                    1249.38455                    -122.64295                    -101.09028
                    1413.56554                    -139.43675                    -114.65665
                    1305.92733                    -115.04650                    -100.18912
                    1221.90672                     -86.51394                     -84.94144
                    1303.49322                     -93.30438                     -91.03530
                    1244.49806                     -64.73641                     -76.77447
                    1337.83497                     -96.28520                     -93.65140
                    1456.65740                    -192.91299                    -138.65619
                    1651.60508                    -257.40216                    -173.32085
                    1845.35324                    -316.78465                    -205.81039
                    2014.78825                    -373.41104                    -236.17880
                    2034.10833                    -384.82939                    -241.70823
                    1523.85284                    -288.49404                    -181.15868
                     428.22439                      -1.37276                     -17.71090
        </DataArray>
        <DataArray type="Float32" Name="Moment" NumberOfComponents="3" format="ascii">
                       0.00000                       0.00000                       0.00000
                       0.00000                       0.00000                       0.00000
                       0.00000                       0.00000                       0.00000
                       0.00000                       0.00000                       0.00000
                     -29.04372                     302.26622                    -725.66416
                     -32.22940                     335.42050                    -805.25914
                     -32.40700                     337.26884                    -809.69652
                     -33.33777                     346.95564                    -832.95207
                     -32.66833                     339.98860                    -816.22598
                     -31.48462                     327.66941                    -786.65073
                     -26.65116                     277.36621                    -665.88559
                     -24.86488                     258.77587                    -621.25490
                     -23.05333                     239.92254                    -575.99287
                     -21.00002                     218.55319                    -524.69052
                     -18.11935                     188.57324                    -452.71628
                     -15.19483                     158.13693                    -379.64647
                     -12.98413                     135.12952                    -324.41154
                      -6.06571                      63.12753                    -151.55311
                      -5.15074                      53.60524                    -128.69252
        </DataArray>
      </PointData>
      <Lines>
        <DataArray type="Int32" Name="connectivity" format="ascii">
      0      1
      1      2
      2      3
      3      4
      4      5
      5      6
      6      7
      7      8
      8      9
      9     10
     10     11
     11     12
     12     13
     13     14
     14     15
     15     16
     16     17
     17     18
        </DataArray>
        <DataArray type="Int32" Name="offsets" format="ascii">
      2
      4
      6
      8
     10
     12
     14
     16
     18
     20
     22
     24
     26
     28
     30
     32
     34
     36
        </DataArray>
      </Lines>
    </Piece>
  </PolyData>
</VTKFile>
