<?xml version="1.0"?>
<VTKFile type="PolyData" version="0.1" byte_order="LittleEndian">
  <PolyData>
    <Piece NumberOfPoints="     19" NumberOfVerts="  0" NumberOfLines="     18"
           NumberOfStrips="  0" NumberOfPolys="      0">
      <Points>
        <DataArray type="Float32" NumberOfComponents="3" format="ascii">
                      -5.09270                       1.46492                      89.69112
                      -5.17769                       2.80035                      89.41312
                      -5.36185                       5.49011                      88.95148
                      -5.55273                       8.18887                      88.53453
                      -5.79537                      11.56776                      88.04002
                      -6.04610                      15.59449                      87.30219
                      -6.28399                      19.59485                      86.43543
                      -6.52437                      23.59457                      85.56637
                      -6.76500                      27.59337                      84.69303
                      -7.00656                      31.59162                      83.81735
                      -7.25004                      35.59003                      82.94302
                      -7.49487                      39.58832                      82.06851
                      -7.74167                      43.58647                      81.19391
                      -7.99116                      47.58444                      80.31931
                      -8.24159                      51.58236                      79.44470
                      -8.45092                      54.91394                      78.71586
                      -8.61960                      57.57746                      78.12514
                      -8.79428                      60.22933                      77.48097
                      -8.87874                      61.56397                      77.19956
        </DataArray>
      </Points>
      <PointData>
        <DataArray type="Float32" Name="TranslationalVelocity" NumberOfComponents="3" format="ascii">
                       0.06685                       0.16535                       0.76411
                       0.12779                       0.31423                       1.46068
                       0.25054                       0.56343                       2.86368
                       0.37370                       0.78962                       4.27136
                       0.52789                       1.05864                       6.03381
                       0.71165                       1.45493                       8.13418
                       0.89420                       1.91790                      10.22080
                       1.07673                       2.38218                      12.30708
                       1.25921                       2.84870                      14.39288
                       1.44167                       3.31648                      16.47839
                       1.62414                       3.78365                      18.56399
                       1.80660                       4.25097                      20.64952
                       1.98905                       4.71843                      22.73498
                       2.17150                       5.18601                      24.82035
                       2.35394                       5.65364                      26.90568
                       2.50598                       6.04336                      28.64346
                       2.62753                       6.35918                      30.03277
                       2.74854                       6.70316                      31.41600
                       2.80945                       6.85380                      32.11216
        </DataArray>
        <DataArray type="Float32" Name="RotationalVelocity" NumberOfComponents="3" format="ascii">
                       0.52161                      -0.00000                      -0.04563
                       0.52161                      -0.00000                      -0.04563
                       0.52161                      -0.00000                      -0.04563
                       0.52161                      -0.00000                      -0.04563
                       0.52161                      -0.00000                      -0.04563
                       0.52161                      -0.00000                      -0.04563
                       0.52161                      -0.00000                      -0.04563
                       0.52161                      -0.00000                      -0.04563
                       0.52161                      -0.00000                      -0.04563
                       0.52161                      -0.00000                      -0.04563
                       0.52161                      -0.00000                      -0.04563
                       0.52161                      -0.00000                      -0.04563
                       0.52161                      -0.00000                      -0.04563
                       0.52161                      -0.00000                      -0.04563
                       0.52161                      -0.00000                      -0.04563
                       0.52161                      -0.00000                      -0.04563
                       0.52161                      -0.00000                      -0.04563
                       0.52161                      -0.00000                      -0.04563
                       0.52161                      -0.00000                      -0.04563
        </DataArray>
        <DataArray type="Float32" Name="TranslationalAcceleration" NumberOfComponents="3" format="ascii">
                       0.00755                      -0.40162                       0.08625
                       0.01434                      -0.76773                       0.16391
                       0.02571                      -1.50515                       0.29389
                       0.03603                      -2.24502                       0.41187
                       0.04831                      -3.17137                       0.55219
                       0.06640                      -4.27532                       0.75890
                       0.08752                      -5.37204                       1.00039
                       0.10871                      -6.46859                       1.24256
                       0.13000                      -7.56488                       1.48590
                       0.15135                      -8.66102                       1.72990
                       0.17267                      -9.75721                       1.97358
                       0.19399                     -10.85336                       2.21733
                       0.21532                     -11.94948                       2.46116
                       0.23666                     -13.04554                       2.70506
                       0.25800                     -14.14160                       2.94897
                       0.27579                     -15.05497                       3.15226
                       0.29020                     -15.78519                       3.31699
                       0.30590                     -16.51221                       3.49641
                       0.31277                     -16.87811                       3.57499
        </DataArray>
        <DataArray type="Float32" Name="OrientationX" NumberOfComponents="3" format="ascii">
                       0.99445                       0.04264                      -0.09623
                       0.99445                       0.04264                      -0.09623
                       0.99445                       0.04264                      -0.09623
                       0.99445                       0.04264                      -0.09623
                       0.99445                       0.04264                      -0.09623
                       0.99445                       0.04264                      -0.09623
                       0.99445                       0.04264                      -0.09623
                       0.99445                       0.04264                      -0.09623
                       0.99445                       0.04264                      -0.09623
                       0.99445                       0.04264                      -0.09623
                       0.99445                       0.04264                      -0.09623
                       0.99445                       0.04264                      -0.09623
                       0.99445                       0.04264                      -0.09623
                       0.99445                       0.04264                      -0.09623
                       0.99445                       0.04264                      -0.09623
                       0.99445                       0.04264                      -0.09623
                       0.99445                       0.04264                      -0.09623
                       0.99445                       0.04264                      -0.09623
                       0.99445                       0.04264                      -0.09623
        </DataArray>
        <DataArray type="Float32" Name="OrientationY" NumberOfComponents="3" format="ascii">
                      -0.08520                      -0.21073                      -0.97382
                      -0.08520                      -0.21073                      -0.97382
                      -0.08520                      -0.21073                      -0.97382
                      -0.08520                      -0.21073                      -0.97382
                      -0.08520                      -0.21073                      -0.97382
                      -0.08520                      -0.21073                      -0.97382
                      -0.08520                      -0.21073                      -0.97382
                      -0.08520                      -0.21073                      -0.97382
                      -0.08520                      -0.21073                      -0.97382
                      -0.08520                      -0.21073                      -0.97382
                      -0.08520                      -0.21073                      -0.97382
                      -0.08520                      -0.21073                      -0.97382
                      -0.08520                      -0.21073                      -0.97382
                      -0.08520                      -0.21073                      -0.97382
                      -0.08520                      -0.21073                      -0.97382
                      -0.08520                      -0.21073                      -0.97382
                      -0.08520                      -0.21073                      -0.97382
                      -0.08520                      -0.21073                      -0.97382
                      -0.08520                      -0.21073                      -0.97382
        </DataArray>
        <DataArray type="Float32" Name="OrientationZ" NumberOfComponents="3" format="ascii">
                      -0.06180                       0.97661                      -0.20592
                      -0.06180                       0.97661                      -0.20592
                      -0.06180                       0.97661                      -0.20592
                      -0.06180                       0.97661                      -0.20592
                      -0.06180                       0.97661                      -0.20592
                      -0.06180                       0.97661                      -0.20592
                      -0.06180                       0.97661                      -0.20592
                      -0.06180                       0.97661                      -0.20592
                      -0.06180                       0.97661                      -0.20592
                      -0.06180                       0.97661                      -0.20592
                      -0.06180                       0.97661                      -0.20592
                      -0.06180                       0.97661                      -0.20592
                      -0.06180                       0.97661                      -0.20592
                      -0.06180                       0.97661                      -0.20592
                      -0.06180                       0.97661                      -0.20592
                      -0.06180                       0.97661                      -0.20592
                      -0.06180                       0.97661                      -0.20592
                      -0.06180                       0.97661                      -0.20592
                      -0.06180                       0.97661                      -0.20592
        </DataArray>
        <DataArray type="Float32" Name="Force" NumberOfComponents="3" format="ascii">
                       0.00519                       0.01284                       0.05935
                     152.64696                       5.26828                     -20.82715
                     166.49833                       1.60958                     -42.33593
                     129.47270                      -2.00527                     -48.36754
                    1037.07605                      66.12250                       2.34436
                    1079.35170                      65.68131                     -12.43583
                    1216.69732                      74.26261                     -12.95843
                    1132.01943                      66.76124                     -23.12078
                    1059.16083                      58.38026                     -41.00197
                    1148.76175                      66.04093                     -31.56162
                    1137.59195                      63.65180                     -39.54003
                    1271.05517                      78.54120                      -8.98073
                    1401.97592                     105.01343                      77.27420
                    1711.60859                     136.56561                     133.98623
                    1841.99341                     149.99158                     158.52896
                    1989.41833                     161.37375                     168.26471
                    1941.38960                     157.99694                     166.66430
                    1402.99145                     112.31817                     111.61282
                     389.77127                      15.51756                     -43.38482
        </DataArray>
        <DataArray type="Float32" Name="Moment" NumberOfComponents="3" format="ascii">
                       0.00000                       0.00000                       0.00000
                       0.00000                       0.00000                       0.00000
                       0.00000                       0.00000                       0.00000
                       0.00000                       0.00000                       0.00000
                      46.20097                    -730.08144                     153.94154
                      49.38902                    -780.46007                     164.56414
                      48.39510                    -764.75379                     161.25239
                      48.98793                    -774.12178                     163.22768
                      47.36617                    -748.49436                     157.82400
                      45.42180                    -717.76880                     151.34536
                      40.89541                    -646.24145                     136.26343
                      40.23836                    -635.85852                     134.07414
                      32.78568                    -518.08902                     109.24182
                      31.90019                    -504.09631                     106.29138
                      24.40067                    -385.58662                      81.30298
                      23.91092                    -377.84744                      79.67114
                      18.82241                    -297.43725                      62.71622
                       9.29718                    -146.91688                      30.97820
                       7.89551                    -124.76724                      26.30783
        </DataArray>
      </PointData>
      <Lines>
        <DataArray type="Int32" Name="connectivity" format="ascii">
      0      1
      1      2
      2      3
      3      4
      4      5
      5      6
      6      7
      7      8
      8      9
      9     10
     10     11
     11     12
     12     13
     13     14
     14     15
     15     16
     16     17
     17     18
        </DataArray>
        <DataArray type="Int32" Name="offsets" format="ascii">
      2
      4
      6
      8
     10
     12
     14
     16
     18
     20
     22
     24
     26
     28
     30
     32
     34
     36
        </DataArray>
      </Lines>
    </Piece>
  </PolyData>
</VTKFile>
