<?xml version="1.0"?>
<VTKFile type="PolyData" version="0.1" byte_order="LittleEndian">
  <PolyData>
    <Piece NumberOfPoints="     19" NumberOfVerts="  0" NumberOfLines="     18"
           NumberOfStrips="  0" NumberOfPolys="      0">
      <Points>
        <DataArray type="Float32" NumberOfComponents="3" format="ascii">
                      -5.14700                       1.16806                      89.07047
                      -5.28152                       2.23445                      88.22631
                      -5.56634                       4.42569                      86.61413
                      -5.85864                       6.64467                      85.03797
                      -6.22850                       9.43501                      83.08925
                      -6.62952                      12.69555                      80.63366
                      -7.01549                      15.87545                      78.07437
                      -7.40390                      19.05366                      75.51333
                      -7.79249                      22.22913                      72.94887
                      -8.18195                      25.40302                      70.38257
                      -8.57336                      28.57759                      67.81743
                      -8.96611                      31.75192                      65.25220
                      -9.36082                      34.92599                      62.68695
                      -9.75821                      38.09981                      60.12182
                     -10.15654                      41.27354                      57.55672
                     -10.48912                      43.91827                      55.41913
                     -10.75626                      46.02904                      53.70302
                     -11.02845                      48.10530                      51.94434
                     -11.16237                      49.16947                      51.09747
        </DataArray>
      </Points>
      <PointData>
        <DataArray type="Float32" Name="TranslationalVelocity" NumberOfComponents="3" format="ascii">
                       0.05330                       0.49156                       0.60927
                       0.10197                       0.93802                       1.16550
                       0.20196                       1.79194                       2.30847
                       0.30323                       2.62741                       3.46590
                       0.43056                       3.66076                       4.92136
                       0.57936                       4.95990                       6.62208
                       0.72447                       6.31246                       8.28074
                       0.86951                       7.66604                       9.93851
                       1.01442                       9.02141                      11.59486
                       1.15926                      10.37778                      13.25038
                       1.30413                      11.73364                      14.90625
                       1.44899                      13.08960                      16.56200
                       1.59383                      14.44566                      18.21762
                       1.73867                      15.80179                      19.87310
                       1.88350                      17.15794                      21.52854
                       2.00419                      18.28809                      22.90805
                       2.10052                      19.19542                      24.00904
                       2.19527                      20.12518                      25.09203
                       2.24383                      20.57302                      25.64711
        </DataArray>
        <DataArray type="Float32" Name="RotationalVelocity" NumberOfComponents="3" format="ascii">
                       0.52161                      -0.00000                      -0.04563
                       0.52161                      -0.00000                      -0.04563
                       0.52161                      -0.00000                      -0.04563
                       0.52161                      -0.00000                      -0.04563
                       0.52161                      -0.00000                      -0.04563
                       0.52161                      -0.00000                      -0.04563
                       0.52161                      -0.00000                      -0.04563
                       0.52161                      -0.00000                      -0.04563
                       0.52161                      -0.00000                      -0.04563
                       0.52161                      -0.00000                      -0.04563
                       0.52161                      -0.00000                      -0.04563
                       0.52161                      -0.00000                      -0.04563
                       0.52161                      -0.00000                      -0.04563
                       0.52161                      -0.00000                      -0.04563
                       0.52161                      -0.00000                      -0.04563
                       0.52161                      -0.00000                      -0.04563
                       0.52161                      -0.00000                      -0.04563
                       0.52161                      -0.00000                      -0.04563
                       0.52161                      -0.00000                      -0.04563
        </DataArray>
        <DataArray type="Float32" Name="TranslationalAcceleration" NumberOfComponents="3" format="ascii">
                       0.02243                      -0.32023                       0.25640
                       0.04281                      -0.61259                       0.48927
                       0.08177                      -1.21333                       0.93469
                       0.11990                      -1.82167                       1.37047
                       0.16706                      -2.58666                       1.90947
                       0.22634                      -3.48056                       2.58712
                       0.28807                      -4.35235                       3.29262
                       0.34984                      -5.22367                       3.99866
                       0.41169                      -6.09424                       4.70563
                       0.47359                      -6.96438                       5.41312
                       0.53546                      -7.83471                       6.12034
                       0.59734                      -8.70497                       6.82762
                       0.65922                      -9.57516                       7.53495
                       0.72111                     -10.44528                       8.24231
                       0.78300                     -11.31537                       8.94969
                       0.83457                     -12.04044                       9.53919
                       0.87598                     -12.61912                      10.01245
                       0.91841                     -13.18834                      10.49742
                       0.93884                     -13.48009                      10.73102
        </DataArray>
        <DataArray type="Float32" Name="OrientationX" NumberOfComponents="3" format="ascii">
                       0.99286                       0.03400                      -0.11429
                       0.99286                       0.03400                      -0.11429
                       0.99286                       0.03400                      -0.11429
                       0.99286                       0.03400                      -0.11429
                       0.99286                       0.03400                      -0.11429
                       0.99286                       0.03400                      -0.11429
                       0.99286                       0.03400                      -0.11429
                       0.99286                       0.03400                      -0.11429
                       0.99286                       0.03400                      -0.11429
                       0.99286                       0.03400                      -0.11429
                       0.99286                       0.03400                      -0.11429
                       0.99286                       0.03400                      -0.11429
                       0.99286                       0.03400                      -0.11429
                       0.99286                       0.03400                      -0.11429
                       0.99286                       0.03400                      -0.11429
                       0.99286                       0.03400                      -0.11429
                       0.99286                       0.03400                      -0.11429
                       0.99286                       0.03400                      -0.11429
                       0.99286                       0.03400                      -0.11429
        </DataArray>
        <DataArray type="Float32" Name="OrientationY" NumberOfComponents="3" format="ascii">
                      -0.06793                      -0.62647                      -0.77648
                      -0.06793                      -0.62647                      -0.77648
                      -0.06793                      -0.62647                      -0.77648
                      -0.06793                      -0.62647                      -0.77648
                      -0.06793                      -0.62647                      -0.77648
                      -0.06793                      -0.62647                      -0.77648
                      -0.06793                      -0.62647                      -0.77648
                      -0.06793                      -0.62647                      -0.77648
                      -0.06793                      -0.62647                      -0.77648
                      -0.06793                      -0.62647                      -0.77648
                      -0.06793                      -0.62647                      -0.77648
                      -0.06793                      -0.62647                      -0.77648
                      -0.06793                      -0.62647                      -0.77648
                      -0.06793                      -0.62647                      -0.77648
                      -0.06793                      -0.62647                      -0.77648
                      -0.06793                      -0.62647                      -0.77648
                      -0.06793                      -0.62647                      -0.77648
                      -0.06793                      -0.62647                      -0.77648
                      -0.06793                      -0.62647                      -0.77648
        </DataArray>
        <DataArray type="Float32" Name="OrientationZ" NumberOfComponents="3" format="ascii">
                      -0.09800                       0.77871                      -0.61969
                      -0.09800                       0.77871                      -0.61969
                      -0.09800                       0.77871                      -0.61969
                      -0.09800                       0.77871                      -0.61969
                      -0.09800                       0.77871                      -0.61969
                      -0.09800                       0.77871                      -0.61969
                      -0.09800                       0.77871                      -0.61969
                      -0.09800                       0.77871                      -0.61969
                      -0.09800                       0.77871                      -0.61969
                      -0.09800                       0.77871                      -0.61969
                      -0.09800                       0.77871                      -0.61969
                      -0.09800                       0.77871                      -0.61969
                      -0.09800                       0.77871                      -0.61969
                      -0.09800                       0.77871                      -0.61969
                      -0.09800                       0.77871                      -0.61969
                      -0.09800                       0.77871                      -0.61969
                      -0.09800                       0.77871                      -0.61969
                      -0.09800                       0.77871                      -0.61969
                      -0.09800                       0.77871                      -0.61969
        </DataArray>
        <DataArray type="Float32" Name="Force" NumberOfComponents="3" format="ascii">
                       0.00041                       0.00376                       0.00466
                     134.32619                       2.55267                     -18.03554
                     159.23717                      -8.37408                     -35.70579
                     127.14259                     -17.54623                     -42.15593
                    1019.70065                      99.48563                     -36.24790
                    1064.45044                      94.33888                     -49.79238
                    1196.13579                     106.64433                     -55.15486
                    1172.89586                      97.83793                     -62.54574
                    1085.96634                      74.12921                     -78.59070
                    1111.46604                      79.29166                     -76.13621
                    1079.12506                      84.20271                     -64.85032
                    1232.66469                     138.26375                     -21.19856
                    1520.07432                     218.22247                      33.82533
                    1796.42487                     266.54847                      50.84825
                    1882.96767                     284.33994                      59.51869
                    1965.65063                     294.69618                      59.45638
                    1907.87815                     277.34652                      46.79119
                    1412.29671                     203.92968                      32.90957
                     395.54638                       9.88448                     -50.13347
        </DataArray>
        <DataArray type="Float32" Name="Moment" NumberOfComponents="3" format="ascii">
                       0.00000                       0.00000                       0.00000
                       0.00000                       0.00000                       0.00000
                       0.00000                       0.00000                       0.00000
                       0.00000                       0.00000                       0.00000
                      71.49811                    -568.11229                     452.09968
                      76.31274                    -606.36850                     482.54370
                      74.61851                    -592.90646                     471.83071
                      85.39780                    -678.55695                     539.99075
                      80.94807                    -643.20012                     511.85404
                      70.98306                    -564.01979                     448.84290
                      57.67468                    -458.27352                     364.69078
                      52.18768                    -414.67479                     329.99522
                      50.40571                    -400.51553                     318.72738
                      47.50455                    -377.46337                     300.38264
                      35.93958                    -285.57004                     227.25459
                      33.86853                    -269.11377                     214.15881
                      31.35860                    -249.17031                     198.28795
                      15.93788                    -126.63980                     100.77904
                      12.72276                    -101.09295                      80.44904
        </DataArray>
      </PointData>
      <Lines>
        <DataArray type="Int32" Name="connectivity" format="ascii">
      0      1
      1      2
      2      3
      3      4
      4      5
      5      6
      6      7
      7      8
      8      9
      9     10
     10     11
     11     12
     12     13
     13     14
     14     15
     15     16
     16     17
     17     18
        </DataArray>
        <DataArray type="Int32" Name="offsets" format="ascii">
      2
      4
      6
      8
     10
     12
     14
     16
     18
     20
     22
     24
     26
     28
     30
     32
     34
     36
        </DataArray>
      </Lines>
    </Piece>
  </PolyData>
</VTKFile>
