<?xml version="1.0"?>
<VTKFile type="PolyData" version="0.1" byte_order="LittleEndian">
  <PolyData>
    <Piece NumberOfPoints="     19" NumberOfVerts="  0" NumberOfLines="     18"
           NumberOfStrips="  0" NumberOfPolys="      0">
      <Points>
        <DataArray type="Float32" NumberOfComponents="3" format="ascii">
                      -5.13069                       1.29643                      89.25690
                      -5.25032                       2.47934                      88.58290
                      -5.50467                       4.89173                      87.31897
                      -5.76618                       7.32620                      86.09483
                      -6.09734                      10.38256                      84.58840
                      -6.45297                      13.98038                      82.65163
                      -6.79451                      17.51389                      80.60018
                      -7.13851                      21.04601                      78.54677
                      -7.48272                      24.57595                      76.48955
                      -7.82782                      28.10461                      74.43029
                      -8.17487                      31.63380                      72.37227
                      -8.52324                      35.16278                      70.31412
                      -8.87360                      38.69153                      68.25593
                      -9.22663                      42.22006                      66.19781
                      -9.58060                      45.74850                      64.13971
                      -9.87622                      48.68884                      62.42462
                     -10.11385                      51.03707                      61.04582
                     -10.35693                      53.35765                      59.61975
                     -10.47600                      54.53878                      58.94274
        </DataArray>
      </Points>
      <PointData>
        <DataArray type="Float32" Name="TranslationalVelocity" NumberOfComponents="3" format="ascii">
                       0.05916                       0.39357                       0.67622
                       0.11314                       0.75059                       1.29324
                       0.22323                       1.42148                       2.55156
                       0.33433                       2.07193                       3.82139
                       0.47380                       2.87280                       5.41561
                       0.63799                       3.89926                       7.29225
                       0.79924                       4.98490                       9.13535
                       0.96043                       6.07167                      10.97773
                       1.12151                       7.16043                      12.81897
                       1.28254                       8.25031                      14.65954
                       1.44360                       9.33962                      16.50039
                       1.60464                      10.42906                      18.34113
                       1.76567                      11.51862                      20.18175
                       1.92670                      12.60825                      22.02225
                       2.08772                      13.69793                      23.86271
                       2.22190                      14.60602                      25.39640
                       2.32906                      15.33605                      26.62126
                       2.43496                      16.09099                      27.83169
                       2.48886                      16.44956                      28.44777
        </DataArray>
        <DataArray type="Float32" Name="RotationalVelocity" NumberOfComponents="3" format="ascii">
                       0.52161                      -0.00000                      -0.04563
                       0.52161                      -0.00000                      -0.04563
                       0.52161                      -0.00000                      -0.04563
                       0.52161                      -0.00000                      -0.04563
                       0.52161                      -0.00000                      -0.04563
                       0.52161                      -0.00000                      -0.04563
                       0.52161                      -0.00000                      -0.04563
                       0.52161                      -0.00000                      -0.04563
                       0.52161                      -0.00000                      -0.04563
                       0.52161                      -0.00000                      -0.04563
                       0.52161                      -0.00000                      -0.04563
                       0.52161                      -0.00000                      -0.04563
                       0.52161                      -0.00000                      -0.04563
                       0.52161                      -0.00000                      -0.04563
                       0.52161                      -0.00000                      -0.04563
                       0.52161                      -0.00000                      -0.04563
                       0.52161                      -0.00000                      -0.04563
                       0.52161                      -0.00000                      -0.04563
                       0.52161                      -0.00000                      -0.04563
        </DataArray>
        <DataArray type="Float32" Name="TranslationalAcceleration" NumberOfComponents="3" format="ascii">
                       0.01796                      -0.35542                       0.20529
                       0.03425                      -0.67973                       0.39151
                       0.06487                      -1.34110                       0.74145
                       0.09455                      -2.00852                       1.08073
                       0.13110                      -2.84644                       1.49847
                       0.17794                      -3.83280                       2.03388
                       0.22748                      -4.80153                       2.60015
                       0.27708                      -5.76988                       3.16702
                       0.32676                      -6.73764                       3.73493
                       0.37650                      -7.70504                       4.30341
                       0.42621                      -8.67259                       4.87161
                       0.47593                      -9.64008                       5.43987
                       0.52565                     -10.60750                       6.00818
                       0.57537                     -11.57487                       6.57654
                       0.62510                     -12.54221                       7.14492
                       0.66654                     -13.34832                       7.61859
                       0.69986                     -13.99210                       7.99938
                       0.73431                     -14.62830                       8.39316
                       0.75067                     -14.95212                       8.58020
        </DataArray>
        <DataArray type="Float32" Name="OrientationX" NumberOfComponents="3" format="ascii">
                       0.99334                       0.03774                      -0.10887
                       0.99334                       0.03774                      -0.10887
                       0.99334                       0.03774                      -0.10887
                       0.99334                       0.03774                      -0.10887
                       0.99334                       0.03774                      -0.10887
                       0.99334                       0.03774                      -0.10887
                       0.99334                       0.03774                      -0.10887
                       0.99334                       0.03774                      -0.10887
                       0.99334                       0.03774                      -0.10887
                       0.99334                       0.03774                      -0.10887
                       0.99334                       0.03774                      -0.10887
                       0.99334                       0.03774                      -0.10887
                       0.99334                       0.03774                      -0.10887
                       0.99334                       0.03774                      -0.10887
                       0.99334                       0.03774                      -0.10887
                       0.99334                       0.03774                      -0.10887
                       0.99334                       0.03774                      -0.10887
                       0.99334                       0.03774                      -0.10887
                       0.99334                       0.03774                      -0.10887
        </DataArray>
        <DataArray type="Float32" Name="OrientationY" NumberOfComponents="3" format="ascii">
                      -0.07540                      -0.50159                      -0.86182
                      -0.07540                      -0.50159                      -0.86182
                      -0.07540                      -0.50159                      -0.86182
                      -0.07540                      -0.50159                      -0.86182
                      -0.07540                      -0.50159                      -0.86182
                      -0.07540                      -0.50159                      -0.86182
                      -0.07540                      -0.50159                      -0.86182
                      -0.07540                      -0.50159                      -0.86182
                      -0.07540                      -0.50159                      -0.86182
                      -0.07540                      -0.50159                      -0.86182
                      -0.07540                      -0.50159                      -0.86182
                      -0.07540                      -0.50159                      -0.86182
                      -0.07540                      -0.50159                      -0.86182
                      -0.07540                      -0.50159                      -0.86182
                      -0.07540                      -0.50159                      -0.86182
                      -0.07540                      -0.50159                      -0.86182
                      -0.07540                      -0.50159                      -0.86182
                      -0.07540                      -0.50159                      -0.86182
                      -0.07540                      -0.50159                      -0.86182
        </DataArray>
        <DataArray type="Float32" Name="OrientationZ" NumberOfComponents="3" format="ascii">
                      -0.08713                       0.86428                      -0.49540
                      -0.08713                       0.86428                      -0.49540
                      -0.08713                       0.86428                      -0.49540
                      -0.08713                       0.86428                      -0.49540
                      -0.08713                       0.86428                      -0.49540
                      -0.08713                       0.86428                      -0.49540
                      -0.08713                       0.86428                      -0.49540
                      -0.08713                       0.86428                      -0.49540
                      -0.08713                       0.86428                      -0.49540
                      -0.08713                       0.86428                      -0.49540
                      -0.08713                       0.86428                      -0.49540
                      -0.08713                       0.86428                      -0.49540
                      -0.08713                       0.86428                      -0.49540
                      -0.08713                       0.86428                      -0.49540
                      -0.08713                       0.86428                      -0.49540
                      -0.08713                       0.86428                      -0.49540
                      -0.08713                       0.86428                      -0.49540
                      -0.08713                       0.86428                      -0.49540
                      -0.08713                       0.86428                      -0.49540
        </DataArray>
        <DataArray type="Float32" Name="Force" NumberOfComponents="3" format="ascii">
                       0.00143                       0.00954                       0.01638
                     142.05860                       3.04328                     -19.67502
                     162.66454                      -5.21143                     -37.70039
                     128.70531                     -12.77200                     -44.91814
                    1025.76100                      90.75028                     -22.07989
                    1068.03471                      86.92584                     -36.18690
                    1200.93424                      98.24476                     -39.81325
                    1137.74800                      86.11878                     -49.85566
                    1053.08685                      69.46032                     -64.02863
                    1106.53383                      75.67430                     -62.58753
                    1074.98400                      75.19209                     -57.88001
                    1261.07772                     126.87410                      -0.44366
                    1528.76713                     182.28617                      49.14970
                    1714.74892                     221.58244                      84.99736
                    1904.77342                     252.96458                     106.32688
                    1985.84136                     255.80500                      97.02461
                    1913.47332                     246.83933                      94.11058
                    1409.52549                     179.42103                      65.12261
                     393.23197                      12.03165                     -48.16855
        </DataArray>
        <DataArray type="Float32" Name="Moment" NumberOfComponents="3" format="ascii">
                       0.00000                       0.00000                       0.00000
                       0.00000                       0.00000                       0.00000
                       0.00000                       0.00000                       0.00000
                       0.00000                       0.00000                       0.00000
                      64.14848                    -636.33477                     364.74160
                      68.35690                    -678.08108                     388.67022
                      66.85966                    -663.22894                     380.15711
                      70.70136                    -701.33745                     402.00057
                      66.69965                    -661.64166                     379.24729
                      62.21129                    -617.11842                     353.72696
                      51.81231                    -513.96341                     294.59939
                      48.06429                    -476.78412                     273.28854
                      51.81547                    -513.99478                     294.61737
                      37.60850                    -373.06567                     213.83802
                      33.38357                    -331.15559                     189.81553
                      32.74281                    -324.79942                     186.17223
                      26.26016                    -260.49334                     149.31254
                      13.61514                    -135.05831                      77.41426
                      11.24079                    -111.50544                      63.91396
        </DataArray>
      </PointData>
      <Lines>
        <DataArray type="Int32" Name="connectivity" format="ascii">
      0      1
      1      2
      2      3
      3      4
      4      5
      5      6
      6      7
      7      8
      8      9
      9     10
     10     11
     11     12
     12     13
     13     14
     14     15
     15     16
     16     17
     17     18
        </DataArray>
        <DataArray type="Int32" Name="offsets" format="ascii">
      2
      4
      6
      8
     10
     12
     14
     16
     18
     20
     22
     24
     26
     28
     30
     32
     34
     36
        </DataArray>
      </Lines>
    </Piece>
  </PolyData>
</VTKFile>
