<?xml version="1.0"?>
<VTKFile type="PolyData" version="0.1" byte_order="LittleEndian">
  <PolyData>
    <Piece NumberOfPoints="     19" NumberOfVerts="  0" NumberOfLines="     18"
           NumberOfStrips="  0" NumberOfPolys="      0">
      <Points>
        <DataArray type="Float32" NumberOfComponents="3" format="ascii">
                      -5.15990                       1.03183                      88.92309
                      -5.30619                       1.97445                      87.94433
                      -5.61530                       3.92759                      86.05449
                      -5.93225                       5.91293                      84.19665
                      -6.33312                       8.41388                      81.89343
                      -6.77025                      11.31283                      79.02518
                      -7.19129                      14.11821                      76.06489
                      -7.61477                      16.92165                      73.10310
                      -8.03838                      19.72191                      70.13829
                      -8.46285                      22.52036                      67.17186
                      -8.88928                      25.31961                      64.20649
                      -9.31703                      28.11859                      61.24107
                      -9.74676                      30.91729                      58.27567
                     -10.17916                      33.71573                      55.31042
                     -10.61249                      36.51407                      52.34520
                     -10.97424                      38.84598                      49.87420
                     -11.26465                      40.70571                      47.89208
                     -11.55967                      42.52550                      45.87237
                     -11.70535                      43.46557                      44.89123
        </DataArray>
      </Points>
      <PointData>
        <DataArray type="Float32" Name="TranslationalVelocity" NumberOfComponents="3" format="ascii">
                       0.04709                       0.56902                       0.53821
                       0.09010                       1.08622                       1.02988
                       0.17923                       2.08609                       2.04866
                       0.26983                       3.06961                       3.08422
                       0.38396                       4.28928                       4.38873
                       0.51626                       5.80532                       5.90084
                       0.64428                       7.36864                       7.36415
                       0.77221                       8.93286                       8.82644
                       0.90000                      10.49865                      10.28707
                       1.02771                      12.06533                      11.74676
                       1.15545                      13.63154                      13.20687
                       1.28318                      15.19785                      14.66683
                       1.41090                      16.76423                      16.12666
                       1.53861                      18.33066                      17.58634
                       1.66631                      19.89711                      19.04597
                       1.77272                      21.20251                      20.26231
                       1.85759                      22.24965                      21.23236
                       1.94064                      23.31660                      22.18157
                       1.98354                      23.83502                      22.67191
        </DataArray>
        <DataArray type="Float32" Name="RotationalVelocity" NumberOfComponents="3" format="ascii">
                       0.52161                      -0.00000                      -0.04563
                       0.52161                      -0.00000                      -0.04563
                       0.52161                      -0.00000                      -0.04563
                       0.52161                      -0.00000                      -0.04563
                       0.52161                      -0.00000                      -0.04563
                       0.52161                      -0.00000                      -0.04563
                       0.52161                      -0.00000                      -0.04563
                       0.52161                      -0.00000                      -0.04563
                       0.52161                      -0.00000                      -0.04563
                       0.52161                      -0.00000                      -0.04563
                       0.52161                      -0.00000                      -0.04563
                       0.52161                      -0.00000                      -0.04563
                       0.52161                      -0.00000                      -0.04563
                       0.52161                      -0.00000                      -0.04563
                       0.52161                      -0.00000                      -0.04563
                       0.52161                      -0.00000                      -0.04563
                       0.52161                      -0.00000                      -0.04563
                       0.52161                      -0.00000                      -0.04563
                       0.52161                      -0.00000                      -0.04563
        </DataArray>
        <DataArray type="Float32" Name="TranslationalAcceleration" NumberOfComponents="3" format="ascii">
                       0.02597                      -0.28288                       0.29681
                       0.04957                      -0.54131                       0.56658
                       0.09520                      -1.07677                       1.08812
                       0.14008                      -1.62106                       1.60113
                       0.19574                      -2.30671                       2.23731
                       0.26492                      -3.10148                       3.02809
                       0.33627                      -3.87059                       3.84353
                       0.40765                      -4.63917                       4.65943
                       0.47910                      -5.40687                       5.47616
                       0.55060                      -6.17408                       6.29335
                       0.62207                      -6.94151                       7.11030
                       0.69355                      -7.70887                       7.92729
                       0.76503                      -8.47615                       8.74433
                       0.83651                      -9.24336                       9.56139
                       0.90800                     -10.01054                      10.37846
                       0.96757                     -10.64985                      11.05936
                       1.01535                     -11.15970                      11.60556
                       1.06404                     -11.65861                      12.16209
                       1.08770                     -11.91633                      12.43250
        </DataArray>
        <DataArray type="Float32" Name="OrientationX" NumberOfComponents="3" format="ascii">
                       0.99249                       0.03003                      -0.11858
                       0.99249                       0.03003                      -0.11858
                       0.99249                       0.03003                      -0.11858
                       0.99249                       0.03003                      -0.11858
                       0.99249                       0.03003                      -0.11858
                       0.99249                       0.03003                      -0.11858
                       0.99249                       0.03003                      -0.11858
                       0.99249                       0.03003                      -0.11858
                       0.99249                       0.03003                      -0.11858
                       0.99249                       0.03003                      -0.11858
                       0.99249                       0.03003                      -0.11858
                       0.99249                       0.03003                      -0.11858
                       0.99249                       0.03003                      -0.11858
                       0.99249                       0.03003                      -0.11858
                       0.99249                       0.03003                      -0.11858
                       0.99249                       0.03003                      -0.11858
                       0.99249                       0.03003                      -0.11858
                       0.99249                       0.03003                      -0.11858
                       0.99249                       0.03003                      -0.11858
        </DataArray>
        <DataArray type="Float32" Name="OrientationY" NumberOfComponents="3" format="ascii">
                      -0.06001                      -0.72519                      -0.68592
                      -0.06001                      -0.72519                      -0.68592
                      -0.06001                      -0.72519                      -0.68592
                      -0.06001                      -0.72519                      -0.68592
                      -0.06001                      -0.72519                      -0.68592
                      -0.06001                      -0.72519                      -0.68592
                      -0.06001                      -0.72519                      -0.68592
                      -0.06001                      -0.72519                      -0.68592
                      -0.06001                      -0.72519                      -0.68592
                      -0.06001                      -0.72519                      -0.68592
                      -0.06001                      -0.72519                      -0.68592
                      -0.06001                      -0.72519                      -0.68592
                      -0.06001                      -0.72519                      -0.68592
                      -0.06001                      -0.72519                      -0.68592
                      -0.06001                      -0.72519                      -0.68592
                      -0.06001                      -0.72519                      -0.68592
                      -0.06001                      -0.72519                      -0.68592
                      -0.06001                      -0.72519                      -0.68592
                      -0.06001                      -0.72519                      -0.68592
        </DataArray>
        <DataArray type="Float32" Name="OrientationZ" NumberOfComponents="3" format="ascii">
                      -0.10660                       0.68789                      -0.71795
                      -0.10660                       0.68789                      -0.71795
                      -0.10660                       0.68789                      -0.71795
                      -0.10660                       0.68789                      -0.71795
                      -0.10660                       0.68789                      -0.71795
                      -0.10660                       0.68789                      -0.71795
                      -0.10660                       0.68789                      -0.71795
                      -0.10660                       0.68789                      -0.71795
                      -0.10660                       0.68789                      -0.71795
                      -0.10660                       0.68789                      -0.71795
                      -0.10660                       0.68789                      -0.71795
                      -0.10660                       0.68789                      -0.71795
                      -0.10660                       0.68789                      -0.71795
                      -0.10660                       0.68789                      -0.71795
                      -0.10660                       0.68789                      -0.71795
                      -0.10660                       0.68789                      -0.71795
                      -0.10660                       0.68789                      -0.71795
                      -0.10660                       0.68789                      -0.71795
                      -0.10660                       0.68789                      -0.71795
        </DataArray>
        <DataArray type="Float32" Name="Force" NumberOfComponents="3" format="ascii">
                       0.00002                       0.00019                       0.00018
                     128.07786                       1.90036                     -17.19577
                     155.35190                     -11.05859                     -33.66175
                     125.25807                     -21.29579                     -39.00215
                    1012.11391                     105.04709                     -49.62586
                    1059.70285                      98.97006                     -62.51432
                    1192.53823                     112.09477                     -69.66201
                    1187.84221                     111.62538                     -69.41450
                    1119.94412                      85.07770                     -84.76951
                    1155.39916                      84.44592                     -90.63908
                    1102.68529                      92.26033                     -75.32504
                    1246.94737                     155.23412                     -36.40714
                    1498.63571                     234.22535                       1.90736
                    1784.82483                     299.50154                      21.95843
                    1932.43839                     315.66849                      15.53141
                    1934.29748                     313.42800                      13.10868
                    1915.07186                     308.11418                      10.87187
                    1395.11056                     219.59537                       3.26092
                     397.81286                       7.77052                     -51.62069
        </DataArray>
        <DataArray type="Float32" Name="Moment" NumberOfComponents="3" format="ascii">
                       0.00000                       0.00000                       0.00000
                       0.00000                       0.00000                       0.00000
                       0.00000                       0.00000                       0.00000
                       0.00000                       0.00000                       0.00000
                      76.98888                    -496.81772                     518.52534
                      82.43183                    -531.94164                     555.18394
                      80.66248                    -520.52386                     543.26728
                      93.22510                    -601.59183                     627.87738
                      93.44275                    -602.99633                     629.34324
                      84.96445                    -548.28491                     572.24131
                      64.80060                    -418.16536                     436.43640
                      56.30787                    -363.36085                     379.23729
                      51.65190                    -333.31537                     347.87902
                      45.32655                    -292.49723                     305.27740
                      43.35552                    -279.77796                     292.00239
                      36.27265                    -234.07137                     244.29872
                      33.49637                    -216.15574                     225.60030
                      16.57542                    -106.96299                     111.63656
                      13.92168                     -89.83811                      93.76344
        </DataArray>
      </PointData>
      <Lines>
        <DataArray type="Int32" Name="connectivity" format="ascii">
      0      1
      1      2
      2      3
      3      4
      4      5
      5      6
      6      7
      7      8
      8      9
      9     10
     10     11
     11     12
     12     13
     13     14
     14     15
     15     16
     16     17
     17     18
        </DataArray>
        <DataArray type="Int32" Name="offsets" format="ascii">
      2
      4
      6
      8
     10
     12
     14
     16
     18
     20
     22
     24
     26
     28
     30
     32
     34
     36
        </DataArray>
      </Lines>
    </Piece>
  </PolyData>
</VTKFile>
