<?xml version="1.0"?>
<VTKFile type="PolyData" version="0.1" byte_order="LittleEndian">
  <PolyData>
    <Piece NumberOfPoints="     19" NumberOfVerts="  0" NumberOfLines="     18"
           NumberOfStrips="  0" NumberOfPolys="      0">
      <Points>
        <DataArray type="Float32" NumberOfComponents="3" format="ascii">
                      -5.05695                       1.49559                      90.09983
                      -5.10934                       2.85802                      90.19429
                      -5.22819                       5.57584                      90.47921
                      -5.35369                       8.29036                      90.80959
                      -5.51455                      11.68163                      91.24974
                      -5.66736                      15.76244                      91.63121
                      -5.80753                      19.85249                      91.88138
                      -5.95020                      23.94261                      92.12917
                      -6.09313                      28.03300                      92.37260
                      -6.23698                      32.12353                      92.61362
                      -6.38277                      36.21388                      92.85599
                      -6.52990                      40.30420                      93.09817
                      -6.67901                      44.39446                      93.34022
                      -6.83080                      48.48461                      93.58224
                      -6.98354                      52.57473                      93.82424
                      -7.11146                      55.98317                      94.02590
                      -7.21504                      58.71034                      94.17940
                      -7.32470                      61.44092                      94.27831
                      -7.37658                      62.80351                      94.36926
        </DataArray>
      </Points>
      <PointData>
        <DataArray type="Float32" Name="TranslationalVelocity" NumberOfComponents="3" format="ascii">
                       0.06825                      -0.04947                       0.78011
                       0.13042                      -0.09635                       1.49076
                       0.25445                      -0.23954                       2.90839
                       0.37833                      -0.40615                       4.32431
                       0.53309                      -0.62839                       6.09321
                       0.71931                      -0.82039                       8.22179
                       0.90596                      -0.94448                      10.35518
                       1.09261                      -1.06723                      12.48861
                       1.27928                      -1.18767                      14.62219
                       1.46595                      -1.30683                      16.75583
                       1.65261                      -1.42660                      18.88939
                       1.83927                      -1.54621                      21.02293
                       2.02593                      -1.66566                      23.15643
                       2.21258                      -1.78497                      25.28988
                       2.39923                      -1.90423                      27.42331
                       2.55477                      -2.00357                      29.20118
                       2.67923                      -2.07892                      30.62369
                       2.80383                      -2.12550                      32.04797
                       2.86602                      -2.17058                      32.75871
        </DataArray>
        <DataArray type="Float32" Name="RotationalVelocity" NumberOfComponents="3" format="ascii">
                       0.52161                      -0.00000                      -0.04563
                       0.52161                      -0.00000                      -0.04563
                       0.52161                      -0.00000                      -0.04563
                       0.52161                      -0.00000                      -0.04563
                       0.52161                      -0.00000                      -0.04563
                       0.52161                      -0.00000                      -0.04563
                       0.52161                      -0.00000                      -0.04563
                       0.52161                      -0.00000                      -0.04563
                       0.52161                      -0.00000                      -0.04563
                       0.52161                      -0.00000                      -0.04563
                       0.52161                      -0.00000                      -0.04563
                       0.52161                      -0.00000                      -0.04563
                       0.52161                      -0.00000                      -0.04563
                       0.52161                      -0.00000                      -0.04563
                       0.52161                      -0.00000                      -0.04563
                       0.52161                      -0.00000                      -0.04563
                       0.52161                      -0.00000                      -0.04563
                       0.52161                      -0.00000                      -0.04563
                       0.52161                      -0.00000                      -0.04563
        </DataArray>
        <DataArray type="Float32" Name="TranslationalAcceleration" NumberOfComponents="3" format="ascii">
                      -0.00226                      -0.41002                      -0.02581
                      -0.00440                      -0.78354                      -0.05026
                      -0.01093                      -1.52865                      -0.12495
                      -0.01853                      -2.27285                      -0.21185
                      -0.02868                      -3.20259                      -0.32777
                      -0.03744                      -4.32136                      -0.42792
                      -0.04310                      -5.44267                      -0.49265
                      -0.04870                      -6.56400                      -0.55667
                      -0.05420                      -7.68541                      -0.61950
                      -0.05964                      -8.80685                      -0.68165
                      -0.06510                      -9.92824                      -0.74412
                      -0.07056                     -11.04963                      -0.80651
                      -0.07601                     -12.17099                      -0.86882
                      -0.08146                     -13.29233                      -0.93105
                      -0.08690                     -14.41366                      -0.99326
                      -0.09143                     -15.34810                      -1.04508
                      -0.09487                     -16.09577                      -1.08438
                      -0.09700                     -16.84438                      -1.10868
                      -0.09905                     -17.21794                      -1.13219
        </DataArray>
        <DataArray type="Float32" Name="OrientationX" NumberOfComponents="3" format="ascii">
                       0.99549                       0.04353                      -0.08433
                       0.99549                       0.04353                      -0.08433
                       0.99549                       0.04353                      -0.08433
                       0.99549                       0.04353                      -0.08433
                       0.99549                       0.04353                      -0.08433
                       0.99549                       0.04353                      -0.08433
                       0.99549                       0.04353                      -0.08433
                       0.99549                       0.04353                      -0.08433
                       0.99549                       0.04353                      -0.08433
                       0.99549                       0.04353                      -0.08433
                       0.99549                       0.04353                      -0.08433
                       0.99549                       0.04353                      -0.08433
                       0.99549                       0.04353                      -0.08433
                       0.99549                       0.04353                      -0.08433
                       0.99549                       0.04353                      -0.08433
                       0.99549                       0.04353                      -0.08433
                       0.99549                       0.04353                      -0.08433
                       0.99549                       0.04353                      -0.08433
                       0.99549                       0.04353                      -0.08433
        </DataArray>
        <DataArray type="Float32" Name="OrientationY" NumberOfComponents="3" format="ascii">
                      -0.08698                       0.06305                      -0.99421
                      -0.08698                       0.06305                      -0.99421
                      -0.08698                       0.06305                      -0.99421
                      -0.08698                       0.06305                      -0.99421
                      -0.08698                       0.06305                      -0.99421
                      -0.08698                       0.06305                      -0.99421
                      -0.08698                       0.06305                      -0.99421
                      -0.08698                       0.06305                      -0.99421
                      -0.08698                       0.06305                      -0.99421
                      -0.08698                       0.06305                      -0.99421
                      -0.08698                       0.06305                      -0.99421
                      -0.08698                       0.06305                      -0.99421
                      -0.08698                       0.06305                      -0.99421
                      -0.08698                       0.06305                      -0.99421
                      -0.08698                       0.06305                      -0.99421
                      -0.08698                       0.06305                      -0.99421
                      -0.08698                       0.06305                      -0.99421
                      -0.08698                       0.06305                      -0.99421
                      -0.08698                       0.06305                      -0.99421
        </DataArray>
        <DataArray type="Float32" Name="OrientationZ" NumberOfComponents="3" format="ascii">
                      -0.03796                       0.99706                       0.06655
                      -0.03796                       0.99706                       0.06655
                      -0.03796                       0.99706                       0.06655
                      -0.03796                       0.99706                       0.06655
                      -0.03796                       0.99706                       0.06655
                      -0.03796                       0.99706                       0.06655
                      -0.03796                       0.99706                       0.06655
                      -0.03796                       0.99706                       0.06655
                      -0.03796                       0.99706                       0.06655
                      -0.03796                       0.99706                       0.06655
                      -0.03796                       0.99706                       0.06655
                      -0.03796                       0.99706                       0.06655
                      -0.03796                       0.99706                       0.06655
                      -0.03796                       0.99706                       0.06655
                      -0.03796                       0.99706                       0.06655
                      -0.03796                       0.99706                       0.06655
                      -0.03796                       0.99706                       0.06655
                      -0.03796                       0.99706                       0.06655
                      -0.03796                       0.99706                       0.06655
        </DataArray>
        <DataArray type="Float32" Name="Force" NumberOfComponents="3" format="ascii">
                       0.00635                      -0.00460                       0.07255
                     153.82966                       7.12188                     -18.94796
                     167.82459                       9.13895                     -41.18338
                     129.06966                       8.10151                     -47.74767
                    1034.16139                      38.25259                      16.82914
                    1081.33055                      41.01892                       2.29196
                    1226.26177                      46.44314                       3.70136
                    1144.64129                      44.09838                      -7.72877
                    1102.98864                      42.98269                     -14.77360
                    1194.82740                      46.91621                     -21.31647
                    1118.93689                      45.86916                     -48.91944
                    1204.17212                      46.07083                      -3.32126
                    1428.00715                      48.13202                      93.47839
                    1575.94323                      51.68770                     124.59494
                    1868.31862                      59.42462                     175.46142
                    1948.56531                      60.71818                     201.85616
                    1921.78896                      60.10933                     195.70389
                    1427.89862                      44.94122                     141.21875
                     388.69577                      17.38204                     -38.68703
        </DataArray>
        <DataArray type="Float32" Name="Moment" NumberOfComponents="3" format="ascii">
                       0.00000                       0.00000                       0.00000
                       0.00000                       0.00000                       0.00000
                       0.00000                       0.00000                       0.00000
                       0.00000                       0.00000                       0.00000
                      28.15185                    -739.37420                     -49.35322
                      30.36030                    -797.37660                     -53.22488
                      30.00548                    -788.05778                     -52.60285
                      30.51889                    -801.54176                     -53.50290
                      29.97038                    -787.13578                     -52.54130
                      30.64794                    -804.93115                     -53.72914
                      25.37371                    -666.40992                     -44.48285
                      22.27479                    -585.02043                     -39.05011
                      22.32407                    -586.31472                     -39.13650
                      18.95858                    -497.92409                     -33.23643
                      17.88692                    -469.77835                     -31.35770
                      14.01998                    -368.21772                     -24.57853
                      11.41706                    -299.85517                     -20.01533
                       5.75980                    -151.27425                     -10.09755
                       4.83166                    -126.89764                      -8.47042
        </DataArray>
      </PointData>
      <Lines>
        <DataArray type="Int32" Name="connectivity" format="ascii">
      0      1
      1      2
      2      3
      3      4
      4      5
      5      6
      6      7
      7      8
      8      9
      9     10
     10     11
     11     12
     12     13
     13     14
     14     15
     15     16
     16     17
     17     18
        </DataArray>
        <DataArray type="Int32" Name="offsets" format="ascii">
      2
      4
      6
      8
     10
     12
     14
     16
     18
     20
     22
     24
     26
     28
     30
     32
     34
     36
        </DataArray>
      </Lines>
    </Piece>
  </PolyData>
</VTKFile>
