<?xml version="1.0"?>
<VTKFile type="PolyData" version="0.1" byte_order="LittleEndian">
  <PolyData>
    <Piece NumberOfPoints="     19" NumberOfVerts="  0" NumberOfLines="     18"
           NumberOfStrips="  0" NumberOfPolys="      0">
      <Points>
        <DataArray type="Float32" NumberOfComponents="3" format="ascii">
                      -5.16095                       1.01896                      88.91105
                      -5.30820                       1.94987                      87.92130
                      -5.61931                       3.88038                      86.00867
                      -5.93829                       5.84345                      84.12767
                      -6.34171                       8.31679                      81.79525
                      -6.78180                      11.18143                      78.89318
                      -7.20571                      13.95144                      75.90017
                      -7.63204                      16.71949                      72.90569
                      -8.05851                      19.48433                      69.90822
                      -8.48583                      22.24733                      66.90916
                      -8.91512                      25.01115                      63.91114
                      -9.34573                      27.77469                      60.91308
                      -9.77831                      30.53796                      57.91504
                     -10.21356                      33.30096                      54.91715
                     -10.64975                      36.06386                      51.91930
                     -11.01388                      38.36624                      49.42111
                     -11.30619                      40.20228                      47.41730
                     -11.60307                      41.99793                      45.37638
                     -11.74970                      42.92627                      44.38427
        </DataArray>
      </Points>
      <PointData>
        <DataArray type="Float32" Name="TranslationalVelocity" NumberOfComponents="3" format="ascii">
                       0.04650                       0.57535                       0.53150
                       0.08898                       1.09833                       1.01706
                       0.17708                       2.11017                       2.02403
                       0.26666                       3.10587                       3.04798
                       0.37953                       4.34088                       4.33809
                       0.51026                       5.87470                       5.83230
                       0.63667                       7.45522                       7.27716
                       0.76299                       9.03661                       8.72099
                       0.88916                      10.61958                      10.16315
                       1.01525                      12.20341                      11.60435
                       1.14137                      13.78678                      13.04597
                       1.26749                      15.37024                      14.48746
                       1.39359                      16.95378                      15.92879
                       1.51968                      18.53736                      17.36999
                       1.64576                      20.12096                      18.81114
                       1.75083                      21.44065                      20.01207
                       1.83462                      22.49919                      20.96976
                       1.91656                      23.57729                      21.90639
                       1.95893                      24.10148                      22.39062
        </DataArray>
        <DataArray type="Float32" Name="RotationalVelocity" NumberOfComponents="3" format="ascii">
                       0.52161                      -0.00000                      -0.04563
                       0.52161                      -0.00000                      -0.04563
                       0.52161                      -0.00000                      -0.04563
                       0.52161                      -0.00000                      -0.04563
                       0.52161                      -0.00000                      -0.04563
                       0.52161                      -0.00000                      -0.04563
                       0.52161                      -0.00000                      -0.04563
                       0.52161                      -0.00000                      -0.04563
                       0.52161                      -0.00000                      -0.04563
                       0.52161                      -0.00000                      -0.04563
                       0.52161                      -0.00000                      -0.04563
                       0.52161                      -0.00000                      -0.04563
                       0.52161                      -0.00000                      -0.04563
                       0.52161                      -0.00000                      -0.04563
                       0.52161                      -0.00000                      -0.04563
                       0.52161                      -0.00000                      -0.04563
                       0.52161                      -0.00000                      -0.04563
                       0.52161                      -0.00000                      -0.04563
                       0.52161                      -0.00000                      -0.04563
        </DataArray>
        <DataArray type="Float32" Name="TranslationalAcceleration" NumberOfComponents="3" format="ascii">
                       0.02626                      -0.27935                       0.30011
                       0.05012                      -0.53457                       0.57290
                       0.09630                      -1.06383                       1.10068
                       0.14174                      -1.60202                       1.62004
                       0.19809                      -2.28010                       2.26423
                       0.26809                      -3.06545                       3.06428
                       0.34022                      -3.82487                       3.88869
                       0.41238                      -4.58374                       4.71356
                       0.48462                      -5.34174                       5.53924
                       0.55690                      -6.09923                       6.36537
                       0.62915                      -6.85695                       7.19127
                       0.70142                      -7.61459                       8.01721
                       0.77368                      -8.37216                       8.84320
                       0.84595                      -9.12965                       9.66920
                       0.91821                      -9.88711                      10.49522
                       0.97844                     -10.51832                      11.18358
                       1.02674                     -11.02168                      11.73572
                       1.07594                     -11.51397                      12.29807
                       1.09986                     -11.76848                      12.57148
        </DataArray>
        <DataArray type="Float32" Name="OrientationX" NumberOfComponents="3" format="ascii">
                       0.99246                       0.02966                      -0.11894
                       0.99246                       0.02966                      -0.11894
                       0.99246                       0.02966                      -0.11894
                       0.99246                       0.02966                      -0.11894
                       0.99246                       0.02966                      -0.11894
                       0.99246                       0.02966                      -0.11894
                       0.99246                       0.02966                      -0.11894
                       0.99246                       0.02966                      -0.11894
                       0.99246                       0.02966                      -0.11894
                       0.99246                       0.02966                      -0.11894
                       0.99246                       0.02966                      -0.11894
                       0.99246                       0.02966                      -0.11894
                       0.99246                       0.02966                      -0.11894
                       0.99246                       0.02966                      -0.11894
                       0.99246                       0.02966                      -0.11894
                       0.99246                       0.02966                      -0.11894
                       0.99246                       0.02966                      -0.11894
                       0.99246                       0.02966                      -0.11894
                       0.99246                       0.02966                      -0.11894
        </DataArray>
        <DataArray type="Float32" Name="OrientationY" NumberOfComponents="3" format="ascii">
                      -0.05926                      -0.73326                      -0.67737
                      -0.05926                      -0.73326                      -0.67737
                      -0.05926                      -0.73326                      -0.67737
                      -0.05926                      -0.73326                      -0.67737
                      -0.05926                      -0.73326                      -0.67737
                      -0.05926                      -0.73326                      -0.67737
                      -0.05926                      -0.73326                      -0.67737
                      -0.05926                      -0.73326                      -0.67737
                      -0.05926                      -0.73326                      -0.67737
                      -0.05926                      -0.73326                      -0.67737
                      -0.05926                      -0.73326                      -0.67737
                      -0.05926                      -0.73326                      -0.67737
                      -0.05926                      -0.73326                      -0.67737
                      -0.05926                      -0.73326                      -0.67737
                      -0.05926                      -0.73326                      -0.67737
                      -0.05926                      -0.73326                      -0.67737
                      -0.05926                      -0.73326                      -0.67737
                      -0.05926                      -0.73326                      -0.67737
                      -0.05926                      -0.73326                      -0.67737
        </DataArray>
        <DataArray type="Float32" Name="OrientationZ" NumberOfComponents="3" format="ascii">
                      -0.10730                       0.67931                      -0.72597
                      -0.10730                       0.67931                      -0.72597
                      -0.10730                       0.67931                      -0.72597
                      -0.10730                       0.67931                      -0.72597
                      -0.10730                       0.67931                      -0.72597
                      -0.10730                       0.67931                      -0.72597
                      -0.10730                       0.67931                      -0.72597
                      -0.10730                       0.67931                      -0.72597
                      -0.10730                       0.67931                      -0.72597
                      -0.10730                       0.67931                      -0.72597
                      -0.10730                       0.67931                      -0.72597
                      -0.10730                       0.67931                      -0.72597
                      -0.10730                       0.67931                      -0.72597
                      -0.10730                       0.67931                      -0.72597
                      -0.10730                       0.67931                      -0.72597
                      -0.10730                       0.67931                      -0.72597
                      -0.10730                       0.67931                      -0.72597
                      -0.10730                       0.67931                      -0.72597
                      -0.10730                       0.67931                      -0.72597
        </DataArray>
        <DataArray type="Float32" Name="Force" NumberOfComponents="3" format="ascii">
                       0.00001                       0.00008                       0.00007
                     127.59152                       1.81202                     -17.16280
                     154.96835                     -11.29320                     -33.47205
                     125.05858                     -21.60015                     -38.69577
                    1011.26926                     105.42407                     -50.82035
                    1059.21165                      99.28429                     -63.65151
                    1192.20761                     112.47620                     -70.96466
                    1189.13315                     112.96592                     -70.05201
                    1120.25852                      86.15969                     -84.95540
                    1163.45949                      85.47389                     -91.98233
                    1106.79554                      93.06763                     -76.50161
                    1248.92376                     156.65178                     -38.01128
                    1501.64094                     236.62469                      -0.53093
                    1782.83660                     301.59904                      18.70571
                    1931.41083                     318.43623                      12.50102
                    1934.53947                     315.15352                       8.96689
                    1912.25701                     309.96732                       7.40744
                    1398.46765                     221.02973                       0.12576
                     398.01602                       7.57662                     -51.73817
        </DataArray>
        <DataArray type="Float32" Name="Moment" NumberOfComponents="3" format="ascii">
                       0.00000                       0.00000                       0.00000
                       0.00000                       0.00000                       0.00000
                       0.00000                       0.00000                       0.00000
                       0.00000                       0.00000                       0.00000
                      77.41444                    -490.10360                     523.76911
                      82.91963                    -524.95645                     561.01602
                      81.14997                    -513.75290                     549.04290
                      93.72809                    -593.38378                     634.14367
                      93.90382                    -594.49631                     635.33262
                      86.87054                    -549.96927                     587.74699
                      65.75915                    -416.31501                     444.91194
                      56.74132                    -359.22398                     383.89929
                      51.79381                    -327.90175                     350.42552
                      45.22821                    -286.33555                     306.00411
                      43.35946                    -274.50471                     293.36061
                      36.65318                    -232.04785                     247.98736
                      33.45317                    -211.78889                     226.33680
                      16.92437                    -107.14658                     114.50654
                      14.02083                     -88.76456                      94.86185
        </DataArray>
      </PointData>
      <Lines>
        <DataArray type="Int32" Name="connectivity" format="ascii">
      0      1
      1      2
      2      3
      3      4
      4      5
      5      6
      6      7
      7      8
      8      9
      9     10
     10     11
     11     12
     12     13
     13     14
     14     15
     15     16
     16     17
     17     18
        </DataArray>
        <DataArray type="Int32" Name="offsets" format="ascii">
      2
      4
      6
      8
     10
     12
     14
     16
     18
     20
     22
     24
     26
     28
     30
     32
     34
     36
        </DataArray>
      </Lines>
    </Piece>
  </PolyData>
</VTKFile>
