<?xml version="1.0"?>
<VTKFile type="PolyData" version="0.1" byte_order="LittleEndian">
  <PolyData>
    <Piece NumberOfPoints="    625" NumberOfVerts="  0" NumberOfLines="      0"
           NumberOfStrips="  0" NumberOfPolys="    600">
      <Points>
        <DataArray type="Float32" NumberOfComponents="3" format="ascii">
                      -5.02762                       1.46615                      89.68435
                      -5.02762                       1.46615                      89.68435
                      -5.02762                       1.46615                      89.68435
                      -5.02762                       1.46615                      89.68435
                      -5.02762                       1.46615                      89.68435
                      -5.02762                       1.46615                      89.68435
                      -5.02762                       1.46615                      89.68435
                      -5.02762                       1.46615                      89.68435
                      -5.02762                       1.46615                      89.68435
                      -5.02762                       1.46615                      89.68435
                      -5.02762                       1.46615                      89.68435
                      -5.02762                       1.46615                      89.68435
                      -5.02762                       1.46615                      89.68435
                      -5.02762                       1.46615                      89.68435
                      -5.02762                       1.46615                      89.68435
                      -5.02762                       1.46615                      89.68435
                      -5.02762                       1.46615                      89.68435
                      -5.02762                       1.46615                      89.68435
                      -5.02762                       1.46615                      89.68435
                      -5.02762                       1.46615                      89.68435
                      -5.02762                       1.46615                      89.68435
                      -5.02762                       1.46615                      89.68435
                      -5.02762                       1.46615                      89.68435
                      -5.02762                       1.46615                      89.68435
                      -5.02762                       1.46615                      89.68435
                      -4.42812                       1.34397                      89.65841
                      -4.43418                       1.37546                      89.80521
                      -4.47738                       1.40498                      89.94608
                      -4.55502                       1.43066                      90.07215
                      -4.66220                       1.45089                      90.17551
                      -4.79220                       1.46441                      90.24966
                      -4.93685                       1.47036                      90.28994
                      -5.08705                       1.46836                      90.29383
                      -5.23338                       1.45855                      90.26107
                      -5.36663                       1.44155                      90.19372
                      -5.47844                       1.41841                      90.09603
                      -5.56178                       1.39059                      89.97412
                      -5.61140                       1.35984                      89.83565
                      -5.62420                       1.32810                      89.68933
                      -5.59938                       1.29736                      89.54435
                      -5.53848                       1.26954                      89.40982
                      -5.44533                       1.24640                      89.29419
                      -5.32580                       1.22939                      89.20473
                      -5.18738                       1.21958                      89.14706
                      -5.03879                       1.21759                      89.12480
                      -4.88934                       1.22354                      89.13936
                      -4.74844                       1.23705                      89.18981
                      -4.62494                       1.25729                      89.27298
                      -4.52659                       1.28297                      89.38366
                      -4.45958                       1.31248                      89.51488
                      -4.19701                       1.22179                      89.66469
                      -4.20540                       1.26535                      89.86775
                      -4.26516                       1.30617                      90.06258
                      -4.37253                       1.34169                      90.23696
                      -4.52078                       1.36968                      90.37991
                      -4.70059                       1.38837                      90.48247
                      -4.90065                       1.39660                      90.53819
                      -5.10841                       1.39384                      90.54356
                      -5.31080                       1.38027                      90.49825
                      -5.49510                       1.35675                      90.40511
                      -5.64974                       1.32474                      90.26998
                      -5.76501                       1.28627                      90.10136
                      -5.83365                       1.24375                      89.90984
                      -5.85135                       1.19984                      89.70747
                      -5.81701                       1.15732                      89.50694
                      -5.73278                       1.11884                      89.32087
                      -5.60395                       1.08684                      89.16094
                      -5.43862                       1.06331                      89.03721
                      -5.24718                       1.04974                      88.95744
                      -5.04164                       1.04699                      88.92665
                      -4.83494                       1.05521                      88.94678
                      -4.64006                       1.07391                      89.01656
                      -4.46924                       1.10189                      89.13160
                      -4.33321                       1.13741                      89.28468
                      -4.24053                       1.17823                      89.46618
                      -4.03233                       1.09961                      89.67679
                      -4.04236                       1.15173                      89.91976
                      -4.11387                       1.20058                      90.15290
                      -4.24236                       1.24308                      90.36155
                      -4.41975                       1.27657                      90.53262
                      -4.63490                       1.29894                      90.65534
                      -4.87430                       1.30878                      90.72201
                      -5.12289                       1.30548                      90.72843
                      -5.36507                       1.28925                      90.67421
                      -5.58561                       1.26110                      90.56276
                      -5.77065                       1.22280                      90.40107
                      -5.90857                       1.17677                      90.19930
                      -5.99071                       1.12588                      89.97014
                      -6.01189                       1.07335                      89.72797
                      -5.97080                       1.02246                      89.48803
                      -5.87001                       0.97642                      89.26537
                      -5.71586                       0.93813                      89.07401
                      -5.51802                       0.90998                      88.92595
                      -5.28894                       0.89374                      88.83050
                      -5.04301                       0.89044                      88.79366
                      -4.79567                       0.90029                      88.81775
                      -4.56248                       0.92266                      88.90124
                      -4.35807                       0.95614                      89.03890
                      -4.19531                       0.99865                      89.22208
                      -4.08440                       1.04749                      89.43925
                      -3.90463                       0.97743                      89.69212
                      -3.91594                       1.03617                      89.96592
                      -3.99651                       1.09121                      90.22864
                      -4.14130                       1.13911                      90.46376
                      -4.34120                       1.17684                      90.65653
                      -4.58365                       1.20205                      90.79482
                      -4.85342                       1.21314                      90.86995
                      -5.13356                       1.20942                      90.87719
                      -5.40646                       1.19113                      90.81609
                      -5.65497                       1.15941                      90.69050
                      -5.86350                       1.11625                      90.50829
                      -6.01892                       1.06438                      90.28093
                      -6.11147                       1.00703                      90.02269
                      -6.13535                       0.94783                      89.74980
                      -6.08904                       0.89049                      89.47941
                      -5.97546                       0.83862                      89.22851
                      -5.80175                       0.79546                      89.01286
                      -5.57882                       0.76374                      88.84602
                      -5.32067                       0.74544                      88.73846
                      -5.04353                       0.74173                      88.69695
                      -4.76482                       0.75282                      88.72409
                      -4.50204                       0.77803                      88.81818
                      -4.27170                       0.81576                      88.97331
                      -4.08828                       0.86366                      89.17972
                      -3.96331                       0.91870                      89.42445
                      -3.80240                       0.85526                      89.70969
                      -3.81472                       0.91926                      90.00805
                      -3.90252                       0.97924                      90.29434
                      -4.06030                       1.03143                      90.55056
                      -4.27814                       1.07255                      90.76062
                      -4.54234                       1.10002                      90.91132
                      -4.83632                       1.11211                      90.99319
                      -5.14159                       1.10806                      91.00108
                      -5.43897                       1.08812                      90.93450
                      -5.70979                       1.05356                      90.79764
                      -5.93702                       1.00653                      90.59908
                      -6.10638                       0.95000                      90.35132
                      -6.20724                       0.88751                      90.06991
                      -6.23326                       0.82300                      89.77254
                      -6.18280                       0.76051                      89.47789
                      -6.05903                       0.70398                      89.20447
                      -5.86973                       0.65695                      88.96948
                      -5.62680                       0.62239                      88.78767
                      -5.34549                       0.60245                      88.67046
                      -5.04349                       0.59840                      88.62522
                      -4.73976                       0.61049                      88.65480
                      -4.45340                       0.63796                      88.75733
                      -4.20240                       0.67908                      88.92637
                      -4.00253                       0.73127                      89.15130
                      -3.86634                       0.79125                      89.41800
                      -3.71971                       0.73308                      89.72896
                      -3.73285                       0.80132                      90.04708
                      -3.82647                       0.86527                      90.35233
                      -3.99470                       0.92092                      90.62552
                      -4.22696                       0.96477                      90.84950
                      -4.50866                       0.99405                      91.01017
                      -4.82211                       1.00694                      91.09746
                      -5.14759                       1.00262                      91.10588
                      -5.46468                       0.98137                      91.03489
                      -5.75343                       0.94451                      90.88896
                      -5.99571                       0.89437                      90.67726
                      -6.17629                       0.83409                      90.41308
                      -6.28383                       0.76747                      90.11304
                      -6.31157                       0.69868                      89.79597
                      -6.25777                       0.63206                      89.48181
                      -6.12580                       0.57178                      89.19029
                      -5.92396                       0.52164                      88.93973
                      -5.66494                       0.48478                      88.74587
                      -5.36500                       0.46353                      88.62090
                      -5.04300                       0.45921                      88.57267
                      -4.71916                       0.47210                      88.60421
                      -4.41383                       0.50139                      88.71353
                      -4.14621                       0.54523                      88.89377
                      -3.93310                       0.60088                      89.13360
                      -3.78789                       0.66483                      89.41795
                      -3.65311                       0.61090                      89.74964
                      -3.66690                       0.68253                      90.08357
                      -3.76517                       0.74966                      90.40398
                      -3.94176                       0.80808                      90.69075
                      -4.18556                       0.85410                      90.92585
                      -4.48126                       0.88484                      91.09452
                      -4.81028                       0.89837                      91.18615
                      -5.15194                       0.89384                      91.19498
                      -5.48478                       0.87153                      91.12046
                      -5.78788                       0.83284                      90.96728
                      -6.04220                       0.78020                      90.74506
                      -6.23175                       0.71693                      90.46776
                      -6.34464                       0.64700                      90.15280
                      -6.37376                       0.57480                      89.81998
                      -6.31728                       0.50486                      89.49020
                      -6.17876                       0.44159                      89.18420
                      -5.96689                       0.38895                      88.92119
                      -5.69499                       0.35027                      88.71770
                      -5.38015                       0.32795                      88.58652
                      -5.04215                       0.32342                      88.53589
                      -4.70222                       0.33695                      88.56899
                      -4.38172                       0.36769                      88.68375
                      -4.10080                       0.41372                      88.87294
                      -3.87709                       0.47213                      89.12469
                      -3.72467                       0.53926                      89.42317
                      -3.60037                       0.48872                      89.77153
                      -3.61467                       0.56301                      90.11786
                      -3.71660                       0.63264                      90.45017
                      -3.89974                       0.69322                      90.74758
                      -4.15260                       0.74095                      90.99142
                      -4.45927                       0.77283                      91.16634
                      -4.80051                       0.78687                      91.26137
                      -5.15485                       0.78216                      91.27053
                      -5.50005                       0.75902                      91.19325
                      -5.81440                       0.71890                      91.03438
                      -6.07816                       0.66431                      90.80391
                      -6.27476                       0.59869                      90.51631
                      -6.39183                       0.52616                      90.18966
                      -6.42203                       0.45128                      89.84448
                      -6.36346                       0.37874                      89.50246
                      -6.21979                       0.31312                      89.18510
                      -6.00006                       0.25854                      88.91232
                      -5.71807                       0.21841                      88.70128
                      -5.39154                       0.19527                      88.56523
                      -5.04098                       0.19057                      88.51272
                      -4.68843                       0.20460                      88.54705
                      -4.35604                       0.23648                      88.66607
                      -4.06468                       0.28422                      88.86229
                      -3.83268                       0.34480                      89.12338
                      -3.67460                       0.41442                      89.43295
                      -3.56006                       0.36654                      89.79451
                      -3.57475                       0.44284                      90.15018
                      -3.67942                       0.51434                      90.49146
                      -3.86751                       0.57656                      90.79690
                      -4.12718                       0.62558                      91.04731
                      -4.44214                       0.65832                      91.22695
                      -4.79258                       0.67273                      91.32454
                      -5.15648                       0.66790                      91.33395
                      -5.51099                       0.64414                      91.25459
                      -5.83382                       0.60293                      91.09143
                      -6.10470                       0.54687                      90.85474
                      -6.30660                       0.47948                      90.55938
                      -6.42683                       0.40499                      90.22392
                      -6.45785                       0.32809                      89.86943
                      -6.39769                       0.25360                      89.51818
                      -6.25015                       0.18621                      89.19226
                      -6.02449                       0.13015                      88.91212
                      -5.73489                       0.08894                      88.69539
                      -5.39955                       0.06517                      88.55567
                      -5.03954                       0.06035                      88.50174
                      -4.67748                       0.07476                      88.53700
                      -4.33611                       0.10750                      88.65922
                      -4.03690                       0.15652                      88.86073
                      -3.79863                       0.21874                      89.12887
                      -3.63629                       0.29024                      89.44679
                      -3.53121                       0.24436                      89.81849
                      -3.54617                       0.32206                      90.18069
                      -3.65276                       0.39487                      90.52823
                      -3.84430                       0.45823                      90.83927
                      -4.10874                       0.50815                      91.09428
                      -4.42947                       0.54149                      91.27722
                      -4.78634                       0.55617                      91.37660
                      -5.15693                       0.55125                      91.38618
                      -5.51794                       0.52705                      91.30536
                      -5.84670                       0.48509                      91.13921
                      -6.12254                       0.42800                      90.89818
                      -6.32815                       0.35937                      90.59740
                      -6.45059                       0.28352                      90.25578
                      -6.48217                       0.20520                      89.89479
                      -6.42091                       0.12935                      89.53710
                      -6.27066                       0.06072                      89.20519
                      -6.04086                       0.00363                      88.91991
                      -5.74595                      -0.03833                      88.69920
                      -5.40445                      -0.06253                      88.55691
                      -5.03784                      -0.06745                      88.50200
                      -4.66913                      -0.05278                      88.53790
                      -4.32150                      -0.01943                      88.66237
                      -4.01680                       0.03049                      88.86758
                      -3.77416                       0.09385                      89.14064
                      -3.60884                       0.16666                      89.46439
                      -3.51321                       0.12218                      89.84342
                      -3.52832                       0.20070                      90.20948
                      -3.63605                       0.27430                      90.56072
                      -3.82963                       0.33833                      90.87508
                      -4.09689                       0.38878                      91.13280
                      -4.42104                       0.42248                      91.31770
                      -4.78171                       0.43731                      91.41814
                      -5.15625                       0.43234                      91.42782
                      -5.52111                       0.40788                      91.34614
                      -5.85337                       0.36547                      91.17822
                      -6.13216                       0.30778                      90.93461
                      -6.33995                       0.23842                      90.63063
                      -6.46369                       0.16175                      90.28537
                      -6.49561                       0.08260                      89.92053
                      -6.43370                       0.00594                      89.55903
                      -6.28185                      -0.06342                      89.22358
                      -6.04960                      -0.12112                      88.93527
                      -5.75155                      -0.16353                      88.71220
                      -5.40641                      -0.18798                      88.56840
                      -5.03589                      -0.19295                      88.51290
                      -4.66325                      -0.17812                      88.54919
                      -4.31192                      -0.14442                      88.67498
                      -4.00397                      -0.09397                      88.88238
                      -3.75874                      -0.02994                      89.15835
                      -3.59166                       0.04365                      89.48555
                      -3.50571                       0.00000                      89.86927
                      -3.52088                       0.07880                      90.23661
                      -3.62898                       0.15265                      90.58908
                      -3.82323                       0.21691                      90.90453
                      -4.09143                       0.26753                      91.16315
                      -4.41671                       0.30135                      91.34869
                      -4.77864                       0.31623                      91.44948
                      -5.15448                       0.31125                      91.45920
                      -5.52062                       0.28670                      91.37723
                      -5.85404                       0.24414                      91.20873
                      -6.13380                       0.18625                      90.96427
                      -6.34232                       0.11664                      90.65923
                      -6.46649                       0.03971                      90.31276
                      -6.49853                      -0.03971                      89.94665
                      -6.43640                      -0.11664                      89.58388
                      -6.28402                      -0.18625                      89.24727
                      -6.05096                      -0.24414                      88.95795
                      -5.75186                      -0.28670                      88.73410
                      -5.40552                      -0.31125                      88.58980
                      -5.03370                      -0.31623                      88.53410
                      -4.65977                      -0.30135                      88.57052
                      -4.30721                      -0.26753                      88.69675
                      -3.99818                      -0.21691                      88.90487
                      -3.75210                      -0.15265                      89.18180
                      -3.58443                      -0.07880                      89.51015
                      -3.50860                      -0.12218                      89.89603
                      -3.52372                      -0.04365                      90.26209
                      -3.63145                       0.02994                      90.61333
                      -3.82503                       0.09397                      90.92769
                      -4.09229                       0.14442                      91.18541
                      -4.41644                       0.17812                      91.37030
                      -4.77711                       0.19295                      91.47075
                      -5.15164                       0.18798                      91.48043
                      -5.51651                       0.16353                      91.39875
                      -5.84877                       0.12112                      91.23083
                      -6.12755                       0.06342                      90.98722
                      -6.33535                      -0.00594                      90.68324
                      -6.45909                      -0.08260                      90.33798
                      -6.49101                      -0.16175                      89.97314
                      -6.42910                      -0.23842                      89.61164
                      -6.27725                      -0.30778                      89.27619
                      -6.04500                      -0.36547                      88.98787
                      -5.74695                      -0.40788                      88.76481
                      -5.40181                      -0.43234                      88.62101
                      -5.03129                      -0.43731                      88.56551
                      -4.65865                      -0.42248                      88.60179
                      -4.30732                      -0.38878                      88.72759
                      -3.99937                      -0.33833                      88.93499
                      -3.75414                      -0.27430                      89.21095
                      -3.58706                      -0.20070                      89.53816
                      -3.52201                      -0.24436                      89.92371
                      -3.53696                      -0.16666                      90.28591
                      -3.64356                      -0.09385                      90.63345
                      -3.83509                      -0.03049                      90.94449
                      -4.09953                       0.01943                      91.19950
                      -4.42027                       0.05278                      91.38244
                      -4.77714                       0.06745                      91.48182
                      -5.14772                       0.06253                      91.49140
                      -5.50873                       0.03833                      91.41058
                      -5.83749                      -0.00363                      91.24443
                      -6.11334                      -0.06072                      91.00339
                      -6.31894                      -0.12935                      90.70262
                      -6.44138                      -0.20520                      90.36100
                      -6.47296                      -0.28352                      90.00000
                      -6.41171                      -0.35937                      89.64231
                      -6.26146                      -0.42800                      89.31040
                      -6.03165                      -0.48509                      89.02513
                      -5.73674                      -0.52705                      88.80442
                      -5.39525                      -0.55125                      88.66213
                      -5.02863                      -0.55617                      88.60722
                      -4.65992                      -0.54149                      88.64312
                      -4.31230                      -0.50815                      88.76759
                      -4.00759                      -0.45823                      88.97280
                      -3.76495                      -0.39487                      89.24586
                      -3.59963                      -0.32206                      89.56961
                      -3.54625                      -0.36654                      89.95233
                      -3.56094                      -0.29024                      90.30801
                      -3.66561                      -0.21874                      90.64928
                      -3.85370                      -0.15652                      90.95472
                      -4.11337                      -0.10750                      91.20513
                      -4.42833                      -0.07476                      91.38478
                      -4.77877                      -0.06035                      91.48237
                      -5.14267                      -0.06517                      91.49178
                      -5.49718                      -0.08894                      91.41241
                      -5.82002                      -0.13015                      91.24926
                      -6.09089                      -0.18621                      91.01257
                      -6.29279                      -0.25360                      90.71721
                      -6.41302                      -0.32809                      90.38175
                      -6.44404                      -0.40499                      90.02726
                      -6.38388                      -0.47948                      89.67601
                      -6.23634                      -0.54687                      89.35008
                      -6.01068                      -0.60293                      89.06995
                      -5.72108                      -0.64414                      88.85321
                      -5.38574                      -0.66790                      88.71349
                      -5.02573                      -0.67273                      88.65957
                      -4.66367                      -0.65832                      88.69482
                      -4.32231                      -0.62558                      88.81705
                      -4.02309                      -0.57656                      89.01856
                      -3.78482                      -0.51434                      89.28670
                      -3.62248                      -0.44284                      89.60462
                      -3.58196                      -0.48872                      89.98196
                      -3.59626                      -0.41442                      90.32829
                      -3.69819                      -0.34480                      90.66060
                      -3.88133                      -0.28422                      90.95802
                      -4.13418                      -0.23648                      91.20185
                      -4.44086                      -0.20460                      91.37678
                      -4.78210                      -0.19057                      91.47181
                      -5.13644                      -0.19527                      91.48097
                      -5.48164                      -0.21841                      91.40369
                      -5.79599                      -0.25854                      91.24482
                      -6.05975                      -0.31312                      91.01434
                      -6.25634                      -0.37874                      90.72675
                      -6.37342                      -0.45128                      90.40010
                      -6.40362                      -0.52616                      90.05492
                      -6.34504                      -0.59869                      89.71290
                      -6.20138                      -0.66431                      89.39553
                      -5.98165                      -0.71890                      89.12276
                      -5.69966                      -0.75902                      88.91172
                      -5.37313                      -0.78216                      88.77567
                      -5.02257                      -0.78687                      88.72316
                      -4.67002                      -0.77283                      88.75749
                      -4.33763                      -0.74095                      88.87650
                      -4.04627                      -0.69322                      89.07272
                      -3.81427                      -0.63264                      89.33382
                      -3.65619                      -0.56301                      89.64338
                      -3.63009                      -0.61090                      90.01268
                      -3.64388                      -0.53926                      90.34661
                      -3.74216                      -0.47213                      90.66703
                      -3.91874                      -0.41372                      90.95380
                      -4.16255                      -0.36769                      91.18890
                      -4.45825                      -0.33695                      91.35756
                      -4.78727                      -0.32342                      91.44919
                      -5.12893                      -0.32795                      91.45802
                      -5.46177                      -0.35027                      91.38351
                      -5.76487                      -0.38895                      91.23033
                      -6.01918                      -0.44159                      91.00810
                      -6.20874                      -0.50486                      90.73080
                      -6.32162                      -0.57479                      90.41584
                      -6.35074                      -0.64700                      90.08302
                      -6.29426                      -0.71693                      89.75325
                      -6.15574                      -0.78020                      89.44724
                      -5.94388                      -0.83284                      89.18423
                      -5.67198                      -0.87153                      88.98075
                      -5.35714                      -0.89384                      88.84957
                      -5.01913                      -0.89837                      88.79894
                      -4.67920                      -0.88484                      88.83204
                      -4.35871                      -0.85410                      88.94679
                      -4.07778                      -0.80808                      89.13599
                      -3.85408                      -0.74966                      89.38773
                      -3.70166                      -0.68253                      89.68622
                      -3.69210                      -0.73308                      90.04461
                      -3.70523                      -0.66483                      90.36273
                      -3.79886                      -0.60088                      90.66798
                      -3.96708                      -0.54523                      90.94118
                      -4.19935                      -0.50139                      91.16515
                      -4.48105                      -0.47210                      91.32583
                      -4.79449                      -0.45921                      91.41312
                      -5.11998                      -0.46353                      91.42153
                      -5.43706                      -0.48478                      91.35055
                      -5.72581                      -0.52164                      91.20461
                      -5.96809                      -0.57178                      90.99291
                      -6.14867                      -0.63206                      90.72874
                      -6.25621                      -0.69868                      90.42869
                      -6.28395                      -0.76747                      90.11162
                      -6.23015                      -0.83409                      89.79746
                      -6.09818                      -0.89437                      89.50594
                      -5.89635                      -0.94451                      89.25538
                      -5.63732                      -0.98137                      89.06153
                      -5.33739                      -1.00262                      88.93656
                      -5.01538                      -1.00694                      88.88832
                      -4.69154                      -0.99405                      88.91986
                      -4.38622                      -0.96477                      89.02918
                      -4.11859                      -0.92092                      89.20942
                      -3.90548                      -0.86527                      89.44925
                      -3.76028                      -0.80132                      89.73360
                      -3.77018                      -0.85526                      90.07795
                      -3.78250                      -0.79125                      90.37631
                      -3.87031                      -0.73127                      90.66260
                      -4.02808                      -0.67908                      90.91882
                      -4.24592                      -0.63796                      91.12888
                      -4.51012                      -0.61049                      91.27958
                      -4.80410                      -0.59840                      91.36145
                      -5.10937                      -0.60245                      91.36934
                      -5.40675                      -0.62239                      91.30277
                      -5.67757                      -0.65695                      91.16590
                      -5.90480                      -0.70398                      90.96735
                      -6.07417                      -0.76051                      90.71958
                      -6.17503                      -0.82300                      90.43817
                      -6.20104                      -0.88751                      90.14080
                      -6.15058                      -0.95000                      89.84615
                      -6.02681                      -1.00653                      89.57274
                      -5.83751                      -1.05356                      89.33774
                      -5.59458                      -1.08812                      89.15593
                      -5.31327                      -1.10806                      89.03872
                      -5.01127                      -1.11211                      88.99348
                      -4.70754                      -1.10002                      89.02306
                      -4.42118                      -1.07255                      89.12559
                      -4.17018                      -1.03143                      89.29463
                      -3.97031                      -0.97924                      89.51957
                      -3.83412                      -0.91926                      89.78626
                      -3.86781                      -0.97743                      90.11300
                      -3.87912                      -0.91870                      90.38679
                      -3.95969                      -0.86366                      90.64951
                      -4.10448                      -0.81576                      90.88464
                      -4.30438                      -0.77803                      91.07740
                      -4.54683                      -0.75282                      91.21569
                      -4.81660                      -0.74173                      91.29082
                      -5.09673                      -0.74544                      91.29806
                      -5.36963                      -0.76374                      91.23696
                      -5.61815                      -0.79546                      91.11137
                      -5.82667                      -0.83862                      90.92916
                      -5.98209                      -0.89049                      90.70180
                      -6.07465                      -0.94783                      90.44356
                      -6.09852                      -1.00703                      90.17067
                      -6.05222                      -1.06438                      89.90028
                      -5.93864                      -1.11625                      89.64938
                      -5.76493                      -1.15941                      89.43374
                      -5.54199                      -1.19113                      89.26689
                      -5.28385                      -1.20942                      89.15933
                      -5.00671                      -1.21314                      89.11782
                      -4.72800                      -1.20205                      89.14496
                      -4.46521                      -1.17684                      89.23905
                      -4.23488                      -1.13911                      89.39418
                      -4.05146                      -1.09121                      89.60059
                      -3.92649                      -1.03617                      89.84532
                      -3.99091                      -1.09961                      90.15027
                      -4.00094                      -1.04749                      90.39324
                      -4.07245                      -0.99865                      90.62638
                      -4.20093                      -0.95614                      90.83503
                      -4.37832                      -0.92266                      91.00610
                      -4.59348                      -0.90029                      91.12882
                      -4.83287                      -0.89044                      91.19549
                      -5.08147                      -0.89374                      91.20191
                      -5.32364                      -0.90998                      91.14769
                      -5.54418                      -0.93813                      91.03624
                      -5.72923                      -0.97642                      90.87455
                      -5.86715                      -1.02246                      90.67278
                      -5.94928                      -1.07335                      90.44362
                      -5.97047                      -1.12588                      90.20145
                      -5.92938                      -1.17677                      89.96151
                      -5.82859                      -1.22280                      89.73885
                      -5.67443                      -1.26110                      89.54749
                      -5.47660                      -1.28925                      89.39943
                      -5.24752                      -1.30548                      89.30398
                      -5.00158                      -1.30878                      89.26714
                      -4.75425                      -1.29894                      89.29123
                      -4.52105                      -1.27657                      89.37472
                      -4.31665                      -1.24308                      89.51238
                      -4.15388                      -1.20058                      89.69556
                      -4.04298                      -1.15173                      89.91273
                      -4.15099                      -1.22179                      90.19078
                      -4.15937                      -1.17823                      90.39384
                      -4.21913                      -1.13741                      90.58867
                      -4.32651                      -1.10189                      90.76305
                      -4.47475                      -1.07391                      90.90600
                      -4.65456                      -1.05521                      91.00856
                      -4.85463                      -1.04699                      91.06428
                      -5.06238                      -1.04974                      91.06965
                      -5.26477                      -1.06331                      91.02434
                      -5.44907                      -1.08684                      90.93119
                      -5.60372                      -1.11884                      90.79607
                      -5.71898                      -1.15732                      90.62745
                      -5.78762                      -1.19984                      90.43593
                      -5.80533                      -1.24375                      90.23355
                      -5.77099                      -1.28627                      90.03303
                      -5.68675                      -1.32474                      89.84696
                      -5.55793                      -1.35675                      89.68703
                      -5.39259                      -1.38027                      89.56329
                      -5.20115                      -1.39384                      89.48353
                      -4.99562                      -1.39660                      89.45274
                      -4.78892                      -1.38837                      89.47287
                      -4.59403                      -1.36968                      89.54265
                      -4.42321                      -1.34169                      89.65769
                      -4.28719                      -1.30617                      89.81077
                      -4.19450                      -1.26535                      89.99227
                      -4.37749                      -1.34397                      90.23710
                      -4.38355                      -1.31248                      90.38391
                      -4.42675                      -1.28297                      90.52478
                      -4.50439                      -1.25729                      90.65085
                      -4.61157                      -1.23705                      90.75421
                      -4.74157                      -1.22354                      90.82836
                      -4.88622                      -1.21759                      90.86864
                      -5.03643                      -1.21958                      90.87253
                      -5.18275                      -1.22939                      90.83977
                      -5.31600                      -1.24640                      90.77242
                      -5.42781                      -1.26954                      90.67472
                      -5.51115                      -1.29736                      90.55281
                      -5.56077                      -1.32810                      90.41435
                      -5.57358                      -1.35984                      90.26803
                      -5.54875                      -1.39059                      90.12305
                      -5.48785                      -1.41841                      89.98852
                      -5.39470                      -1.44155                      89.87289
                      -5.27517                      -1.45855                      89.78343
                      -5.13675                      -1.46836                      89.72576
                      -4.98816                      -1.47036                      89.70350
                      -4.83871                      -1.46441                      89.71805
                      -4.69781                      -1.45089                      89.76850
                      -4.57431                      -1.43066                      89.85168
                      -4.47596                      -1.40498                      89.96236
                      -4.40895                      -1.37546                      90.09358
                      -4.97238                      -1.46615                      90.31566
                      -4.97238                      -1.46615                      90.31566
                      -4.97238                      -1.46615                      90.31566
                      -4.97238                      -1.46615                      90.31566
                      -4.97238                      -1.46615                      90.31566
                      -4.97238                      -1.46615                      90.31566
                      -4.97238                      -1.46615                      90.31566
                      -4.97238                      -1.46615                      90.31566
                      -4.97238                      -1.46615                      90.31566
                      -4.97238                      -1.46615                      90.31566
                      -4.97238                      -1.46615                      90.31566
                      -4.97238                      -1.46615                      90.31566
                      -4.97238                      -1.46615                      90.31566
                      -4.97238                      -1.46615                      90.31566
                      -4.97238                      -1.46615                      90.31566
                      -4.97238                      -1.46615                      90.31566
                      -4.97238                      -1.46615                      90.31566
                      -4.97238                      -1.46615                      90.31566
                      -4.97238                      -1.46615                      90.31566
                      -4.97238                      -1.46615                      90.31566
                      -4.97238                      -1.46615                      90.31566
                      -4.97238                      -1.46615                      90.31566
                      -4.97238                      -1.46615                      90.31566
                      -4.97238                      -1.46615                      90.31566
                      -4.97238                      -1.46615                      90.31566
        </DataArray>
      </Points>
      <Polys>
        <DataArray type="Int32" Name="connectivity" format="ascii">
      0      1     26     25
      1      2     27     26
      2      3     28     27
      3      4     29     28
      4      5     30     29
      5      6     31     30
      6      7     32     31
      7      8     33     32
      8      9     34     33
      9     10     35     34
     10     11     36     35
     11     12     37     36
     12     13     38     37
     13     14     39     38
     14     15     40     39
     15     16     41     40
     16     17     42     41
     17     18     43     42
     18     19     44     43
     19     20     45     44
     20     21     46     45
     21     22     47     46
     22     23     48     47
     23     24     49     48
     24      0     25     49
     25     26     51     50
     26     27     52     51
     27     28     53     52
     28     29     54     53
     29     30     55     54
     30     31     56     55
     31     32     57     56
     32     33     58     57
     33     34     59     58
     34     35     60     59
     35     36     61     60
     36     37     62     61
     37     38     63     62
     38     39     64     63
     39     40     65     64
     40     41     66     65
     41     42     67     66
     42     43     68     67
     43     44     69     68
     44     45     70     69
     45     46     71     70
     46     47     72     71
     47     48     73     72
     48     49     74     73
     49     25     50     74
     50     51     76     75
     51     52     77     76
     52     53     78     77
     53     54     79     78
     54     55     80     79
     55     56     81     80
     56     57     82     81
     57     58     83     82
     58     59     84     83
     59     60     85     84
     60     61     86     85
     61     62     87     86
     62     63     88     87
     63     64     89     88
     64     65     90     89
     65     66     91     90
     66     67     92     91
     67     68     93     92
     68     69     94     93
     69     70     95     94
     70     71     96     95
     71     72     97     96
     72     73     98     97
     73     74     99     98
     74     50     75     99
     75     76    101    100
     76     77    102    101
     77     78    103    102
     78     79    104    103
     79     80    105    104
     80     81    106    105
     81     82    107    106
     82     83    108    107
     83     84    109    108
     84     85    110    109
     85     86    111    110
     86     87    112    111
     87     88    113    112
     88     89    114    113
     89     90    115    114
     90     91    116    115
     91     92    117    116
     92     93    118    117
     93     94    119    118
     94     95    120    119
     95     96    121    120
     96     97    122    121
     97     98    123    122
     98     99    124    123
     99     75    100    124
    100    101    126    125
    101    102    127    126
    102    103    128    127
    103    104    129    128
    104    105    130    129
    105    106    131    130
    106    107    132    131
    107    108    133    132
    108    109    134    133
    109    110    135    134
    110    111    136    135
    111    112    137    136
    112    113    138    137
    113    114    139    138
    114    115    140    139
    115    116    141    140
    116    117    142    141
    117    118    143    142
    118    119    144    143
    119    120    145    144
    120    121    146    145
    121    122    147    146
    122    123    148    147
    123    124    149    148
    124    100    125    149
    125    126    151    150
    126    127    152    151
    127    128    153    152
    128    129    154    153
    129    130    155    154
    130    131    156    155
    131    132    157    156
    132    133    158    157
    133    134    159    158
    134    135    160    159
    135    136    161    160
    136    137    162    161
    137    138    163    162
    138    139    164    163
    139    140    165    164
    140    141    166    165
    141    142    167    166
    142    143    168    167
    143    144    169    168
    144    145    170    169
    145    146    171    170
    146    147    172    171
    147    148    173    172
    148    149    174    173
    149    125    150    174
    150    151    176    175
    151    152    177    176
    152    153    178    177
    153    154    179    178
    154    155    180    179
    155    156    181    180
    156    157    182    181
    157    158    183    182
    158    159    184    183
    159    160    185    184
    160    161    186    185
    161    162    187    186
    162    163    188    187
    163    164    189    188
    164    165    190    189
    165    166    191    190
    166    167    192    191
    167    168    193    192
    168    169    194    193
    169    170    195    194
    170    171    196    195
    171    172    197    196
    172    173    198    197
    173    174    199    198
    174    150    175    199
    175    176    201    200
    176    177    202    201
    177    178    203    202
    178    179    204    203
    179    180    205    204
    180    181    206    205
    181    182    207    206
    182    183    208    207
    183    184    209    208
    184    185    210    209
    185    186    211    210
    186    187    212    211
    187    188    213    212
    188    189    214    213
    189    190    215    214
    190    191    216    215
    191    192    217    216
    192    193    218    217
    193    194    219    218
    194    195    220    219
    195    196    221    220
    196    197    222    221
    197    198    223    222
    198    199    224    223
    199    175    200    224
    200    201    226    225
    201    202    227    226
    202    203    228    227
    203    204    229    228
    204    205    230    229
    205    206    231    230
    206    207    232    231
    207    208    233    232
    208    209    234    233
    209    210    235    234
    210    211    236    235
    211    212    237    236
    212    213    238    237
    213    214    239    238
    214    215    240    239
    215    216    241    240
    216    217    242    241
    217    218    243    242
    218    219    244    243
    219    220    245    244
    220    221    246    245
    221    222    247    246
    222    223    248    247
    223    224    249    248
    224    200    225    249
    225    226    251    250
    226    227    252    251
    227    228    253    252
    228    229    254    253
    229    230    255    254
    230    231    256    255
    231    232    257    256
    232    233    258    257
    233    234    259    258
    234    235    260    259
    235    236    261    260
    236    237    262    261
    237    238    263    262
    238    239    264    263
    239    240    265    264
    240    241    266    265
    241    242    267    266
    242    243    268    267
    243    244    269    268
    244    245    270    269
    245    246    271    270
    246    247    272    271
    247    248    273    272
    248    249    274    273
    249    225    250    274
    250    251    276    275
    251    252    277    276
    252    253    278    277
    253    254    279    278
    254    255    280    279
    255    256    281    280
    256    257    282    281
    257    258    283    282
    258    259    284    283
    259    260    285    284
    260    261    286    285
    261    262    287    286
    262    263    288    287
    263    264    289    288
    264    265    290    289
    265    266    291    290
    266    267    292    291
    267    268    293    292
    268    269    294    293
    269    270    295    294
    270    271    296    295
    271    272    297    296
    272    273    298    297
    273    274    299    298
    274    250    275    299
    275    276    301    300
    276    277    302    301
    277    278    303    302
    278    279    304    303
    279    280    305    304
    280    281    306    305
    281    282    307    306
    282    283    308    307
    283    284    309    308
    284    285    310    309
    285    286    311    310
    286    287    312    311
    287    288    313    312
    288    289    314    313
    289    290    315    314
    290    291    316    315
    291    292    317    316
    292    293    318    317
    293    294    319    318
    294    295    320    319
    295    296    321    320
    296    297    322    321
    297    298    323    322
    298    299    324    323
    299    275    300    324
    300    301    326    325
    301    302    327    326
    302    303    328    327
    303    304    329    328
    304    305    330    329
    305    306    331    330
    306    307    332    331
    307    308    333    332
    308    309    334    333
    309    310    335    334
    310    311    336    335
    311    312    337    336
    312    313    338    337
    313    314    339    338
    314    315    340    339
    315    316    341    340
    316    317    342    341
    317    318    343    342
    318    319    344    343
    319    320    345    344
    320    321    346    345
    321    322    347    346
    322    323    348    347
    323    324    349    348
    324    300    325    349
    325    326    351    350
    326    327    352    351
    327    328    353    352
    328    329    354    353
    329    330    355    354
    330    331    356    355
    331    332    357    356
    332    333    358    357
    333    334    359    358
    334    335    360    359
    335    336    361    360
    336    337    362    361
    337    338    363    362
    338    339    364    363
    339    340    365    364
    340    341    366    365
    341    342    367    366
    342    343    368    367
    343    344    369    368
    344    345    370    369
    345    346    371    370
    346    347    372    371
    347    348    373    372
    348    349    374    373
    349    325    350    374
    350    351    376    375
    351    352    377    376
    352    353    378    377
    353    354    379    378
    354    355    380    379
    355    356    381    380
    356    357    382    381
    357    358    383    382
    358    359    384    383
    359    360    385    384
    360    361    386    385
    361    362    387    386
    362    363    388    387
    363    364    389    388
    364    365    390    389
    365    366    391    390
    366    367    392    391
    367    368    393    392
    368    369    394    393
    369    370    395    394
    370    371    396    395
    371    372    397    396
    372    373    398    397
    373    374    399    398
    374    350    375    399
    375    376    401    400
    376    377    402    401
    377    378    403    402
    378    379    404    403
    379    380    405    404
    380    381    406    405
    381    382    407    406
    382    383    408    407
    383    384    409    408
    384    385    410    409
    385    386    411    410
    386    387    412    411
    387    388    413    412
    388    389    414    413
    389    390    415    414
    390    391    416    415
    391    392    417    416
    392    393    418    417
    393    394    419    418
    394    395    420    419
    395    396    421    420
    396    397    422    421
    397    398    423    422
    398    399    424    423
    399    375    400    424
    400    401    426    425
    401    402    427    426
    402    403    428    427
    403    404    429    428
    404    405    430    429
    405    406    431    430
    406    407    432    431
    407    408    433    432
    408    409    434    433
    409    410    435    434
    410    411    436    435
    411    412    437    436
    412    413    438    437
    413    414    439    438
    414    415    440    439
    415    416    441    440
    416    417    442    441
    417    418    443    442
    418    419    444    443
    419    420    445    444
    420    421    446    445
    421    422    447    446
    422    423    448    447
    423    424    449    448
    424    400    425    449
    425    426    451    450
    426    427    452    451
    427    428    453    452
    428    429    454    453
    429    430    455    454
    430    431    456    455
    431    432    457    456
    432    433    458    457
    433    434    459    458
    434    435    460    459
    435    436    461    460
    436    437    462    461
    437    438    463    462
    438    439    464    463
    439    440    465    464
    440    441    466    465
    441    442    467    466
    442    443    468    467
    443    444    469    468
    444    445    470    469
    445    446    471    470
    446    447    472    471
    447    448    473    472
    448    449    474    473
    449    425    450    474
    450    451    476    475
    451    452    477    476
    452    453    478    477
    453    454    479    478
    454    455    480    479
    455    456    481    480
    456    457    482    481
    457    458    483    482
    458    459    484    483
    459    460    485    484
    460    461    486    485
    461    462    487    486
    462    463    488    487
    463    464    489    488
    464    465    490    489
    465    466    491    490
    466    467    492    491
    467    468    493    492
    468    469    494    493
    469    470    495    494
    470    471    496    495
    471    472    497    496
    472    473    498    497
    473    474    499    498
    474    450    475    499
    475    476    501    500
    476    477    502    501
    477    478    503    502
    478    479    504    503
    479    480    505    504
    480    481    506    505
    481    482    507    506
    482    483    508    507
    483    484    509    508
    484    485    510    509
    485    486    511    510
    486    487    512    511
    487    488    513    512
    488    489    514    513
    489    490    515    514
    490    491    516    515
    491    492    517    516
    492    493    518    517
    493    494    519    518
    494    495    520    519
    495    496    521    520
    496    497    522    521
    497    498    523    522
    498    499    524    523
    499    475    500    524
    500    501    526    525
    501    502    527    526
    502    503    528    527
    503    504    529    528
    504    505    530    529
    505    506    531    530
    506    507    532    531
    507    508    533    532
    508    509    534    533
    509    510    535    534
    510    511    536    535
    511    512    537    536
    512    513    538    537
    513    514    539    538
    514    515    540    539
    515    516    541    540
    516    517    542    541
    517    518    543    542
    518    519    544    543
    519    520    545    544
    520    521    546    545
    521    522    547    546
    522    523    548    547
    523    524    549    548
    524    500    525    549
    525    526    551    550
    526    527    552    551
    527    528    553    552
    528    529    554    553
    529    530    555    554
    530    531    556    555
    531    532    557    556
    532    533    558    557
    533    534    559    558
    534    535    560    559
    535    536    561    560
    536    537    562    561
    537    538    563    562
    538    539    564    563
    539    540    565    564
    540    541    566    565
    541    542    567    566
    542    543    568    567
    543    544    569    568
    544    545    570    569
    545    546    571    570
    546    547    572    571
    547    548    573    572
    548    549    574    573
    549    525    550    574
    550    551    576    575
    551    552    577    576
    552    553    578    577
    553    554    579    578
    554    555    580    579
    555    556    581    580
    556    557    582    581
    557    558    583    582
    558    559    584    583
    559    560    585    584
    560    561    586    585
    561    562    587    586
    562    563    588    587
    563    564    589    588
    564    565    590    589
    565    566    591    590
    566    567    592    591
    567    568    593    592
    568    569    594    593
    569    570    595    594
    570    571    596    595
    571    572    597    596
    572    573    598    597
    573    574    599    598
    574    550    575    599
    575    576    601    600
    576    577    602    601
    577    578    603    602
    578    579    604    603
    579    580    605    604
    580    581    606    605
    581    582    607    606
    582    583    608    607
    583    584    609    608
    584    585    610    609
    585    586    611    610
    586    587    612    611
    587    588    613    612
    588    589    614    613
    589    590    615    614
    590    591    616    615
    591    592    617    616
    592    593    618    617
    593    594    619    618
    594    595    620    619
    595    596    621    620
    596    597    622    621
    597    598    623    622
    598    599    624    623
    599    575    600    624
        </DataArray>
        <DataArray type="Int32" Name="offsets" format="ascii">
      4
      8
     12
     16
     20
     24
     28
     32
     36
     40
     44
     48
     52
     56
     60
     64
     68
     72
     76
     80
     84
     88
     92
     96
    100
    104
    108
    112
    116
    120
    124
    128
    132
    136
    140
    144
    148
    152
    156
    160
    164
    168
    172
    176
    180
    184
    188
    192
    196
    200
    204
    208
    212
    216
    220
    224
    228
    232
    236
    240
    244
    248
    252
    256
    260
    264
    268
    272
    276
    280
    284
    288
    292
    296
    300
    304
    308
    312
    316
    320
    324
    328
    332
    336
    340
    344
    348
    352
    356
    360
    364
    368
    372
    376
    380
    384
    388
    392
    396
    400
    404
    408
    412
    416
    420
    424
    428
    432
    436
    440
    444
    448
    452
    456
    460
    464
    468
    472
    476
    480
    484
    488
    492
    496
    500
    504
    508
    512
    516
    520
    524
    528
    532
    536
    540
    544
    548
    552
    556
    560
    564
    568
    572
    576
    580
    584
    588
    592
    596
    600
    604
    608
    612
    616
    620
    624
    628
    632
    636
    640
    644
    648
    652
    656
    660
    664
    668
    672
    676
    680
    684
    688
    692
    696
    700
    704
    708
    712
    716
    720
    724
    728
    732
    736
    740
    744
    748
    752
    756
    760
    764
    768
    772
    776
    780
    784
    788
    792
    796
    800
    804
    808
    812
    816
    820
    824
    828
    832
    836
    840
    844
    848
    852
    856
    860
    864
    868
    872
    876
    880
    884
    888
    892
    896
    900
    904
    908
    912
    916
    920
    924
    928
    932
    936
    940
    944
    948
    952
    956
    960
    964
    968
    972
    976
    980
    984
    988
    992
    996
   1000
   1004
   1008
   1012
   1016
   1020
   1024
   1028
   1032
   1036
   1040
   1044
   1048
   1052
   1056
   1060
   1064
   1068
   1072
   1076
   1080
   1084
   1088
   1092
   1096
   1100
   1104
   1108
   1112
   1116
   1120
   1124
   1128
   1132
   1136
   1140
   1144
   1148
   1152
   1156
   1160
   1164
   1168
   1172
   1176
   1180
   1184
   1188
   1192
   1196
   1200
   1204
   1208
   1212
   1216
   1220
   1224
   1228
   1232
   1236
   1240
   1244
   1248
   1252
   1256
   1260
   1264
   1268
   1272
   1276
   1280
   1284
   1288
   1292
   1296
   1300
   1304
   1308
   1312
   1316
   1320
   1324
   1328
   1332
   1336
   1340
   1344
   1348
   1352
   1356
   1360
   1364
   1368
   1372
   1376
   1380
   1384
   1388
   1392
   1396
   1400
   1404
   1408
   1412
   1416
   1420
   1424
   1428
   1432
   1436
   1440
   1444
   1448
   1452
   1456
   1460
   1464
   1468
   1472
   1476
   1480
   1484
   1488
   1492
   1496
   1500
   1504
   1508
   1512
   1516
   1520
   1524
   1528
   1532
   1536
   1540
   1544
   1548
   1552
   1556
   1560
   1564
   1568
   1572
   1576
   1580
   1584
   1588
   1592
   1596
   1600
   1604
   1608
   1612
   1616
   1620
   1624
   1628
   1632
   1636
   1640
   1644
   1648
   1652
   1656
   1660
   1664
   1668
   1672
   1676
   1680
   1684
   1688
   1692
   1696
   1700
   1704
   1708
   1712
   1716
   1720
   1724
   1728
   1732
   1736
   1740
   1744
   1748
   1752
   1756
   1760
   1764
   1768
   1772
   1776
   1780
   1784
   1788
   1792
   1796
   1800
   1804
   1808
   1812
   1816
   1820
   1824
   1828
   1832
   1836
   1840
   1844
   1848
   1852
   1856
   1860
   1864
   1868
   1872
   1876
   1880
   1884
   1888
   1892
   1896
   1900
   1904
   1908
   1912
   1916
   1920
   1924
   1928
   1932
   1936
   1940
   1944
   1948
   1952
   1956
   1960
   1964
   1968
   1972
   1976
   1980
   1984
   1988
   1992
   1996
   2000
   2004
   2008
   2012
   2016
   2020
   2024
   2028
   2032
   2036
   2040
   2044
   2048
   2052
   2056
   2060
   2064
   2068
   2072
   2076
   2080
   2084
   2088
   2092
   2096
   2100
   2104
   2108
   2112
   2116
   2120
   2124
   2128
   2132
   2136
   2140
   2144
   2148
   2152
   2156
   2160
   2164
   2168
   2172
   2176
   2180
   2184
   2188
   2192
   2196
   2200
   2204
   2208
   2212
   2216
   2220
   2224
   2228
   2232
   2236
   2240
   2244
   2248
   2252
   2256
   2260
   2264
   2268
   2272
   2276
   2280
   2284
   2288
   2292
   2296
   2300
   2304
   2308
   2312
   2316
   2320
   2324
   2328
   2332
   2336
   2340
   2344
   2348
   2352
   2356
   2360
   2364
   2368
   2372
   2376
   2380
   2384
   2388
   2392
   2396
   2400
        </DataArray>
      </Polys>
    </Piece>
  </PolyData>
</VTKFile>
