<?xml version="1.0"?>
<VTKFile type="PolyData" version="0.1" byte_order="LittleEndian">
  <PolyData>
    <Piece NumberOfPoints="     19" NumberOfVerts="  0" NumberOfLines="     18"
           NumberOfStrips="  0" NumberOfPolys="      0">
      <Points>
        <DataArray type="Float32" NumberOfComponents="3" format="ascii">
                      -4.96073                      -0.89977                      91.19953
                      -4.92595                      -1.72232                      92.29044
                      -4.88370                      -3.44248                      94.41673
                      -4.85438                      -5.19822                      96.51675
                      -4.82546                      -7.41418                      99.12615
                      -4.73045                      -9.96029                     102.34021
                      -4.60461                     -12.40304                     105.63078
                      -4.48093                     -14.84367                     108.92302
                      -4.35689                     -17.28080                     112.21787
                      -4.23344                     -19.71594                     115.51424
                      -4.11209                     -22.15196                     118.81001
                      -3.99204                     -24.58771                     122.10603
                      -3.87393                     -27.02316                     125.40233
                      -3.75849                     -29.45834                     128.69893
                      -3.64398                     -31.89341                     131.99563
                      -3.54918                     -33.92259                     134.74299
                      -3.47348                     -35.53956                     136.94558
                      -3.39621                     -37.11249                     139.18116
                      -3.36044                     -37.93225                     140.27401
        </DataArray>
      </Points>
      <PointData>
        <DataArray type="Float32" Name="TranslationalVelocity" NumberOfComponents="3" format="ascii">
                      -0.04106                      -0.62747                      -0.46933
                      -0.07860                      -1.19809                      -0.89837
                      -0.15710                      -2.30910                      -1.79562
                      -0.23722                      -3.40582                      -2.71142
                      -0.33834                      -4.76822                      -3.86728
                      -0.45453                      -6.44903                      -5.19535
                      -0.56601                      -8.17116                      -6.46950
                      -0.67739                      -9.89405                      -7.74255
                      -0.78860                     -11.61833                      -9.01378
                      -0.89973                     -13.34337                     -10.28396
                      -1.01090                     -15.06800                     -11.55460
                      -1.12205                     -16.79270                     -12.82510
                      -1.23319                     -18.51747                     -14.09545
                      -1.34432                     -20.24226                     -15.36566
                      -1.45544                     -21.96707                     -16.63581
                      -1.54805                     -23.40443                     -17.69424
                      -1.62184                     -24.55677                     -18.53766
                      -1.69362                     -25.72639                     -19.35811
                      -1.73102                     -26.29806                     -19.78570
        </DataArray>
        <DataArray type="Float32" Name="RotationalVelocity" NumberOfComponents="3" format="ascii">
                       0.52161                      -0.00000                      -0.04563
                       0.52161                      -0.00000                      -0.04563
                       0.52161                      -0.00000                      -0.04563
                       0.52161                      -0.00000                      -0.04563
                       0.52161                      -0.00000                      -0.04563
                       0.52161                      -0.00000                      -0.04563
                       0.52161                      -0.00000                      -0.04563
                       0.52161                      -0.00000                      -0.04563
                       0.52161                      -0.00000                      -0.04563
                       0.52161                      -0.00000                      -0.04563
                       0.52161                      -0.00000                      -0.04563
                       0.52161                      -0.00000                      -0.04563
                       0.52161                      -0.00000                      -0.04563
                       0.52161                      -0.00000                      -0.04563
                       0.52161                      -0.00000                      -0.04563
                       0.52161                      -0.00000                      -0.04563
                       0.52161                      -0.00000                      -0.04563
                       0.52161                      -0.00000                      -0.04563
                       0.52161                      -0.00000                      -0.04563
        </DataArray>
        <DataArray type="Float32" Name="TranslationalAcceleration" NumberOfComponents="3" format="ascii">
                      -0.02863                       0.24668                      -0.32729
                      -0.05467                       0.47218                      -0.62493
                      -0.10537                       0.94378                      -1.20444
                      -0.15542                       1.42512                      -1.77650
                      -0.21760                       2.03264                      -2.48713
                      -0.29430                       2.73067                      -3.36386
                      -0.37289                       3.40036                      -4.26213
                      -0.45151                       4.06948                      -5.16080
                      -0.53020                       4.73763                      -6.06019
                      -0.60892                       5.40524                      -6.95999
                      -0.68762                       6.07309                      -7.85956
                      -0.76633                       6.74086                      -8.75918
                      -0.84504                       7.40855                      -9.65883
                      -0.92375                       8.07617                     -10.55849
                      -1.00246                       8.74376                     -11.45816
                      -1.06805                       9.30007                     -12.20790
                      -1.12064                       9.74337                     -12.80897
                      -1.17401                      10.17460                     -13.41905
                      -1.20010                      10.39934                     -13.71723
        </DataArray>
        <DataArray type="Float32" Name="OrientationX" NumberOfComponents="3" format="ascii">
                       0.99829                      -0.02619                      -0.05232
                       0.99829                      -0.02619                      -0.05232
                       0.99829                      -0.02619                      -0.05232
                       0.99829                      -0.02619                      -0.05232
                       0.99829                      -0.02619                      -0.05232
                       0.99829                      -0.02619                      -0.05232
                       0.99829                      -0.02619                      -0.05232
                       0.99829                      -0.02619                      -0.05232
                       0.99829                      -0.02619                      -0.05232
                       0.99829                      -0.02619                      -0.05232
                       0.99829                      -0.02619                      -0.05232
                       0.99829                      -0.02619                      -0.05232
                       0.99829                      -0.02619                      -0.05232
                       0.99829                      -0.02619                      -0.05232
                       0.99829                      -0.02619                      -0.05232
                       0.99829                      -0.02619                      -0.05232
                       0.99829                      -0.02619                      -0.05232
                       0.99829                      -0.02619                      -0.05232
                       0.99829                      -0.02619                      -0.05232
        </DataArray>
        <DataArray type="Float32" Name="OrientationY" NumberOfComponents="3" format="ascii">
                       0.05233                       0.79968                       0.59814
                       0.05233                       0.79968                       0.59814
                       0.05233                       0.79968                       0.59814
                       0.05233                       0.79968                       0.59814
                       0.05233                       0.79968                       0.59814
                       0.05233                       0.79968                       0.59814
                       0.05233                       0.79968                       0.59814
                       0.05233                       0.79968                       0.59814
                       0.05233                       0.79968                       0.59814
                       0.05233                       0.79968                       0.59814
                       0.05233                       0.79968                       0.59814
                       0.05233                       0.79968                       0.59814
                       0.05233                       0.79968                       0.59814
                       0.05233                       0.79968                       0.59814
                       0.05233                       0.79968                       0.59814
                       0.05233                       0.79968                       0.59814
                       0.05233                       0.79968                       0.59814
                       0.05233                       0.79968                       0.59814
                       0.05233                       0.79968                       0.59814
        </DataArray>
        <DataArray type="Float32" Name="OrientationZ" NumberOfComponents="3" format="ascii">
                       0.02618                      -0.59985                       0.79969
                       0.02618                      -0.59985                       0.79969
                       0.02618                      -0.59985                       0.79969
                       0.02618                      -0.59985                       0.79969
                       0.02618                      -0.59985                       0.79969
                       0.02618                      -0.59985                       0.79969
                       0.02618                      -0.59985                       0.79969
                       0.02618                      -0.59985                       0.79969
                       0.02618                      -0.59985                       0.79969
                       0.02618                      -0.59985                       0.79969
                       0.02618                      -0.59985                       0.79969
                       0.02618                      -0.59985                       0.79969
                       0.02618                      -0.59985                       0.79969
                       0.02618                      -0.59985                       0.79969
                       0.02618                      -0.59985                       0.79969
                       0.02618                      -0.59985                       0.79969
                       0.02618                      -0.59985                       0.79969
                       0.02618                      -0.59985                       0.79969
                       0.02618                      -0.59985                       0.79969
        </DataArray>
        <DataArray type="Float32" Name="Force" NumberOfComponents="3" format="ascii">
                       0.11354                       1.73505                       1.29776
                     160.89066                      18.41635                       8.54753
                     182.52704                      37.69193                      22.29800
                     145.48602                      43.14666                      27.60215
                    1235.09599                    -134.48727                    -141.31011
                    1261.87536                    -122.51382                    -133.20537
                    1425.38969                    -139.01681                    -150.93694
                    1311.61943                    -115.25002                    -129.38510
                    1226.14871                     -89.34775                    -107.15779
                    1307.75117                     -96.86620                    -115.46865
                    1248.92442                     -71.53851                     -94.54453
                    1355.59384                    -108.12452                    -125.47970
                    1489.65995                    -195.54796                    -195.44517
                    1686.59212                    -253.12937                    -245.08384
                    1896.58015                    -312.83068                    -296.74004
                    2048.26362                    -356.84521                    -334.72091
                    2056.10398                    -362.54906                    -339.25605
                    1537.97114                    -270.85624                    -253.51583
                     434.36374                      -6.27393                     -18.92484
        </DataArray>
        <DataArray type="Float32" Name="Moment" NumberOfComponents="3" format="ascii">
                       0.00000                       0.00000                       0.00000
                       0.00000                       0.00000                       0.00000
                       0.00000                       0.00000                       0.00000
                       0.00000                       0.00000                       0.00000
                     -20.51516                     470.10034                    -626.71168
                     -22.81194                     522.73066                    -696.87551
                     -22.95035                     525.90217                    -701.10358
                     -23.62907                     541.45498                    -721.83772
                     -23.15568                     530.60725                    -707.37614
                     -22.30733                     511.16754                    -681.46019
                     -18.84797                     431.89705                    -575.78118
                     -17.52464                     401.57323                    -535.35514
                     -16.28823                     373.24131                    -497.58460
                     -14.82780                     339.77575                    -452.97017
                     -12.30725                     282.01801                    -375.97076
                     -10.77538                     246.91554                    -329.17409
                      -9.07310                     207.90801                    -277.17141
                      -4.35096                      99.70125                    -132.91617
                      -3.70498                      84.89873                    -113.18228
        </DataArray>
      </PointData>
      <Lines>
        <DataArray type="Int32" Name="connectivity" format="ascii">
      0      1
      1      2
      2      3
      3      4
      4      5
      5      6
      6      7
      7      8
      8      9
      9     10
     10     11
     11     12
     12     13
     13     14
     14     15
     15     16
     16     17
     17     18
        </DataArray>
        <DataArray type="Int32" Name="offsets" format="ascii">
      2
      4
      6
      8
     10
     12
     14
     16
     18
     20
     22
     24
     26
     28
     30
     32
     34
     36
        </DataArray>
      </Lines>
    </Piece>
  </PolyData>
</VTKFile>
